wiki_db,min,q1,q2,q3,max,year,iqr,whisker_min,whisker_max
kkwiki,0.13750671,0.13750671,0.13750671,0.13750671,0.13750671,2002,0.0,0.13750671,0.13750671
cswiki,0.070698,0.15559386,0.1661166,0.21123537,0.3131576,2002,0.055641517,0.072131634,0.29469758
ruwiki,0.0117459595,0.13772151,0.16482623,0.20927735,0.419,2002,0.07155584,0.030387819,0.31661105
bawiki,0.13037534,0.13037534,0.13037534,0.13037534,0.13037534,2002,0.0,0.13037534,0.13037534
etwiki,0.01675843,0.1118771,0.14920726,0.18323548,0.35953304,2002,0.07135838,0.01675843,0.29027298
nostalgiawiki,0.00395,0.12418553,0.16398242,0.21600798,0.59662575,2002,0.091822445,0.00395,0.35374156
rwwiki,0.13512696,0.13512696,0.13512696,0.13512696,0.13512696,2002,0.0,0.13512696,0.13512696
enwiki,0.0023844738,0.16099188,0.20978096,0.23654778,0.6893184,2002,0.075555906,0.047658093,0.34988156
ikwiki,0.13449398,0.13449398,0.13449398,0.13449398,0.13449398,2002,0.0,0.13449398,0.13449398
nlwiki,0.008832469,0.17745498,0.20108825,0.2600329,0.7146569,2002,0.082577914,0.05358819,0.3838997
omwiki,0.2514452,0.2514452,0.2514452,0.2514452,0.2514452,2002,0.0,0.2514452,0.2514452
mswiki,0.19738378,0.19738378,0.19738378,0.19738378,0.19738378,2002,0.0,0.19738378,0.19738378
bswiki,0.047291704,0.057722926,0.2526244,0.4176056,0.48874807,2002,0.35988268,0.047291704,0.48874807
hawiki,0.12630586,0.12630586,0.12630586,0.12630586,0.12630586,2002,0.0,0.12630586,0.12630586
hiwiki,0.19326405,0.19326405,0.25698605,0.27151528,0.27151528,2002,0.07825123,0.19326405,0.27151528
jawiki,0.00929594,0.13016072,0.14887646,0.20913972,0.31060362,2002,0.078979,0.011692293,0.31060362
itwiki,0.014717869,0.17287752,0.21529809,0.21725188,0.45746765,2002,0.04437436,0.10631602,0.2838134
frrwiki,0.13514113,0.13514113,0.13514113,0.2797262,0.2797262,2002,0.14458507,0.13514113,0.2797262
eowiki,0.022691023,0.17358796,0.20026878,0.23824143,0.6592875,2002,0.06465347,0.076607816,0.3352216
bhwiki,0.32633048,0.32633048,0.32633048,0.32633048,0.32633048,2002,0.0,0.32633048,0.32633048
fywiki,0.10934652,0.1477007,0.21921818,0.24789713,0.41080654,2002,0.100196436,0.10934652,0.3981917
ptwiki,0.0028682007,0.068115994,0.1148049,0.16951527,0.52665246,2002,0.10139927,0.0028682007,0.3216141
dawiki,0.015598815,0.14829372,0.17630243,0.22862059,0.6687701,2002,0.08032687,0.027803488,0.3491108
frwiki,0.011830292,0.14619337,0.16459055,0.19291028,0.571497,2002,0.046716914,0.076118045,0.26298562
zhwiki,0.014117227,0.122709975,0.14120348,0.27872106,0.49772915,2002,0.15601109,0.014117227,0.49772915
svwiki,0.0158,0.1715554,0.20017724,0.24760474,0.73414516,2002,0.07604934,0.05748146,0.3616787
viwiki,0.10078307,0.10078307,0.10078307,0.10078307,0.10078307,2002,0.0,0.10078307,0.10078307
euwiki,0.026497405,0.114686124,0.13909385,0.18421574,0.2827819,2002,0.069529615,0.026497405,0.2827819
dewiki,0.009953301,0.15397494,0.17823188,0.22022404,0.633,2002,0.0662491,0.05460134,0.31959763
test2wiki,0.098491214,0.1271426,0.17044389,0.24781,0.38479266,2002,0.12066741,0.098491214,0.38479266
eswiki,0.006095435,0.13503164,0.15856464,0.19554283,0.5149587,2002,0.060511187,0.04426492,0.28630954
orwiki,0.1423602,0.1423602,0.1423602,0.1423602,0.1423602,2002,0.0,0.1423602,0.1423602
afwiki,0.019427111,0.13964641,0.16158457,0.18378326,0.23698705,2002,0.044136852,0.07344118,0.23698705
simplewiki,0.1440532,0.18663567,0.20930496,0.2616145,0.37627554,2002,0.07497883,0.1440532,0.37408268
lawiki,0.037264224,0.099542804,0.14087139,0.17451274,0.3486184,2002,0.07496994,0.037264224,0.28696758
newiki,0.13498358,0.13498358,0.13498358,0.13498358,0.13498358,2002,0.0,0.13498358,0.13498358
kuwiki,0.14256065,0.14256065,0.14256065,0.14256065,0.14256065,2002,0.0,0.14256065,0.14256065
trwiki,0.32552254,0.32552254,0.32552254,0.32552254,0.32552254,2002,0.0,0.32552254,0.32552254
gdwiki,0.19375429,0.19375429,0.19375429,0.23539403,0.23539403,2002,0.041639745,0.19375429,0.23539403
elwiki,0.02055035,0.15890513,0.18201348,0.20726527,0.5018484,2002,0.04836014,0.08636497,0.27980542
amwiki,0.027079836,0.027079836,0.027079836,0.027079836,0.027079836,2002,0.0,0.027079836,0.027079836
kmwiki,0.09938625,0.09938625,0.09938625,0.09938625,0.09938625,2002,0.0,0.09938625,0.09938625
pawiki,0.13334809,0.13334809,0.13334809,0.13334809,0.13334809,2002,0.0,0.13334809,0.13334809
nowiki,0.017519178,0.15096812,0.16652545,0.18485738,0.51,2002,0.033889264,0.10013425,0.23569125
mlwiki,0.05272863,0.06101629,0.13005725,0.15685421,0.26212522,2002,0.09583792,0.05272863,0.26212522
plwiki,0.012649173,0.15596212,0.18782108,0.21907388,0.5877083,2002,0.06311175,0.061294556,0.31374145
wuuwiki,0.13266493,0.13266493,0.13266493,0.1409192,0.1409192,2002,0.00825426,0.13266493,0.1409192
cawiki,0.003286299,0.03219902,0.040248778,0.046707086,0.28205407,2002,0.014508065,0.010436937,0.06846917
kowiki,0.12810066,0.13266493,0.16337742,0.2589228,0.41760248,2002,0.12625785,0.12810066,0.41760248
azwiki,0.13101257,0.13101257,0.13101257,0.13101257,0.13101257,2002,0.0,0.13101257,0.13101257
fjwiki,0.12514786,0.12514786,0.12514786,0.12514786,0.12514786,2002,0.0,0.12514786,0.12514786
fiwiki,0.11783456,0.11783456,0.13967487,0.14601582,0.19642994,2002,0.028181262,0.11783456,0.18828769
