wiki_db,min,q1,q2,q3,max,year,iqr,whisker_min,whisker_max
hrwiki,0.011577222,0.29013866,0.34802076,0.44113326,0.96412086,2010,0.1509946,0.06364691,0.667625
shnwiki,0.3360747,0.3360747,0.3360747,0.3360747,0.3360747,2010,0.0,0.3360747,0.3360747
brwiki,0.028208643,0.2712266,0.34259155,0.42976683,0.88216317,2010,0.15854022,0.033416435,0.667577
warwiki,0.017217651,0.2082957,0.21950588,0.23131949,0.89014506,2010,0.023023784,0.17376006,0.26585513
bmwiki,0.050275292,0.20844088,0.32291245,0.39162967,0.78555924,2010,0.18318878,0.050275292,0.66641265
kkwiki,0.013100668,0.2363621,0.34912905,0.45537513,0.97335577,2010,0.21901304,0.013100668,0.7838945
zh_yuewiki,0.017664937,0.2434307,0.3082796,0.366863,0.93442714,2010,0.12343231,0.05828236,0.5520114
cswiki,0.021335654,0.27455443,0.34031478,0.42965707,0.95644206,2010,0.15510264,0.04190062,0.6623109
igwiki,0.037863888,0.28955704,0.36150742,0.40224022,0.8820671,2010,0.11268318,0.12053238,0.57126486
mywiki,0.00395,0.2554617,0.36749473,0.4968833,0.98292744,2010,0.24142161,0.00395,0.85901546
pcdwiki,0.029559093,0.28625,0.35921508,0.4527458,0.8710327,2010,0.1664958,0.03650646,0.7024893
stqwiki,0.030340526,0.29180345,0.35354927,0.4370945,0.8873574,2010,0.14529106,0.07386699,0.65503097
ugwiki,0.012050163,0.1997539,0.31789362,0.38524076,0.6966838,2010,0.18548687,0.012050163,0.66347086
stwiki,0.0079,0.16228329,0.3134064,0.37376833,0.5349735,2010,0.21148504,0.0079,0.5349735
liwiki,0.036630794,0.293438,0.37710556,0.47646192,0.89031,2010,0.18302393,0.036630794,0.75099766
ruwiki,0.0110741975,0.27024356,0.34426305,0.43961406,0.99699557,2010,0.1693705,0.016187966,0.6936697
hakwiki,0.08911606,0.2944291,0.31684098,0.37445438,0.804169,2010,0.080025285,0.17439124,0.49449223
ckbwiki,0.030082304,0.24898611,0.35327637,0.4026874,0.9073113,2010,0.15370129,0.030082304,0.6332392
frpwiki,0.03599267,0.27823535,0.35312748,0.39547205,0.67771024,2010,0.1172367,0.10238041,0.571327
shwiki,0.033979185,0.31764334,0.40705007,0.52200276,0.9822801,2010,0.20435941,0.033979185,0.82854164
suwiki,0.043629177,0.31624776,0.34525025,0.36839497,0.919273,2010,0.05214721,0.238027,0.44661573
bawiki,0.09047773,0.2815106,0.342826,0.42146784,0.84275126,2010,0.13995725,0.09047773,0.63140357
kvwiki,0.013683202,0.24354252,0.30035362,0.3878086,0.80493104,2010,0.14426607,0.027143553,0.6042076
ukwiki,0.0129009085,0.24299867,0.3413142,0.42698547,0.9747674,2010,0.1839868,0.0129009085,0.7029655
etwiki,0.017664937,0.24613895,0.32299587,0.4085022,0.9481729,2010,0.16236325,0.017664937,0.6520469
azbwiki,0.20503414,0.22931439,0.4628151,0.49613208,0.62843734,2010,0.2668177,0.20503414,0.62843734
iowiki,0.060034804,0.27520338,0.3395914,0.37012646,0.83996123,2010,0.09492308,0.13281885,0.512511
tgwiki,0.030082304,0.24309155,0.3088825,0.35443258,0.88123417,2010,0.11134103,0.07608011,0.521444
kshwiki,0.06691724,0.3149414,0.3975722,0.44256845,0.8814508,2010,0.12762704,0.12350096,0.6340089
papwiki,0.019350968,0.28172195,0.35699376,0.3977453,0.7914195,2010,0.11602336,0.10768701,0.57178026
gorwiki,0.18158934,0.18158934,0.18158934,0.18158934,0.18158934,2010,0.0,0.18158934,0.18158934
arywiki,0.0364172,0.20965408,0.27175072,0.31905463,0.6100527,2010,0.109400555,0.045553356,0.48315537
nostalgiawiki,0.00395,0.12732618,0.16621342,0.21814588,0.5968669,2010,0.0908197,0.00395,0.35437536
cewiki,0.058454663,0.2905189,0.32276052,0.46923923,0.69309473,2010,0.17872033,0.058454663,0.69309473
tnwiki,0.060034804,0.236659,0.28906715,0.31465,0.5259976,2010,0.077990994,0.11967259,0.43163642
bugwiki,0.10080762,0.28188083,0.3357628,0.4042224,0.7947071,2010,0.12234157,0.10080762,0.58773464
fowiki,0.013100668,0.22839852,0.30936226,0.3702732,0.7973071,2010,0.14187469,0.0155866295,0.58308506
nnwiki,0.03969701,0.28851742,0.35909352,0.4462521,0.9634448,2010,0.15773469,0.051915526,0.682854
pdcwiki,0.03510837,0.21187061,0.2880905,0.3496563,0.8735376,2010,0.1377857,0.03510837,0.55633473
rwwiki,0.027079836,0.27569237,0.33787134,0.3912815,0.8093105,2010,0.11558911,0.10230881,0.5646651
tpiwiki,0.033283293,0.2912072,0.34440044,0.41191098,0.9293253,2010,0.12070379,0.11015163,0.59296656
chywiki,0.071516864,0.24150115,0.2841852,0.3262155,0.44384485,2010,0.08471435,0.1144297,0.44384485
enwiki,0.0023844738,0.24119796,0.31374225,0.41071272,0.9866509,2010,0.16951476,0.0023844738,0.6649847
dvwiki,0.016286267,0.19133271,0.27309346,0.3489931,0.8421434,2010,0.15766038,0.016286267,0.5854835
guwiki,0.0079,0.25274125,0.25731757,0.26878864,0.9652459,2010,0.016047388,0.22867018,0.2928597
ikwiki,0.044340525,0.26487714,0.3108909,0.3584426,0.58909094,2010,0.093565464,0.124529034,0.4987907
nds_nlwiki,0.11868424,0.26217666,0.34448624,0.41849345,0.8226379,2010,0.15631679,0.11868424,0.65296847
ocwiki,0.012490997,0.27472234,0.32780328,0.39081314,0.9269911,2010,0.116090804,0.100586236,0.5649493
krcwiki,0.046332143,0.31376612,0.3300799,0.4048175,0.8564954,2010,0.09105137,0.17718916,0.5413945
lmowiki,0.018527143,0.3312296,0.35366502,0.4045385,0.903499,2010,0.073308915,0.2212663,0.5145018
nlwiki,0.010450718,0.28107062,0.36822507,0.4659072,0.9779532,2010,0.18483657,0.010450718,0.74316186
omwiki,0.03620235,0.24505042,0.3440755,0.43097165,0.75787693,2010,0.18592124,0.03620235,0.7098533
sewiki,0.03351686,0.24158502,0.34151193,0.39787215,0.80695707,2010,0.15628713,0.03351686,0.6323027
idwiki,0.0117904,0.18286555,0.32033157,0.42791662,0.9807184,2010,0.24505107,0.0117904,0.795493
tetwiki,0.05073867,0.32618558,0.3628129,0.4913704,0.829487,2010,0.16518483,0.07840851,0.7391475
bclwiki,0.028483855,0.21053776,0.28843963,0.3462141,0.7564021,2010,0.13567632,0.028483855,0.54972845
vepwiki,0.055553623,0.29169348,0.33800283,0.44543028,0.70714074,2010,0.1537368,0.061088428,0.67603534
vlswiki,0.11935794,0.29696706,0.34524179,0.39830112,0.815476,2010,0.101334065,0.14496605,0.55030215
bjnwiki,0.05058468,0.29999462,0.3693821,0.4574796,0.9165726,2010,0.15748498,0.0637673,0.6937069
lijwiki,0.025598926,0.26684988,0.29951173,0.37393174,0.74159694,2010,0.10708186,0.10622719,0.5345544
mswiki,0.020901436,0.20376521,0.26971895,0.38509443,0.9630394,2010,0.18132922,0.020901436,0.6570881
xalwiki,0.020901436,0.24695984,0.33807328,0.3767019,0.79459405,2010,0.12974206,0.05234687,0.5713149
zawiki,0.10446548,0.3218019,0.36266157,0.40328592,0.58745474,2010,0.08148402,0.19957595,0.52551186
mrjwiki,0.032089952,0.23382497,0.31563762,0.39876106,0.7463879,2010,0.1649361,0.032089952,0.646165
zeawiki,0.017664937,0.34693122,0.39619324,0.46455523,0.775,2010,0.117624015,0.17049532,0.64099115
bat_smgwiki,0.110375,0.173352,0.23383495,0.29625306,0.85041094,2010,0.12290105,0.110375,0.48060453
sqwiki,0.024238918,0.23629436,0.31420183,0.381419,0.8981445,2010,0.14512464,0.024238918,0.59910583
srnwiki,0.02765,0.26516467,0.3798984,0.39925784,0.7795324,2010,0.13409317,0.06402506,0.60039747
chrwiki,0.020524802,0.29040757,0.5588231,0.71642286,0.923887,2010,0.4260153,0.020524802,0.923887
angwiki,0.01975,0.27886245,0.33994812,0.41909793,0.9047104,2010,0.14023548,0.068509355,0.62945104
barwiki,0.05380972,0.3248106,0.41487902,0.52282697,0.91954786,2010,0.19801638,0.05380972,0.81985134
bowiki,0.016049063,0.35028112,0.42540252,0.46539202,0.8062201,2010,0.115110904,0.17761487,0.6380583
rmywiki,0.032572534,0.31810465,0.35836434,0.4006394,0.7719729,2010,0.08253476,0.19430259,0.5244415
wowiki,0.01675843,0.26506615,0.35357612,0.43974543,0.8684266,2010,0.17467928,0.01675843,0.70176417
eewiki,0.1847216,0.36817873,0.39650825,0.43735868,0.7399015,2010,0.06917995,0.26440886,0.5411285
bswiki,0.015987514,0.2706106,0.32944426,0.3855737,0.9183882,2010,0.114963084,0.09816608,0.5580182
hifwiki,0.10285305,0.350048,0.42944905,0.50587827,0.91318893,2010,0.15583026,0.11630276,0.73962355
pamwiki,0.018527143,0.2908568,0.35455424,0.46070725,0.9177398,2010,0.16985044,0.036081314,0.7154827
srwiki,0.003099401,0.2699141,0.3290198,0.40917113,0.998,2010,0.13925704,0.06102866,0.61805654
yiwiki,0.023368515,0.24002782,0.30947205,0.38951442,0.8859465,2010,0.1494866,0.023368515,0.61374414
hsbwiki,0.033283293,0.32580367,0.40460753,0.4774561,0.88115066,2010,0.15165243,0.09832518,0.7049346
zh_classicalwiki,0.011172287,0.2258931,0.27578288,0.33071855,0.8080087,2010,0.10482545,0.068655014,0.48795664
hawiki,0.032633655,0.2540148,0.30003405,0.41613173,0.8242174,2010,0.16211694,0.032633655,0.659307
tiwiki,0.020524802,0.1256706,0.26859772,0.31746337,0.5846454,2010,0.19179277,0.020524802,0.5846454
gomwiki,0.03501079,0.15807056,0.22512722,0.30577263,0.81374437,2010,0.14770207,0.03501079,0.52732563
hiwiki,0.011567451,0.1787535,0.29126054,0.37645474,0.96100235,2010,0.19770125,0.011567451,0.6730064
inhwiki,0.07769184,0.07769184,0.19674778,0.2082957,0.2082957,2010,0.13060386,0.07769184,0.2082957
adywiki,0.0504172,0.1078073,0.17928755,0.268002,0.5416879,2010,0.1601947,0.0504172,0.50829387
jawiki,0.0043821484,0.25550237,0.31159982,0.38567454,0.9747144,2010,0.13017216,0.060244247,0.5809327
scnwiki,0.01675843,0.20722297,0.3048083,0.37345806,0.83413696,2010,0.16623509,0.01675843,0.62281054
tswiki,0.10168584,0.31123325,0.3619956,0.42175543,0.7467889,2010,0.11052218,0.14545009,0.5875386
bxrwiki,0.031373676,0.25192434,0.3778546,0.4349684,0.80530405,2010,0.18304408,0.031373676,0.70953435
kabwiki,0.018101174,0.24427707,0.28016323,0.3694782,0.75807947,2010,0.12520112,0.05647552,0.55727977
nywiki,0.019350968,0.2810301,0.34807828,0.40082413,0.7838524,2010,0.11979404,0.10133915,0.5805151
cvwiki,0.0212714,0.30029377,0.34295928,0.43304405,0.94007,2010,0.13275027,0.10116848,0.63216937
map_bmswiki,0.011172287,0.31552994,0.32096776,0.32928085,0.6758929,2010,0.013750911,0.29490358,0.34990722
tkwiki,0.015298285,0.30118674,0.3224696,0.33145437,0.7599944,2010,0.030267626,0.25578535,0.3768558
olowiki,0.043559093,0.19960268,0.25645512,0.34862915,0.4777133,2010,0.14902647,0.043559093,0.4777133
abwiki,0.059894852,0.1880483,0.2647772,0.34491727,0.80634445,2010,0.15686896,0.059894852,0.5802206
pswiki,0.009178891,0.15838,0.27022275,0.4251501,0.91663057,2010,0.2667701,0.009178891,0.825305
zuwiki,0.0316,0.249706,0.3208497,0.40754983,0.5534605,2010,0.15784383,0.0316,0.5534605
iswiki,0.020141127,0.26999816,0.32588625,0.40567145,0.9374268,2010,0.13567328,0.06648837,0.6091812
itwiki,0.0055628316,0.25186205,0.312005,0.40613592,0.97482437,2010,0.15427387,0.020451397,0.63754654
vowiki,0.05369701,0.26101205,0.279234,0.3807503,0.86490744,2010,0.11973825,0.08140479,0.5603576
frrwiki,0.07110449,0.3352137,0.42179167,0.48795438,0.9297911,2010,0.15274069,0.10610281,0.7170653
lvwiki,0.035119623,0.30749527,0.3889544,0.48454762,0.9455,2010,0.17705235,0.041916907,0.750126
nawiki,0.013100668,0.28411597,0.3762783,0.460967,0.72716904,2010,0.17685103,0.018839598,0.7262434
eowiki,0.040497407,0.29105452,0.3520073,0.42215616,0.9574357,2010,0.13110164,0.09440218,0.6188085
cowiki,0.0055861436,0.2810806,0.3386823,0.39056498,0.8522921,2010,0.109484375,0.116854146,0.55479145
rmwiki,0.055471685,0.18779062,0.22824152,0.27525267,0.8638032,2010,0.08746205,0.05659762,0.40644568
huwiki,0.014741473,0.30143872,0.37687668,0.45761353,0.97872305,2010,0.15617481,0.067176655,0.6918756
bpywiki,0.025598926,0.35227665,0.374461,0.40823758,0.7498173,2010,0.055960923,0.2683353,0.49217892
nvwiki,0.022691023,0.25934735,0.3211685,0.38669875,0.85598963,2010,0.1273514,0.068320364,0.57772577
tawiki,0.0054334104,0.26532513,0.35367432,0.4745896,0.982979,2010,0.20926446,0.0054334104,0.78848606
cdowiki,0.10702789,0.2476316,0.3699791,0.45292646,0.6637965,2010,0.20529486,0.10702789,0.6637965
jvwiki,0.021992669,0.2572324,0.2953332,0.35499436,0.96217114,2010,0.09776196,0.11058955,0.5016372
bhwiki,0.013100668,0.14159898,0.21938936,0.43589005,0.9284099,2010,0.29429108,0.013100668,0.87732637
htwiki,0.017217651,0.23906486,0.29992,0.36220965,0.7791188,2010,0.12314479,0.054347783,0.54692674
pagwiki,0.013100668,0.0535,0.054859117,0.16265129,0.7191606,2010,0.10915129,0.013100668,0.3263781
crwiki,0.16167106,0.2693957,0.3220595,0.37655047,0.5302526,2010,0.10715476,0.16167106,0.5302526
mdfwiki,0.03252714,0.22789629,0.32598665,0.42266926,0.7146826,2010,0.19477297,0.03252714,0.7146826
mznwiki,0.017664937,0.17592359,0.28452998,0.30996865,0.92646754,2010,0.13404506,0.017664937,0.5110361
pntwiki,0.13398972,0.38857952,0.47572258,0.4835228,0.826896,2010,0.094943285,0.24616468,0.62593764
fywiki,0.036563512,0.22542527,0.31845495,0.38491297,0.8930578,2010,0.1594877,0.036563512,0.6241444
lnwiki,0.108625755,0.23714507,0.3239556,0.38553384,0.7188843,2010,0.14838877,0.108625755,0.60811687
alswiki,0.010011548,0.31943682,0.401338,0.4939587,0.9104364,2010,0.1745219,0.057654142,0.75574136
sawiki,0.010974634,0.14652224,0.36165679,0.36534283,0.6699754,2010,0.21882059,0.010974634,0.6699754
bnwiki,0.008869495,0.26715058,0.3142113,0.37700674,0.9204218,2010,0.10985616,0.10236645,0.54179084
hywiki,0.026877528,0.28540704,0.32549718,0.3855167,0.90876204,2010,0.10010967,0.13524263,0.5356811
ltwiki,0.01975,0.23400219,0.34323367,0.4300766,0.95901144,2010,0.19607441,0.01975,0.724188
arzwiki,0.011172287,0.2727767,0.3447389,0.4111884,0.89496535,2010,0.1384117,0.065159276,0.6188058
gotwiki,0.09347406,0.22503427,0.2853175,0.33545354,0.6236335,2010,0.11041927,0.09347406,0.50108236
iewiki,0.03184592,0.25268367,0.32783845,0.38654286,0.77118236,2010,0.13385919,0.051895022,0.58733153
kgwiki,0.014779546,0.25677007,0.3289638,0.38623857,0.7747102,2010,0.1294685,0.06256744,0.58044124
hywwiki,0.12863256,0.22064365,0.31228608,0.40813264,0.58502436,2010,0.18748899,0.12863256,0.58502436
mwlwiki,0.057343043,0.2900408,0.39643538,0.58427453,0.95648265,2010,0.29423374,0.057343043,0.95648265
awawiki,0.37416634,0.37416634,0.37416634,0.37416634,0.37416634,2010,0.0,0.37416634,0.37416634
glkwiki,0.017664937,0.16212347,0.1714134,0.2447211,0.8189229,2010,0.08259763,0.03822711,0.36861748
siwiki,0.008530223,0.13798238,0.20254336,0.3534593,0.9771295,2010,0.21547692,0.008530223,0.6766745
nrmwiki,0.12187983,0.36337084,0.406586,0.46914527,0.74696195,2010,0.10577443,0.20470929,0.6278068
ptwiki,0.0049678693,0.23976375,0.29725984,0.3790615,0.9843169,2010,0.13929774,0.03081727,0.588008
dawiki,0.01039921,0.2642638,0.32531372,0.40571833,0.96246207,2010,0.14145452,0.052082166,0.61789995
gagwiki,0.0212714,0.26678687,0.3735518,0.52103156,0.70405746,2010,0.2542447,0.0212714,0.70405746
bewiki,0.09516008,0.26399556,0.34487,0.40470213,0.9381326,2010,0.14070657,0.09516008,0.6157619
ffwiki,0.041989077,0.26848936,0.29310337,0.44657433,0.625326,2010,0.17808497,0.041989077,0.625326
lowiki,0.0158,0.20154016,0.32119727,0.3960935,0.8542176,2010,0.19455333,0.0158,0.6879233
scowiki,0.017217651,0.271014,0.35264853,0.4327859,0.9204968,2010,0.1617719,0.028356314,0.6754436
slwiki,0.010111957,0.25349593,0.33210668,0.39828473,0.94144595,2010,0.1447888,0.036312863,0.6154678
fawiki,0.0079,0.3097283,0.38145626,0.43448406,0.9707748,2010,0.12475577,0.12259476,0.6216176
nsowiki,0.054088123,0.19373354,0.20983455,0.28699666,0.60597706,2010,0.09326312,0.054088123,0.42689127
pflwiki,0.10641601,0.30312395,0.37958917,0.48597676,0.8426251,2010,0.1828528,0.10641601,0.7602558
diqwiki,0.019350968,0.22959243,0.2675973,0.39553732,0.73529255,2010,0.16594489,0.019350968,0.6444545
tumwiki,0.23984347,0.28526232,0.33316043,0.40700826,0.70942676,2010,0.121745944,0.23984347,0.589627
acewiki,0.043629177,0.22347026,0.26462945,0.34108964,0.83477086,2010,0.11761938,0.047041297,0.5175186
frwiki,0.0051631625,0.24698035,0.31624472,0.40297726,0.97787243,2010,0.1559969,0.01298514,0.6369725
anwiki,0.07093763,0.30882636,0.3875517,0.46413973,0.9620529,2010,0.15531337,0.07585645,0.69710964
kawiki,0.056734722,0.279658,0.34984392,0.42462322,0.962155,2010,0.14496523,0.062210277,0.64207095
zhwiki,0.0049911933,0.2387829,0.30636713,0.40438163,0.9890074,2010,0.16559874,0.0049911933,0.6527796
kbpwiki,0.5306436,0.5306436,0.5306436,0.5306436,0.5306436,2010,0.0,0.5306436,0.5306436
mtwiki,0.043050822,0.26800025,0.3220322,0.40506223,0.94258827,2010,0.13706198,0.062407404,0.61065507
yowiki,0.08219418,0.2264677,0.2708526,0.36087692,0.8747668,2010,0.13440922,0.08219418,0.5624906
miwiki,0.031102331,0.2145829,0.28005645,0.33832267,0.7567336,2010,0.123739764,0.031102331,0.5239322
svwiki,0.0079,0.28419536,0.35839403,0.44670284,0.989538,2010,0.16250747,0.0404343,0.6904639
viwiki,0.024981994,0.30043808,0.36879286,0.46084625,0.998,2010,0.16040817,0.05982597,0.70145833
euwiki,0.056140047,0.28782162,0.3329555,0.3984313,0.9820131,2010,0.11060968,0.121907204,0.5643457
lgwiki,0.18855397,0.25403482,0.27668986,0.41581452,0.62802726,2010,0.1617797,0.18855397,0.62802726
novwiki,0.043629177,0.34053716,0.41451678,0.4965795,0.8252214,2010,0.15604234,0.1064738,0.73064286
klwiki,0.014241927,0.28053856,0.3348169,0.39362326,0.6265906,2010,0.1130847,0.11091161,0.5632502
sgwiki,0.13966775,0.28331763,0.39876044,0.4892174,0.6267799,2010,0.20589978,0.13966775,0.6267799
astwiki,0.03418622,0.233846,0.28877854,0.32742295,0.9074101,2010,0.09357695,0.09348065,0.46778828
kbdwiki,0.19122632,0.49097574,0.5608236,0.66344213,0.80463177,2010,0.1724664,0.23227632,0.80463177
vecwiki,0.026790204,0.34376112,0.3616578,0.4523535,0.9149368,2010,0.10859239,0.18087263,0.615242
vewiki,0.02765,0.1587389,0.2102395,0.30613455,0.5797708,2010,0.14739566,0.02765,0.5272279
dewiki,0.0028732705,0.2659188,0.35007277,0.43960866,0.97897047,2010,0.17368987,0.005384147,0.70014334
jbowiki,0.035329875,0.3197077,0.39769748,0.46042025,0.7140124,2010,0.14071256,0.10863899,0.67148894
wawiki,0.011172287,0.21928695,0.30150983,0.37555054,0.76430845,2010,0.15626359,0.011172287,0.6099458
test2wiki,0.025211178,0.23850541,0.3006997,0.38310862,0.8321582,2010,0.14460321,0.025211178,0.60001326
eswiki,0.0027259616,0.27963242,0.34174997,0.428409,0.9888099,2010,0.14877659,0.056467682,0.6515738
fiu_vrowiki,0.10367713,0.17716384,0.2456489,0.36319795,0.61391854,2010,0.18603411,0.10367713,0.61391854
arwiki,0.0065178587,0.22735862,0.31195292,0.4126961,0.9863176,2010,0.18533747,0.0065178587,0.6907021
kswiki,0.2361799,0.27272677,0.2995833,0.4662795,0.7149959,2010,0.19355273,0.2361799,0.7149959
orwiki,0.013100668,0.35084385,0.36471012,0.36568525,0.72609186,2010,0.014841408,0.32858175,0.38794735
piwiki,0.013100668,0.424,0.4266927,0.4348827,0.72328913,2010,0.010882705,0.40767595,0.45120674
thwiki,0.0125535205,0.26418906,0.32867733,0.41186786,0.9740373,2010,0.14767879,0.04267101,0.6333859
pihwiki,0.11398205,0.32435,0.36549696,0.40965512,0.66470796,2010,0.085305125,0.19639239,0.53761274
scwiki,0.036843147,0.23422256,0.3057822,0.3749807,0.7755535,2010,0.14075813,0.036843147,0.58611774
mkwiki,0.018284937,0.24108014,0.29647332,0.3627078,0.9547621,2010,0.12162766,0.058638766,0.54514915
skwiki,0.013332546,0.24302511,0.32269147,0.40632054,0.97918737,2010,0.16329543,0.013332546,0.65126354
ladwiki,0.05225359,0.31687218,0.3813985,0.4734112,0.9030574,2010,0.15653902,0.082063794,0.7082196
ltgwiki,0.068446994,0.20946762,0.2843608,0.40676638,0.76913714,2010,0.19729877,0.068446994,0.7027143
lldwiki,0.022691023,0.15410301,0.2705259,0.38402873,0.58959836,2010,0.22992572,0.022691023,0.58959836
afwiki,0.010384228,0.3217588,0.37377882,0.47531596,0.9466306,2010,0.15355715,0.09142323,0.7056515
gnwiki,0.04165,0.28297135,0.33223298,0.40326115,0.71104896,2010,0.1202898,0.10253677,0.58369577
mrwiki,0.00395,0.18061402,0.25952768,0.3753124,0.9308246,2010,0.19469836,0.00395,0.6673597
simplewiki,0.0055861436,0.24756339,0.33279222,0.43312114,0.9636186,2010,0.18555775,0.0055861436,0.7114576
sdwiki,0.024349436,0.1599607,0.25171408,0.33692294,0.854846,2010,0.17696224,0.024349436,0.60236615
jamwiki,0.05580287,0.24795091,0.3343514,0.4034064,0.638,2010,0.1554555,0.05580287,0.6365895
kiwiki,0.03351686,0.26041296,0.3072978,0.3869071,0.5657859,2010,0.12649414,0.07067187,0.5657859
ttwiki,0.07338152,0.32880238,0.36443773,0.47331434,0.88781285,2010,0.14451197,0.11203456,0.6900822
tywiki,0.10054016,0.20507912,0.3043638,0.34862095,0.8232711,2010,0.14354183,0.10054016,0.56393355
biwiki,0.03466111,0.3001286,0.40347275,0.4795387,0.6341294,2010,0.1794101,0.03466111,0.6341294
bgwiki,0.012599633,0.29987323,0.35508063,0.44803312,0.94042134,2010,0.14815989,0.07763353,0.6702728
lawiki,0.06135,0.31763452,0.37383622,0.42661932,0.93039984,2010,0.1089848,0.15415743,0.5900964
kywiki,0.02163504,0.1757981,0.25406408,0.35116914,0.8176466,2010,0.17537104,0.02163504,0.6142255
dsbwiki,0.055017132,0.33164844,0.44225118,0.5174152,0.84260404,2010,0.18576679,0.055017132,0.7960652
cebwiki,0.022344574,0.25110307,0.25624865,0.26345882,0.9221555,2010,0.012355745,0.23256947,0.28199244
udmwiki,0.05696771,0.26524758,0.35183987,0.41906428,0.74798703,2010,0.1538167,0.05696771,0.6497892
newiki,0.006841601,0.17344053,0.23129414,0.3017498,0.9246029,2010,0.12830926,0.006841601,0.49421358
newwiki,0.013100668,0.28268042,0.31166837,0.3384342,0.87963754,2010,0.055753767,0.19904983,0.42206478
roa_rupwiki,0.034885455,0.28813156,0.345242,0.45428416,0.7049895,2010,0.1661526,0.038902834,0.7035129
zh_min_nanwiki,0.13029829,0.29793215,0.34171784,0.39791518,0.8899692,2010,0.09998304,0.14795768,0.54788965
rnwiki,0.1380313,0.26131025,0.27925584,0.3329312,0.66781306,2010,0.07162094,0.1538789,0.44036254
be_x_oldwiki,0.11026793,0.25665936,0.32557663,0.394594,0.92795444,2010,0.13793465,0.11026793,0.60149586
iawiki,0.03059657,0.28610823,0.3741554,0.41662547,0.8479235,2010,0.13051724,0.09033248,0.61240125
gawiki,0.01185,0.2955655,0.35752568,0.43218014,0.85046804,2010,0.13661465,0.090643644,0.637102
kuwiki,0.012490997,0.17023833,0.21003373,0.3522566,0.98928124,2010,0.18201827,0.012490997,0.62528384
trwiki,0.004577118,0.27626985,0.38059953,0.44596952,0.9664901,2010,0.16969967,0.021720499,0.70051885
mgwiki,0.027079836,0.27744457,0.2788991,0.37025753,0.84171546,2010,0.092812955,0.13822523,0.5094769
aswiki,0.024682848,0.18084984,0.26438716,0.3584893,0.87655896,2010,0.17763947,0.024682848,0.6249484
cbk_zamwiki,0.03620235,0.28890932,0.3257676,0.38724104,0.90277714,2010,0.09833172,0.14141183,0.53473854
gdwiki,0.016286267,0.28168967,0.31543037,0.3610655,0.8550398,2010,0.07937583,0.162626,0.48012918
sahwiki,0.024981994,0.25315824,0.31777275,0.3744955,0.8195332,2010,0.121337265,0.07115246,0.55650127
csbwiki,0.036843147,0.2975132,0.331743,0.37298292,0.726172,2010,0.07546973,0.18430866,0.48618746
cywiki,0.056530043,0.2804113,0.33867761,0.38953945,0.94062966,2010,0.10912815,0.11671919,0.5532316
smwiki,0.027366403,0.20746712,0.29514512,0.38426903,0.6924133,2010,0.1768019,0.027366403,0.64947176
tlwiki,0.02621729,0.25946155,0.36429754,0.4630319,0.956,2010,0.20357034,0.02621729,0.7683872
twwiki,0.022691023,0.20135969,0.3425288,0.40008563,0.5963166,2010,0.19872594,0.022691023,0.5963166
swwiki,0.011172287,0.2850981,0.3388808,0.4269017,0.9316179,2010,0.14180359,0.07239285,0.63960695
amwiki,0.013683202,0.18899252,0.26013225,0.29555702,0.89853776,2010,0.10656451,0.029145852,0.4554037
crhwiki,0.028208643,0.2756057,0.3361314,0.4061211,0.7272214,2010,0.1305154,0.07983273,0.6018941
elwiki,0.03549002,0.25645557,0.31660149,0.4073903,0.95020413,2010,0.15093473,0.03549002,0.6337922
gvwiki,0.12511013,0.3497479,0.3854802,0.47515526,0.85501873,2010,0.12540737,0.16163696,0.6632662
mnwwiki,0.2408289,0.2408289,0.2408289,0.2408289,0.2408289,2010,0.0,0.2408289,0.2408289
kmwiki,0.011812378,0.18168214,0.24987449,0.32782203,0.911843,2010,0.14613989,0.011812378,0.54703176
mnwiki,0.03427472,0.28589568,0.37310442,0.47725287,0.94406056,2010,0.1913572,0.03427472,0.7642885
glwiki,0.008868866,0.25672445,0.31605035,0.39819035,0.924091,2010,0.1414659,0.044525728,0.61038905
oswiki,0.046811163,0.30027977,0.3211298,0.41352823,0.8630052,2010,0.11324847,0.13040717,0.58340085
ndswiki,0.05089219,0.32574806,0.3716229,0.43341058,0.94160134,2010,0.10766253,0.16425437,0.5949043
xmfwiki,0.03929234,0.12547891,0.17839228,0.3035626,0.63936985,2010,0.1780837,0.03929234,0.570688
ganwiki,0.04433864,0.24624929,0.29582942,0.31527385,0.7943946,2010,0.06902456,0.1427125,0.41881064
kaawiki,0.06056981,0.2759485,0.35132572,0.41989255,0.77015376,2010,0.14394405,0.06056981,0.63580847
quwiki,0.02765,0.29972976,0.35424808,0.49967602,0.9072396,2010,0.19994625,0.02765,0.79959524
hawwiki,0.021992669,0.20630303,0.2159,0.30240983,0.8651085,2010,0.0961068,0.062142923,0.44656992
sowiki,0.014779546,0.21006411,0.28346878,0.36694574,0.7250707,2010,0.15688163,0.014779546,0.60226804
towiki,0.046569813,0.19290617,0.23720191,0.3606127,0.71922255,2010,0.16770652,0.046569813,0.6121723
sswiki,0.04220864,0.37558568,0.4730781,0.5058782,0.9061495,2010,0.13029253,0.18014699,0.7013169
pawiki,0.018527143,0.3195696,0.39188352,0.40635353,0.9000342,2010,0.086783946,0.18939376,0.53652936
uzwiki,0.012490997,0.3389454,0.36246663,0.38693818,0.90742606,2010,0.047992796,0.26695624,0.45892733
knwiki,0.008777337,0.17856382,0.2450013,0.34076095,0.9544895,2010,0.16219713,0.008777337,0.5840565
urwiki,0.009675484,0.23860694,0.32968104,0.40214202,0.93982697,2010,0.16353507,0.009675484,0.6474445
xhwiki,0.049807604,0.29424036,0.3446273,0.38213405,0.661,2010,0.087893695,0.1623999,0.5139745
lezwiki,0.14518364,0.29499692,0.43998054,0.5112638,0.6627081,2010,0.21626687,0.14518364,0.6627081
akwiki,0.022691023,0.21642251,0.28222525,0.38699275,0.60346955,2010,0.17057024,0.022691023,0.60346955
kwwiki,0.062377423,0.30166146,0.36633927,0.42096502,0.69961464,2010,0.119303554,0.12270625,0.5999202
nowiki,0.016620152,0.2687999,0.3356685,0.41721088,0.96493804,2010,0.14841098,0.04618357,0.6398272
tyvwiki,0.066778764,0.23510736,0.3844583,0.4216529,0.4929517,2010,0.18654555,0.066778764,0.4929517
aywiki,0.039026454,0.2459,0.29906642,0.38121527,0.88120675,2010,0.13531527,0.042927235,0.58418804
ruewiki,0.044850487,0.23528178,0.3051629,0.3742373,0.7934972,2010,0.13895552,0.044850487,0.58267045
chwiki,0.18095414,0.2887472,0.35490546,0.41086337,0.6236599,2010,0.12211618,0.18095414,0.59403753
ilowiki,0.013100668,0.37608263,0.42402217,0.44360355,0.81518525,2010,0.06752092,0.2748013,0.54488486
myvwiki,0.046811163,0.30602416,0.34986156,0.39452782,0.7127527,2010,0.08850366,0.17326877,0.5272832
mlwiki,0.010923669,0.2824116,0.37471187,0.4717632,0.9688018,2010,0.18935159,0.010923669,0.75579035
snwiki,0.013683202,0.22695681,0.27152878,0.2934358,0.6221426,2010,0.066479,0.1272384,0.39315423
cuwiki,0.139982,0.31756166,0.3851498,0.45391908,0.73156136,2010,0.13635743,0.139982,0.6584551
szlwiki,0.12485198,0.31269622,0.3825703,0.4724338,0.9436501,2010,0.15973759,0.12485198,0.71204007
arcwiki,0.014241927,0.24537426,0.311262,0.36868483,0.6314218,2010,0.123310566,0.060408533,0.55365056
dzwiki,0.02303226,0.26504466,0.3753596,0.42237374,0.6907186,2010,0.15732908,0.029051185,0.6583672
koiwiki,0.058162343,0.22859661,0.29746965,0.3953944,0.72553766,2010,0.1667978,0.058162343,0.64559096
plwiki,0.004780938,0.26215976,0.31589702,0.40937006,0.998,2010,0.1472103,0.04134445,0.63018537
banwiki,0.029559093,0.18982463,0.22841728,0.30907887,0.5980003,2010,0.11925425,0.029559093,0.48796013
extwiki,0.087368,0.33767474,0.40718943,0.50271064,0.90920997,2010,0.1650359,0.090121046,0.75026435
mhrwiki,0.027366403,0.29672447,0.34092814,0.37084228,0.69717807,2010,0.07411781,0.18554783,0.48201892
roa_tarawiki,0.06073703,0.30348685,0.3406,0.37278023,0.97382826,2010,0.06929338,0.19954684,0.47672024
wuuwiki,0.01975,0.2547583,0.3270896,0.39853054,0.8998108,2010,0.14377224,0.039100066,0.6141888
cawiki,0.03415222,0.2621119,0.34295887,0.46120113,0.9614397,2010,0.19908923,0.03415222,0.75983477
napwiki,0.034885455,0.32028466,0.4176487,0.42978802,0.81610155,2010,0.10950336,0.15602973,0.59404296
minwiki,0.0631771,0.20247425,0.47455007,0.5581061,0.87081707,2010,0.3556319,0.0631771,0.87081707
lbwiki,0.056530043,0.26783314,0.33324435,0.39952075,0.8548828,2010,0.13168761,0.070301846,0.59705204
maiwiki,0.4196865,0.4196865,0.4763755,0.49008507,0.6136341,2010,0.07039857,0.4196865,0.59568286
hewiki,0.003107838,0.27549034,0.34350204,0.4271816,0.95581585,2010,0.15169126,0.047953606,0.65471834
nahwiki,0.014241927,0.32541966,0.3458484,0.3909805,0.88033867,2010,0.06556085,0.22707845,0.4893217
iuwiki,0.02163504,0.32691818,0.3683503,0.3980955,0.747,2010,0.071177304,0.22015229,0.50486135
tcywiki,0.046811163,0.07926471,0.16913578,0.21105626,0.62393475,2010,0.13179156,0.046811163,0.4087435
kowiki,0.013683202,0.23829412,0.31988055,0.41200125,0.9869542,2010,0.17370713,0.013683202,0.67256176
rowiki,0.014875755,0.22408055,0.3043339,0.41547284,0.96232074,2010,0.19139229,0.014875755,0.7025611
azwiki,0.010127744,0.26862434,0.33591497,0.414387,0.942,2010,0.14576265,0.04998049,0.63303083
emlwiki,0.032811165,0.24255028,0.32454818,0.4158628,0.79082084,2010,0.17331252,0.032811165,0.67583144
avwiki,0.04468915,0.18185073,0.263806,0.34074858,0.6538104,2010,0.15889785,0.04468915,0.5790952
fjwiki,0.09840199,0.25658077,0.2925977,0.36175543,0.6063739,2010,0.10517466,0.09881888,0.5195173
pmswiki,0.051264226,0.2841827,0.3015857,0.36920574,0.8652872,2010,0.085023046,0.1566482,0.49674022
furwiki,0.02529234,0.25808826,0.33860698,0.39270535,0.6866018,2010,0.13461709,0.05616276,0.59463084
pnbwiki,0.039529566,0.24361888,0.28278098,0.31922555,0.76688874,2010,0.075606674,0.13020894,0.4326355
tewiki,0.011145493,0.15997574,0.16234502,0.22932957,0.9151205,2010,0.069353834,0.055945054,0.33336025
fiwiki,0.011034937,0.30029926,0.3706353,0.4631425,0.9903581,2010,0.16284326,0.05603452,0.70740724
lbewiki,0.0516806,0.263706,0.32959014,0.3816376,0.65013075,2010,0.117931604,0.08680871,0.55853486
