wiki_db,user_is_anonymous_or_bot,threshold,precision,recall,accuracy,fpr,F1
aywiki,True,0.0,0.17857142857142858,1.0,0.17857142857142858,1.0,0.30303030303030304
aywiki,True,1.0,0.17857142857142858,1.0,0.17857142857142858,1.0,0.30303030303030304
aywiki,True,2.0,0.17857142857142858,1.0,0.17857142857142858,1.0,0.30303030303030304
aywiki,True,3.0,0.17857142857142858,1.0,0.17857142857142858,1.0,0.30303030303030304
aywiki,True,4.0,0.17857142857142858,1.0,0.17857142857142858,1.0,0.30303030303030304
aywiki,True,5.0,0.17857142857142858,1.0,0.17857142857142858,1.0,0.30303030303030304
aywiki,True,6.0,0.17857142857142858,1.0,0.17857142857142858,1.0,0.30303030303030304
aywiki,True,7.0,0.17857142857142858,1.0,0.17857142857142858,1.0,0.30303030303030304
aywiki,True,8.0,0.17857142857142858,1.0,0.17857142857142858,1.0,0.30303030303030304
aywiki,True,9.0,0.17857142857142858,1.0,0.17857142857142858,1.0,0.30303030303030304
aywiki,True,10.0,0.17857142857142858,1.0,0.17857142857142858,1.0,0.30303030303030304
aywiki,True,11.0,0.17857142857142858,1.0,0.17857142857142858,1.0,0.30303030303030304
aywiki,True,12.0,0.17857142857142858,1.0,0.17857142857142858,1.0,0.30303030303030304
aywiki,True,13.0,0.17857142857142858,1.0,0.17857142857142858,1.0,0.30303030303030304
aywiki,True,14.0,0.17857142857142858,1.0,0.17857142857142858,1.0,0.30303030303030304
aywiki,True,15.0,0.17857142857142858,1.0,0.17857142857142858,1.0,0.30303030303030304
aywiki,True,16.0,0.17857142857142858,1.0,0.17857142857142858,1.0,0.30303030303030304
aywiki,True,17.0,0.18518518518518517,1.0,0.21428571428571427,0.9565217391304348,0.3125
aywiki,True,18.0,0.18518518518518517,1.0,0.21428571428571427,0.9565217391304348,0.3125
aywiki,True,19.0,0.18518518518518517,1.0,0.21428571428571427,0.9565217391304348,0.3125
aywiki,True,20.0,0.18518518518518517,1.0,0.21428571428571427,0.9565217391304348,0.3125
aywiki,True,21.0,0.18518518518518517,1.0,0.21428571428571427,0.9565217391304348,0.3125
aywiki,True,22.0,0.18518518518518517,1.0,0.21428571428571427,0.9565217391304348,0.3125
aywiki,True,23.0,0.18867924528301888,1.0,0.23214285714285715,0.9347826086956522,0.3174603174603175
aywiki,True,24.0,0.2,1.0,0.2857142857142857,0.8695652173913043,0.33333333333333337
aywiki,True,25.0,0.2,1.0,0.2857142857142857,0.8695652173913043,0.33333333333333337
aywiki,True,26.0,0.2,1.0,0.2857142857142857,0.8695652173913043,0.33333333333333337
aywiki,True,27.0,0.2,1.0,0.2857142857142857,0.8695652173913043,0.33333333333333337
aywiki,True,28.0,0.2,1.0,0.2857142857142857,0.8695652173913043,0.33333333333333337
aywiki,True,29.0,0.20408163265306123,1.0,0.30357142857142855,0.8478260869565217,0.3389830508474576
aywiki,True,30.0,0.2127659574468085,1.0,0.3392857142857143,0.8043478260869565,0.3508771929824561
aywiki,True,31.0,0.2127659574468085,1.0,0.3392857142857143,0.8043478260869565,0.3508771929824561
aywiki,True,32.0,0.2127659574468085,1.0,0.3392857142857143,0.8043478260869565,0.3508771929824561
aywiki,True,33.0,0.2127659574468085,1.0,0.3392857142857143,0.8043478260869565,0.3508771929824561
aywiki,True,34.0,0.2127659574468085,1.0,0.3392857142857143,0.8043478260869565,0.3508771929824561
aywiki,True,35.0,0.21739130434782608,1.0,0.35714285714285715,0.782608695652174,0.3571428571428571
aywiki,True,36.0,0.21739130434782608,1.0,0.35714285714285715,0.782608695652174,0.3571428571428571
aywiki,True,37.0,0.21739130434782608,1.0,0.35714285714285715,0.782608695652174,0.3571428571428571
aywiki,True,38.0,0.21739130434782608,1.0,0.35714285714285715,0.782608695652174,0.3571428571428571
aywiki,True,39.0,0.21739130434782608,1.0,0.35714285714285715,0.782608695652174,0.3571428571428571
aywiki,True,40.0,0.21739130434782608,1.0,0.35714285714285715,0.782608695652174,0.3571428571428571
aywiki,True,41.0,0.22727272727272727,1.0,0.39285714285714285,0.7391304347826086,0.37037037037037035
aywiki,True,42.0,0.23255813953488372,1.0,0.4107142857142857,0.717391304347826,0.37735849056603776
aywiki,True,43.0,0.23255813953488372,1.0,0.4107142857142857,0.717391304347826,0.37735849056603776
aywiki,True,44.0,0.23255813953488372,1.0,0.4107142857142857,0.717391304347826,0.37735849056603776
aywiki,True,45.0,0.23809523809523808,1.0,0.42857142857142855,0.6956521739130435,0.3846153846153846
aywiki,True,46.0,0.24390243902439024,1.0,0.44642857142857145,0.6739130434782609,0.39215686274509803
aywiki,True,47.0,0.24390243902439024,1.0,0.44642857142857145,0.6739130434782609,0.39215686274509803
aywiki,True,48.0,0.24390243902439024,1.0,0.44642857142857145,0.6739130434782609,0.39215686274509803
aywiki,True,49.0,0.24390243902439024,1.0,0.44642857142857145,0.6739130434782609,0.39215686274509803
aywiki,True,50.0,0.24390243902439024,1.0,0.44642857142857145,0.6739130434782609,0.39215686274509803
aywiki,True,51.0,0.24390243902439024,1.0,0.44642857142857145,0.6739130434782609,0.39215686274509803
aywiki,True,52.0,0.225,0.9,0.42857142857142855,0.6739130434782609,0.36000000000000004
aywiki,True,53.0,0.225,0.9,0.42857142857142855,0.6739130434782609,0.36000000000000004
aywiki,True,54.0,0.23076923076923078,0.9,0.44642857142857145,0.6521739130434783,0.3673469387755102
aywiki,True,55.0,0.23684210526315788,0.9,0.4642857142857143,0.6304347826086957,0.375
aywiki,True,56.0,0.23684210526315788,0.9,0.4642857142857143,0.6304347826086957,0.375
aywiki,True,57.0,0.23684210526315788,0.9,0.4642857142857143,0.6304347826086957,0.375
aywiki,True,58.0,0.24324324324324326,0.9,0.48214285714285715,0.6086956521739131,0.3829787234042553
aywiki,True,59.0,0.20588235294117646,0.7,0.4642857142857143,0.5869565217391305,0.3181818181818182
aywiki,True,60.0,0.21875,0.7,0.5,0.5434782608695652,0.3333333333333333
aywiki,True,61.0,0.22580645161290322,0.7,0.5178571428571429,0.5217391304347826,0.3414634146341463
aywiki,True,62.0,0.23333333333333334,0.7,0.5357142857142857,0.5,0.35
aywiki,True,63.0,0.23333333333333334,0.7,0.5357142857142857,0.5,0.35
aywiki,True,64.0,0.23333333333333334,0.7,0.5357142857142857,0.5,0.35
aywiki,True,65.0,0.23333333333333334,0.7,0.5357142857142857,0.5,0.35
aywiki,True,66.0,0.23333333333333334,0.7,0.5357142857142857,0.5,0.35
aywiki,True,67.0,0.23333333333333334,0.7,0.5357142857142857,0.5,0.35
aywiki,True,68.0,0.23333333333333334,0.7,0.5357142857142857,0.5,0.35
aywiki,True,69.0,0.23333333333333334,0.7,0.5357142857142857,0.5,0.35
aywiki,True,70.0,0.2413793103448276,0.7,0.5535714285714286,0.4782608695652174,0.358974358974359
aywiki,True,71.0,0.25,0.7,0.5714285714285714,0.45652173913043476,0.3684210526315789
aywiki,True,72.0,0.2222222222222222,0.6,0.5535714285714286,0.45652173913043476,0.32432432432432434
aywiki,True,73.0,0.23076923076923078,0.6,0.5714285714285714,0.43478260869565216,0.33333333333333337
aywiki,True,74.0,0.23076923076923078,0.6,0.5714285714285714,0.43478260869565216,0.33333333333333337
aywiki,True,75.0,0.23076923076923078,0.6,0.5714285714285714,0.43478260869565216,0.33333333333333337
aywiki,True,76.0,0.24,0.6,0.5892857142857143,0.41304347826086957,0.34285714285714286
aywiki,True,77.0,0.24,0.6,0.5892857142857143,0.41304347826086957,0.34285714285714286
aywiki,True,78.0,0.24,0.6,0.5892857142857143,0.41304347826086957,0.34285714285714286
aywiki,True,79.0,0.24,0.6,0.5892857142857143,0.41304347826086957,0.34285714285714286
aywiki,True,80.0,0.24,0.6,0.5892857142857143,0.41304347826086957,0.34285714285714286
aywiki,True,81.0,0.24,0.6,0.5892857142857143,0.41304347826086957,0.34285714285714286
aywiki,True,82.0,0.21739130434782608,0.5,0.5892857142857143,0.391304347826087,0.30303030303030304
aywiki,True,83.0,0.21052631578947367,0.4,0.625,0.32608695652173914,0.27586206896551724
aywiki,True,84.0,0.21052631578947367,0.4,0.625,0.32608695652173914,0.27586206896551724
aywiki,True,85.0,0.16666666666666666,0.3,0.6071428571428571,0.32608695652173914,0.21428571428571427
aywiki,True,86.0,0.17647058823529413,0.3,0.625,0.30434782608695654,0.22222222222222224
aywiki,True,87.0,0.17647058823529413,0.3,0.625,0.30434782608695654,0.22222222222222224
aywiki,True,88.0,0.1875,0.3,0.6428571428571429,0.2826086956521739,0.23076923076923075
aywiki,True,89.0,0.21428571428571427,0.3,0.6785714285714286,0.2391304347826087,0.25
aywiki,True,90.0,0.25,0.3,0.7142857142857143,0.1956521739130435,0.2727272727272727
aywiki,True,91.0,0.3333333333333333,0.3,0.7678571428571429,0.13043478260869565,0.3157894736842105
aywiki,True,92.0,0.42857142857142855,0.3,0.8035714285714286,0.08695652173913043,0.3529411764705882
aywiki,True,93.0,0.5,0.3,0.8214285714285714,0.06521739130434782,0.37499999999999994
aywiki,True,94.0,1.0,0.3,0.875,0.0,0.4615384615384615
aywiki,True,95.0,1.0,0.3,0.875,0.0,0.4615384615384615
aywiki,True,96.0,1.0,0.2,0.8571428571428571,0.0,0.33333333333333337
aywiki,True,97.0,1.0,0.1,0.8392857142857143,0.0,0.18181818181818182
aywiki,True,98.0,1.0,0.0,0.8214285714285714,0.0,0.0
aywiki,True,99.0,1.0,0.0,0.8214285714285714,0.0,0.0
aywiki,False,0.0,0.027972027972027972,1.0,0.027972027972027972,1.0,0.054421768707483
aywiki,False,1.0,0.027972027972027972,1.0,0.027972027972027972,1.0,0.054421768707483
aywiki,False,2.0,0.027972027972027972,1.0,0.027972027972027972,1.0,0.054421768707483
aywiki,False,3.0,0.027972027972027972,1.0,0.027972027972027972,1.0,0.054421768707483
aywiki,False,4.0,0.027972027972027972,1.0,0.027972027972027972,1.0,0.054421768707483
aywiki,False,5.0,0.027972027972027972,1.0,0.027972027972027972,1.0,0.054421768707483
aywiki,False,6.0,0.027972027972027972,1.0,0.027972027972027972,1.0,0.054421768707483
aywiki,False,7.0,0.027972027972027972,1.0,0.027972027972027972,1.0,0.054421768707483
aywiki,False,8.0,0.027972027972027972,1.0,0.027972027972027972,1.0,0.054421768707483
aywiki,False,9.0,0.028021015761821366,1.0,0.02972027972027972,0.9982014388489209,0.0545144804088586
aywiki,False,10.0,0.028021015761821366,1.0,0.02972027972027972,0.9982014388489209,0.0545144804088586
aywiki,False,11.0,0.028268551236749116,1.0,0.038461538461538464,0.9892086330935251,0.054982817869415807
aywiki,False,12.0,0.028469750889679714,1.0,0.045454545454545456,0.9820143884892086,0.05536332179930796
aywiki,False,13.0,0.02867383512544803,1.0,0.05244755244755245,0.9748201438848921,0.05574912891986063
aywiki,False,14.0,0.030131826741996232,1.0,0.09965034965034965,0.9262589928057554,0.05850091407678244
aywiki,False,15.0,0.03397027600849257,1.0,0.20454545454545456,0.8183453237410072,0.06570841889117043
aywiki,False,16.0,0.03773584905660377,1.0,0.2867132867132867,0.7338129496402878,0.07272727272727272
aywiki,False,17.0,0.0392156862745098,1.0,0.3146853146853147,0.7050359712230215,0.07547169811320754
aywiki,False,18.0,0.04020100502512563,1.0,0.3321678321678322,0.6870503597122302,0.07729468599033817
aywiki,False,19.0,0.042666666666666665,1.0,0.3723776223776224,0.64568345323741,0.08184143222506395
aywiki,False,20.0,0.0446927374301676,1.0,0.4020979020979021,0.6151079136690647,0.08556149732620322
aywiki,False,21.0,0.04776119402985075,1.0,0.4423076923076923,0.5737410071942446,0.09116809116809116
aywiki,False,22.0,0.04953560371517028,1.0,0.4632867132867133,0.552158273381295,0.09439528023598821
aywiki,False,23.0,0.05245901639344262,1.0,0.49475524475524474,0.5197841726618705,0.09968847352024922
aywiki,False,24.0,0.056338028169014086,1.0,0.5314685314685315,0.48201438848920863,0.10666666666666667
aywiki,False,25.0,0.05734767025089606,1.0,0.5402097902097902,0.47302158273381295,0.10847457627118644
aywiki,False,26.0,0.06060606060606061,1.0,0.5664335664335665,0.4460431654676259,0.1142857142857143
aywiki,False,27.0,0.0625,1.0,0.5804195804195804,0.4316546762589928,0.11764705882352941
aywiki,False,28.0,0.0642570281124498,1.0,0.5926573426573427,0.41906474820143885,0.12075471698113208
aywiki,False,29.0,0.07017543859649122,1.0,0.6293706293706294,0.381294964028777,0.13114754098360656
aywiki,False,30.0,0.09195402298850575,1.0,0.7237762237762237,0.2841726618705036,0.16842105263157897
aywiki,False,31.0,0.09876543209876543,1.0,0.7447552447552448,0.26258992805755393,0.1797752808988764
aywiki,False,32.0,0.1038961038961039,1.0,0.7587412587412588,0.24820143884892087,0.18823529411764706
aywiki,False,33.0,0.10738255033557047,1.0,0.7674825174825175,0.2392086330935252,0.1939393939393939
aywiki,False,34.0,0.1103448275862069,1.0,0.7744755244755245,0.23201438848920863,0.19875776397515527
aywiki,False,35.0,0.11188811188811189,1.0,0.777972027972028,0.22841726618705036,0.20125786163522014
aywiki,False,36.0,0.11267605633802817,1.0,0.7797202797202797,0.22661870503597123,0.20253164556962025
aywiki,False,37.0,0.11428571428571428,1.0,0.7832167832167832,0.22302158273381295,0.20512820512820512
aywiki,False,38.0,0.11428571428571428,1.0,0.7832167832167832,0.22302158273381295,0.20512820512820512
aywiki,False,39.0,0.11594202898550725,1.0,0.7867132867132867,0.21942446043165467,0.20779220779220778
aywiki,False,40.0,0.11764705882352941,1.0,0.7902097902097902,0.2158273381294964,0.21052631578947367
aywiki,False,41.0,0.12307692307692308,1.0,0.8006993006993007,0.20503597122302158,0.21917808219178084
aywiki,False,42.0,0.12403100775193798,1.0,0.8024475524475524,0.20323741007194246,0.2206896551724138
aywiki,False,43.0,0.12598425196850394,1.0,0.8059440559440559,0.19964028776978418,0.22377622377622378
aywiki,False,44.0,0.128,1.0,0.8094405594405595,0.1960431654676259,0.22695035460992907
aywiki,False,45.0,0.13008130081300814,1.0,0.8129370629370629,0.19244604316546762,0.2302158273381295
aywiki,False,46.0,0.1322314049586777,1.0,0.8164335664335665,0.18884892086330934,0.23357664233576642
aywiki,False,47.0,0.1322314049586777,1.0,0.8164335664335665,0.18884892086330934,0.23357664233576642
aywiki,False,48.0,0.13445378151260504,1.0,0.8199300699300699,0.18525179856115107,0.23703703703703705
aywiki,False,49.0,0.13793103448275862,1.0,0.8251748251748252,0.17985611510791366,0.2424242424242424
aywiki,False,50.0,0.14035087719298245,1.0,0.8286713286713286,0.17625899280575538,0.24615384615384614
aywiki,False,51.0,0.14545454545454545,1.0,0.8356643356643356,0.16906474820143885,0.25396825396825395
aywiki,False,52.0,0.1388888888888889,0.9375,0.8356643356643356,0.1672661870503597,0.24193548387096778
aywiki,False,53.0,0.14018691588785046,0.9375,0.8374125874125874,0.16546762589928057,0.24390243902439027
aywiki,False,54.0,0.14563106796116504,0.9375,0.8444055944055944,0.15827338129496402,0.25210084033613445
aywiki,False,55.0,0.15,0.9375,0.8496503496503497,0.1528776978417266,0.25862068965517243
aywiki,False,56.0,0.14893617021276595,0.875,0.8566433566433567,0.14388489208633093,0.25454545454545446
aywiki,False,57.0,0.15217391304347827,0.875,0.8601398601398601,0.14028776978417265,0.2592592592592593
aywiki,False,58.0,0.1590909090909091,0.875,0.8671328671328671,0.13309352517985612,0.26923076923076916
aywiki,False,59.0,0.14634146341463414,0.75,0.8706293706293706,0.12589928057553956,0.24489795918367344
aywiki,False,60.0,0.1518987341772152,0.75,0.8758741258741258,0.12050359712230216,0.25263157894736843
aywiki,False,61.0,0.15584415584415584,0.75,0.8793706293706294,0.11690647482014388,0.25806451612903225
aywiki,False,62.0,0.15789473684210525,0.75,0.8811188811188811,0.11510791366906475,0.2608695652173913
aywiki,False,63.0,0.16216216216216217,0.75,0.8846153846153846,0.11151079136690648,0.26666666666666666
aywiki,False,64.0,0.1643835616438356,0.75,0.8863636363636364,0.10971223021582734,0.2696629213483146
aywiki,False,65.0,0.16666666666666666,0.75,0.8881118881118881,0.1079136690647482,0.27272727272727276
aywiki,False,66.0,0.16666666666666666,0.75,0.8881118881118881,0.1079136690647482,0.27272727272727276
aywiki,False,67.0,0.16901408450704225,0.75,0.8898601398601399,0.10611510791366907,0.27586206896551724
aywiki,False,68.0,0.16901408450704225,0.75,0.8898601398601399,0.10611510791366907,0.27586206896551724
aywiki,False,69.0,0.17647058823529413,0.75,0.8951048951048951,0.10071942446043165,0.2857142857142857
aywiki,False,70.0,0.1791044776119403,0.75,0.8968531468531469,0.09892086330935251,0.2891566265060241
aywiki,False,71.0,0.18461538461538463,0.75,0.9003496503496503,0.09532374100719425,0.29629629629629634
aywiki,False,72.0,0.171875,0.6875,0.8986013986013986,0.09532374100719425,0.275
aywiki,False,73.0,0.1746031746031746,0.6875,0.9003496503496503,0.09352517985611511,0.27848101265822783
aywiki,False,74.0,0.18032786885245902,0.6875,0.9038461538461539,0.08992805755395683,0.2857142857142857
aywiki,False,75.0,0.18333333333333332,0.6875,0.9055944055944056,0.08812949640287769,0.2894736842105263
aywiki,False,76.0,0.19298245614035087,0.6875,0.9108391608391608,0.08273381294964029,0.30136986301369867
aywiki,False,77.0,0.19298245614035087,0.6875,0.9108391608391608,0.08273381294964029,0.30136986301369867
aywiki,False,78.0,0.20754716981132076,0.6875,0.9178321678321678,0.07553956834532374,0.31884057971014496
aywiki,False,79.0,0.20754716981132076,0.6875,0.9178321678321678,0.07553956834532374,0.31884057971014496
aywiki,False,80.0,0.21568627450980393,0.6875,0.9213286713286714,0.07194244604316546,0.3283582089552239
aywiki,False,81.0,0.22916666666666666,0.6875,0.9265734265734266,0.06654676258992806,0.34375
aywiki,False,82.0,0.2222222222222222,0.625,0.9283216783216783,0.06294964028776978,0.3278688524590164
aywiki,False,83.0,0.225,0.5625,0.9335664335664335,0.05575539568345324,0.3214285714285714
aywiki,False,84.0,0.23076923076923078,0.5625,0.9353146853146853,0.0539568345323741,0.32727272727272727
aywiki,False,85.0,0.18181818181818182,0.375,0.9353146853146853,0.048561151079136694,0.24489795918367344
aywiki,False,86.0,0.1935483870967742,0.375,0.9388111888111889,0.044964028776978415,0.25531914893617014
aywiki,False,87.0,0.1935483870967742,0.375,0.9388111888111889,0.044964028776978415,0.25531914893617014
aywiki,False,88.0,0.2222222222222222,0.375,0.9458041958041958,0.03776978417266187,0.27906976744186046
aywiki,False,89.0,0.25,0.375,0.951048951048951,0.03237410071942446,0.3
aywiki,False,90.0,0.2857142857142857,0.375,0.9562937062937062,0.02697841726618705,0.3243243243243243
aywiki,False,91.0,0.3333333333333333,0.375,0.9615384615384616,0.02158273381294964,0.35294117647058826
aywiki,False,92.0,0.4,0.375,0.9667832167832168,0.01618705035971223,0.38709677419354843
aywiki,False,93.0,0.46153846153846156,0.375,0.9702797202797203,0.012589928057553957,0.41379310344827586
aywiki,False,94.0,0.625,0.3125,0.9755244755244755,0.00539568345323741,0.4166666666666667
aywiki,False,95.0,0.7142857142857143,0.3125,0.9772727272727273,0.0035971223021582736,0.43478260869565216
aywiki,False,96.0,0.8,0.25,0.9772727272727273,0.0017985611510791368,0.38095238095238093
aywiki,False,97.0,0.75,0.1875,0.9755244755244755,0.0017985611510791368,0.3
aywiki,False,98.0,0.6666666666666666,0.125,0.9737762237762237,0.0017985611510791368,0.21052631578947367
aywiki,False,99.0,0.6666666666666666,0.125,0.9737762237762237,0.0017985611510791368,0.21052631578947367
