wiki_db,user_is_anonymous_or_bot,threshold,precision,recall,accuracy,fpr,F1
bhwiki,True,0.0,0.37727272727272726,1.0,0.37727272727272726,1.0,0.5478547854785478
bhwiki,True,1.0,0.37727272727272726,1.0,0.37727272727272726,1.0,0.5478547854785478
bhwiki,True,2.0,0.37727272727272726,1.0,0.37727272727272726,1.0,0.5478547854785478
bhwiki,True,3.0,0.37727272727272726,1.0,0.37727272727272726,1.0,0.5478547854785478
bhwiki,True,4.0,0.37727272727272726,1.0,0.37727272727272726,1.0,0.5478547854785478
bhwiki,True,5.0,0.3789954337899543,1.0,0.38181818181818183,0.9927007299270073,0.5496688741721854
bhwiki,True,6.0,0.38073394495412843,1.0,0.38636363636363635,0.9854014598540146,0.5514950166112956
bhwiki,True,7.0,0.38967136150234744,1.0,0.4090909090909091,0.948905109489051,0.5608108108108109
bhwiki,True,8.0,0.3933649289099526,1.0,0.41818181818181815,0.9343065693430657,0.5646258503401361
bhwiki,True,9.0,0.40096618357487923,1.0,0.43636363636363634,0.9051094890510949,0.5724137931034483
bhwiki,True,10.0,0.40487804878048783,1.0,0.44545454545454544,0.8905109489051095,0.576388888888889
bhwiki,True,11.0,0.40487804878048783,1.0,0.44545454545454544,0.8905109489051095,0.576388888888889
bhwiki,True,12.0,0.40487804878048783,1.0,0.44545454545454544,0.8905109489051095,0.576388888888889
bhwiki,True,13.0,0.40487804878048783,1.0,0.44545454545454544,0.8905109489051095,0.576388888888889
bhwiki,True,14.0,0.40487804878048783,1.0,0.44545454545454544,0.8905109489051095,0.576388888888889
bhwiki,True,15.0,0.4068627450980392,1.0,0.45,0.8832116788321168,0.578397212543554
bhwiki,True,16.0,0.4088669950738916,1.0,0.45454545454545453,0.8759124087591241,0.5804195804195804
bhwiki,True,17.0,0.41089108910891087,1.0,0.4590909090909091,0.8686131386861314,0.5824561403508772
bhwiki,True,18.0,0.4129353233830846,1.0,0.4636363636363636,0.8613138686131386,0.5845070422535211
bhwiki,True,19.0,0.4129353233830846,1.0,0.4636363636363636,0.8613138686131386,0.5845070422535211
bhwiki,True,20.0,0.415,1.0,0.4681818181818182,0.8540145985401459,0.5865724381625441
bhwiki,True,21.0,0.41919191919191917,1.0,0.4772727272727273,0.8394160583941606,0.5907473309608541
bhwiki,True,22.0,0.41919191919191917,1.0,0.4772727272727273,0.8394160583941606,0.5907473309608541
bhwiki,True,23.0,0.41919191919191917,1.0,0.4772727272727273,0.8394160583941606,0.5907473309608541
bhwiki,True,24.0,0.4213197969543147,1.0,0.4818181818181818,0.8321167883211679,0.5928571428571429
bhwiki,True,25.0,0.4213197969543147,1.0,0.4818181818181818,0.8321167883211679,0.5928571428571429
bhwiki,True,26.0,0.4213197969543147,1.0,0.4818181818181818,0.8321167883211679,0.5928571428571429
bhwiki,True,27.0,0.4213197969543147,1.0,0.4818181818181818,0.8321167883211679,0.5928571428571429
bhwiki,True,28.0,0.4213197969543147,1.0,0.4818181818181818,0.8321167883211679,0.5928571428571429
bhwiki,True,29.0,0.4213197969543147,1.0,0.4818181818181818,0.8321167883211679,0.5928571428571429
bhwiki,True,30.0,0.4213197969543147,1.0,0.4818181818181818,0.8321167883211679,0.5928571428571429
bhwiki,True,31.0,0.4213197969543147,1.0,0.4818181818181818,0.8321167883211679,0.5928571428571429
bhwiki,True,32.0,0.4213197969543147,1.0,0.4818181818181818,0.8321167883211679,0.5928571428571429
bhwiki,True,33.0,0.4213197969543147,1.0,0.4818181818181818,0.8321167883211679,0.5928571428571429
bhwiki,True,34.0,0.4213197969543147,1.0,0.4818181818181818,0.8321167883211679,0.5928571428571429
bhwiki,True,35.0,0.4213197969543147,1.0,0.4818181818181818,0.8321167883211679,0.5928571428571429
bhwiki,True,36.0,0.4213197969543147,1.0,0.4818181818181818,0.8321167883211679,0.5928571428571429
bhwiki,True,37.0,0.42346938775510207,1.0,0.4863636363636364,0.8248175182481752,0.5949820788530465
bhwiki,True,38.0,0.42346938775510207,1.0,0.4863636363636364,0.8248175182481752,0.5949820788530465
bhwiki,True,39.0,0.42346938775510207,1.0,0.4863636363636364,0.8248175182481752,0.5949820788530465
bhwiki,True,40.0,0.4256410256410256,1.0,0.4909090909090909,0.8175182481751825,0.5971223021582733
bhwiki,True,41.0,0.4256410256410256,1.0,0.4909090909090909,0.8175182481751825,0.5971223021582733
bhwiki,True,42.0,0.4256410256410256,1.0,0.4909090909090909,0.8175182481751825,0.5971223021582733
bhwiki,True,43.0,0.4256410256410256,1.0,0.4909090909090909,0.8175182481751825,0.5971223021582733
bhwiki,True,44.0,0.4256410256410256,1.0,0.4909090909090909,0.8175182481751825,0.5971223021582733
bhwiki,True,45.0,0.4256410256410256,1.0,0.4909090909090909,0.8175182481751825,0.5971223021582733
bhwiki,True,46.0,0.4256410256410256,1.0,0.4909090909090909,0.8175182481751825,0.5971223021582733
bhwiki,True,47.0,0.4256410256410256,1.0,0.4909090909090909,0.8175182481751825,0.5971223021582733
bhwiki,True,48.0,0.4256410256410256,1.0,0.4909090909090909,0.8175182481751825,0.5971223021582733
bhwiki,True,49.0,0.42783505154639173,1.0,0.4954545454545455,0.8102189781021898,0.5992779783393501
bhwiki,True,50.0,0.43005181347150256,1.0,0.5,0.8029197080291971,0.6014492753623188
bhwiki,True,51.0,0.43005181347150256,1.0,0.5,0.8029197080291971,0.6014492753623188
bhwiki,True,52.0,0.43005181347150256,1.0,0.5,0.8029197080291971,0.6014492753623188
bhwiki,True,53.0,0.43005181347150256,1.0,0.5,0.8029197080291971,0.6014492753623188
bhwiki,True,54.0,0.4322916666666667,1.0,0.5045454545454545,0.7956204379562044,0.6036363636363636
bhwiki,True,55.0,0.4322916666666667,1.0,0.5045454545454545,0.7956204379562044,0.6036363636363636
bhwiki,True,56.0,0.4322916666666667,1.0,0.5045454545454545,0.7956204379562044,0.6036363636363636
bhwiki,True,57.0,0.4322916666666667,1.0,0.5045454545454545,0.7956204379562044,0.6036363636363636
bhwiki,True,58.0,0.4322916666666667,1.0,0.5045454545454545,0.7956204379562044,0.6036363636363636
bhwiki,True,59.0,0.4322916666666667,1.0,0.5045454545454545,0.7956204379562044,0.6036363636363636
bhwiki,True,60.0,0.4322916666666667,1.0,0.5045454545454545,0.7956204379562044,0.6036363636363636
bhwiki,True,61.0,0.4322916666666667,1.0,0.5045454545454545,0.7956204379562044,0.6036363636363636
bhwiki,True,62.0,0.4322916666666667,1.0,0.5045454545454545,0.7956204379562044,0.6036363636363636
bhwiki,True,63.0,0.4322916666666667,1.0,0.5045454545454545,0.7956204379562044,0.6036363636363636
bhwiki,True,64.0,0.43455497382198954,1.0,0.509090909090909,0.7883211678832117,0.6058394160583942
bhwiki,True,65.0,0.4368421052631579,1.0,0.5136363636363637,0.781021897810219,0.6080586080586081
bhwiki,True,66.0,0.43386243386243384,0.9879518072289156,0.509090909090909,0.781021897810219,0.6029411764705882
bhwiki,True,67.0,0.43386243386243384,0.9879518072289156,0.509090909090909,0.781021897810219,0.6029411764705882
bhwiki,True,68.0,0.43617021276595747,0.9879518072289156,0.5136363636363637,0.7737226277372263,0.6051660516605167
bhwiki,True,69.0,0.43617021276595747,0.9879518072289156,0.5136363636363637,0.7737226277372263,0.6051660516605167
bhwiki,True,70.0,0.44086021505376344,0.9879518072289156,0.5227272727272727,0.7591240875912408,0.6096654275092936
bhwiki,True,71.0,0.44086021505376344,0.9879518072289156,0.5227272727272727,0.7591240875912408,0.6096654275092936
bhwiki,True,72.0,0.44086021505376344,0.9879518072289156,0.5227272727272727,0.7591240875912408,0.6096654275092936
bhwiki,True,73.0,0.44086021505376344,0.9879518072289156,0.5227272727272727,0.7591240875912408,0.6096654275092936
bhwiki,True,74.0,0.44324324324324327,0.9879518072289156,0.5272727272727272,0.7518248175182481,0.6119402985074627
bhwiki,True,75.0,0.44324324324324327,0.9879518072289156,0.5272727272727272,0.7518248175182481,0.6119402985074627
bhwiki,True,76.0,0.44751381215469616,0.9759036144578314,0.5363636363636364,0.7299270072992701,0.6136363636363636
bhwiki,True,77.0,0.4375,0.927710843373494,0.5227272727272727,0.7226277372262774,0.5945945945945946
bhwiki,True,78.0,0.436046511627907,0.9036144578313253,0.5227272727272727,0.708029197080292,0.5882352941176471
bhwiki,True,79.0,0.45454545454545453,0.9036144578313253,0.5545454545454546,0.656934306569343,0.6048387096774194
bhwiki,True,80.0,0.44805194805194803,0.8313253012048193,0.55,0.6204379562043796,0.5822784810126581
bhwiki,True,81.0,0.4589041095890411,0.8072289156626506,0.5681818181818182,0.5766423357664233,0.5851528384279476
bhwiki,True,82.0,0.4397163120567376,0.7469879518072289,0.5454545454545454,0.5766423357664233,0.5535714285714286
bhwiki,True,83.0,0.4453125,0.6867469879518072,0.5590909090909091,0.5182481751824818,0.5402843601895735
bhwiki,True,84.0,0.4462809917355372,0.6506024096385542,0.5636363636363636,0.48905109489051096,0.5294117647058824
bhwiki,True,85.0,0.4392523364485981,0.5662650602409639,0.5636363636363636,0.43795620437956206,0.49473684210526314
bhwiki,True,86.0,0.45,0.5421686746987951,0.5772727272727273,0.40145985401459855,0.4918032786885245
bhwiki,True,87.0,0.47191011235955055,0.5060240963855421,0.6,0.34306569343065696,0.4883720930232558
bhwiki,True,88.0,0.5,0.4819277108433735,0.6227272727272727,0.291970802919708,0.49079754601226994
bhwiki,True,89.0,0.5217391304347826,0.43373493975903615,0.6363636363636364,0.24087591240875914,0.4736842105263158
bhwiki,True,90.0,0.5689655172413793,0.39759036144578314,0.6590909090909091,0.18248175182481752,0.46808510638297873
bhwiki,True,91.0,0.6,0.3614457831325301,0.6681818181818182,0.145985401459854,0.4511278195488722
bhwiki,True,92.0,0.5789473684210527,0.26506024096385544,0.65,0.11678832116788321,0.36363636363636365
bhwiki,True,93.0,0.6428571428571429,0.21686746987951808,0.6590909090909091,0.072992700729927,0.32432432432432434
bhwiki,True,94.0,0.6818181818181818,0.18072289156626506,0.6590909090909091,0.051094890510948905,0.2857142857142857
bhwiki,True,95.0,0.7222222222222222,0.1566265060240964,0.6590909090909091,0.0364963503649635,0.25742574257425743
bhwiki,True,96.0,0.7272727272727273,0.0963855421686747,0.6454545454545455,0.021897810218978103,0.17021276595744683
bhwiki,True,97.0,0.7,0.08433734939759036,0.6409090909090909,0.021897810218978103,0.15053763440860216
bhwiki,True,98.0,0.7142857142857143,0.060240963855421686,0.6363636363636364,0.014598540145985401,0.1111111111111111
bhwiki,True,99.0,0.8,0.04819277108433735,0.6363636363636364,0.0072992700729927005,0.09090909090909091
bhwiki,False,0.0,0.06359143327841846,1.0,0.06359143327841846,1.0,0.11957868649318465
bhwiki,False,1.0,0.06361239288068557,1.0,0.06392092257001647,0.9996481351161154,0.11961574217539511
bhwiki,False,2.0,0.0661638669866301,1.0,0.10247116968698518,0.9584799437016186,0.12411575562700966
bhwiki,False,3.0,0.06838524883637666,0.9896373056994818,0.14200988467874795,0.9155524278676987,0.12793034159410582
bhwiki,False,4.0,0.07040176925912274,0.9896373056994818,0.1683690280065898,0.8874032371569317,0.13145216792842396
bhwiki,False,5.0,0.07312404287901991,0.9896373056994818,0.20164744645799013,0.8518648838845884,0.1361853832442068
bhwiki,False,6.0,0.07588398887564561,0.9896373056994818,0.2329489291598023,0.8184377199155525,0.14095940959409597
bhwiki,False,7.0,0.0784072249589491,0.9896373056994818,0.2596375617792422,0.7899366643209008,0.14530239634842146
bhwiki,False,8.0,0.08086367485182049,0.9896373056994818,0.2840197693574959,0.7638986629134412,0.14951076320939333
bhwiki,False,9.0,0.0841039189784236,0.9896373056994818,0.314003294892916,0.7318789584799437,0.15503246753246752
bhwiki,False,10.0,0.0874942739349519,0.9896373056994818,0.342998352553542,0.7009148486981,0.16077441077441076
bhwiki,False,11.0,0.09077946768060836,0.9896373056994818,0.36902800658978585,0.6731175228712174,0.16630387461906834
bhwiki,False,12.0,0.09427443237907206,0.9896373056994818,0.3947281713344316,0.6456720619282196,0.17214961694456962
bhwiki,False,13.0,0.09840288511076764,0.9896373056994818,0.4227347611202636,0.6157635467980296,0.1790065604498594
bhwiki,False,14.0,0.10296495956873315,0.9896373056994818,0.45107084019769356,0.585503166783955,0.1865234375
bhwiki,False,15.0,0.10599334073251943,0.9896373056994818,0.4685337726523888,0.5668543279380718,0.19147869674185466
bhwiki,False,16.0,0.11104651162790698,0.9896373056994818,0.4955518945634267,0.5380014074595355,0.19968635650810249
bhwiki,False,17.0,0.11384062312762133,0.9844559585492227,0.5116968698517298,0.5204081632653061,0.20408163265306123
bhwiki,False,18.0,0.11764705882352941,0.9844559585492227,0.529489291598023,0.5014074595355383,0.21017699115044247
bhwiki,False,19.0,0.12032932235592148,0.9844559585492227,0.5413509060955519,0.48874032371569315,0.21444695259593682
bhwiki,False,20.0,0.12385919165580182,0.9844559585492227,0.5561779242174629,0.4729064039408867,0.22003474232773595
bhwiki,False,21.0,0.12591605596269154,0.9792746113989638,0.5663920922570016,0.4616467276565799,0.22314049586776857
bhwiki,False,22.0,0.12903225806451613,0.9740932642487047,0.5802306425041186,0.4465165376495426,0.22787878787878785
bhwiki,False,23.0,0.1337126600284495,0.9740932642487047,0.5970345963756178,0.42857142857142855,0.23514696685428393
bhwiki,False,24.0,0.13843888070692195,0.9740932642487047,0.6128500823723229,0.41168191414496835,0.2424242424242424
bhwiki,False,25.0,0.14318706697459585,0.9637305699481865,0.6309719934102141,0.3916256157635468,0.24932975871313676
bhwiki,False,26.0,0.14773629864972201,0.9637305699481865,0.6441515650741351,0.37755102040816324,0.256198347107438
bhwiki,False,27.0,0.15283483976992604,0.9637305699481865,0.6579901153212521,0.36277269528501055,0.26382978723404255
bhwiki,False,28.0,0.15717926932880205,0.9585492227979274,0.6705107084019769,0.34904996481351164,0.27007299270073
bhwiki,False,29.0,0.16055846422338568,0.9533678756476683,0.6800658978583196,0.33849401829697395,0.2748319641523525
bhwiki,False,30.0,0.16487455197132617,0.9533678756476683,0.6899505766062602,0.3279380717804363,0.2811306340718106
bhwiki,False,31.0,0.1686526122823098,0.9533678756476683,0.6981878088962109,0.3191414496833216,0.28660436137071643
bhwiki,False,32.0,0.174573055028463,0.9533678756476683,0.7103789126853377,0.30612244897959184,0.2951082598235765
bhwiki,False,33.0,0.17881438289601556,0.9533678756476683,0.7186161449752883,0.2973258268824771,0.30114566284779054
bhwiki,False,34.0,0.18473895582329317,0.9533678756476683,0.7294892915980231,0.2857142857142857,0.30950378469301937
bhwiki,False,35.0,0.1871820956256358,0.9533678756476683,0.7337726523887974,0.2811400422237861,0.3129251700680272
bhwiki,False,36.0,0.19186652763295098,0.9533678756476683,0.7416803953871499,0.27269528501055595,0.31944444444444436
bhwiki,False,37.0,0.1951219512195122,0.9533678756476683,0.7469522240527183,0.26706544686840256,0.323943661971831
bhwiki,False,38.0,0.19805194805194806,0.9481865284974094,0.7525535420098847,0.26073187895847993,0.3276633840644584
bhwiki,False,39.0,0.20154185022026433,0.9481865284974094,0.7578253706754531,0.25510204081632654,0.332425068119891
bhwiki,False,40.0,0.20515695067264575,0.9481865284974094,0.7630971993410214,0.2494722026741731,0.33732718894009217
bhwiki,False,41.0,0.20938215102974828,0.9481865284974094,0.7690280065897859,0.24313863476425052,0.34301780693533274
bhwiki,False,42.0,0.2113163972286374,0.9481865284974094,0.77166392092257,0.24032371569317382,0.34560906515580736
bhwiki,False,43.0,0.21411764705882352,0.9430051813471503,0.7762767710049423,0.235045742434905,0.348993288590604
bhwiki,False,44.0,0.2179640718562874,0.9430051813471503,0.7812191103789127,0.22976776917663616,0.3540856031128405
bhwiki,False,45.0,0.21951219512195122,0.9326424870466321,0.7848434925864909,0.22519352568613651,0.3553800592300099
bhwiki,False,46.0,0.2199017199017199,0.927461139896373,0.786161449752883,0.2234342012667136,0.35551142005958286
bhwiki,False,47.0,0.22263681592039802,0.927461139896373,0.7894563426688632,0.2199155524278677,0.35907723169508526
bhwiki,False,48.0,0.22418136020151133,0.9222797927461139,0.7920922570016474,0.21674876847290642,0.3606889564336373
bhwiki,False,49.0,0.22576530612244897,0.917098445595855,0.7947281713344316,0.2135819845179451,0.36233367451381776
bhwiki,False,50.0,0.22609819121447028,0.9067357512953368,0.7967051070840198,0.2107670654468684,0.3619441571871768
bhwiki,False,51.0,0.22875816993464052,0.9067357512953368,0.799670510708402,0.2076002814919071,0.36534446764091855
bhwiki,False,52.0,0.22823218997361477,0.8963730569948186,0.800658978583196,0.20584095707248418,0.3638275499474238
bhwiki,False,53.0,0.22944297082228116,0.8963730569948186,0.8019769357495882,0.2044334975369458,0.36536430834213307
bhwiki,False,54.0,0.23221476510067113,0.8963730569948186,0.8049423393739703,0.20126671358198453,0.36886993603411516
bhwiki,False,55.0,0.23346828609986506,0.8963730569948186,0.8062602965403625,0.19985925404644617,0.37044967880085655
bhwiki,False,56.0,0.23497267759562843,0.8911917098445595,0.8085667215815486,0.19704433497536947,0.3718918918918919
bhwiki,False,57.0,0.23593964334705075,0.8911917098445595,0.8095551894563426,0.1959887403237157,0.37310195227765725
bhwiki,False,58.0,0.23855755894590847,0.8911917098445595,0.8121911037891268,0.193173821252639,0.37636761487964987
bhwiki,False,59.0,0.24225352112676057,0.8911917098445595,0.8158154859967051,0.1893033075299085,0.380952380952381
bhwiki,False,60.0,0.24606580829756797,0.8911917098445595,0.8194398682042834,0.18543279380717803,0.38565022421524664
bhwiki,False,61.0,0.2474820143884892,0.8911917098445595,0.8207578253706754,0.1840253342716397,0.3873873873873874
bhwiki,False,62.0,0.2492753623188406,0.8911917098445595,0.8224052718286655,0.18226600985221675,0.3895809739524349
bhwiki,False,63.0,0.2529411764705882,0.8911917098445595,0.8257001647446458,0.17874736101337085,0.39404352806414655
bhwiki,False,64.0,0.25671641791044775,0.8911917098445595,0.828995057660626,0.175228712174525,0.3986095017381228
bhwiki,False,65.0,0.2579185520361991,0.8860103626943006,0.8306425041186162,0.17311752287121746,0.3995327102803739
bhwiki,False,66.0,0.25840978593272174,0.8756476683937824,0.8322899505766063,0.17065446868402534,0.39905548996458096
bhwiki,False,67.0,0.2620904836193448,0.8704663212435233,0.8359143327841845,0.16643209007741028,0.40287769784172667
bhwiki,False,68.0,0.2634069400630915,0.8652849740932642,0.8375617792421747,0.16432090077410275,0.40386940749697703
bhwiki,False,69.0,0.2680577849117175,0.8652849740932642,0.8411861614497529,0.16045038705137227,0.409313725490196
bhwiki,False,70.0,0.2733224222585925,0.8652849740932642,0.8451400329489291,0.1562280084447572,0.41542288557213936
bhwiki,False,71.0,0.2769485903814262,0.8652849740932642,0.8477759472817133,0.1534130893736805,0.4195979899497488
bhwiki,False,72.0,0.282312925170068,0.8601036269430051,0.8520593080724876,0.14848698099929628,0.4250960307298335
bhwiki,False,73.0,0.2912280701754386,0.8601036269430051,0.857990115321252,0.14215341308937368,0.4351245085190039
bhwiki,False,74.0,0.3007246376811594,0.8601036269430051,0.8639209225700165,0.1358198451794511,0.4456375838926175
bhwiki,False,75.0,0.30970149253731344,0.8601036269430051,0.8691927512355848,0.1301900070372977,0.4554183813443073
bhwiki,False,76.0,0.31346153846153846,0.844559585492228,0.8724876441515651,0.12561576354679804,0.4572230014025245
bhwiki,False,77.0,0.3151515151515151,0.8082901554404145,0.8761120263591433,0.11928219563687543,0.4534883720930232
bhwiki,False,78.0,0.3248407643312102,0.7927461139896373,0.8820428336079077,0.11189303307529909,0.4608433734939758
bhwiki,False,79.0,0.33853006681514475,0.7875647668393783,0.8886326194398682,0.10450387051372273,0.47352024922118385
bhwiki,False,80.0,0.3380614657210402,0.7409326424870466,0.8912685337726524,0.09852216748768473,0.4642857142857143
bhwiki,False,81.0,0.3458646616541353,0.7150259067357513,0.8958813838550247,0.09183673469387756,0.4662162162162162
bhwiki,False,82.0,0.3423180592991914,0.6580310880829016,0.8978583196046128,0.08585503166783955,0.45035460992907805
bhwiki,False,83.0,0.34705882352941175,0.6113989637305699,0.9021416803953871,0.0781140042223786,0.44277673545966223
bhwiki,False,84.0,0.35161290322580646,0.5647668393782384,0.9060955518945635,0.07072484166080226,0.4333996023856859
bhwiki,False,85.0,0.33579335793357934,0.47150259067357514,0.9070840197693575,0.0633356790992259,0.3922413793103448
bhwiki,False,86.0,0.34146341463414637,0.43523316062176165,0.9107084019769357,0.05700211118930331,0.3826879271070615
bhwiki,False,87.0,0.3515981735159817,0.39896373056994816,0.9149917627677101,0.04996481351161154,0.37378640776699024
bhwiki,False,88.0,0.36787564766839376,0.36787564766839376,0.9196046128500823,0.04292751583391977,0.3678756476683937
bhwiki,False,89.0,0.36257309941520466,0.32124352331606215,0.9209225700164745,0.038353272343420126,0.34065934065934067
bhwiki,False,90.0,0.3986013986013986,0.29533678756476683,0.9268533772652389,0.030260380014074596,0.3392857142857143
bhwiki,False,91.0,0.4642857142857143,0.2694300518134715,0.9337726523887974,0.0211118930330753,0.34098360655737714
bhwiki,False,92.0,0.4470588235294118,0.19689119170984457,0.9334431630971993,0.016537649542575653,0.2733812949640288
bhwiki,False,93.0,0.49206349206349204,0.16062176165803108,0.9360790774299835,0.011259676284306826,0.2421875
bhwiki,False,94.0,0.4807692307692308,0.12953367875647667,0.9357495881383855,0.009500351864883884,0.20408163265306123
bhwiki,False,95.0,0.5555555555555556,0.10362694300518134,0.9377265238879736,0.005629838142153413,0.17467248908296942
bhwiki,False,96.0,0.5909090909090909,0.06735751295336788,0.9377265238879736,0.0031667839549612948,0.12093023255813953
bhwiki,False,97.0,0.6666666666666666,0.05181347150259067,0.9380560131795717,0.0017593244194229415,0.09615384615384615
bhwiki,False,98.0,0.75,0.031088082901554404,0.9377265238879736,0.0007037297677691766,0.05970149253731343
bhwiki,False,99.0,0.8,0.02072538860103627,0.9373970345963756,0.0003518648838845883,0.04040404040404041
