wiki_db,user_is_anonymous_or_bot,threshold,precision,recall,accuracy,fpr,F1
cvwiki,True,0.0,0.02564102564102564,1.0,0.02564102564102564,1.0,0.05
cvwiki,True,1.0,0.02564102564102564,1.0,0.02564102564102564,1.0,0.05
cvwiki,True,2.0,0.02564102564102564,1.0,0.02564102564102564,1.0,0.05
cvwiki,True,3.0,0.02564102564102564,1.0,0.02564102564102564,1.0,0.05
cvwiki,True,4.0,0.02564102564102564,1.0,0.02564102564102564,1.0,0.05
cvwiki,True,5.0,0.025689819219790674,1.0,0.027540360873694207,0.9980506822612085,0.050092764378478656
cvwiki,True,6.0,0.02586206896551724,1.0,0.03418803418803419,0.9912280701754386,0.050420168067226885
cvwiki,True,7.0,0.026137463697967087,1.0,0.0446343779677113,0.9805068226120858,0.0509433962264151
cvwiki,True,8.0,0.026587887740029542,1.0,0.06125356125356125,0.9634502923976608,0.051798561151079135
cvwiki,True,9.0,0.02716297786720322,1.0,0.08167141500474834,0.942495126705653,0.052889324191968665
cvwiki,True,10.0,0.027835051546391754,1.0,0.10446343779677113,0.919103313840156,0.05416248746238717
cvwiki,True,11.0,0.02837624802942722,1.0,0.12203228869895537,0.9010721247563352,0.05518650996423097
cvwiki,True,12.0,0.028708133971291867,1.0,0.13247863247863248,0.8903508771929824,0.0558139534883721
cvwiki,True,13.0,0.029110512129380053,1.0,0.14482431149097816,0.8776803118908382,0.05657412257726559
cvwiki,True,14.0,0.029459901800327332,1.0,0.15527065527065528,0.8669590643274854,0.05723370429252782
cvwiki,True,15.0,0.029867256637168143,1.0,0.1671415004748338,0.854775828460039,0.058002148227712144
cvwiki,True,16.0,0.030456852791878174,1.0,0.18376068376068377,0.8377192982456141,0.059113300492610835
cvwiki,True,17.0,0.03152364273204904,1.0,0.21225071225071226,0.8084795321637427,0.06112054329371816
cvwiki,True,18.0,0.032471437161755864,1.0,0.23599240265906932,0.7841130604288499,0.0629004076878276
cvwiki,True,19.0,0.03435114503816794,1.0,0.2792022792022792,0.7397660818713451,0.06642066420664207
cvwiki,True,20.0,0.03590425531914894,1.0,0.3114909781576448,0.7066276803118908,0.06931964056482671
cvwiki,True,21.0,0.03848895224518888,1.0,0.35944919278252613,0.6574074074074074,0.07412491420727524
cvwiki,True,22.0,0.04176334106728538,1.0,0.4116809116809117,0.6038011695906432,0.0801781737193764
cvwiki,True,23.0,0.044850498338870434,1.0,0.4539411206077873,0.5604288499025342,0.08585055643879173
cvwiki,True,24.0,0.048824593128390596,1.0,0.5004748338081672,0.5126705653021443,0.09310344827586206
cvwiki,True,25.0,0.05283757338551859,1.0,0.540360873694207,0.47173489278752434,0.1003717472118959
cvwiki,True,26.0,0.0574468085106383,1.0,0.5792972459639126,0.4317738791423002,0.10865191146881287
cvwiki,True,27.0,0.06398104265402843,1.0,0.6248812915479582,0.38499025341130605,0.12026726057906459
cvwiki,True,28.0,0.0694980694980695,1.0,0.6566951566951567,0.35233918128654973,0.1299638989169675
cvwiki,True,29.0,0.07510431154381085,1.0,0.6842355175688509,0.32407407407407407,0.13971539456662355
cvwiki,True,30.0,0.08132530120481928,1.0,0.7103513770180437,0.297270955165692,0.15041782729805014
cvwiki,True,31.0,0.08603896103896104,0.9814814814814815,0.7321937321937322,0.2743664717348928,0.1582089552238806
cvwiki,True,32.0,0.09498207885304659,0.9814814814814815,0.7597340930674265,0.24610136452241715,0.17320261437908496
cvwiki,True,33.0,0.10037878787878787,0.9814814814814815,0.7739791073124407,0.23148148148148148,0.18213058419243983
cvwiki,True,34.0,0.1083844580777096,0.9814814814814815,0.7924976258309592,0.2124756335282651,0.19521178637200734
cvwiki,True,35.0,0.11572052401746726,0.9814814814814815,0.8072174738841406,0.19736842105263158,0.20703124999999997
cvwiki,True,36.0,0.12470588235294118,0.9814814814814815,0.8228869895536562,0.18128654970760233,0.22129436325678498
cvwiki,True,37.0,0.1315136476426799,0.9814814814814815,0.8333333333333334,0.1705653021442495,0.23194748358862144
cvwiki,True,38.0,0.13624678663239073,0.9814814814814815,0.8399810066476733,0.16374269005847952,0.23927765237020313
cvwiki,True,39.0,0.14560439560439561,0.9814814814814815,0.8518518518518519,0.15155945419103314,0.2535885167464115
cvwiki,True,40.0,0.14887640449438203,0.9814814814814815,0.855650522317189,0.1476608187134503,0.25853658536585367
cvwiki,True,41.0,0.15497076023391812,0.9814814814814815,0.862298195631529,0.14083820662768032,0.2676767676767676
cvwiki,True,42.0,0.16257668711656442,0.9814814814814815,0.8698955365622032,0.13304093567251463,0.2789473684210526
cvwiki,True,43.0,0.17041800643086816,0.9814814814814815,0.8770180436847104,0.12573099415204678,0.2904109589041096
cvwiki,True,44.0,0.17666666666666667,0.9814814814814815,0.8822412155745489,0.12037037037037036,0.2994350282485876
cvwiki,True,45.0,0.18088737201365188,0.9814814814814815,0.8855650522317189,0.11695906432748537,0.3054755043227666
cvwiki,True,46.0,0.18466898954703834,0.9814814814814815,0.8884140550807218,0.11403508771929824,0.310850439882698
cvwiki,True,47.0,0.18861209964412812,0.9814814814814815,0.8912630579297246,0.1111111111111111,0.3164179104477612
cvwiki,True,48.0,0.19272727272727272,0.9814814814814815,0.8941120607787274,0.10818713450292397,0.3221884498480243
cvwiki,True,49.0,0.19557195571955718,0.9814814814814815,0.896011396011396,0.10623781676413255,0.3261538461538461
cvwiki,True,50.0,0.20229007633587787,0.9814814814814815,0.9002849002849003,0.10185185185185185,0.33544303797468356
cvwiki,True,51.0,0.20622568093385213,0.9814814814814815,0.902659069325736,0.09941520467836257,0.3408360128617363
cvwiki,True,52.0,0.21031746031746032,0.9814814814814815,0.9050332383665717,0.09697855750487329,0.3464052287581699
cvwiki,True,53.0,0.21115537848605578,0.9814814814814815,0.9055080721747388,0.09649122807017543,0.34754098360655744
cvwiki,True,54.0,0.21544715447154472,0.9814814814814815,0.9078822412155746,0.09405458089668615,0.35333333333333333
cvwiki,True,55.0,0.21810699588477367,0.9814814814814815,0.9093067426400759,0.09259259259259259,0.3569023569023569
cvwiki,True,56.0,0.2217573221757322,0.9814814814814815,0.9112060778727445,0.09064327485380116,0.36177474402730375
cvwiki,True,57.0,0.2245762711864407,0.9814814814814815,0.912630579297246,0.0891812865497076,0.3655172413793104
cvwiki,True,58.0,0.22746781115879827,0.9814814814814815,0.9140550807217473,0.08771929824561403,0.3693379790940766
cvwiki,True,59.0,0.22943722943722944,0.9814814814814815,0.9150047483380817,0.08674463937621832,0.37192982456140355
cvwiki,True,60.0,0.22943722943722944,0.9814814814814815,0.9150047483380817,0.08674463937621832,0.37192982456140355
cvwiki,True,61.0,0.23348017621145375,0.9814814814814815,0.9169040835707503,0.0847953216374269,0.3772241992882563
cvwiki,True,62.0,0.2345132743362832,0.9814814814814815,0.9173789173789174,0.08430799220272904,0.3785714285714286
cvwiki,True,63.0,0.23318385650224216,0.9629629629629629,0.9178537511870846,0.08333333333333333,0.3754512635379061
cvwiki,True,64.0,0.23318385650224216,0.9629629629629629,0.9178537511870846,0.08333333333333333,0.3754512635379061
cvwiki,True,65.0,0.23423423423423423,0.9629629629629629,0.9183285849952516,0.08284600389863547,0.37681159420289856
cvwiki,True,66.0,0.2328767123287671,0.9444444444444444,0.9188034188034188,0.08187134502923976,0.3736263736263736
cvwiki,True,67.0,0.2328767123287671,0.9444444444444444,0.9188034188034188,0.08187134502923976,0.3736263736263736
cvwiki,True,68.0,0.2328767123287671,0.9444444444444444,0.9188034188034188,0.08187134502923976,0.3736263736263736
cvwiki,True,69.0,0.2347417840375587,0.9259259259259259,0.9207027540360874,0.07943469785575048,0.37453183520599254
cvwiki,True,70.0,0.2347417840375587,0.9259259259259259,0.9207027540360874,0.07943469785575048,0.37453183520599254
cvwiki,True,71.0,0.23444976076555024,0.9074074074074074,0.9216524216524217,0.07797270955165692,0.3726235741444867
cvwiki,True,72.0,0.23786407766990292,0.9074074074074074,0.9230769230769231,0.07651072124756335,0.3769230769230769
cvwiki,True,73.0,0.23645320197044334,0.8888888888888888,0.9235517568850902,0.07553606237816764,0.37354085603112835
cvwiki,True,74.0,0.23880597014925373,0.8888888888888888,0.9245014245014245,0.07456140350877193,0.3764705882352941
cvwiki,True,75.0,0.23469387755102042,0.8518518518518519,0.9249762583095916,0.07309941520467836,0.36800000000000005
cvwiki,True,76.0,0.23834196891191708,0.8518518518518519,0.9264007597340931,0.07163742690058479,0.3724696356275303
cvwiki,True,77.0,0.24598930481283424,0.8518518518518519,0.9292497625830959,0.06871345029239766,0.3817427385892116
cvwiki,True,78.0,0.24719101123595505,0.8148148148148148,0.9316239316239316,0.06530214424951267,0.37931034482758613
cvwiki,True,79.0,0.25287356321839083,0.8148148148148148,0.9335232668566001,0.06335282651072124,0.3859649122807018
cvwiki,True,80.0,0.25903614457831325,0.7962962962962963,0.936372269705603,0.059941520467836254,0.3909090909090909
cvwiki,True,81.0,0.25925925925925924,0.7777777777777778,0.9373219373219374,0.05847953216374269,0.3888888888888889
cvwiki,True,82.0,0.2565789473684211,0.7222222222222222,0.9392212725546059,0.0550682261208577,0.3786407766990291
cvwiki,True,83.0,0.2624113475177305,0.6851851851851852,0.9425451092117759,0.050682261208576995,0.3794871794871795
cvwiki,True,84.0,0.27906976744186046,0.6666666666666666,0.9472934472934473,0.04532163742690058,0.3934426229508197
cvwiki,True,85.0,0.2796610169491525,0.6111111111111112,0.949667616334283,0.041423001949317736,0.38372093023255816
cvwiki,True,86.0,0.27522935779816515,0.5555555555555556,0.9510921177587844,0.0384990253411306,0.3680981595092025
cvwiki,True,87.0,0.27956989247311825,0.48148148148148145,0.9548907882241215,0.032651072124756333,0.35374149659863946
cvwiki,True,88.0,0.27710843373493976,0.42592592592592593,0.9567901234567902,0.029239766081871343,0.33576642335766427
cvwiki,True,89.0,0.2714285714285714,0.35185185185185186,0.9591642924976258,0.024853801169590642,0.3064516129032258
cvwiki,True,90.0,0.24193548387096775,0.2777777777777778,0.9591642924976258,0.02290448343079922,0.25862068965517243
cvwiki,True,91.0,0.2391304347826087,0.2037037037037037,0.9629629629629629,0.01705653021442495,0.22000000000000003
cvwiki,True,92.0,0.24242424242424243,0.14814814814814814,0.966286799620133,0.012183235867446393,0.18390804597701146
cvwiki,True,93.0,0.21739130434782608,0.09259259259259259,0.9681861348528015,0.008771929824561403,0.12987012987012986
cvwiki,True,94.0,0.2631578947368421,0.09259259259259259,0.9700854700854701,0.00682261208576998,0.136986301369863
cvwiki,True,95.0,0.35714285714285715,0.09259259259259259,0.9724596391263058,0.0043859649122807015,0.14705882352941174
cvwiki,True,96.0,0.42857142857142855,0.05555555555555555,0.9738841405508072,0.001949317738791423,0.09836065573770493
cvwiki,True,97.0,0.5,0.05555555555555555,0.9743589743589743,0.0014619883040935672,0.09999999999999999
cvwiki,True,98.0,0.75,0.05555555555555555,0.9753086419753086,0.0004873294346978557,0.10344827586206895
cvwiki,True,99.0,1.0,0.018518518518518517,0.9748338081671415,0.0,0.03636363636363636
cvwiki,False,0.0,0.010492619598079317,1.0,0.010492619598079317,1.0,0.020767335445265753
cvwiki,False,1.0,0.01054890041122832,1.0,0.015827849902187444,0.994608195542775,0.020877565463552725
cvwiki,False,2.0,0.011270296084049666,1.0,0.0794949315312111,0.9302659956865564,0.022289384208537967
cvwiki,False,3.0,0.011754068716094032,0.9915254237288136,0.12520007113640405,0.8839863407620417,0.02323272438443209
cvwiki,False,4.0,0.012287637568116253,0.9745762711864406,0.17775208963186911,0.8306973400431344,0.02426928352854279
cvwiki,False,5.0,0.012906910336950314,0.9576271186440678,0.23110439267295038,0.7765995686556434,0.02547052856981855
cvwiki,False,6.0,0.013473423980222497,0.923728813559322,0.28952516450293436,0.7171998562185478,0.026559454191033137
cvwiki,False,7.0,0.01397019691325173,0.8898305084745762,0.3398541703716877,0.6659777138749101,0.02750851454021483
cvwiki,False,8.0,0.01490612010892934,0.8813559322033898,0.38760448159345545,0.6176312005751258,0.029316420014094433
cvwiki,False,9.0,0.015863237332511937,0.8728813559322034,0.4304641650364574,0.5742271746944644,0.031160187566177586
cvwiki,False,10.0,0.01651676206050695,0.8559322033898306,0.46372043393206475,0.5404385334291877,0.03240815016845821
cvwiki,False,11.0,0.017170329670329672,0.847457627118644,0.48941845989685223,0.5143781452192667,0.03365870077415012
cvwiki,False,12.0,0.0176481181343418,0.8305084745762712,0.5131602347501334,0.49020488856937455,0.03456180567801094
cvwiki,False,13.0,0.01850453172205438,0.8305084745762712,0.5360128045527298,0.4671099928109274,0.03620243812338382
cvwiki,False,14.0,0.019405940594059406,0.8305084745762712,0.5578872487995732,0.44500359453630484,0.037925696594427245
cvwiki,False,15.0,0.020066197765825404,0.8220338983050848,0.5769162368842256,0.42568296189791516,0.03917609046849758
cvwiki,False,16.0,0.020478551411942228,0.8050847457627118,0.593900053352303,0.40833932422717467,0.039941139373554764
cvwiki,False,17.0,0.0214301827205053,0.8050847457627118,0.6122176773964076,0.3898274622573688,0.04174906613931004
cvwiki,False,18.0,0.021604938271604937,0.7711864406779662,0.6311577449759914,0.3703271028037383,0.04203233256351039
cvwiki,False,19.0,0.022562045625470043,0.7627118644067796,0.650809176596123,0.35037742631200575,0.04382761139517896
cvwiki,False,20.0,0.0231396266105706,0.7457627118644068,0.6669927085185844,0.333842559309849,0.044886508543738844
cvwiki,False,21.0,0.024267782426778243,0.7372881355932204,0.6861995376133736,0.31434219985621853,0.04698892789630029
cvwiki,False,22.0,0.025587622731329963,0.7288135593220338,0.7059398897385737,0.29430265995686555,0.049439494107502154
cvwiki,False,23.0,0.02683080808080808,0.7203389830508474,0.7229237062066513,0.27704888569374553,0.051734631771150334
cvwiki,False,24.0,0.0274339243894279,0.6949152542372882,0.7383069535834964,0.2612329259525521,0.05278403604763437
cvwiki,False,25.0,0.02861230329041488,0.6779661016949152,0.755112929041437,0.24406901509705248,0.05490734385724091
cvwiki,False,26.0,0.030476190476190476,0.6779661016949152,0.7703183354081451,0.22870237239396118,0.058330295297119944
cvwiki,False,27.0,0.032599837000814993,0.6779661016949152,0.7855237417748533,0.2133357296908699,0.062208398133748045
cvwiki,False,28.0,0.03334776959722824,0.652542372881356,0.7978836919793705,0.20057512580877068,0.0634528224145035
cvwiki,False,29.0,0.03569772832637923,0.652542372881356,0.8113996087497777,0.18691588785046728,0.06769230769230769
cvwiki,False,30.0,0.03736479842674533,0.6440677966101694,0.8221589898630625,0.17595255212077643,0.07063197026022305
cvwiki,False,31.0,0.03848153926157046,0.6271186440677966,0.8316734839053885,0.16615744069015098,0.07251347378735913
cvwiki,False,32.0,0.04113396331295164,0.6271186440677966,0.8426996265338788,0.15501437814521926,0.0772039645279082
cvwiki,False,33.0,0.042540792540792544,0.6186440677966102,0.8499021874444247,0.1476455787203451,0.07960741548527808
cvwiki,False,34.0,0.04525728456292622,0.6186440677966102,0.859060999466477,0.13838964773544213,0.08434430964760255
cvwiki,False,35.0,0.04824851288830139,0.6186440677966102,0.8679530499733239,0.12940330697340044,0.08951563458001227
cvwiki,False,36.0,0.0517363571934798,0.6186440677966102,0.8770229414903077,0.1202372393961179,0.09548724656638324
cvwiki,False,37.0,0.05447761194029851,0.6186440677966102,0.8833362973501689,0.1138569374550683,0.10013717421124828
cvwiki,False,38.0,0.05689789555728761,0.6186440677966102,0.8884047661390717,0.10873472322070453,0.10421127765881513
cvwiki,False,39.0,0.059689288634505316,0.6186440677966102,0.8937399964431798,0.10334291876347951,0.10887397464578674
cvwiki,False,40.0,0.0627147766323024,0.6186440677966102,0.8989863062422194,0.0980409777138749,0.11388455538221529
cvwiki,False,41.0,0.06471631205673758,0.6186440677966102,0.9021874444246843,0.0948058950395399,0.11717495987158909
cvwiki,False,42.0,0.06797020484171322,0.6186440677966102,0.9069891516983817,0.08995327102803738,0.12248322147651006
cvwiki,False,43.0,0.07135874877810362,0.6186440677966102,0.9115240974568736,0.08537023723939612,0.12795793163891322
cvwiki,False,44.0,0.07448979591836735,0.6186440677966102,0.9153476791748177,0.08150611071171819,0.1329690346083789
cvwiki,False,45.0,0.07676130389064142,0.6186440677966102,0.9179263738218033,0.07890007189072609,0.13657623947614594
cvwiki,False,46.0,0.0794341675734494,0.6186440677966102,0.9207718299839943,0.07602444284687275,0.14079074252651877
cvwiki,False,47.0,0.08183856502242152,0.6186440677966102,0.9231726836208429,0.07359813084112149,0.14455445544554457
cvwiki,False,48.0,0.08333333333333333,0.6101694915254238,0.9254846167526232,0.07117181883537024,0.14663951120162932
cvwiki,False,49.0,0.0861244019138756,0.6101694915254238,0.9279743908945403,0.06865564342199856,0.1509433962264151
cvwiki,False,50.0,0.08944099378881988,0.6101694915254238,0.9307309265516628,0.06586987778576564,0.15601300108342364
cvwiki,False,51.0,0.09350649350649351,0.6101694915254238,0.9338431442290592,0.06272465851905104,0.16216216216216214
cvwiki,False,52.0,0.09568733153638814,0.6016949152542372,0.9361550773608394,0.06029834651329979,0.16511627906976742
cvwiki,False,53.0,0.09806629834254144,0.6016949152542372,0.9377556464520719,0.05868080517613228,0.16864608076009502
cvwiki,False,54.0,0.10042432814710042,0.6016949152542372,0.9392672950382358,0.05715312724658519,0.1721212121212121
cvwiki,False,55.0,0.10334788937409024,0.6016949152542372,0.9410457051396052,0.055355859094176854,0.1763975155279503
cvwiki,False,56.0,0.1062874251497006,0.6016949152542372,0.9427351947359061,0.053648454349388926,0.1806615776081425
cvwiki,False,57.0,0.10973724884080371,0.6016949152542372,0.9446025253423439,0.05176132278936017,0.18562091503267975
cvwiki,False,58.0,0.1126984126984127,0.6016949152542372,0.9461141739285079,0.05023364485981308,0.18983957219251335
cvwiki,False,59.0,0.11345218800648298,0.5932203389830508,0.9470922994842611,0.04915528396836808,0.1904761904761905
cvwiki,False,60.0,0.11686143572621036,0.5932203389830508,0.9486928685754935,0.04753774263120057,0.195258019525802
cvwiki,False,61.0,0.12131715771230503,0.5932203389830508,0.9506491196869998,0.0455607476635514,0.2014388489208633
cvwiki,False,62.0,0.1252236135957066,0.5932203389830508,0.9522496887782322,0.0439432063263839,0.206794682422452
cvwiki,False,63.0,0.12408759124087591,0.576271186440678,0.9528721323137116,0.043134435657800146,0.2042042042042042
cvwiki,False,64.0,0.12641509433962264,0.5677966101694916,0.954294860394807,0.041606757728253056,0.20679012345679013
cvwiki,False,65.0,0.12909441233140656,0.5677966101694916,0.9552729859505602,0.04061826024442847,0.21036106750392464
cvwiki,False,66.0,0.13333333333333333,0.559322033898305,0.9572292370620665,0.038551401869158876,0.21533442088091354
cvwiki,False,67.0,0.13569937369519833,0.5508474576271186,0.9584741241330251,0.037203450754852624,0.21775544388609713
cvwiki,False,68.0,0.13675213675213677,0.5423728813559322,0.9592744086786413,0.036304816678648454,0.21843003412969283
cvwiki,False,69.0,0.1409090909090909,0.5254237288135594,0.9614085008002845,0.03396836808051761,0.22222222222222224
cvwiki,False,70.0,0.1451990632318501,0.5254237288135594,0.9625644673661746,0.03280014378145219,0.22752293577981647
cvwiki,False,71.0,0.15024630541871922,0.5169491525423728,0.9642539569624755,0.031002875629043854,0.23282442748091606
cvwiki,False,72.0,0.15306122448979592,0.5084745762711864,0.9653210030232972,0.029834651329978434,0.23529411764705882
cvwiki,False,73.0,0.15633423180592992,0.4915254237288136,0.9668326516094612,0.02812724658519051,0.23721881390593047
cvwiki,False,74.0,0.15789473684210525,0.4830508474576271,0.9675440156500089,0.027318475916606758,0.23799582463465552
cvwiki,False,75.0,0.15606936416184972,0.4576271186440678,0.9683443001956251,0.026240115025161753,0.2327586206896552
cvwiki,False,76.0,0.16167664670658682,0.4576271186440678,0.9694113462564468,0.02516175413371675,0.23893805309734517
cvwiki,False,77.0,0.16772151898734178,0.4491525423728814,0.9708340743375422,0.02363407620416966,0.24423963133640553
cvwiki,False,78.0,0.17,0.4322033898305085,0.9719011203983638,0.022375988497483824,0.24401913875598089
cvwiki,False,79.0,0.17525773195876287,0.4322033898305085,0.97270140494398,0.021567217828900073,0.2493887530562347
cvwiki,False,80.0,0.1781818181818182,0.4152542372881356,0.9737684510048017,0.020309130122214233,0.24936386768447835
cvwiki,False,81.0,0.18532818532818532,0.4067796610169492,0.9750133380757603,0.01896117900790798,0.2546419098143236
cvwiki,False,82.0,0.1859504132231405,0.3813559322033898,0.9759914636315135,0.01770309130122214,0.24999999999999994
cvwiki,False,83.0,0.1902654867256637,0.3644067796610169,0.9770585096923351,0.016445003594536305,0.24999999999999994
cvwiki,False,84.0,0.20388349514563106,0.3559322033898305,0.9786590787835675,0.014737598849748382,0.25925925925925924
cvwiki,False,85.0,0.20967741935483872,0.3305084745762712,0.9799039658545261,0.013209920920201294,0.256578947368421
cvwiki,False,86.0,0.21052631578947367,0.3050847457627119,0.9807042504001423,0.01213156002875629,0.24913494809688577
cvwiki,False,87.0,0.21621621621621623,0.2711864406779661,0.9820380579761693,0.010424155283968369,0.24060150375939848
cvwiki,False,88.0,0.2153846153846154,0.23728813559322035,0.982927263026854,0.00916606757728253,0.22580645161290325
cvwiki,False,89.0,0.21818181818181817,0.2033898305084746,0.9839943090876756,0.007728253055355859,0.2105263157894737
cvwiki,False,90.0,0.20618556701030927,0.1694915254237288,0.984438911613018,0.006919482386772107,0.18604651162790697
cvwiki,False,91.0,0.2318840579710145,0.13559322033898305,0.9862173217143874,0.004762760603882099,0.1711229946524064
cvwiki,False,92.0,0.24074074074074073,0.11016949152542373,0.9870176062600036,0.0036843997124370955,0.1511627906976744
cvwiki,False,93.0,0.1794871794871795,0.059322033898305086,0.987284367775209,0.002875629043853343,0.089171974522293
cvwiki,False,94.0,0.2413793103448276,0.059322033898305086,0.9881735728258937,0.001976994967649173,0.09523809523809525
cvwiki,False,95.0,0.2857142857142857,0.05084745762711865,0.9887070958563045,0.0013479511143062546,0.08633093525179858
cvwiki,False,96.0,0.36363636363636365,0.03389830508474576,0.9892406188867153,0.0006290438533429188,0.06201550387596899
cvwiki,False,97.0,0.5714285714285714,0.03389830508474576,0.9895963009069891,0.0002695902228612509,0.06399999999999999
cvwiki,False,98.0,0.8,0.03389830508474576,0.9897741419171261,8.986340762041697e-05,0.06504065040650407
cvwiki,False,99.0,1.0,0.01694915254237288,0.9896852214120576,0.0,0.03333333333333333
