wiki_db,user_is_anonymous_or_bot,threshold,precision,recall,accuracy,fpr,F1
diqwiki,True,0.0,0.10921985815602837,1.0,0.10921985815602837,1.0,0.1969309462915601
diqwiki,True,1.0,0.10921985815602837,1.0,0.10921985815602837,1.0,0.1969309462915601
diqwiki,True,2.0,0.10921985815602837,1.0,0.10921985815602837,1.0,0.1969309462915601
diqwiki,True,3.0,0.10921985815602837,1.0,0.10921985815602837,1.0,0.1969309462915601
diqwiki,True,4.0,0.10921985815602837,1.0,0.10921985815602837,1.0,0.1969309462915601
diqwiki,True,5.0,0.10921985815602837,1.0,0.10921985815602837,1.0,0.1969309462915601
diqwiki,True,6.0,0.10921985815602837,1.0,0.10921985815602837,1.0,0.1969309462915601
diqwiki,True,7.0,0.10921985815602837,1.0,0.10921985815602837,1.0,0.1969309462915601
diqwiki,True,8.0,0.109375,1.0,0.11063829787234042,0.9984076433121019,0.19718309859154928
diqwiki,True,9.0,0.109375,1.0,0.11063829787234042,0.9984076433121019,0.19718309859154928
diqwiki,True,10.0,0.109375,1.0,0.11063829787234042,0.9984076433121019,0.19718309859154928
diqwiki,True,11.0,0.109375,1.0,0.11063829787234042,0.9984076433121019,0.19718309859154928
diqwiki,True,12.0,0.10953058321479374,1.0,0.11205673758865248,0.9968152866242038,0.19743589743589743
diqwiki,True,13.0,0.10953058321479374,1.0,0.11205673758865248,0.9968152866242038,0.19743589743589743
diqwiki,True,14.0,0.10984308131241084,1.0,0.1148936170212766,0.9936305732484076,0.1979434447300771
diqwiki,True,15.0,0.11,1.0,0.11631205673758865,0.9920382165605095,0.19819819819819817
diqwiki,True,16.0,0.11,1.0,0.11631205673758865,0.9920382165605095,0.19819819819819817
diqwiki,True,17.0,0.11,1.0,0.11631205673758865,0.9920382165605095,0.19819819819819817
diqwiki,True,18.0,0.11,1.0,0.11631205673758865,0.9920382165605095,0.19819819819819817
diqwiki,True,19.0,0.11015736766809728,1.0,0.11773049645390071,0.9904458598726115,0.19845360824742267
diqwiki,True,20.0,0.11015736766809728,1.0,0.11773049645390071,0.9904458598726115,0.19845360824742267
diqwiki,True,21.0,0.11031518624641834,1.0,0.11914893617021277,0.9888535031847133,0.19870967741935486
diqwiki,True,22.0,0.11047345767575323,1.0,0.12056737588652482,0.9872611464968153,0.19896640826873388
diqwiki,True,23.0,0.11079136690647481,1.0,0.12340425531914893,0.9840764331210191,0.19948186528497408
diqwiki,True,24.0,0.11127167630057803,1.0,0.1276595744680851,0.9792993630573248,0.200260078023407
diqwiki,True,25.0,0.11143270622286541,1.0,0.12907801418439716,0.9777070063694268,0.20052083333333331
diqwiki,True,26.0,0.11224489795918367,1.0,0.13617021276595745,0.9697452229299363,0.20183486238532108
diqwiki,True,27.0,0.11273792093704246,1.0,0.14042553191489363,0.964968152866242,0.2026315789473684
diqwiki,True,28.0,0.1130690161527166,1.0,0.14326241134751774,0.9617834394904459,0.20316622691292877
diqwiki,True,29.0,0.1134020618556701,1.0,0.14609929078014183,0.9585987261146497,0.2037037037037037
diqwiki,True,30.0,0.11343283582089553,0.987012987012987,0.15602836879432624,0.945859872611465,0.20348058902275773
diqwiki,True,31.0,0.1148036253776435,0.987012987012987,0.1673758865248227,0.9331210191082803,0.20568335588633288
diqwiki,True,32.0,0.11728395061728394,0.987012987012987,0.18723404255319148,0.910828025477707,0.20965517241379308
diqwiki,True,33.0,0.11949685534591195,0.987012987012987,0.20425531914893616,0.89171974522293,0.2131837307152875
diqwiki,True,34.0,0.12121212121212122,0.987012987012987,0.2170212765957447,0.8773885350318471,0.2159090909090909
diqwiki,True,35.0,0.12277867528271405,0.987012987012987,0.22836879432624113,0.8646496815286624,0.21839080459770113
diqwiki,True,36.0,0.1237785016286645,0.987012987012987,0.23546099290780143,0.856687898089172,0.21997105643994214
diqwiki,True,37.0,0.13036020583190394,0.987012987012987,0.2794326241134752,0.8073248407643312,0.2303030303030303
diqwiki,True,38.0,0.1371841155234657,0.987012987012987,0.32056737588652484,0.7611464968152867,0.24088748019017434
diqwiki,True,39.0,0.13970588235294118,0.987012987012987,0.3347517730496454,0.7452229299363057,0.24476650563607083
diqwiki,True,40.0,0.14366729678638943,0.987012987012987,0.35602836879432626,0.7213375796178344,0.25082508250825086
diqwiki,True,41.0,0.14728682170542637,0.987012987012987,0.37446808510638296,0.7006369426751592,0.25632377740303547
diqwiki,True,42.0,0.15139442231075698,0.987012987012987,0.3943262411347518,0.678343949044586,0.26252158894645944
diqwiki,True,43.0,0.15670103092783505,0.987012987012987,0.41843971631205673,0.6512738853503185,0.2704626334519573
diqwiki,True,44.0,0.16033755274261605,0.987012987012987,0.4340425531914894,0.6337579617834395,0.2758620689655173
diqwiki,True,45.0,0.16198704103671707,0.974025974025974,0.44680851063829785,0.6178343949044586,0.2777777777777778
diqwiki,True,46.0,0.1662971175166297,0.974025974025974,0.46382978723404256,0.5987261146496815,0.2840909090909091
diqwiki,True,47.0,0.1689497716894977,0.961038961038961,0.4794326241134752,0.5796178343949044,0.287378640776699
diqwiki,True,48.0,0.1721698113207547,0.948051948051948,0.49645390070921985,0.5589171974522293,0.29141716566866266
diqwiki,True,49.0,0.17632850241545894,0.948051948051948,0.5106382978723404,0.5429936305732485,0.2973523421588595
diqwiki,True,50.0,0.18387909319899245,0.948051948051948,0.5347517730496454,0.5159235668789809,0.3080168776371308
diqwiki,True,51.0,0.18766066838046272,0.948051948051948,0.5460992907801419,0.5031847133757962,0.3133047210300429
diqwiki,True,52.0,0.18933333333333333,0.922077922077922,0.5602836879432624,0.4840764331210191,0.3141592920353982
diqwiki,True,53.0,0.19137466307277629,0.922077922077922,0.5659574468085107,0.47770700636942676,0.31696428571428575
diqwiki,True,54.0,0.19832402234636873,0.922077922077922,0.5843971631205673,0.4570063694267516,0.3264367816091954
diqwiki,True,55.0,0.20402298850574713,0.922077922077922,0.5985815602836879,0.4410828025477707,0.3341176470588235
diqwiki,True,56.0,0.20699708454810495,0.922077922077922,0.6056737588652482,0.43312101910828027,0.33809523809523806
diqwiki,True,57.0,0.21068249258160238,0.922077922077922,0.6141843971631206,0.42356687898089174,0.3429951690821256
diqwiki,True,58.0,0.21406727828746178,0.9090909090909091,0.625531914893617,0.40923566878980894,0.3465346534653465
diqwiki,True,59.0,0.21739130434782608,0.9090909090909091,0.6326241134751773,0.4012738853503185,0.3508771929824562
diqwiki,True,60.0,0.2169811320754717,0.8961038961038961,0.6354609929078014,0.3964968152866242,0.3493670886075949
diqwiki,True,61.0,0.21904761904761905,0.8961038961038961,0.6397163120567376,0.39171974522292996,0.3520408163265306
diqwiki,True,62.0,0.2247557003257329,0.8961038961038961,0.6510638297872341,0.37898089171974525,0.35937499999999994
diqwiki,True,63.0,0.21926910299003322,0.8571428571428571,0.6510638297872341,0.37420382165605093,0.3492063492063492
diqwiki,True,64.0,0.2054794520547945,0.7792207792207793,0.6468085106382979,0.36942675159235666,0.3252032520325203
diqwiki,True,65.0,0.20921985815602837,0.7662337662337663,0.6581560283687943,0.35509554140127386,0.3286908077994429
diqwiki,True,66.0,0.18587360594795538,0.6493506493506493,0.6510638297872341,0.3487261146496815,0.28901734104046245
diqwiki,True,67.0,0.1856060606060606,0.6363636363636364,0.6553191489361702,0.34235668789808915,0.28739002932551316
diqwiki,True,68.0,0.18604651162790697,0.6233766233766234,0.6609929078014184,0.3343949044585987,0.2865671641791045
diqwiki,True,69.0,0.17786561264822134,0.5844155844155844,0.6595744680851063,0.33121019108280253,0.27272727272727276
diqwiki,True,70.0,0.18,0.5844155844155844,0.6638297872340425,0.32643312101910826,0.2752293577981651
diqwiki,True,71.0,0.18032786885245902,0.5714285714285714,0.6695035460992907,0.3184713375796178,0.2741433021806854
diqwiki,True,72.0,0.18143459915611815,0.5584415584415584,0.676595744680851,0.3089171974522293,0.27388535031847133
diqwiki,True,73.0,0.18376068376068377,0.5584415584415584,0.6808510638297872,0.304140127388535,0.2765273311897106
diqwiki,True,74.0,0.1853448275862069,0.5584415584415584,0.6836879432624113,0.30095541401273884,0.2783171521035599
diqwiki,True,75.0,0.1894273127753304,0.5584415584415584,0.6907801418439716,0.2929936305732484,0.28289473684210525
diqwiki,True,76.0,0.1875,0.5454545454545454,0.6921985815602837,0.2898089171974522,0.27906976744186046
diqwiki,True,77.0,0.1889400921658986,0.5324675324675324,0.699290780141844,0.2802547770700637,0.2789115646258503
diqwiki,True,78.0,0.18867924528301888,0.5194805194805194,0.7035460992907802,0.27388535031847133,0.2768166089965398
diqwiki,True,79.0,0.18627450980392157,0.4935064935064935,0.7092198581560284,0.2643312101910828,0.2704626334519573
diqwiki,True,80.0,0.18461538461538463,0.4675324675324675,0.7163120567375887,0.2531847133757962,0.2647058823529412
diqwiki,True,81.0,0.18421052631578946,0.45454545454545453,0.7205673758865249,0.24681528662420382,0.26217228464419473
diqwiki,True,82.0,0.1912568306010929,0.45454545454545453,0.7304964539007093,0.2356687898089172,0.2692307692307692
diqwiki,True,83.0,0.18023255813953487,0.4025974025974026,0.7347517730496453,0.22452229299363058,0.24899598393574296
diqwiki,True,84.0,0.1901840490797546,0.4025974025974026,0.7475177304964539,0.21019108280254778,0.25833333333333336
diqwiki,True,85.0,0.1986754966887417,0.38961038961038963,0.7617021276595745,0.1926751592356688,0.2631578947368421
diqwiki,True,86.0,0.19444444444444445,0.36363636363636365,0.7659574468085106,0.18471337579617833,0.25339366515837103
diqwiki,True,87.0,0.20610687022900764,0.35064935064935066,0.7815602836879433,0.16560509554140126,0.25961538461538464
diqwiki,True,88.0,0.23300970873786409,0.3116883116883117,0.8127659574468085,0.12579617834394904,0.26666666666666666
diqwiki,True,89.0,0.2345679012345679,0.24675324675324675,0.8297872340425532,0.09872611464968153,0.24050632911392403
diqwiki,True,90.0,0.23529411764705882,0.2077922077922078,0.8397163120567376,0.08280254777070063,0.2206896551724138
diqwiki,True,91.0,0.30612244897959184,0.19480519480519481,0.8638297872340426,0.054140127388535034,0.23809523809523808
diqwiki,True,92.0,0.4,0.18181818181818182,0.8808510638297873,0.03343949044585987,0.25000000000000006
diqwiki,True,93.0,0.42857142857142855,0.11688311688311688,0.8865248226950354,0.01910828025477707,0.1836734693877551
diqwiki,True,94.0,0.47368421052631576,0.11688311688311688,0.8893617021276595,0.01592356687898089,0.1875
diqwiki,True,95.0,0.5384615384615384,0.09090909090909091,0.8921985815602836,0.009554140127388535,0.15555555555555556
diqwiki,True,96.0,0.45454545454545453,0.06493506493506493,0.8893617021276595,0.009554140127388535,0.11363636363636363
diqwiki,True,97.0,0.5555555555555556,0.06493506493506493,0.8921985815602836,0.006369426751592357,0.11627906976744184
diqwiki,True,98.0,0.5,0.05194805194805195,0.8907801418439716,0.006369426751592357,0.09411764705882353
diqwiki,True,99.0,0.6666666666666666,0.025974025974025976,0.8921985815602836,0.0015923566878980893,0.05
diqwiki,False,0.0,0.03624078624078624,1.0,0.03624078624078624,1.0,0.06994665085951393
diqwiki,False,1.0,0.03624078624078624,1.0,0.03624078624078624,1.0,0.06994665085951393
diqwiki,False,2.0,0.03629652414641649,1.0,0.03777641277641278,0.9984066284257489,0.07005046007717422
diqwiki,False,3.0,0.03669154228855721,1.0,0.048525798525798525,0.9872530274059911,0.07078584283143372
diqwiki,False,4.0,0.037784181876400896,1.0,0.0770884520884521,0.9576163161249204,0.07281703178031472
diqwiki,False,5.0,0.04016337644656229,1.0,0.1339066339066339,0.8986615678776291,0.07722513089005235
diqwiki,False,6.0,0.041563930961606196,1.0,0.1643120393120393,0.8671128107074569,0.07981061887047683
diqwiki,False,7.0,0.04264705882352941,0.9830508474576272,0.19963144963144963,0.8298279158699808,0.0817477096546864
diqwiki,False,8.0,0.04504854368932039,0.9830508474576272,0.24416461916461915,0.7836201402166986,0.08614927590048274
diqwiki,False,9.0,0.04703476482617587,0.9745762711864406,0.2834766584766585,0.7425111536010197,0.08973858759266484
diqwiki,False,10.0,0.04878048780487805,0.9661016949152542,0.31603194103194104,0.7084130019120459,0.09287169042769858
diqwiki,False,11.0,0.05015534842432313,0.9576271186440678,0.34121621621621623,0.6819630337794774,0.09531843104175453
diqwiki,False,12.0,0.05226641998149861,0.9576271186440678,0.3691646191646192,0.652963671128107,0.09912280701754388
diqwiki,False,13.0,0.05339105339105339,0.940677966101695,0.39342751842751844,0.627151051625239,0.10104688211197087
diqwiki,False,14.0,0.0555,0.940677966101695,0.4176904176904177,0.6019757807520714,0.1048158640226629
diqwiki,False,15.0,0.0583596214511041,0.940677966101695,0.4477886977886978,0.5707456978967496,0.1099009900990099
diqwiki,False,16.0,0.06035889070146819,0.940677966101695,0.46713759213759215,0.5506692160611855,0.11343893714869699
diqwiki,False,17.0,0.0622876557191393,0.9322033898305084,0.48894348894348894,0.5277246653919694,0.11677282377919321
diqwiki,False,18.0,0.06466784244562022,0.9322033898305084,0.5089066339066339,0.507010834926705,0.12094557449147883
diqwiki,False,19.0,0.06711409395973154,0.9322033898305084,0.527948402948403,0.4872530274059911,0.12521343198634036
diqwiki,False,20.0,0.06821026282853566,0.923728813559322,0.5399262899262899,0.47450605481198216,0.12703962703962704
diqwiki,False,21.0,0.07068062827225131,0.9152542372881356,0.5608108108108109,0.45251752708731674,0.13122721749696234
diqwiki,False,22.0,0.0728744939271255,0.9152542372881356,0.5749385749385749,0.4378585086042065,0.13499999999999998
diqwiki,False,23.0,0.07282913165266107,0.8813559322033898,0.5890663390663391,0.4219247928616954,0.13454075032341528
diqwiki,False,24.0,0.07525325615050651,0.8813559322033898,0.6031941031941032,0.4072657743785851,0.13866666666666666
diqwiki,False,25.0,0.07657992565055761,0.8728813559322034,0.6139434889434889,0.39579349904397704,0.14080656185919344
diqwiki,False,26.0,0.07844630616907845,0.8728813559322034,0.6237714987714987,0.38559592096876993,0.14395527603074773
diqwiki,False,27.0,0.08018867924528301,0.864406779661017,0.6357493857493858,0.372848948374761,0.14676258992805755
diqwiki,False,28.0,0.08245755860953921,0.864406779661017,0.6464987714987716,0.3616953473550032,0.15055350553505537
diqwiki,False,29.0,0.08319467554076539,0.847457627118644,0.6560196560196561,0.3511790949649458,0.1515151515151515
diqwiki,False,30.0,0.08304794520547945,0.8220338983050848,0.6646191646191646,0.34130019120458893,0.15085536547433903
diqwiki,False,31.0,0.0855379188712522,0.8220338983050848,0.6750614250614251,0.33046526449968133,0.1549520766773163
diqwiki,False,32.0,0.08940092165898618,0.8220338983050848,0.6901105651105651,0.3148502230720204,0.16126350789692437
diqwiki,False,33.0,0.09264565425023878,0.8220338983050848,0.7017813267813268,0.3027405991077119,0.1665236051502146
diqwiki,False,34.0,0.09556650246305419,0.8220338983050848,0.7116093366093366,0.2925430210325048,0.17122683142100617
diqwiki,False,35.0,0.0980788675429727,0.8220338983050848,0.7195945945945946,0.28425748884639895,0.17524841915085818
diqwiki,False,36.0,0.10072689511941849,0.8220338983050848,0.7275798525798526,0.27597195666029317,0.17946345975948197
diqwiki,False,37.0,0.10647639956092206,0.8220338983050848,0.7435503685503686,0.2594008922880816,0.18853255587949466
diqwiki,False,38.0,0.11123853211009174,0.8220338983050848,0.7555282555282555,0.24697259400892288,0.19595959595959597
diqwiki,False,39.0,0.11384976525821597,0.8220338983050848,0.7616707616707616,0.24059910771191842,0.2
diqwiki,False,40.0,0.11786148238153099,0.8220338983050848,0.7705773955773956,0.23135755258126195,0.20616365568544107
diqwiki,False,41.0,0.1214017521902378,0.8220338983050848,0.777948402948403,0.2237093690248566,0.21155943293347876
diqwiki,False,42.0,0.12532299741602068,0.8220338983050848,0.7856265356265356,0.21574251115360102,0.21748878923766818
diqwiki,False,43.0,0.12985274431057564,0.8220338983050848,0.793918918918919,0.207138304652645,0.22427745664739882
diqwiki,False,44.0,0.13287671232876713,0.8220338983050848,0.7991400491400491,0.20172084130019122,0.2287735849056604
diqwiki,False,45.0,0.13617021276595745,0.8135593220338984,0.8062039312039312,0.19407265774378585,0.23329283110571084
diqwiki,False,46.0,0.1411764705882353,0.8135593220338984,0.8138820638820639,0.1861057998725303,0.24060150375939848
diqwiki,False,47.0,0.14393939393939395,0.8050847457627118,0.8194103194103194,0.18005098789037605,0.2442159383033419
diqwiki,False,48.0,0.14733542319749215,0.7966101694915254,0.8255528255528255,0.17335882727852134,0.24867724867724866
diqwiki,False,49.0,0.1508828250401284,0.7966101694915254,0.8301597051597052,0.168578712555768,0.2537112010796221
diqwiki,False,50.0,0.15824915824915825,0.7966101694915254,0.8390663390663391,0.15933715742511154,0.26404494382022475
diqwiki,False,51.0,0.16262975778546712,0.7966101694915254,0.8439803439803439,0.15423836838750796,0.27011494252873564
diqwiki,False,52.0,0.16606498194945848,0.7796610169491526,0.8501228501228502,0.14722753346080306,0.2738095238095238
diqwiki,False,53.0,0.16727941176470587,0.7711864406779662,0.8525798525798526,0.14435946462715105,0.27492447129909364
diqwiki,False,54.0,0.17300380228136883,0.7711864406779662,0.8581081081081081,0.13862332695984703,0.28260869565217395
diqwiki,False,55.0,0.1780821917808219,0.7711864406779662,0.8627149877149877,0.1338432122370937,0.2893481717011129
diqwiki,False,56.0,0.18091451292246521,0.7711864406779662,0.8651719901719902,0.1312938177182919,0.29307568438003223
diqwiki,False,57.0,0.18292682926829268,0.7627118644067796,0.8679361179361179,0.12810707456978968,0.2950819672131148
diqwiki,False,58.0,0.18683651804670912,0.7457627118644068,0.8731572481572482,0.12205226258763544,0.298811544991511
diqwiki,False,59.0,0.18872017353579176,0.7372881355932204,0.8756142506142506,0.11918419375398343,0.3005181347150259
diqwiki,False,60.0,0.18666666666666668,0.711864406779661,0.8771498771498771,0.11663479923518165,0.295774647887324
diqwiki,False,61.0,0.18594104308390022,0.6949152542372882,0.8786855036855037,0.11440407903123008,0.29338103756708406
diqwiki,False,62.0,0.1902552204176334,0.6949152542372882,0.8817567567567568,0.11121733588272785,0.2987249544626594
diqwiki,False,63.0,0.18705035971223022,0.6610169491525424,0.8835995085995086,0.10803059273422562,0.29158878504672897
diqwiki,False,64.0,0.1761786600496278,0.6016949152542372,0.8835995085995086,0.10579987253027406,0.27255278310940495
diqwiki,False,65.0,0.18087855297157623,0.5932203389830508,0.8878992628992629,0.10101975780752072,0.27722772277227725
diqwiki,False,66.0,0.16216216216216217,0.5084745762711864,0.8869778869778869,0.09878903760356915,0.2459016393442623
diqwiki,False,67.0,0.15921787709497207,0.4830508474576271,0.8888206388206388,0.09592096876991714,0.23949579831932774
diqwiki,False,68.0,0.16045845272206305,0.4745762711864407,0.890970515970516,0.09337157425111536,0.23982869379014995
diqwiki,False,69.0,0.15588235294117647,0.4491525423728814,0.8918918918918919,0.09145952836201403,0.23144104803493448
diqwiki,False,70.0,0.15868263473053892,0.4491525423728814,0.8937346437346437,0.08954748247291268,0.2345132743362832
diqwiki,False,71.0,0.15838509316770186,0.4322033898305085,0.8961916461916462,0.08636073932441045,0.2318181818181818
diqwiki,False,72.0,0.16025641025641027,0.423728813559322,0.8986486486486487,0.08349267049075844,0.23255813953488375
diqwiki,False,73.0,0.16286644951140064,0.423728813559322,0.9001842751842751,0.08189929891650732,0.23529411764705882
diqwiki,False,74.0,0.1617161716171617,0.4152542372881356,0.9007985257985258,0.08094327597195666,0.2327790973871734
diqwiki,False,75.0,0.16610169491525423,0.4152542372881356,0.9032555282555282,0.07839388145315487,0.23728813559322032
diqwiki,False,76.0,0.16551724137931034,0.4067796610169492,0.9041769041769042,0.07711918419375398,0.23529411764705882
diqwiki,False,77.0,0.16906474820143885,0.3983050847457627,0.9072481572481572,0.07361376673040153,0.23737373737373738
diqwiki,False,78.0,0.17228464419475656,0.3898305084745763,0.910012285012285,0.0704270235818993,0.23896103896103899
diqwiki,False,79.0,0.17254901960784313,0.3728813559322034,0.9124692874692875,0.06724028043339707,0.23592493297587136
diqwiki,False,80.0,0.17721518987341772,0.3559322033898305,0.9167690417690417,0.0621414913957935,0.23661971830985915
diqwiki,False,81.0,0.18061674008810572,0.3474576271186441,0.9192260442260443,0.05927342256214149,0.2376811594202898
diqwiki,False,82.0,0.18807339449541285,0.3474576271186441,0.921990171990172,0.05640535372848948,0.24404761904761904
diqwiki,False,83.0,0.17733990147783252,0.3050847457627119,0.9235257985257985,0.05321861057998725,0.22429906542056074
diqwiki,False,84.0,0.18652849740932642,0.3050847457627119,0.9265970515970516,0.05003186743148502,0.2315112540192926
diqwiki,False,85.0,0.19553072625698323,0.2966101694915254,0.9302825552825553,0.045889101338432124,0.23569023569023567
diqwiki,False,86.0,0.19411764705882353,0.2796610169491525,0.9318181818181818,0.04365838113448056,0.22916666666666663
diqwiki,False,87.0,0.19736842105263158,0.2542372881355932,0.9355036855036855,0.038878266411727216,0.2222222222222222
diqwiki,False,88.0,0.2231404958677686,0.2288135593220339,0.9431818181818182,0.02995538559592097,0.22594142259414227
diqwiki,False,89.0,0.22448979591836735,0.1864406779661017,0.9471744471744472,0.024219247928616953,0.2037037037037037
diqwiki,False,90.0,0.2289156626506024,0.16101694915254236,0.9499385749385749,0.020395156150414276,0.1890547263681592
diqwiki,False,91.0,0.2903225806451613,0.15254237288135594,0.9557739557739557,0.014021669853409816,0.20000000000000004
diqwiki,False,92.0,0.3695652173913043,0.1440677966101695,0.9600737100737101,0.009241555130656469,0.20731707317073172
diqwiki,False,93.0,0.4,0.1016949152542373,0.961916461916462,0.0057361376673040155,0.16216216216216214
diqwiki,False,94.0,0.46153846153846156,0.1016949152542373,0.9631449631449631,0.004461440407903123,0.16666666666666666
diqwiki,False,95.0,0.5263157894736842,0.0847457627118644,0.9640663390663391,0.0028680688336520078,0.145985401459854
diqwiki,False,96.0,0.47058823529411764,0.06779661016949153,0.9634520884520884,0.0028680688336520078,0.1185185185185185
diqwiki,False,97.0,0.5333333333333333,0.06779661016949153,0.9640663390663391,0.0022307202039515616,0.12030075187969924
diqwiki,False,98.0,0.5833333333333334,0.059322033898305086,0.9643734643734644,0.0015933715742511153,0.1076923076923077
diqwiki,False,99.0,0.8,0.03389830508474576,0.9646805896805897,0.00031867431485022306,0.06504065040650407
