wiki_db,user_is_anonymous_or_bot,threshold,precision,recall,accuracy,fpr,F1
ffwiki,True,0.0,0.17857142857142858,1.0,0.17857142857142858,1.0,0.30303030303030304
ffwiki,True,1.0,0.17857142857142858,1.0,0.17857142857142858,1.0,0.30303030303030304
ffwiki,True,2.0,0.17857142857142858,1.0,0.17857142857142858,1.0,0.30303030303030304
ffwiki,True,3.0,0.17857142857142858,1.0,0.17857142857142858,1.0,0.30303030303030304
ffwiki,True,4.0,0.17857142857142858,1.0,0.17857142857142858,1.0,0.30303030303030304
ffwiki,True,5.0,0.17857142857142858,1.0,0.17857142857142858,1.0,0.30303030303030304
ffwiki,True,6.0,0.17857142857142858,1.0,0.17857142857142858,1.0,0.30303030303030304
ffwiki,True,7.0,0.17857142857142858,1.0,0.17857142857142858,1.0,0.30303030303030304
ffwiki,True,8.0,0.17857142857142858,1.0,0.17857142857142858,1.0,0.30303030303030304
ffwiki,True,9.0,0.17857142857142858,1.0,0.17857142857142858,1.0,0.30303030303030304
ffwiki,True,10.0,0.17857142857142858,1.0,0.17857142857142858,1.0,0.30303030303030304
ffwiki,True,11.0,0.17857142857142858,1.0,0.17857142857142858,1.0,0.30303030303030304
ffwiki,True,12.0,0.17857142857142858,1.0,0.17857142857142858,1.0,0.30303030303030304
ffwiki,True,13.0,0.17857142857142858,1.0,0.17857142857142858,1.0,0.30303030303030304
ffwiki,True,14.0,0.17857142857142858,1.0,0.17857142857142858,1.0,0.30303030303030304
ffwiki,True,15.0,0.17857142857142858,1.0,0.17857142857142858,1.0,0.30303030303030304
ffwiki,True,16.0,0.17857142857142858,1.0,0.17857142857142858,1.0,0.30303030303030304
ffwiki,True,17.0,0.17857142857142858,1.0,0.17857142857142858,1.0,0.30303030303030304
ffwiki,True,18.0,0.17857142857142858,1.0,0.17857142857142858,1.0,0.30303030303030304
ffwiki,True,19.0,0.17857142857142858,1.0,0.17857142857142858,1.0,0.30303030303030304
ffwiki,True,20.0,0.17857142857142858,1.0,0.17857142857142858,1.0,0.30303030303030304
ffwiki,True,21.0,0.17857142857142858,1.0,0.17857142857142858,1.0,0.30303030303030304
ffwiki,True,22.0,0.18518518518518517,1.0,0.21428571428571427,0.9565217391304348,0.3125
ffwiki,True,23.0,0.18518518518518517,1.0,0.21428571428571427,0.9565217391304348,0.3125
ffwiki,True,24.0,0.18518518518518517,1.0,0.21428571428571427,0.9565217391304348,0.3125
ffwiki,True,25.0,0.18518518518518517,1.0,0.21428571428571427,0.9565217391304348,0.3125
ffwiki,True,26.0,0.18518518518518517,1.0,0.21428571428571427,0.9565217391304348,0.3125
ffwiki,True,27.0,0.18518518518518517,1.0,0.21428571428571427,0.9565217391304348,0.3125
ffwiki,True,28.0,0.18518518518518517,1.0,0.21428571428571427,0.9565217391304348,0.3125
ffwiki,True,29.0,0.18518518518518517,1.0,0.21428571428571427,0.9565217391304348,0.3125
ffwiki,True,30.0,0.18518518518518517,1.0,0.21428571428571427,0.9565217391304348,0.3125
ffwiki,True,31.0,0.18518518518518517,1.0,0.21428571428571427,0.9565217391304348,0.3125
ffwiki,True,32.0,0.18518518518518517,1.0,0.21428571428571427,0.9565217391304348,0.3125
ffwiki,True,33.0,0.18518518518518517,1.0,0.21428571428571427,0.9565217391304348,0.3125
ffwiki,True,34.0,0.18518518518518517,1.0,0.21428571428571427,0.9565217391304348,0.3125
ffwiki,True,35.0,0.18518518518518517,1.0,0.21428571428571427,0.9565217391304348,0.3125
ffwiki,True,36.0,0.18518518518518517,1.0,0.21428571428571427,0.9565217391304348,0.3125
ffwiki,True,37.0,0.18518518518518517,1.0,0.21428571428571427,0.9565217391304348,0.3125
ffwiki,True,38.0,0.18518518518518517,1.0,0.21428571428571427,0.9565217391304348,0.3125
ffwiki,True,39.0,0.18518518518518517,1.0,0.21428571428571427,0.9565217391304348,0.3125
ffwiki,True,40.0,0.18518518518518517,1.0,0.21428571428571427,0.9565217391304348,0.3125
ffwiki,True,41.0,0.18518518518518517,1.0,0.21428571428571427,0.9565217391304348,0.3125
ffwiki,True,42.0,0.18518518518518517,1.0,0.21428571428571427,0.9565217391304348,0.3125
ffwiki,True,43.0,0.18518518518518517,1.0,0.21428571428571427,0.9565217391304348,0.3125
ffwiki,True,44.0,0.18518518518518517,1.0,0.21428571428571427,0.9565217391304348,0.3125
ffwiki,True,45.0,0.18518518518518517,1.0,0.21428571428571427,0.9565217391304348,0.3125
ffwiki,True,46.0,0.18518518518518517,1.0,0.21428571428571427,0.9565217391304348,0.3125
ffwiki,True,47.0,0.2,1.0,0.2857142857142857,0.8695652173913043,0.33333333333333337
ffwiki,True,48.0,0.2,1.0,0.2857142857142857,0.8695652173913043,0.33333333333333337
ffwiki,True,49.0,0.2,1.0,0.2857142857142857,0.8695652173913043,0.33333333333333337
ffwiki,True,50.0,0.2,1.0,0.2857142857142857,0.8695652173913043,0.33333333333333337
ffwiki,True,51.0,0.2,1.0,0.2857142857142857,0.8695652173913043,0.33333333333333337
ffwiki,True,52.0,0.2,1.0,0.2857142857142857,0.8695652173913043,0.33333333333333337
ffwiki,True,53.0,0.2,1.0,0.2857142857142857,0.8695652173913043,0.33333333333333337
ffwiki,True,54.0,0.20833333333333334,1.0,0.32142857142857145,0.8260869565217391,0.3448275862068966
ffwiki,True,55.0,0.21739130434782608,1.0,0.35714285714285715,0.782608695652174,0.3571428571428571
ffwiki,True,56.0,0.22727272727272727,1.0,0.39285714285714285,0.7391304347826086,0.37037037037037035
ffwiki,True,57.0,0.22727272727272727,1.0,0.39285714285714285,0.7391304347826086,0.37037037037037035
ffwiki,True,58.0,0.22727272727272727,1.0,0.39285714285714285,0.7391304347826086,0.37037037037037035
ffwiki,True,59.0,0.23809523809523808,1.0,0.42857142857142855,0.6956521739130435,0.3846153846153846
ffwiki,True,60.0,0.25,1.0,0.4642857142857143,0.6521739130434783,0.4
ffwiki,True,61.0,0.25,1.0,0.4642857142857143,0.6521739130434783,0.4
ffwiki,True,62.0,0.25,1.0,0.4642857142857143,0.6521739130434783,0.4
ffwiki,True,63.0,0.25,1.0,0.4642857142857143,0.6521739130434783,0.4
ffwiki,True,64.0,0.25,1.0,0.4642857142857143,0.6521739130434783,0.4
ffwiki,True,65.0,0.2631578947368421,1.0,0.5,0.6086956521739131,0.4166666666666667
ffwiki,True,66.0,0.2777777777777778,1.0,0.5357142857142857,0.5652173913043478,0.4347826086956522
ffwiki,True,67.0,0.2777777777777778,1.0,0.5357142857142857,0.5652173913043478,0.4347826086956522
ffwiki,True,68.0,0.2777777777777778,1.0,0.5357142857142857,0.5652173913043478,0.4347826086956522
ffwiki,True,69.0,0.2777777777777778,1.0,0.5357142857142857,0.5652173913043478,0.4347826086956522
ffwiki,True,70.0,0.2777777777777778,1.0,0.5357142857142857,0.5652173913043478,0.4347826086956522
ffwiki,True,71.0,0.29411764705882354,1.0,0.5714285714285714,0.5217391304347826,0.45454545454545453
ffwiki,True,72.0,0.4166666666666667,1.0,0.75,0.30434782608695654,0.5882352941176471
ffwiki,True,73.0,0.45454545454545453,1.0,0.7857142857142857,0.2608695652173913,0.625
ffwiki,True,74.0,0.45454545454545453,1.0,0.7857142857142857,0.2608695652173913,0.625
ffwiki,True,75.0,0.45454545454545453,1.0,0.7857142857142857,0.2608695652173913,0.625
ffwiki,True,76.0,0.45454545454545453,1.0,0.7857142857142857,0.2608695652173913,0.625
ffwiki,True,77.0,0.45454545454545453,1.0,0.7857142857142857,0.2608695652173913,0.625
ffwiki,True,78.0,0.45454545454545453,1.0,0.7857142857142857,0.2608695652173913,0.625
ffwiki,True,79.0,0.45454545454545453,1.0,0.7857142857142857,0.2608695652173913,0.625
ffwiki,True,80.0,0.5,1.0,0.8214285714285714,0.21739130434782608,0.6666666666666666
ffwiki,True,81.0,0.5555555555555556,1.0,0.8571428571428571,0.17391304347826086,0.7142857142857143
ffwiki,True,82.0,0.5555555555555556,1.0,0.8571428571428571,0.17391304347826086,0.7142857142857143
ffwiki,True,83.0,0.5555555555555556,1.0,0.8571428571428571,0.17391304347826086,0.7142857142857143
ffwiki,True,84.0,0.625,1.0,0.8928571428571429,0.13043478260869565,0.7692307692307693
ffwiki,True,85.0,0.7142857142857143,1.0,0.9285714285714286,0.08695652173913043,0.8333333333333333
ffwiki,True,86.0,0.7142857142857143,1.0,0.9285714285714286,0.08695652173913043,0.8333333333333333
ffwiki,True,87.0,0.7142857142857143,1.0,0.9285714285714286,0.08695652173913043,0.8333333333333333
ffwiki,True,88.0,0.6666666666666666,0.8,0.8928571428571429,0.08695652173913043,0.7272727272727272
ffwiki,True,89.0,0.6666666666666666,0.8,0.8928571428571429,0.08695652173913043,0.7272727272727272
ffwiki,True,90.0,0.6666666666666666,0.8,0.8928571428571429,0.08695652173913043,0.7272727272727272
ffwiki,True,91.0,0.75,0.6,0.8928571428571429,0.043478260869565216,0.6666666666666665
ffwiki,True,92.0,1.0,0.6,0.9285714285714286,0.0,0.7499999999999999
ffwiki,True,93.0,1.0,0.6,0.9285714285714286,0.0,0.7499999999999999
ffwiki,True,94.0,1.0,0.4,0.8928571428571429,0.0,0.5714285714285715
ffwiki,True,95.0,1.0,0.4,0.8928571428571429,0.0,0.5714285714285715
ffwiki,True,96.0,1.0,0.4,0.8928571428571429,0.0,0.5714285714285715
ffwiki,True,97.0,1.0,0.4,0.8928571428571429,0.0,0.5714285714285715
ffwiki,True,98.0,1.0,0.4,0.8928571428571429,0.0,0.5714285714285715
ffwiki,True,99.0,1.0,0.4,0.8928571428571429,0.0,0.5714285714285715
ffwiki,False,0.0,0.03409090909090909,1.0,0.03409090909090909,1.0,0.06593406593406592
ffwiki,False,1.0,0.03409090909090909,1.0,0.03409090909090909,1.0,0.06593406593406592
ffwiki,False,2.0,0.03409090909090909,1.0,0.03409090909090909,1.0,0.06593406593406592
ffwiki,False,3.0,0.03409090909090909,1.0,0.03409090909090909,1.0,0.06593406593406592
ffwiki,False,4.0,0.03409090909090909,1.0,0.03409090909090909,1.0,0.06593406593406592
ffwiki,False,5.0,0.03409090909090909,1.0,0.03409090909090909,1.0,0.06593406593406592
ffwiki,False,6.0,0.03409090909090909,1.0,0.03409090909090909,1.0,0.06593406593406592
ffwiki,False,7.0,0.03409090909090909,1.0,0.03409090909090909,1.0,0.06593406593406592
ffwiki,False,8.0,0.03409090909090909,1.0,0.03409090909090909,1.0,0.06593406593406592
ffwiki,False,9.0,0.03409090909090909,1.0,0.03409090909090909,1.0,0.06593406593406592
ffwiki,False,10.0,0.03428571428571429,1.0,0.03977272727272727,0.9941176470588236,0.06629834254143648
ffwiki,False,11.0,0.03488372093023256,1.0,0.056818181818181816,0.9764705882352941,0.06741573033707865
ffwiki,False,12.0,0.03529411764705882,1.0,0.06818181818181818,0.9647058823529412,0.06818181818181818
ffwiki,False,13.0,0.03571428571428571,1.0,0.07954545454545454,0.9529411764705882,0.0689655172413793
ffwiki,False,14.0,0.03571428571428571,1.0,0.07954545454545454,0.9529411764705882,0.0689655172413793
ffwiki,False,15.0,0.03614457831325301,1.0,0.09090909090909091,0.9411764705882353,0.06976744186046512
ffwiki,False,16.0,0.036585365853658534,1.0,0.10227272727272728,0.9294117647058824,0.07058823529411765
ffwiki,False,17.0,0.03773584905660377,1.0,0.13068181818181818,0.9,0.07272727272727272
ffwiki,False,18.0,0.0392156862745098,1.0,0.16477272727272727,0.8647058823529412,0.07547169811320754
ffwiki,False,19.0,0.04054054054054054,1.0,0.19318181818181818,0.8352941176470589,0.07792207792207792
ffwiki,False,20.0,0.0410958904109589,1.0,0.20454545454545456,0.8235294117647058,0.07894736842105263
ffwiki,False,21.0,0.041666666666666664,1.0,0.2159090909090909,0.8117647058823529,0.07999999999999999
ffwiki,False,22.0,0.04195804195804196,1.0,0.2215909090909091,0.8058823529411765,0.08053691275167786
ffwiki,False,23.0,0.0425531914893617,1.0,0.23295454545454544,0.7941176470588235,0.08163265306122448
ffwiki,False,24.0,0.043795620437956206,1.0,0.2556818181818182,0.7705882352941177,0.08391608391608392
ffwiki,False,25.0,0.04411764705882353,1.0,0.26136363636363635,0.7647058823529411,0.08450704225352113
ffwiki,False,26.0,0.044444444444444446,1.0,0.26704545454545453,0.7588235294117647,0.0851063829787234
ffwiki,False,27.0,0.04477611940298507,1.0,0.2727272727272727,0.7529411764705882,0.08571428571428572
ffwiki,False,28.0,0.04477611940298507,1.0,0.2727272727272727,0.7529411764705882,0.08571428571428572
ffwiki,False,29.0,0.045112781954887216,1.0,0.2784090909090909,0.7470588235294118,0.08633093525179857
ffwiki,False,30.0,0.046511627906976744,1.0,0.30113636363636365,0.7235294117647059,0.08888888888888888
ffwiki,False,31.0,0.047244094488188976,1.0,0.3125,0.711764705882353,0.09022556390977444
ffwiki,False,32.0,0.047244094488188976,1.0,0.3125,0.711764705882353,0.09022556390977444
ffwiki,False,33.0,0.048,1.0,0.32386363636363635,0.7,0.0916030534351145
ffwiki,False,34.0,0.04838709677419355,1.0,0.32954545454545453,0.6941176470588235,0.09230769230769231
ffwiki,False,35.0,0.04838709677419355,1.0,0.32954545454545453,0.6941176470588235,0.09230769230769231
ffwiki,False,36.0,0.04878048780487805,1.0,0.3352272727272727,0.6882352941176471,0.09302325581395349
ffwiki,False,37.0,0.04878048780487805,1.0,0.3352272727272727,0.6882352941176471,0.09302325581395349
ffwiki,False,38.0,0.05042016806722689,1.0,0.35795454545454547,0.6647058823529411,0.096
ffwiki,False,39.0,0.05084745762711865,1.0,0.36363636363636365,0.6588235294117647,0.0967741935483871
ffwiki,False,40.0,0.05263157894736842,1.0,0.38636363636363635,0.6352941176470588,0.1
ffwiki,False,41.0,0.05357142857142857,1.0,0.3977272727272727,0.6235294117647059,0.10169491525423728
ffwiki,False,42.0,0.05555555555555555,1.0,0.42045454545454547,0.6,0.10526315789473684
ffwiki,False,43.0,0.056074766355140186,1.0,0.42613636363636365,0.5941176470588235,0.10619469026548672
ffwiki,False,44.0,0.05714285714285714,1.0,0.4375,0.5823529411764706,0.1081081081081081
ffwiki,False,45.0,0.057692307692307696,1.0,0.4431818181818182,0.5764705882352941,0.1090909090909091
ffwiki,False,46.0,0.05825242718446602,1.0,0.44886363636363635,0.5705882352941176,0.11009174311926606
ffwiki,False,47.0,0.06060606060606061,1.0,0.4715909090909091,0.5470588235294118,0.1142857142857143
ffwiki,False,48.0,0.06060606060606061,1.0,0.4715909090909091,0.5470588235294118,0.1142857142857143
ffwiki,False,49.0,0.06060606060606061,1.0,0.4715909090909091,0.5470588235294118,0.1142857142857143
ffwiki,False,50.0,0.061855670103092786,1.0,0.48295454545454547,0.5352941176470588,0.11650485436893204
ffwiki,False,51.0,0.0625,1.0,0.48863636363636365,0.5294117647058824,0.11764705882352941
ffwiki,False,52.0,0.06382978723404255,1.0,0.5,0.5176470588235295,0.12
ffwiki,False,53.0,0.06593406593406594,1.0,0.5170454545454546,0.5,0.12371134020618557
ffwiki,False,54.0,0.06741573033707865,1.0,0.5284090909090909,0.48823529411764705,0.12631578947368421
ffwiki,False,55.0,0.06976744186046512,1.0,0.5454545454545454,0.47058823529411764,0.13043478260869565
ffwiki,False,56.0,0.07317073170731707,1.0,0.5681818181818182,0.4470588235294118,0.13636363636363635
ffwiki,False,57.0,0.0759493670886076,1.0,0.5852272727272727,0.4294117647058823,0.1411764705882353
ffwiki,False,58.0,0.07692307692307693,1.0,0.5909090909090909,0.4235294117647059,0.14285714285714288
ffwiki,False,59.0,0.08108108108108109,1.0,0.6136363636363636,0.4,0.15
ffwiki,False,60.0,0.08450704225352113,1.0,0.6306818181818182,0.38235294117647056,0.15584415584415587
ffwiki,False,61.0,0.08571428571428572,1.0,0.6363636363636364,0.3764705882352941,0.15789473684210528
ffwiki,False,62.0,0.08571428571428572,1.0,0.6363636363636364,0.3764705882352941,0.15789473684210528
ffwiki,False,63.0,0.08955223880597014,1.0,0.6534090909090909,0.3588235294117647,0.1643835616438356
ffwiki,False,64.0,0.09230769230769231,1.0,0.6647727272727273,0.34705882352941175,0.16901408450704225
ffwiki,False,65.0,0.09836065573770492,1.0,0.6875,0.3235294117647059,0.1791044776119403
ffwiki,False,66.0,0.1,1.0,0.6931818181818182,0.3176470588235294,0.18181818181818182
ffwiki,False,67.0,0.1016949152542373,1.0,0.6988636363636364,0.31176470588235294,0.18461538461538463
ffwiki,False,68.0,0.10526315789473684,1.0,0.7102272727272727,0.3,0.1904761904761905
ffwiki,False,69.0,0.11320754716981132,1.0,0.7329545454545454,0.27647058823529413,0.2033898305084746
ffwiki,False,70.0,0.11764705882352941,1.0,0.7443181818181818,0.2647058823529412,0.21052631578947367
ffwiki,False,71.0,0.1276595744680851,1.0,0.7670454545454546,0.2411764705882353,0.22641509433962262
ffwiki,False,72.0,0.14634146341463414,1.0,0.8011363636363636,0.20588235294117646,0.2553191489361702
ffwiki,False,73.0,0.16216216216216217,1.0,0.8238636363636364,0.18235294117647058,0.27906976744186046
ffwiki,False,74.0,0.17142857142857143,1.0,0.8352272727272727,0.17058823529411765,0.2926829268292683
ffwiki,False,75.0,0.1935483870967742,1.0,0.8579545454545454,0.14705882352941177,0.3243243243243243
ffwiki,False,76.0,0.2,1.0,0.8636363636363636,0.1411764705882353,0.33333333333333337
ffwiki,False,77.0,0.2,1.0,0.8636363636363636,0.1411764705882353,0.33333333333333337
ffwiki,False,78.0,0.23076923076923078,1.0,0.8863636363636364,0.11764705882352941,0.375
ffwiki,False,79.0,0.21739130434782608,0.8333333333333334,0.8920454545454546,0.10588235294117647,0.3448275862068966
ffwiki,False,80.0,0.25,0.8333333333333334,0.9090909090909091,0.08823529411764706,0.3846153846153846
ffwiki,False,81.0,0.29411764705882354,0.8333333333333334,0.9261363636363636,0.07058823529411765,0.4347826086956522
ffwiki,False,82.0,0.29411764705882354,0.8333333333333334,0.9261363636363636,0.07058823529411765,0.4347826086956522
ffwiki,False,83.0,0.3125,0.8333333333333334,0.9318181818181818,0.06470588235294118,0.45454545454545453
ffwiki,False,84.0,0.3333333333333333,0.8333333333333334,0.9375,0.058823529411764705,0.47619047619047616
ffwiki,False,85.0,0.35714285714285715,0.8333333333333334,0.9431818181818182,0.052941176470588235,0.5
ffwiki,False,86.0,0.4166666666666667,0.8333333333333334,0.9545454545454546,0.041176470588235294,0.5555555555555556
ffwiki,False,87.0,0.45454545454545453,0.8333333333333334,0.9602272727272727,0.03529411764705882,0.5882352941176471
ffwiki,False,88.0,0.4,0.6666666666666666,0.9545454545454546,0.03529411764705882,0.5
ffwiki,False,89.0,0.4444444444444444,0.6666666666666666,0.9602272727272727,0.029411764705882353,0.5333333333333333
ffwiki,False,90.0,0.4444444444444444,0.6666666666666666,0.9602272727272727,0.029411764705882353,0.5333333333333333
ffwiki,False,91.0,0.6,0.5,0.9715909090909091,0.011764705882352941,0.5454545454545454
ffwiki,False,92.0,0.75,0.5,0.9772727272727273,0.0058823529411764705,0.6
ffwiki,False,93.0,1.0,0.5,0.9829545454545454,0.0,0.6666666666666666
ffwiki,False,94.0,1.0,0.3333333333333333,0.9772727272727273,0.0,0.5
ffwiki,False,95.0,1.0,0.3333333333333333,0.9772727272727273,0.0,0.5
ffwiki,False,96.0,1.0,0.3333333333333333,0.9772727272727273,0.0,0.5
ffwiki,False,97.0,1.0,0.3333333333333333,0.9772727272727273,0.0,0.5
ffwiki,False,98.0,1.0,0.3333333333333333,0.9772727272727273,0.0,0.5
ffwiki,False,99.0,1.0,0.3333333333333333,0.9772727272727273,0.0,0.5
