wiki_db,user_is_anonymous_or_bot,threshold,precision,recall,accuracy,fpr,F1
frrwiki,True,0.0,0.10714285714285714,1.0,0.10714285714285714,1.0,0.19354838709677416
frrwiki,True,1.0,0.10714285714285714,1.0,0.10714285714285714,1.0,0.19354838709677416
frrwiki,True,2.0,0.10714285714285714,1.0,0.10714285714285714,1.0,0.19354838709677416
frrwiki,True,3.0,0.10714285714285714,1.0,0.10714285714285714,1.0,0.19354838709677416
frrwiki,True,4.0,0.10714285714285714,1.0,0.10714285714285714,1.0,0.19354838709677416
frrwiki,True,5.0,0.10714285714285714,1.0,0.10714285714285714,1.0,0.19354838709677416
frrwiki,True,6.0,0.10714285714285714,1.0,0.10714285714285714,1.0,0.19354838709677416
frrwiki,True,7.0,0.10714285714285714,1.0,0.10714285714285714,1.0,0.19354838709677416
frrwiki,True,8.0,0.1111111111111111,1.0,0.14285714285714285,0.96,0.19999999999999998
frrwiki,True,9.0,0.1111111111111111,1.0,0.14285714285714285,0.96,0.19999999999999998
frrwiki,True,10.0,0.1111111111111111,1.0,0.14285714285714285,0.96,0.19999999999999998
frrwiki,True,11.0,0.1111111111111111,1.0,0.14285714285714285,0.96,0.19999999999999998
frrwiki,True,12.0,0.11538461538461539,1.0,0.17857142857142858,0.92,0.20689655172413793
frrwiki,True,13.0,0.11538461538461539,1.0,0.17857142857142858,0.92,0.20689655172413793
frrwiki,True,14.0,0.11538461538461539,1.0,0.17857142857142858,0.92,0.20689655172413793
frrwiki,True,15.0,0.11538461538461539,1.0,0.17857142857142858,0.92,0.20689655172413793
frrwiki,True,16.0,0.11538461538461539,1.0,0.17857142857142858,0.92,0.20689655172413793
frrwiki,True,17.0,0.11538461538461539,1.0,0.17857142857142858,0.92,0.20689655172413793
frrwiki,True,18.0,0.11538461538461539,1.0,0.17857142857142858,0.92,0.20689655172413793
frrwiki,True,19.0,0.11538461538461539,1.0,0.17857142857142858,0.92,0.20689655172413793
frrwiki,True,20.0,0.11538461538461539,1.0,0.17857142857142858,0.92,0.20689655172413793
frrwiki,True,21.0,0.12,1.0,0.21428571428571427,0.88,0.21428571428571425
frrwiki,True,22.0,0.12,1.0,0.21428571428571427,0.88,0.21428571428571425
frrwiki,True,23.0,0.12,1.0,0.21428571428571427,0.88,0.21428571428571425
frrwiki,True,24.0,0.12,1.0,0.21428571428571427,0.88,0.21428571428571425
frrwiki,True,25.0,0.12,1.0,0.21428571428571427,0.88,0.21428571428571425
frrwiki,True,26.0,0.12,1.0,0.21428571428571427,0.88,0.21428571428571425
frrwiki,True,27.0,0.12,1.0,0.21428571428571427,0.88,0.21428571428571425
frrwiki,True,28.0,0.12,1.0,0.21428571428571427,0.88,0.21428571428571425
frrwiki,True,29.0,0.12,1.0,0.21428571428571427,0.88,0.21428571428571425
frrwiki,True,30.0,0.125,1.0,0.25,0.84,0.2222222222222222
frrwiki,True,31.0,0.125,1.0,0.25,0.84,0.2222222222222222
frrwiki,True,32.0,0.13043478260869565,1.0,0.2857142857142857,0.8,0.23076923076923078
frrwiki,True,33.0,0.13043478260869565,1.0,0.2857142857142857,0.8,0.23076923076923078
frrwiki,True,34.0,0.13043478260869565,1.0,0.2857142857142857,0.8,0.23076923076923078
frrwiki,True,35.0,0.13043478260869565,1.0,0.2857142857142857,0.8,0.23076923076923078
frrwiki,True,36.0,0.13043478260869565,1.0,0.2857142857142857,0.8,0.23076923076923078
frrwiki,True,37.0,0.13043478260869565,1.0,0.2857142857142857,0.8,0.23076923076923078
frrwiki,True,38.0,0.13043478260869565,1.0,0.2857142857142857,0.8,0.23076923076923078
frrwiki,True,39.0,0.13636363636363635,1.0,0.32142857142857145,0.76,0.24000000000000002
frrwiki,True,40.0,0.13636363636363635,1.0,0.32142857142857145,0.76,0.24000000000000002
frrwiki,True,41.0,0.13636363636363635,1.0,0.32142857142857145,0.76,0.24000000000000002
frrwiki,True,42.0,0.13636363636363635,1.0,0.32142857142857145,0.76,0.24000000000000002
frrwiki,True,43.0,0.13636363636363635,1.0,0.32142857142857145,0.76,0.24000000000000002
frrwiki,True,44.0,0.13636363636363635,1.0,0.32142857142857145,0.76,0.24000000000000002
frrwiki,True,45.0,0.13636363636363635,1.0,0.32142857142857145,0.76,0.24000000000000002
frrwiki,True,46.0,0.13636363636363635,1.0,0.32142857142857145,0.76,0.24000000000000002
frrwiki,True,47.0,0.13636363636363635,1.0,0.32142857142857145,0.76,0.24000000000000002
frrwiki,True,48.0,0.13636363636363635,1.0,0.32142857142857145,0.76,0.24000000000000002
frrwiki,True,49.0,0.13636363636363635,1.0,0.32142857142857145,0.76,0.24000000000000002
frrwiki,True,50.0,0.13636363636363635,1.0,0.32142857142857145,0.76,0.24000000000000002
frrwiki,True,51.0,0.13636363636363635,1.0,0.32142857142857145,0.76,0.24000000000000002
frrwiki,True,52.0,0.13636363636363635,1.0,0.32142857142857145,0.76,0.24000000000000002
frrwiki,True,53.0,0.13636363636363635,1.0,0.32142857142857145,0.76,0.24000000000000002
frrwiki,True,54.0,0.13636363636363635,1.0,0.32142857142857145,0.76,0.24000000000000002
frrwiki,True,55.0,0.13636363636363635,1.0,0.32142857142857145,0.76,0.24000000000000002
frrwiki,True,56.0,0.13636363636363635,1.0,0.32142857142857145,0.76,0.24000000000000002
frrwiki,True,57.0,0.13636363636363635,1.0,0.32142857142857145,0.76,0.24000000000000002
frrwiki,True,58.0,0.14285714285714285,1.0,0.35714285714285715,0.72,0.25
frrwiki,True,59.0,0.14285714285714285,1.0,0.35714285714285715,0.72,0.25
frrwiki,True,60.0,0.14285714285714285,1.0,0.35714285714285715,0.72,0.25
frrwiki,True,61.0,0.15,1.0,0.39285714285714285,0.68,0.2608695652173913
frrwiki,True,62.0,0.15,1.0,0.39285714285714285,0.68,0.2608695652173913
frrwiki,True,63.0,0.15,1.0,0.39285714285714285,0.68,0.2608695652173913
frrwiki,True,64.0,0.15,1.0,0.39285714285714285,0.68,0.2608695652173913
frrwiki,True,65.0,0.15,1.0,0.39285714285714285,0.68,0.2608695652173913
frrwiki,True,66.0,0.15,1.0,0.39285714285714285,0.68,0.2608695652173913
frrwiki,True,67.0,0.15789473684210525,1.0,0.42857142857142855,0.64,0.2727272727272727
frrwiki,True,68.0,0.16666666666666666,1.0,0.4642857142857143,0.6,0.2857142857142857
frrwiki,True,69.0,0.16666666666666666,1.0,0.4642857142857143,0.6,0.2857142857142857
frrwiki,True,70.0,0.16666666666666666,1.0,0.4642857142857143,0.6,0.2857142857142857
frrwiki,True,71.0,0.16666666666666666,1.0,0.4642857142857143,0.6,0.2857142857142857
frrwiki,True,72.0,0.16666666666666666,1.0,0.4642857142857143,0.6,0.2857142857142857
frrwiki,True,73.0,0.16666666666666666,1.0,0.4642857142857143,0.6,0.2857142857142857
frrwiki,True,74.0,0.16666666666666666,1.0,0.4642857142857143,0.6,0.2857142857142857
frrwiki,True,75.0,0.16666666666666666,1.0,0.4642857142857143,0.6,0.2857142857142857
frrwiki,True,76.0,0.16666666666666666,1.0,0.4642857142857143,0.6,0.2857142857142857
frrwiki,True,77.0,0.16666666666666666,1.0,0.4642857142857143,0.6,0.2857142857142857
frrwiki,True,78.0,0.11764705882352941,0.6666666666666666,0.42857142857142855,0.6,0.2
frrwiki,True,79.0,0.11764705882352941,0.6666666666666666,0.42857142857142855,0.6,0.2
frrwiki,True,80.0,0.125,0.6666666666666666,0.4642857142857143,0.56,0.21052631578947367
frrwiki,True,81.0,0.06666666666666667,0.3333333333333333,0.42857142857142855,0.56,0.1111111111111111
frrwiki,True,82.0,0.07692307692307693,0.3333333333333333,0.5,0.48,0.125
frrwiki,True,83.0,0.08333333333333333,0.3333333333333333,0.5357142857142857,0.44,0.13333333333333333
frrwiki,True,84.0,0.08333333333333333,0.3333333333333333,0.5357142857142857,0.44,0.13333333333333333
frrwiki,True,85.0,0.1111111111111111,0.3333333333333333,0.6428571428571429,0.32,0.16666666666666666
frrwiki,True,86.0,0.1111111111111111,0.3333333333333333,0.6428571428571429,0.32,0.16666666666666666
frrwiki,True,87.0,0.1111111111111111,0.3333333333333333,0.6428571428571429,0.32,0.16666666666666666
frrwiki,True,88.0,0.25,0.3333333333333333,0.8214285714285714,0.12,0.28571428571428575
frrwiki,True,89.0,0.3333333333333333,0.3333333333333333,0.8571428571428571,0.08,0.3333333333333333
frrwiki,True,90.0,0.5,0.3333333333333333,0.8928571428571429,0.04,0.4
frrwiki,True,91.0,0.5,0.3333333333333333,0.8928571428571429,0.04,0.4
frrwiki,True,92.0,0.5,0.3333333333333333,0.8928571428571429,0.04,0.4
frrwiki,True,93.0,0.5,0.3333333333333333,0.8928571428571429,0.04,0.4
frrwiki,True,94.0,0.5,0.3333333333333333,0.8928571428571429,0.04,0.4
frrwiki,True,95.0,1.0,0.3333333333333333,0.9285714285714286,0.0,0.5
frrwiki,True,96.0,1.0,0.3333333333333333,0.9285714285714286,0.0,0.5
frrwiki,True,97.0,1.0,0.3333333333333333,0.9285714285714286,0.0,0.5
frrwiki,True,98.0,1.0,0.0,0.8928571428571429,0.0,0.0
frrwiki,True,99.0,1.0,0.0,0.8928571428571429,0.0,0.0
frrwiki,False,0.0,0.00481637567730283,1.0,0.00481637567730283,1.0,0.009586578789694428
frrwiki,False,1.0,0.004734562304825224,0.9791666666666666,0.00852899859522376,0.9961685823754789,0.009423558897243108
frrwiki,False,2.0,0.004717948717948718,0.9583333333333334,0.02608870158539033,0.9784230691671708,0.00938967136150235
frrwiki,False,3.0,0.004655099449851883,0.9166666666666666,0.05558900260887016,0.9485783424077435,0.009263157894736843
frrwiki,False,4.0,0.004764542936288089,0.8958333333333334,0.09823399558498896,0.9056261343012704,0.00947867298578199
frrwiki,False,5.0,0.004914004914004914,0.875,0.14599638771824203,0.8575317604355717,0.009773123909249563
frrwiki,False,6.0,0.0045351473922902496,0.75,0.20590006020469598,0.7967332123411979,0.009015777610818934
frrwiki,False,7.0,0.004649890590809628,0.7083333333333334,0.26831226168974515,0.7338173018753781,0.009239130434782607
frrwiki,False,8.0,0.004537205081669692,0.625,0.33774834437086093,0.6636418632788869,0.009009009009009009
frrwiki,False,9.0,0.005022601707684581,0.625,0.4018663455749548,0.5992135511191773,0.009965122072745391
frrwiki,False,10.0,0.004835410079970244,0.5416666666666666,0.4608669476219145,0.5395240976003226,0.0095852534562212
frrwiki,False,11.0,0.005050505050505051,0.5,0.5231788079470199,0.4767090139140956,0.01
frrwiki,False,12.0,0.005438637975880823,0.4791666666666667,0.5754565522777443,0.4240774349667272,0.010755202244563946
frrwiki,False,13.0,0.005812417437252312,0.4583333333333333,0.6198073449729079,0.37941117160717885,0.01147925906600574
frrwiki,False,14.0,0.005837711617046118,0.4166666666666667,0.65542845675296,0.3434160112925993,0.011514104778353483
frrwiki,False,15.0,0.006066411238825032,0.3958333333333333,0.6847280754565522,0.31387376487195,0.011949685534591196
frrwiki,False,16.0,0.006260869565217392,0.375,0.7103150712422236,0.28806210929622905,0.012316113581936367
frrwiki,False,17.0,0.006885998469778117,0.375,0.7365041139875577,0.26174631982254487,0.013523666416228399
frrwiki,False,18.0,0.007410456978180321,0.375,0.7550672285771624,0.24309336559790282,0.014533710133225675
frrwiki,False,19.0,0.006675567423230975,0.3125,0.7727272727272727,0.2250453720508167,0.0130718954248366
frrwiki,False,20.0,0.007149666348903718,0.3125,0.7876781055589003,0.2100221818915104,0.01397949673811743
frrwiki,False,21.0,0.007621951219512195,0.3125,0.8007224563515954,0.1969147005444646,0.01488095238095238
frrwiki,False,22.0,0.008246289169873557,0.3125,0.8156732891832229,0.1818915103851583,0.016068559185859668
frrwiki,False,23.0,0.008201523140011716,0.2916666666666667,0.826710816777042,0.17069973785037307,0.015954415954415956
frrwiki,False,24.0,0.00877742946708464,0.2916666666666667,0.8379490266907486,0.15940713853599517,0.01704199634814364
frrwiki,False,25.0,0.009402283411685695,0.2916666666666667,0.8485851896447923,0.1487194998991732,0.018217306441119064
frrwiki,False,26.0,0.009537784299339692,0.2708333333333333,0.8610274934778246,0.13611615245009073,0.01842664776754075
frrwiki,False,27.0,0.009456264775413711,0.25,0.8702588801926551,0.1267392619479734,0.018223234624145785
frrwiki,False,28.0,0.010169491525423728,0.25,0.879189243427654,0.11776567856422666,0.019543973941368076
frrwiki,False,29.0,0.01107011070110701,0.25,0.8888219947822597,0.10808630772333132,0.021201413427561835
frrwiki,False,30.0,0.010956175298804782,0.22916666666666666,0.8966486052578768,0.10012099213551119,0.020912547528517112
frrwiki,False,31.0,0.011739594450373533,0.22916666666666666,0.903371462974112,0.09336559790280298,0.022335025380710662
frrwiki,False,32.0,0.012672811059907835,0.22916666666666666,0.9102950030102348,0.08640855011090946,0.024017467248908297
frrwiki,False,33.0,0.01390644753476612,0.22916666666666666,0.9180212723259081,0.07864488808227466,0.02622169249106079
frrwiki,False,34.0,0.015471167369901548,0.22916666666666666,0.9260485651214128,0.07057874571486186,0.028985507246376815
frrwiki,False,35.0,0.016591251885369532,0.22916666666666666,0.9308649407987156,0.0657390602944142,0.030942334739803096
frrwiki,False,36.0,0.018121911037891267,0.22916666666666666,0.936484045755569,0.06009276063722525,0.03358778625954198
frrwiki,False,37.0,0.019891500904159132,0.22916666666666666,0.9419024683925347,0.054648114539221616,0.03660565723793677
frrwiki,False,38.0,0.022,0.22916666666666666,0.9472205498695565,0.049304295220810646,0.040145985401459854
frrwiki,False,39.0,0.024175824175824177,0.22916666666666666,0.9517359020670279,0.04476709013914096,0.0437375745526839
frrwiki,False,40.0,0.0267639902676399,0.22916666666666666,0.9561509131045555,0.04033071183706392,0.04793028322440087
frrwiki,False,41.0,0.02972972972972973,0.22916666666666666,0.9602649006622517,0.036196813873764874,0.05263157894736842
frrwiki,False,42.0,0.03273809523809524,0.22916666666666666,0.9636765001003411,0.032768703367614435,0.057291666666666664
frrwiki,False,43.0,0.03594771241830065,0.22916666666666666,0.9666867348986554,0.029743899979834645,0.06214689265536723
frrwiki,False,44.0,0.041666666666666664,0.22916666666666666,0.9709010636162954,0.025509175236942933,0.07051282051282051
frrwiki,False,45.0,0.04132231404958678,0.20833333333333334,0.9729078868151716,0.023391812865497075,0.06896551724137931
frrwiki,False,46.0,0.04484304932735426,0.20833333333333334,0.974814368854104,0.02147610405323654,0.07380073800738007
frrwiki,False,47.0,0.04950495049504951,0.20833333333333334,0.976921533212924,0.019358741681790685,0.08
frrwiki,False,48.0,0.04945054945054945,0.1875,0.9787276740919125,0.017443032869530146,0.0782608695652174
frrwiki,False,49.0,0.05660377358490566,0.1875,0.9810355207706201,0.015124016938898971,0.08695652173913045
frrwiki,False,50.0,0.06521739130434782,0.1875,0.9831426851294401,0.013006654567453115,0.09677419354838708
frrwiki,False,51.0,0.0743801652892562,0.1875,0.9848484848484849,0.011292599314377899,0.10650887573964499
frrwiki,False,52.0,0.08256880733944955,0.1875,0.9860525787678106,0.01008267795926598,0.11464968152866242
frrwiki,False,53.0,0.08490566037735849,0.1875,0.986353602247642,0.009780197620488002,0.1168831168831169
frrwiki,False,54.0,0.09574468085106383,0.1875,0.9875576961669676,0.008570276265376084,0.12676056338028172
frrwiki,False,55.0,0.10227272727272728,0.1875,0.9881597431266306,0.007965315587820125,0.1323529411764706
frrwiki,False,56.0,0.11688311688311688,0.1875,0.9892634958860125,0.006856221012300867,0.14400000000000002
frrwiki,False,57.0,0.1267605633802817,0.1875,0.9898655428456753,0.006251260334744909,0.15126050420168066
frrwiki,False,58.0,0.13636363636363635,0.1875,0.9903672486453944,0.005747126436781609,0.15789473684210525
frrwiki,False,59.0,0.12698412698412698,0.16666666666666666,0.9904675898053381,0.00554547287759629,0.14414414414414417
frrwiki,False,60.0,0.14035087719298245,0.16666666666666666,0.991069636765001,0.004940512200040331,0.1523809523809524
frrwiki,False,61.0,0.1509433962264151,0.16666666666666666,0.9914710014047763,0.004537205081669692,0.15841584158415842
frrwiki,False,62.0,0.14,0.14583333333333334,0.99157134256472,0.004335551522484372,0.14285714285714285
frrwiki,False,63.0,0.14285714285714285,0.14583333333333334,0.9916716837246639,0.004234724742891712,0.1443298969072165
frrwiki,False,64.0,0.14285714285714285,0.14583333333333334,0.9916716837246639,0.004234724742891712,0.1443298969072165
frrwiki,False,65.0,0.14893617021276595,0.14583333333333334,0.9918723660445514,0.004033071183706392,0.14736842105263157
frrwiki,False,66.0,0.1590909090909091,0.14583333333333334,0.9921733895243829,0.003730590844928413,0.15217391304347827
frrwiki,False,67.0,0.16666666666666666,0.14583333333333334,0.9923740718442705,0.0035289372857430935,0.15555555555555556
frrwiki,False,68.0,0.17073170731707318,0.14583333333333334,0.9924744130042144,0.0034281105061504335,0.15730337078651688
frrwiki,False,69.0,0.17073170731707318,0.14583333333333334,0.9924744130042144,0.0034281105061504335,0.15730337078651688
frrwiki,False,70.0,0.175,0.14583333333333334,0.9925747541641582,0.003327283726557774,0.15909090909090912
frrwiki,False,71.0,0.175,0.14583333333333334,0.9925747541641582,0.003327283726557774,0.15909090909090912
frrwiki,False,72.0,0.175,0.14583333333333334,0.9925747541641582,0.003327283726557774,0.15909090909090912
frrwiki,False,73.0,0.175,0.14583333333333334,0.9925747541641582,0.003327283726557774,0.15909090909090912
frrwiki,False,74.0,0.1794871794871795,0.14583333333333334,0.9926750953241019,0.003226456946965114,0.16091954022988506
frrwiki,False,75.0,0.1891891891891892,0.14583333333333334,0.9928757776439896,0.0030248033877797943,0.1647058823529412
frrwiki,False,76.0,0.1891891891891892,0.14583333333333334,0.9928757776439896,0.0030248033877797943,0.1647058823529412
frrwiki,False,77.0,0.20588235294117646,0.14583333333333334,0.993176801123821,0.0027223230490018148,0.17073170731707318
frrwiki,False,78.0,0.1875,0.125,0.993176801123821,0.002621496269409155,0.15
frrwiki,False,79.0,0.1935483870967742,0.125,0.9932771422837648,0.002520669489816495,0.1518987341772152
frrwiki,False,80.0,0.2,0.125,0.9933774834437086,0.0024198427102238356,0.15384615384615385
frrwiki,False,81.0,0.14814814814814814,0.08333333333333333,0.9932771422837648,0.0023190159306311756,0.10666666666666667
frrwiki,False,82.0,0.18181818181818182,0.08333333333333333,0.9937788480834838,0.0018148820326678765,0.1142857142857143
frrwiki,False,83.0,0.2,0.08333333333333333,0.9939795304033715,0.001613228473482557,0.11764705882352941
frrwiki,False,84.0,0.2,0.08333333333333333,0.9939795304033715,0.001613228473482557,0.11764705882352941
frrwiki,False,85.0,0.25,0.08333333333333333,0.9943808950431468,0.0012099213551119178,0.125
frrwiki,False,86.0,0.25,0.08333333333333333,0.9943808950431468,0.0012099213551119178,0.125
frrwiki,False,87.0,0.26666666666666666,0.08333333333333333,0.9944812362030905,0.0011090945755192578,0.12698412698412698
frrwiki,False,88.0,0.3333333333333333,0.0625,0.9948826008428657,0.0006049606775559589,0.10526315789473684
frrwiki,False,89.0,0.42857142857142855,0.0625,0.9950832831627534,0.00040330711837063924,0.10909090909090909
frrwiki,False,90.0,0.5,0.0625,0.9951836243226971,0.00030248033877797946,0.1111111111111111
frrwiki,False,91.0,0.5,0.0625,0.9951836243226971,0.00030248033877797946,0.1111111111111111
frrwiki,False,92.0,0.4,0.041666666666666664,0.9950832831627534,0.00030248033877797946,0.07547169811320754
frrwiki,False,93.0,0.5,0.041666666666666664,0.9951836243226971,0.00020165355918531962,0.07692307692307693
frrwiki,False,94.0,0.3333333333333333,0.020833333333333332,0.9950832831627534,0.00020165355918531962,0.0392156862745098
frrwiki,False,95.0,1.0,0.020833333333333332,0.995283965482641,0.0,0.04081632653061225
frrwiki,False,96.0,1.0,0.020833333333333332,0.995283965482641,0.0,0.04081632653061225
frrwiki,False,97.0,1.0,0.020833333333333332,0.995283965482641,0.0,0.04081632653061225
frrwiki,False,98.0,1.0,0.0,0.9951836243226971,0.0,0.0
frrwiki,False,99.0,1.0,0.0,0.9951836243226971,0.0,0.0
