wiki_db,user_is_anonymous_or_bot,threshold,precision,recall,accuracy,fpr,F1
frwiki,True,0.0,0.19994853055524636,1.0,0.19994853055524636,1.0,0.3332618449271739
frwiki,True,1.0,0.20000142131707135,0.9999960519406685,0.2002153506829569,0.9996655095995785,0.33333508804253414
frwiki,True,2.0,0.20103403356441515,0.9998381295674111,0.20544439365915387,0.9930901584833278,0.33475918298286345
frwiki,True,3.0,0.2047307554125655,0.9989063875651923,0.22393787038067653,0.9697419391760288,0.3398148030007044
frwiki,True,4.0,0.2114688673324636,0.9964072660083936,0.25638651342665725,0.9285591653329808,0.3488919271247337
frwiki,True,5.0,0.21717376162293403,0.9933948967385082,0.2827038193959287,0.8949117991242075,0.35642638690768774
frwiki,True,6.0,0.22154058242693186,0.9910300091989782,0.30192039445172014,0.8703015939108933,0.3621287980374237
frwiki,True,7.0,0.22545542914746544,0.9889493819313117,0.31846482118709696,0.8491024014240016,0.36719882081228206
frwiki,True,8.0,0.22913382292455794,0.9875517689279835,0.33320544913011113,0.8303285110145024,0.3719638231366566
frwiki,True,9.0,0.23236494450424067,0.9861462598059924,0.3458359877199589,0.8141900892171741,0.37610786035011845
frwiki,True,10.0,0.23519388981872186,0.9847604909806584,0.3566666745607533,0.8003062708563151,0.37970214961935256
frwiki,True,11.0,0.23779398893386566,0.9836076576558792,0.3663290365819868,0.7879409797115292,0.38299602610319833
frwiki,True,12.0,0.24019357092807106,0.9825377335770602,0.37505437052158597,0.7767676189611655,0.3860197999837132
frwiki,True,13.0,0.24250254093291743,0.9815546668035328,0.3832594841530158,0.7662661991036841,0.3889189153251889
frwiki,True,14.0,0.24470093301411835,0.9805755480893367,0.39093885161564323,0.7564229063762355,0.3916630331338767
frwiki,True,15.0,0.24683764662814942,0.9796595983244436,0.39825035464184133,0.7470552017697404,0.3943210973236725
frwiki,True,16.0,0.24880038050665987,0.9789055189921394,0.4048150770739147,0.7386613674441184,0.3967596241163975
frwiki,True,17.0,0.25052816171406556,0.9780290498205607,0.4105896014354607,0.7312246295444813,0.39888060182143736
frwiki,True,18.0,0.25210149939040477,0.9771960093016278,0.4157886468825068,0.7245180476811626,0.40080221004495226
frwiki,True,19.0,0.25357508341690405,0.9763234881893805,0.42063166902305155,0.7182465993475957,0.4025881738136655
frwiki,True,20.0,0.25501880989364284,0.975522032145099,0.4252978636233384,0.7122139317718519,0.4043367910495388
frwiki,True,21.0,0.2564664306549326,0.9747403163974748,0.42991195725194215,0.7062513197077008,0.4060864194586469
frwiki,True,22.0,0.25795379220502224,0.9740770424297936,0.43454262846244507,0.700297587919667,0.40789054937751656
frwiki,True,23.0,0.2594250828367687,0.9733861320467924,0.4390809388595097,0.6944523928397347,0.4096665813706951
frwiki,True,24.0,0.26088052072349055,0.9728412998590543,0.4434661039761725,0.6888351248468152,0.4114304224086904
frwiki,True,25.0,0.26222697447945564,0.9721030127640758,0.4475623455225925,0.683530639912697,0.41303644009937435
frwiki,True,26.0,0.26348163867516655,0.9715581805763377,0.4512875649979357,0.678738250901348,0.4145416811607875
frwiki,True,27.0,0.26462042249505957,0.9711594265838627,0.45460229196910884,0.6744954523119305,0.41591326798899614
frwiki,True,28.0,0.2656573984131632,0.970681711404759,0.45763520004799607,0.6705851707282419,0.41714894577265615
frwiki,True,29.0,0.2666272465403414,0.9702316326409753,0.4604502313362084,0.6669541244935776,0.4183018662381785
frwiki,True,30.0,0.2674557643553488,0.9696236315039343,0.4629155545872143,0.6637207172895029,0.4192640025675321
frwiki,True,31.0,0.2682668275351818,0.9691419682654991,0.46527351826020646,0.6606530752396195,0.42021463260984554
frwiki,True,32.0,0.2689844133745,0.9685813438404353,0.46739308051731526,0.6578636818414141,0.42104152132443984
frwiki,True,33.0,0.2696870311956957,0.9680917844833372,0.46943607013422317,0.6551877586380419,0.4218553363090605
frwiki,True,34.0,0.2703335929244149,0.9675587964735934,0.4713338085573478,0.6526825340755928,0.42259512709909874
frwiki,True,35.0,0.2709805470458792,0.9670060681671924,0.4732291787544868,0.650175336118451,0.423332255984901
frwiki,True,36.0,0.2716005418232285,0.9665678335814031,0.4750053482436841,0.6478457436836569,0.4240462808199604
frwiki,True,37.0,0.272148266135132,0.9659716766223563,0.47663705594776007,0.6456572489693946,0.4246559769369819
frwiki,True,38.0,0.2727693498486542,0.9655808187485442,0.4783832279078065,0.6433769914019193,0.4253737897976452
frwiki,True,39.0,0.273382469718491,0.9650399346201375,0.4801499244930615,0.641033585204276,0.4260662594267557
frwiki,True,40.0,0.2739805914526579,0.9645108946697251,0.4818653095152952,0.6387572744261861,0.42674054419463425
frwiki,True,41.0,0.274614213323557,0.9640884523212615,0.4836280590572408,0.6364484026356659,0.4274672191339952
frwiki,True,42.0,0.2752477949659476,0.963594944904832,0.4854050179551,0.6341040097406762,0.42818571766914326
frwiki,True,43.0,0.2758726755415632,0.9631369700223855,0.4871393487852185,0.6318217787785082,0.4288960522371593
frwiki,True,44.0,0.27649114769268457,0.9625802936566531,0.48888078429329374,0.6295060001065633,0.4295877077913441
frwiki,True,45.0,0.27712582287349474,0.9619801886382748,0.49066800550375717,0.6271221393177185,0.43029337100726256
frwiki,True,46.0,0.2777540156966605,0.9614314083912053,0.4924133880551418,0.6248034005537345,0.43099511873958
frwiki,True,47.0,0.27841501325513357,0.9607010174148897,0.4942890230357342,0.6222764686496652,0.43171677208171805
frwiki,True,48.0,0.2790715289062715,0.9600653798625286,0.4961133464533053,0.6198373528094233,0.4324411798441658
frwiki,True,49.0,0.2797484734336001,0.9593547291828701,0.49800161197248755,0.6172995672345439,0.4331810625676861
frwiki,True,50.0,0.28044580072259545,0.9585927537319031,0.49994513609800034,0.6146798857799152,0.4339385750681154
frwiki,True,51.0,0.28115854683271424,0.957739972916313,0.5019431294211819,0.6119694281694199,0.4347035285558385
frwiki,True,52.0,0.2818750188981176,0.9569187765753744,0.5039284922057736,0.6092826512952376,0.4354744094081459
frwiki,True,53.0,0.28260643766856547,0.9560423074037957,0.5059549042407823,0.6065307523961945,0.43625557581304186
frwiki,True,54.0,0.2833379601484798,0.9550000197402967,0.5080199973002224,0.6036890640386312,0.43701761866219585
frwiki,True,55.0,0.28414920717809034,0.9538471864155175,0.5102942836550568,0.6005582733585796,0.437860599904127
frwiki,True,56.0,0.2850043225419381,0.9527456778620469,0.512640406198121,0.5973505202855107,0.4387584510364877
frwiki,True,57.0,0.28589786793742406,0.9512493633754328,0.5151775656373567,0.5938053167199813,0.439656910644766
frwiki,True,58.0,0.28690876907552443,0.9496582954648642,0.5179941757428927,0.5898871415575215,0.44068017078468075
frwiki,True,59.0,0.2880527029831357,0.9480711756136271,0.5210894471060673,0.5856216489291374,0.4418561431980731
frwiki,True,60.0,0.28923432648317793,0.946239276083841,0.5243118132638023,0.5811361227925114,0.443044479690036
frwiki,True,61.0,0.29064405156689926,0.9442968308927746,0.5280441374171022,0.5759855626444278,0.44448161156640836
frwiki,True,62.0,0.2921704820708252,0.9419556317092334,0.5321040661650764,0.5703258666656141,0.4460024432395449
frwiki,True,63.0,0.293817482894966,0.9390932886939425,0.5365208076282137,0.5640899394365169,0.4475944774689842
frwiki,True,64.0,0.2956913808909094,0.9359861660001026,0.5414293506876934,0.5571781245251519,0.4494082767327549
frwiki,True,65.0,0.2978170465062909,0.932472393195125,0.546900742123083,0.549461164579144,0.4514485211828244
frwiki,True,66.0,0.30017641141900137,0.928413788202409,0.5529018267705844,0.5409459664799178,0.4536710765565239
frwiki,True,67.0,0.30279406076115095,0.924035390403847,0.559388397745133,0.5317440270276137,0.4561227771010962
frwiki,True,68.0,0.30556989255784817,0.9185989127044601,0.5663146693443408,0.5217280622645494,0.458590628763346
frwiki,True,69.0,0.30866755397613876,0.9128584344365527,0.5737698447469984,0.5109750345837419,0.4613406227241438
frwiki,True,70.0,0.31201228962179506,0.906119097157792,0.5817326099192356,0.4993379260805816,0.4641868639829947
frwiki,True,71.0,0.31570208037687325,0.8985111868261156,0.5902953256744905,0.48673385417797255,0.4672356308152188
frwiki,True,72.0,0.3198107049608355,0.8898017679409687,0.5995685092254244,0.47296646610398607,0.4705112373683336
frwiki,True,73.0,0.32433919102196196,0.8799513599090367,0.6094692726625413,0.4581294981065278,0.47397650341263
frwiki,True,74.0,0.3292500617279332,0.8686638582804622,0.6199013081290936,0.44226932496087745,0.4775094840832342
frwiki,True,75.0,0.3347576544395286,0.8561524582591428,0.6310501266606198,0.4252073544473409,0.48131859107318636
frwiki,True,76.0,0.34065286260426136,0.8418525873606828,0.642574703715194,0.407228742099021,0.485037077476002
frwiki,True,77.0,0.347014133103311,0.8259103237803458,0.6544434629463415,0.38840946361158857,0.48869738088535725
frwiki,True,78.0,0.35378396648691823,0.8078874329323421,0.6665285201508402,0.3687998405497088,0.4920799817239596
frwiki,True,79.0,0.3610840841601169,0.7882695261144385,0.6787777743570069,0.3485863587118469,0.49528983484964056
frwiki,True,80.0,0.36865644985389173,0.7660498481971187,0.6909094066725556,0.3278696612273331,0.4977661936529885
frwiki,True,81.0,0.3773572411800352,0.7424680898104536,0.7035541546183169,0.30617119988317504,0.5003918062601194
frwiki,True,82.0,0.3866529756629627,0.7165648725369045,0.7160489149183238,0.28408003299515927,0.5022796552358734
frwiki,True,83.0,0.39612095212993176,0.6882888716051625,0.7278710990384213,0.2622365271410839,0.5028461328791443
frwiki,True,84.0,0.40708661417322833,0.6592903758157678,0.7398764259680716,0.23998354188826246,0.5033647375504711
frwiki,True,85.0,0.41872649925244304,0.6291469428202567,0.751217860213093,0.21827422687329426,0.5028097598530911
frwiki,True,86.0,0.4318380853218468,0.5976690657707204,0.762326418902864,0.19652248387243187,0.5013977119918389
frwiki,True,87.0,0.4461663718801763,0.5646830300565757,0.7728050294804665,0.17518120696766198,0.49847698044819305
frwiki,True,88.0,0.4626231993934799,0.5300032768892451,0.7829276167515675,0.15386163740451236,0.49402633820880304
frwiki,True,89.0,0.4806470894471974,0.4920821670108058,0.7921281747056098,0.13288445182055528,0.48629741476851523
frwiki,True,90.0,0.5020477890448761,0.45250682027249506,0.8007895665435979,0.1121677543360415,0.4759917272999103
frwiki,True,91.0,0.5261157728322996,0.40992700038296176,0.808188693931263,0.09227790922779092,0.46081026804041353
frwiki,True,92.0,0.5540624737895254,0.36512837114916163,0.8142987169741018,0.07344481697750922,0.4401782930793633
frwiki,True,93.0,0.5863170938498663,0.31943748050645704,0.818857551996375,0.05632759141257566,0.4135593913403495
frwiki,True,94.0,0.6239371843177649,0.27262534101362473,0.8217073172657094,0.04106634355617564,0.37945170100175296
frwiki,True,95.0,0.6683119796894373,0.22344436592193107,0.822555142168553,0.027715341762359864,0.33491333652884536
frwiki,True,96.0,0.7217135975981921,0.17273154380964037,0.8212715636843597,0.016645584233365762,0.27874868592908797
frwiki,True,97.0,0.7894862477786914,0.11751793405951305,0.8172834711246153,0.007831416838187555,0.20458294386099962
frwiki,True,98.0,0.8779601218795103,0.06484292645949884,0.8112144973321934,0.0022526300417767655,0.12076648186002735
frwiki,True,99.0,0.9533471359558316,0.027269245802225915,0.805237094944548,0.00033350370307514093,0.053021870466042814
frwiki,False,0.0,0.07380813188740463,1.0,0.07380813188740463,1.0,0.13746986951509485
frwiki,False,1.0,0.07385864308594725,0.9999933994706376,0.07449764370783926,0.9992550150601274,0.13755741508665623
frwiki,False,2.0,0.07456688180005051,0.9996897751199646,0.08424483353307416,0.9887068769175823,0.13878201045886507
frwiki,False,3.0,0.07645355479658422,0.9982244576014997,0.10986183781045084,0.9609316852842769,0.1420291610846823
frwiki,False,4.0,0.07911403143892576,0.9951046073895127,0.1447190474798554,0.9230480877346444,0.14657488587219922
frwiki,False,5.0,0.08192482025647223,0.991104686595865,0.17958388952221346,0.8850861168576118,0.15133987049973477
frwiki,False,6.0,0.0849093237039877,0.9872081740955625,0.21378098012659996,0.8478533510558746,0.1563693878507612
frwiki,False,7.0,0.08800653731223347,0.9831202462437487,0.2468064202871721,0.8118703505286518,0.1615513867484962
frwiki,False,8.0,0.09118809966018232,0.9791269259794636,0.27821639563623135,0.777639090301327,0.1668382141095788
frwiki,False,9.0,0.09443142827974849,0.9748431824232303,0.30815169909613216,0.7449768746084621,0.17218370873779615
frwiki,False,10.0,0.09771481735817292,0.970528636396639,0.33637637666897263,0.7141591497528434,0.177553212449905
frwiki,False,11.0,0.10104879385485581,0.9662976970753054,0.36302927258614026,0.6850451242760768,0.18296442181412192
frwiki,False,12.0,0.10440380010628833,0.9617191298742159,0.38827115385239963,0.6574268546294002,0.1883593889038993
frwiki,False,13.0,0.10774965755529169,0.9567335300291083,0.4120622346938444,0.6313425631514563,0.1936859340469917
frwiki,False,14.0,0.11114554010875452,0.9517655315956339,0.4346514603814887,0.6065573051918736,0.19904674413912374
frwiki,False,15.0,0.11455564823302114,0.9467117262804476,0.45597614802256586,0.5831305182405592,0.20438049467708908
frwiki,False,16.0,0.11798268929175645,0.941477506496021,0.47619560310361514,0.5608826625049904,0.20968800633704587
frwiki,False,17.0,0.12143788983885472,0.9359616641254629,0.49549154105729476,0.5396094764048068,0.21498251826441506
frwiki,False,18.0,0.12491502349220224,0.9306548385180492,0.5136786738508407,0.5195501125542674,0.22026542287825338
frwiki,False,19.0,0.12841186862225815,0.9253546134399979,0.5309171189253619,0.5005155632421029,0.22552722462287855
frwiki,False,20.0,0.1318576743467173,0.9197463636583654,0.5471277919057873,0.4825661426173641,0.2306488224044952
frwiki,False,21.0,0.13538434174598388,0.9143823334631438,0.5626713630118968,0.4653564469776387,0.23584869522630483
frwiki,False,22.0,0.1389263099133394,0.9089390969155726,0.5774690726504471,0.44894573848100566,0.24101483615645508
frwiki,False,23.0,0.1424554498059715,0.9029898197835466,0.5916363807612236,0.4331753418225498,0.2460881017673658
frwiki,False,24.0,0.14607015596182427,0.8974057719429098,0.60521128681808,0.41807366075851005,0.2512452804387255
frwiki,False,25.0,0.1496690571276722,0.8915973061039495,0.6181218516461567,0.4036713783588976,0.256311992501129
frwiki,False,26.0,0.15330696909034225,0.8861078658508412,0.6303878869369501,0.38999041110229193,0.261390364335893
frwiki,False,27.0,0.15691929062840185,0.8804182095404052,0.6420447939096912,0.37695115833849246,0.2663638418064053
frwiki,False,28.0,0.1605729990165967,0.8747769571119604,0.6532278441956616,0.36442738115088164,0.27133928705481875
frwiki,False,29.0,0.1642139249118954,0.8692677152707647,0.6638059883273411,0.35256723493465647,0.2762426690010264
frwiki,False,30.0,0.1677981143867995,0.8635934601955076,0.6738097557965437,0.34131408750916764,0.28099774671179206
frwiki,False,31.0,0.17137350562587905,0.8578686010618052,0.6833554184976243,0.3305515185402012,0.285678070446337
frwiki,False,32.0,0.17487055284946218,0.8524341652200507,0.6922356032335278,0.3205306032063633,0.2902072405934643
frwiki,False,33.0,0.1783574934743755,0.8468501173794138,0.7007560920951351,0.31088612530860593,0.29465654114386763
frwiki,False,34.0,0.18183464969751834,0.8414508843609257,0.7088520911077983,0.3017146926845074,0.29904639849369197
frwiki,False,35.0,0.18522142987749132,0.8357722289327604,0.7165219763623786,0.2929810636365119,0.3032397428897127
frwiki,False,36.0,0.18868770320825418,0.8307184236175741,0.7238709771710853,0.2846436845212328,0.30752483674637093
frwiki,False,37.0,0.1920605983348359,0.8254093978337063,0.7308341371683571,0.2767025553386701,0.3116133614084051
frwiki,False,38.0,0.1953275759599087,0.819992563403585,0.7373867729352808,0.269196073759295,0.31550080315590534
frwiki,False,39.0,0.19862890247827486,0.8146901381490795,0.7437242407412821,0.2619310241079511,0.319388073276983
frwiki,False,40.0,0.20190823335852254,0.8094867208350109,0.7497750885842436,0.2549833250664376,0.3232012045409225
frwiki,False,41.0,0.20515600023116548,0.804481319401816,0.7555214534636358,0.24838015306819303,0.32693753794513725
frwiki,False,42.0,0.2084108554021582,0.7997531402018442,0.7610180611174444,0.24206873323279807,0.33065500610378434
frwiki,False,43.0,0.21161404063654946,0.7949127520027106,0.7662790395551788,0.23600277795749292,0.3342478325166675
frwiki,False,44.0,0.2147510572948561,0.7900943655681185,0.7712738592850252,0.2302259448676078,0.33771084886874086
frwiki,False,45.0,0.21779654654883762,0.7851153662523734,0.7760233063439634,0.22470123894730068,0.34099787474772175
frwiki,False,46.0,0.22092012158660554,0.7803453836997727,0.7806746692909038,0.21929908997520983,0.3443522145451174
frwiki,False,47.0,0.22404085831434037,0.7757866180867705,0.7851350605230936,0.21411996308914344,0.3476757818470097
frwiki,False,48.0,0.22707039401185425,0.7711662475330522,0.7893646942666264,0.2091850734403664,0.35083669821009245
frwiki,False,49.0,0.23012829148078004,0.7667570939189323,0.7934587315970497,0.20441341772404908,0.3540075972396391
frwiki,False,50.0,0.23305332192296926,0.7621477242474847,0.7973246096934384,0.19987214803055894,0.35695512904733273
frwiki,False,51.0,0.2359612548452003,0.7575405547524912,0.8010602502768766,0.19547166979546315,0.3598387404405636
frwiki,False,52.0,0.2388788132748754,0.7531776048439085,0.8046583457562383,0.19123915945220024,0.3627176219906949
frwiki,False,53.0,0.24176748421762242,0.7488212554646883,0.8081257165499076,0.1871483172264749,0.36552127802389583
frwiki,False,54.0,0.24462799284117884,0.7446167182608046,0.8114467731301498,0.18322754687452605,0.36826902621741187
frwiki,False,55.0,0.24747225066798498,0.7401217577649728,0.8147059587721948,0.17935043414790747,0.37092083507689017
frwiki,False,56.0,0.2503731326525877,0.7359480230314471,0.8178777781025596,0.17559324839207563,0.37363410676935715
frwiki,False,57.0,0.2532304917598278,0.7315168676527858,0.8209632054667277,0.17190882534512755,0.3762231487207399
frwiki,False,58.0,0.25608825145526704,0.7270131064511374,0.8239757193105531,0.16829734033889188,0.3787595525503461
frwiki,False,59.0,0.25902333446913767,0.7225291468375764,0.8269658232082598,0.16471162911146564,0.3813385680933943
frwiki,False,60.0,0.2620183333025557,0.7180099844007489,0.8299250728323249,0.161156425622222,0.38393131302198463
frwiki,False,61.0,0.2650238468569074,0.7132598034362356,0.8328404769096359,0.1576301518847032,0.386454085905309
frwiki,False,62.0,0.26809974720139623,0.708404014001923,0.8357394795046428,0.1541131707341021,0.3889855720296111
frwiki,False,63.0,0.2713209084428149,0.7033788109806407,0.8386800541736089,0.15053780408456535,0.3915900952296959
frwiki,False,64.0,0.2745330853622337,0.6979531758447027,0.8415766209049071,0.14697804196777717,0.39406467000409934
frwiki,False,65.0,0.2778511384945321,0.692109507182476,0.8445071273372112,0.1433483224513634,0.3965179729520213
frwiki,False,66.0,0.2812906672634959,0.6857773993474277,0.847481966489011,0.139631813679775,0.3989435468233129
frwiki,False,67.0,0.2850029299263135,0.6795068964530956,0.8505240354791669,0.13584762682233328,0.401574874817476
frwiki,False,68.0,0.28884379154065704,0.6726533467984133,0.8536036167704345,0.1319764753778883,0.4041441941624366
frwiki,False,69.0,0.29275364845273066,0.6650825396196774,0.8566903432619138,0.12804045115684817,0.40655248239827313
frwiki,False,70.0,0.29701028837667864,0.65751613279385,0.8598568036921198,0.12401868967160525,0.409185229202851
frwiki,False,71.0,0.30166544560555947,0.6495514940298212,0.8631512281624818,0.11982703164441443,0.41199274892092047
frwiki,False,72.0,0.3065507891933766,0.6407991920952061,0.866499241634432,0.11551474531912234,0.4147094567607841
frwiki,False,73.0,0.3117190164140948,0.6315144474586862,0.8698850921893219,0.11111917637522835,0.41740474644496517
frwiki,False,74.0,0.3172487471480135,0.6213408315346891,0.8733565227558387,0.10656037349887464,0.4200336437422194
frwiki,False,75.0,0.3233742426378985,0.6105049624979924,0.8769684214628823,0.10179713371033183,0.42279896326793065
frwiki,False,76.0,0.3297548522240042,0.5985029999405952,0.8805793458244424,0.09694202004358399,0.4252250984805852
frwiki,False,77.0,0.3367263565558116,0.5857529773887866,0.88426545717914,0.09194611491844178,0.427626850076818
frwiki,False,78.0,0.34401416283553315,0.5716168436708624,0.8879315944514272,0.08686131655618132,0.42952737192337104
frwiki,False,79.0,0.3518797034324535,0.5564598280782119,0.8916147827696744,0.08167675438342721,0.4311315592542526
frwiki,False,80.0,0.3600207786414349,0.5397978917909216,0.8952104423853277,0.07646676909552096,0.4319502666424878
frwiki,False,81.0,0.36918244179913523,0.5220688699233679,0.8988840496396545,0.07108758859298137,0.43251248587364655
frwiki,False,82.0,0.3791062047105203,0.5031319511824849,0.9025076404924992,0.0656661531197406,0.4324012585656587
frwiki,False,83.0,0.3894020219592945,0.4826219062768834,0.9059574730674669,0.060306960445665456,0.4310293331656554
frwiki,False,84.0,0.4009347491565275,0.46147161002312387,0.9093602122774026,0.05494759243976168,0.4290784784645536
frwiki,False,85.0,0.4131259601726088,0.4396018560688567,0.9125459972263632,0.04976513424895121,0.42595289006188797
frwiki,False,86.0,0.42665672858452136,0.41686963294456214,0.915613561590002,0.04464158755256229,0.42170640290587935
frwiki,False,87.0,0.4411894702792929,0.3931187281219954,0.9184563769287981,0.03967952147034674,0.4157692415089773
frwiki,False,88.0,0.45768025935260254,0.368386544600877,0.9211635958544847,0.03478565946947043,0.40820729865434335
frwiki,False,89.0,0.4753135539790291,0.3416940038591095,0.9235721778895027,0.030058012042140654,0.3975772066964737
frwiki,False,90.0,0.4961178315490078,0.3139255768312619,0.9258292492018486,0.025408211946725073,0.3845326678399043
frwiki,False,91.0,0.5197775329156379,0.2843750068755514,0.927789145141751,0.020937250316517785,0.367621146940662
frwiki,False,92.0,0.5470789724072312,0.25301149152162006,0.9294059090805751,0.016692291413421757,0.34600404086600306
frwiki,False,93.0,0.5790904953130491,0.22114193558323378,0.9306503106538183,0.012809042072800932,0.3200599927397321
frwiki,False,94.0,0.616208599630479,0.1885859245911522,0.9314418039681843,0.009360089671710438,0.2887899084917993
frwiki,False,95.0,0.6602681005471056,0.1545359937867017,0.9317290734948798,0.006336492286889861,0.25045329986253917
frwiki,False,96.0,0.7129304930388359,0.11987661410445118,0.9314770427965015,0.0038466049884359893,0.20524246938879293
frwiki,False,97.0,0.7788995770793599,0.08266282955893063,0.9305611580420853,0.0018699139523984606,0.14946344568319925
frwiki,False,98.0,0.8650147928994083,0.046315914536345815,0.9290769050890064,0.0005759650570678803,0.08792406728690912
frwiki,False,99.0,0.9456744788854088,0.01926474503255161,0.9275320803250416,8.819190980369673e-05,0.037760259440064864
