wiki_db,user_is_anonymous_or_bot,threshold,precision,recall,accuracy,fpr,F1
gagwiki,True,0.0,0.5392156862745098,1.0,0.5392156862745098,1.0,0.7006369426751593
gagwiki,True,1.0,0.5392156862745098,1.0,0.5392156862745098,1.0,0.7006369426751593
gagwiki,True,2.0,0.5392156862745098,1.0,0.5392156862745098,1.0,0.7006369426751593
gagwiki,True,3.0,0.5392156862745098,1.0,0.5392156862745098,1.0,0.7006369426751593
gagwiki,True,4.0,0.5392156862745098,1.0,0.5392156862745098,1.0,0.7006369426751593
gagwiki,True,5.0,0.5392156862745098,1.0,0.5392156862745098,1.0,0.7006369426751593
gagwiki,True,6.0,0.5392156862745098,1.0,0.5392156862745098,1.0,0.7006369426751593
gagwiki,True,7.0,0.5392156862745098,1.0,0.5392156862745098,1.0,0.7006369426751593
gagwiki,True,8.0,0.5392156862745098,1.0,0.5392156862745098,1.0,0.7006369426751593
gagwiki,True,9.0,0.5392156862745098,1.0,0.5392156862745098,1.0,0.7006369426751593
gagwiki,True,10.0,0.5392156862745098,1.0,0.5392156862745098,1.0,0.7006369426751593
gagwiki,True,11.0,0.5392156862745098,1.0,0.5392156862745098,1.0,0.7006369426751593
gagwiki,True,12.0,0.5392156862745098,1.0,0.5392156862745098,1.0,0.7006369426751593
gagwiki,True,13.0,0.5392156862745098,1.0,0.5392156862745098,1.0,0.7006369426751593
gagwiki,True,14.0,0.5392156862745098,1.0,0.5392156862745098,1.0,0.7006369426751593
gagwiki,True,15.0,0.5392156862745098,1.0,0.5392156862745098,1.0,0.7006369426751593
gagwiki,True,16.0,0.5392156862745098,1.0,0.5392156862745098,1.0,0.7006369426751593
gagwiki,True,17.0,0.5392156862745098,1.0,0.5392156862745098,1.0,0.7006369426751593
gagwiki,True,18.0,0.5392156862745098,1.0,0.5392156862745098,1.0,0.7006369426751593
gagwiki,True,19.0,0.5392156862745098,1.0,0.5392156862745098,1.0,0.7006369426751593
gagwiki,True,20.0,0.5392156862745098,1.0,0.5392156862745098,1.0,0.7006369426751593
gagwiki,True,21.0,0.5392156862745098,1.0,0.5392156862745098,1.0,0.7006369426751593
gagwiki,True,22.0,0.5392156862745098,1.0,0.5392156862745098,1.0,0.7006369426751593
gagwiki,True,23.0,0.5392156862745098,1.0,0.5392156862745098,1.0,0.7006369426751593
gagwiki,True,24.0,0.5392156862745098,1.0,0.5392156862745098,1.0,0.7006369426751593
gagwiki,True,25.0,0.5392156862745098,1.0,0.5392156862745098,1.0,0.7006369426751593
gagwiki,True,26.0,0.5392156862745098,1.0,0.5392156862745098,1.0,0.7006369426751593
gagwiki,True,27.0,0.5392156862745098,1.0,0.5392156862745098,1.0,0.7006369426751593
gagwiki,True,28.0,0.5392156862745098,1.0,0.5392156862745098,1.0,0.7006369426751593
gagwiki,True,29.0,0.5392156862745098,1.0,0.5392156862745098,1.0,0.7006369426751593
gagwiki,True,30.0,0.5392156862745098,1.0,0.5392156862745098,1.0,0.7006369426751593
gagwiki,True,31.0,0.5445544554455446,1.0,0.5490196078431373,0.9787234042553191,0.7051282051282052
gagwiki,True,32.0,0.5445544554455446,1.0,0.5490196078431373,0.9787234042553191,0.7051282051282052
gagwiki,True,33.0,0.5445544554455446,1.0,0.5490196078431373,0.9787234042553191,0.7051282051282052
gagwiki,True,34.0,0.5445544554455446,1.0,0.5490196078431373,0.9787234042553191,0.7051282051282052
gagwiki,True,35.0,0.5445544554455446,1.0,0.5490196078431373,0.9787234042553191,0.7051282051282052
gagwiki,True,36.0,0.5445544554455446,1.0,0.5490196078431373,0.9787234042553191,0.7051282051282052
gagwiki,True,37.0,0.5445544554455446,1.0,0.5490196078431373,0.9787234042553191,0.7051282051282052
gagwiki,True,38.0,0.5445544554455446,1.0,0.5490196078431373,0.9787234042553191,0.7051282051282052
gagwiki,True,39.0,0.5445544554455446,1.0,0.5490196078431373,0.9787234042553191,0.7051282051282052
gagwiki,True,40.0,0.5445544554455446,1.0,0.5490196078431373,0.9787234042553191,0.7051282051282052
gagwiki,True,41.0,0.5445544554455446,1.0,0.5490196078431373,0.9787234042553191,0.7051282051282052
gagwiki,True,42.0,0.5445544554455446,1.0,0.5490196078431373,0.9787234042553191,0.7051282051282052
gagwiki,True,43.0,0.55,1.0,0.5588235294117647,0.9574468085106383,0.7096774193548387
gagwiki,True,44.0,0.55,1.0,0.5588235294117647,0.9574468085106383,0.7096774193548387
gagwiki,True,45.0,0.55,1.0,0.5588235294117647,0.9574468085106383,0.7096774193548387
gagwiki,True,46.0,0.5555555555555556,1.0,0.5686274509803921,0.9361702127659575,0.7142857142857143
gagwiki,True,47.0,0.5555555555555556,1.0,0.5686274509803921,0.9361702127659575,0.7142857142857143
gagwiki,True,48.0,0.5555555555555556,1.0,0.5686274509803921,0.9361702127659575,0.7142857142857143
gagwiki,True,49.0,0.5555555555555556,1.0,0.5686274509803921,0.9361702127659575,0.7142857142857143
gagwiki,True,50.0,0.5555555555555556,1.0,0.5686274509803921,0.9361702127659575,0.7142857142857143
gagwiki,True,51.0,0.5612244897959183,1.0,0.5784313725490197,0.9148936170212766,0.7189542483660131
gagwiki,True,52.0,0.5612244897959183,1.0,0.5784313725490197,0.9148936170212766,0.7189542483660131
gagwiki,True,53.0,0.5670103092783505,1.0,0.5882352941176471,0.8936170212765957,0.7236842105263158
gagwiki,True,54.0,0.5729166666666666,1.0,0.5980392156862745,0.8723404255319149,0.728476821192053
gagwiki,True,55.0,0.5729166666666666,1.0,0.5980392156862745,0.8723404255319149,0.728476821192053
gagwiki,True,56.0,0.5789473684210527,1.0,0.6078431372549019,0.851063829787234,0.7333333333333334
gagwiki,True,57.0,0.5913978494623656,1.0,0.6274509803921569,0.8085106382978723,0.7432432432432433
gagwiki,True,58.0,0.5913978494623656,1.0,0.6274509803921569,0.8085106382978723,0.7432432432432433
gagwiki,True,59.0,0.5978260869565217,1.0,0.6372549019607843,0.7872340425531915,0.7482993197278911
gagwiki,True,60.0,0.5978260869565217,1.0,0.6372549019607843,0.7872340425531915,0.7482993197278911
gagwiki,True,61.0,0.5978260869565217,1.0,0.6372549019607843,0.7872340425531915,0.7482993197278911
gagwiki,True,62.0,0.5978260869565217,1.0,0.6372549019607843,0.7872340425531915,0.7482993197278911
gagwiki,True,63.0,0.6043956043956044,1.0,0.6470588235294118,0.7659574468085106,0.7534246575342465
gagwiki,True,64.0,0.6043956043956044,1.0,0.6470588235294118,0.7659574468085106,0.7534246575342465
gagwiki,True,65.0,0.6,0.9818181818181818,0.6372549019607843,0.7659574468085106,0.7448275862068966
gagwiki,True,66.0,0.5955056179775281,0.9636363636363636,0.6274509803921569,0.7659574468085106,0.736111111111111
gagwiki,True,67.0,0.5955056179775281,0.9636363636363636,0.6274509803921569,0.7659574468085106,0.736111111111111
gagwiki,True,68.0,0.5955056179775281,0.9636363636363636,0.6274509803921569,0.7659574468085106,0.736111111111111
gagwiki,True,69.0,0.6022727272727273,0.9636363636363636,0.6372549019607843,0.7446808510638298,0.7412587412587412
gagwiki,True,70.0,0.6022727272727273,0.9636363636363636,0.6372549019607843,0.7446808510638298,0.7412587412587412
gagwiki,True,71.0,0.6162790697674418,0.9636363636363636,0.6568627450980392,0.7021276595744681,0.75177304964539
gagwiki,True,72.0,0.6162790697674418,0.9636363636363636,0.6568627450980392,0.7021276595744681,0.75177304964539
gagwiki,True,73.0,0.6235294117647059,0.9636363636363636,0.6666666666666666,0.6808510638297872,0.7571428571428571
gagwiki,True,74.0,0.6385542168674698,0.9636363636363636,0.6862745098039216,0.6382978723404256,0.7681159420289854
gagwiki,True,75.0,0.654320987654321,0.9636363636363636,0.7058823529411765,0.5957446808510638,0.7794117647058824
gagwiki,True,76.0,0.6582278481012658,0.9454545454545454,0.7058823529411765,0.574468085106383,0.7761194029850746
gagwiki,True,77.0,0.6710526315789473,0.9272727272727272,0.7156862745098039,0.5319148936170213,0.7786259541984732
gagwiki,True,78.0,0.6710526315789473,0.9272727272727272,0.7156862745098039,0.5319148936170213,0.7786259541984732
gagwiki,True,79.0,0.704225352112676,0.9090909090909091,0.7450980392156863,0.44680851063829785,0.7936507936507936
gagwiki,True,80.0,0.7246376811594203,0.9090909090909091,0.7647058823529411,0.40425531914893614,0.8064516129032259
gagwiki,True,81.0,0.7121212121212122,0.8545454545454545,0.7352941176470589,0.40425531914893614,0.7768595041322314
gagwiki,True,82.0,0.734375,0.8545454545454545,0.7549019607843137,0.3617021276595745,0.7899159663865547
gagwiki,True,83.0,0.7377049180327869,0.8181818181818182,0.7450980392156863,0.3404255319148936,0.7758620689655172
gagwiki,True,84.0,0.7543859649122807,0.7818181818181819,0.7450980392156863,0.2978723404255319,0.7678571428571429
gagwiki,True,85.0,0.76,0.6909090909090909,0.7156862745098039,0.2553191489361702,0.7238095238095238
gagwiki,True,86.0,0.7446808510638298,0.6363636363636364,0.6862745098039216,0.2553191489361702,0.6862745098039216
gagwiki,True,87.0,0.7441860465116279,0.5818181818181818,0.6666666666666666,0.23404255319148937,0.6530612244897959
gagwiki,True,88.0,0.7,0.38181818181818183,0.5784313725490197,0.19148936170212766,0.49411764705882355
gagwiki,True,89.0,0.6,0.21818181818181817,0.5,0.1702127659574468,0.32
gagwiki,True,90.0,0.3333333333333333,0.05454545454545454,0.43137254901960786,0.1276595744680851,0.09375
gagwiki,True,91.0,0.2,0.01818181818181818,0.43137254901960786,0.0851063829787234,0.03333333333333333
gagwiki,True,92.0,0.0,0.0,0.4215686274509804,0.0851063829787234,0.03333333333333333
gagwiki,True,93.0,0.0,0.0,0.45098039215686275,0.02127659574468085,0.03333333333333333
gagwiki,True,94.0,0.0,0.0,0.45098039215686275,0.02127659574468085,0.03333333333333333
gagwiki,True,95.0,0.0,0.0,0.45098039215686275,0.02127659574468085,0.03333333333333333
gagwiki,True,96.0,0.0,0.0,0.45098039215686275,0.02127659574468085,0.03333333333333333
gagwiki,True,97.0,0.0,0.0,0.45098039215686275,0.02127659574468085,0.03333333333333333
gagwiki,True,98.0,0.0,0.0,0.45098039215686275,0.02127659574468085,0.03333333333333333
gagwiki,True,99.0,0.0,0.0,0.46078431372549017,0.0,0.03333333333333333
gagwiki,False,0.0,0.12648221343873517,1.0,0.12648221343873517,1.0,0.22456140350877193
gagwiki,False,1.0,0.12648221343873517,1.0,0.12648221343873517,1.0,0.22456140350877193
gagwiki,False,2.0,0.12648221343873517,1.0,0.12648221343873517,1.0,0.22456140350877193
gagwiki,False,3.0,0.12648221343873517,1.0,0.12648221343873517,1.0,0.22456140350877193
gagwiki,False,4.0,0.12648221343873517,1.0,0.12648221343873517,1.0,0.22456140350877193
gagwiki,False,5.0,0.12673267326732673,1.0,0.12845849802371542,0.997737556561086,0.22495606326889278
gagwiki,False,6.0,0.12698412698412698,1.0,0.13043478260869565,0.995475113122172,0.22535211267605632
gagwiki,False,7.0,0.12749003984063745,1.0,0.13438735177865613,0.9909502262443439,0.22614840989399296
gagwiki,False,8.0,0.1285140562248996,1.0,0.1422924901185771,0.9819004524886877,0.22775800711743768
gagwiki,False,9.0,0.12903225806451613,1.0,0.14624505928853754,0.9773755656108597,0.2285714285714286
gagwiki,False,10.0,0.12903225806451613,1.0,0.14624505928853754,0.9773755656108597,0.2285714285714286
gagwiki,False,11.0,0.13008130081300814,1.0,0.1541501976284585,0.9683257918552036,0.2302158273381295
gagwiki,False,12.0,0.1306122448979592,1.0,0.15810276679841898,0.9638009049773756,0.23104693140794225
gagwiki,False,13.0,0.13168724279835392,1.0,0.16600790513833993,0.9547511312217195,0.23272727272727273
gagwiki,False,14.0,0.13195876288659794,1.0,0.16798418972332016,0.9524886877828054,0.2331511839708561
gagwiki,False,15.0,0.13389121338912133,1.0,0.18181818181818182,0.9366515837104072,0.23616236162361623
gagwiki,False,16.0,0.13559322033898305,1.0,0.19367588932806323,0.9230769230769231,0.23880597014925373
gagwiki,False,17.0,0.13675213675213677,1.0,0.2015810276679842,0.9140271493212669,0.24060150375939854
gagwiki,False,18.0,0.13763440860215054,1.0,0.2075098814229249,0.9072398190045249,0.24196597353497162
gagwiki,False,19.0,0.13852813852813853,1.0,0.2134387351778656,0.9004524886877828,0.24334600760456274
gagwiki,False,20.0,0.14065934065934066,1.0,0.22727272727272727,0.8846153846153846,0.24662813102119463
gagwiki,False,21.0,0.14253897550111358,1.0,0.2391304347826087,0.8710407239819005,0.24951267056530216
gagwiki,False,22.0,0.14382022471910114,1.0,0.24703557312252963,0.8619909502262444,0.2514734774066798
gagwiki,False,23.0,0.14446952595936793,1.0,0.2509881422924901,0.8574660633484162,0.25246548323471396
gagwiki,False,24.0,0.14512471655328799,1.0,0.2549407114624506,0.8529411764705882,0.25346534653465347
gagwiki,False,25.0,0.1471264367816092,1.0,0.26679841897233203,0.8393665158371041,0.2565130260521042
gagwiki,False,26.0,0.14746543778801843,1.0,0.26877470355731226,0.8371040723981901,0.2570281124497992
gagwiki,False,27.0,0.14849187935034802,1.0,0.274703557312253,0.830316742081448,0.2585858585858586
gagwiki,False,28.0,0.14883720930232558,1.0,0.2766798418972332,0.8280542986425339,0.2591093117408907
gagwiki,False,29.0,0.15058823529411763,1.0,0.2865612648221344,0.8167420814479638,0.26175869120654394
gagwiki,False,30.0,0.15165876777251186,1.0,0.2924901185770751,0.8099547511312217,0.26337448559670784
gagwiki,False,31.0,0.15311004784688995,1.0,0.30039525691699603,0.8009049773755657,0.26556016597510373
gagwiki,False,32.0,0.15311004784688995,1.0,0.30039525691699603,0.8009049773755657,0.26556016597510373
gagwiki,False,33.0,0.15347721822541965,1.0,0.30237154150197626,0.7986425339366516,0.2661122661122661
gagwiki,False,34.0,0.15458937198067632,1.0,0.308300395256917,0.7918552036199095,0.26778242677824265
gagwiki,False,35.0,0.1553398058252427,1.0,0.31225296442687744,0.7873303167420814,0.2689075630252101
gagwiki,False,36.0,0.1568627450980392,1.0,0.3201581027667984,0.7782805429864253,0.2711864406779661
gagwiki,False,37.0,0.15555555555555556,0.984375,0.3221343873517787,0.7737556561085973,0.2686567164179105
gagwiki,False,38.0,0.15555555555555556,0.984375,0.3221343873517787,0.7737556561085973,0.2686567164179105
gagwiki,False,39.0,0.15671641791044777,0.984375,0.32806324110671936,0.7669683257918553,0.2703862660944206
gagwiki,False,40.0,0.15829145728643215,0.984375,0.3359683794466403,0.7579185520361991,0.27272727272727265
gagwiki,False,41.0,0.15869017632241814,0.984375,0.33794466403162055,0.755656108597285,0.27331887201735355
gagwiki,False,42.0,0.15949367088607594,0.984375,0.34189723320158105,0.751131221719457,0.2745098039215686
gagwiki,False,43.0,0.16153846153846155,0.984375,0.35177865612648224,0.7398190045248869,0.2775330396475771
gagwiki,False,44.0,0.16279069767441862,0.984375,0.3577075098814229,0.7330316742081447,0.2793791574279379
gagwiki,False,45.0,0.1649214659685864,0.984375,0.3675889328063241,0.7217194570135747,0.2825112107623318
gagwiki,False,46.0,0.1662269129287599,0.984375,0.37351778656126483,0.7149321266968326,0.28442437923250563
gagwiki,False,47.0,0.164021164021164,0.96875,0.3715415019762846,0.7149321266968326,0.28054298642533937
gagwiki,False,48.0,0.16310160427807488,0.953125,0.37549407114624506,0.7081447963800905,0.2785388127853881
gagwiki,False,49.0,0.16486486486486487,0.953125,0.383399209486166,0.6990950226244343,0.28110599078341014
gagwiki,False,50.0,0.16758241758241757,0.953125,0.3952569169960474,0.6855203619909502,0.2850467289719626
gagwiki,False,51.0,0.16897506925207756,0.953125,0.40118577075098816,0.6787330316742082,0.28705882352941176
gagwiki,False,52.0,0.17231638418079095,0.953125,0.4150197628458498,0.6628959276018099,0.29186602870813394
gagwiki,False,53.0,0.17888563049853373,0.953125,0.4407114624505929,0.6334841628959276,0.30123456790123454
gagwiki,False,54.0,0.18373493975903615,0.953125,0.45849802371541504,0.6131221719457014,0.30808080808080807
gagwiki,False,55.0,0.18292682926829268,0.9375,0.4624505928853755,0.6063348416289592,0.30612244897959184
gagwiki,False,56.0,0.1910828025477707,0.9375,0.4901185770750988,0.5746606334841629,0.3174603174603175
gagwiki,False,57.0,0.20066889632107024,0.9375,0.5197628458498024,0.5407239819004525,0.3305785123966942
gagwiki,False,58.0,0.20689655172413793,0.9375,0.5375494071146245,0.5203619909502263,0.3389830508474576
gagwiki,False,59.0,0.21739130434782608,0.9375,0.5652173913043478,0.48868778280542985,0.3529411764705882
gagwiki,False,60.0,0.22641509433962265,0.9375,0.5869565217391305,0.4638009049773756,0.36474164133738607
gagwiki,False,61.0,0.2459016393442623,0.9375,0.6284584980237155,0.416289592760181,0.3896103896103896
gagwiki,False,62.0,0.26785714285714285,0.9375,0.6679841897233202,0.37104072398190047,0.41666666666666663
gagwiki,False,63.0,0.2843601895734597,0.9375,0.6936758893280632,0.3416289592760181,0.43636363636363634
gagwiki,False,64.0,0.2912621359223301,0.9375,0.7035573122529645,0.33031674208144796,0.4444444444444445
gagwiki,False,65.0,0.30412371134020616,0.921875,0.7233201581027668,0.3054298642533937,0.45736434108527124
gagwiki,False,66.0,0.30687830687830686,0.90625,0.7292490118577075,0.29638009049773756,0.4584980237154149
gagwiki,False,67.0,0.3131868131868132,0.890625,0.7391304347826086,0.2828054298642534,0.46341463414634143
gagwiki,False,68.0,0.3275862068965517,0.890625,0.7549407114624506,0.2647058823529412,0.47899159663865554
gagwiki,False,69.0,0.3433734939759036,0.890625,0.7707509881422925,0.24660633484162897,0.4956521739130435
gagwiki,False,70.0,0.35185185185185186,0.890625,0.7786561264822134,0.23755656108597284,0.504424778761062
gagwiki,False,71.0,0.36129032258064514,0.875,0.7885375494071146,0.2239819004524887,0.5114155251141552
gagwiki,False,72.0,0.38095238095238093,0.875,0.8043478260869565,0.20588235294117646,0.5308056872037914
gagwiki,False,73.0,0.39436619718309857,0.875,0.8142292490118577,0.19457013574660634,0.5436893203883495
gagwiki,False,74.0,0.42105263157894735,0.875,0.8320158102766798,0.17420814479638008,0.5685279187817258
gagwiki,False,75.0,0.4375,0.875,0.841897233201581,0.16289592760180996,0.5833333333333334
gagwiki,False,76.0,0.4435483870967742,0.859375,0.8458498023715415,0.15610859728506787,0.5851063829787234
gagwiki,False,77.0,0.4576271186440678,0.84375,0.8537549407114624,0.14479638009049775,0.5934065934065933
gagwiki,False,78.0,0.4864864864864865,0.84375,0.8675889328063241,0.12895927601809956,0.6171428571428572
gagwiki,False,79.0,0.5145631067961165,0.828125,0.8794466403162056,0.11312217194570136,0.6347305389221557
gagwiki,False,80.0,0.5578947368421052,0.828125,0.8952569169960475,0.09502262443438914,0.6666666666666666
gagwiki,False,81.0,0.5555555555555556,0.78125,0.8932806324110671,0.09049773755656108,0.6493506493506493
gagwiki,False,82.0,0.5882352941176471,0.78125,0.9031620553359684,0.07918552036199095,0.6711409395973155
gagwiki,False,83.0,0.5853658536585366,0.75,0.9011857707509882,0.07692307692307693,0.6575342465753423
gagwiki,False,84.0,0.5974025974025974,0.71875,0.9031620553359684,0.07013574660633484,0.652482269503546
gagwiki,False,85.0,0.6119402985074627,0.640625,0.9031620553359684,0.058823529411764705,0.6259541984732824
gagwiki,False,86.0,0.5967741935483871,0.578125,0.8972332015810277,0.05656108597285068,0.5873015873015873
gagwiki,False,87.0,0.6296296296296297,0.53125,0.9011857707509882,0.04524886877828054,0.5762711864406779
gagwiki,False,88.0,0.5609756097560976,0.359375,0.883399209486166,0.04072398190045249,0.43809523809523815
gagwiki,False,89.0,0.41379310344827586,0.1875,0.8636363636363636,0.038461538461538464,0.2580645161290323
gagwiki,False,90.0,0.17647058823529413,0.046875,0.8517786561264822,0.03167420814479638,0.07407407407407407
gagwiki,False,91.0,0.1,0.015625,0.857707509881423,0.020361990950226245,0.02702702702702703
gagwiki,False,92.0,0.0,0.0,0.857707509881423,0.01809954751131222,0.02702702702702703
gagwiki,False,93.0,0.0,0.0,0.8675889328063241,0.006787330316742082,0.02702702702702703
gagwiki,False,94.0,0.0,0.0,0.8695652173913043,0.004524886877828055,0.02702702702702703
gagwiki,False,95.0,0.0,0.0,0.8715415019762845,0.0022624434389140274,0.02702702702702703
gagwiki,False,96.0,0.0,0.0,0.8715415019762845,0.0022624434389140274,0.02702702702702703
gagwiki,False,97.0,0.0,0.0,0.8715415019762845,0.0022624434389140274,0.02702702702702703
gagwiki,False,98.0,0.0,0.0,0.8715415019762845,0.0022624434389140274,0.02702702702702703
gagwiki,False,99.0,0.0,0.0,0.8735177865612648,0.0,0.02702702702702703
