wiki_db,user_is_anonymous_or_bot,threshold,precision,recall,accuracy,fpr,F1
glkwiki,True,0.0,0.23076923076923078,1.0,0.23076923076923078,1.0,0.375
glkwiki,True,1.0,0.23076923076923078,1.0,0.23076923076923078,1.0,0.375
glkwiki,True,2.0,0.23076923076923078,1.0,0.23076923076923078,1.0,0.375
glkwiki,True,3.0,0.23076923076923078,1.0,0.23076923076923078,1.0,0.375
glkwiki,True,4.0,0.23076923076923078,1.0,0.23076923076923078,1.0,0.375
glkwiki,True,5.0,0.23076923076923078,1.0,0.23076923076923078,1.0,0.375
glkwiki,True,6.0,0.23076923076923078,1.0,0.23076923076923078,1.0,0.375
glkwiki,True,7.0,0.23076923076923078,1.0,0.23076923076923078,1.0,0.375
glkwiki,True,8.0,0.23076923076923078,1.0,0.23076923076923078,1.0,0.375
glkwiki,True,9.0,0.23076923076923078,1.0,0.23076923076923078,1.0,0.375
glkwiki,True,10.0,0.23076923076923078,1.0,0.23076923076923078,1.0,0.375
glkwiki,True,11.0,0.23076923076923078,1.0,0.23076923076923078,1.0,0.375
glkwiki,True,12.0,0.23076923076923078,1.0,0.23076923076923078,1.0,0.375
glkwiki,True,13.0,0.23076923076923078,1.0,0.23076923076923078,1.0,0.375
glkwiki,True,14.0,0.23076923076923078,1.0,0.23076923076923078,1.0,0.375
glkwiki,True,15.0,0.23076923076923078,1.0,0.23076923076923078,1.0,0.375
glkwiki,True,16.0,0.23076923076923078,1.0,0.23076923076923078,1.0,0.375
glkwiki,True,17.0,0.23076923076923078,1.0,0.23076923076923078,1.0,0.375
glkwiki,True,18.0,0.23076923076923078,1.0,0.23076923076923078,1.0,0.375
glkwiki,True,19.0,0.23076923076923078,1.0,0.23076923076923078,1.0,0.375
glkwiki,True,20.0,0.23076923076923078,1.0,0.23076923076923078,1.0,0.375
glkwiki,True,21.0,0.23076923076923078,1.0,0.23076923076923078,1.0,0.375
glkwiki,True,22.0,0.23076923076923078,1.0,0.23076923076923078,1.0,0.375
glkwiki,True,23.0,0.23076923076923078,1.0,0.23076923076923078,1.0,0.375
glkwiki,True,24.0,0.23076923076923078,1.0,0.23076923076923078,1.0,0.375
glkwiki,True,25.0,0.23076923076923078,1.0,0.23076923076923078,1.0,0.375
glkwiki,True,26.0,0.23076923076923078,1.0,0.23076923076923078,1.0,0.375
glkwiki,True,27.0,0.23076923076923078,1.0,0.23076923076923078,1.0,0.375
glkwiki,True,28.0,0.23376623376623376,1.0,0.24358974358974358,0.9833333333333333,0.3789473684210526
glkwiki,True,29.0,0.23376623376623376,1.0,0.24358974358974358,0.9833333333333333,0.3789473684210526
glkwiki,True,30.0,0.23376623376623376,1.0,0.24358974358974358,0.9833333333333333,0.3789473684210526
glkwiki,True,31.0,0.23376623376623376,1.0,0.24358974358974358,0.9833333333333333,0.3789473684210526
glkwiki,True,32.0,0.23376623376623376,1.0,0.24358974358974358,0.9833333333333333,0.3789473684210526
glkwiki,True,33.0,0.23376623376623376,1.0,0.24358974358974358,0.9833333333333333,0.3789473684210526
glkwiki,True,34.0,0.23376623376623376,1.0,0.24358974358974358,0.9833333333333333,0.3789473684210526
glkwiki,True,35.0,0.23376623376623376,1.0,0.24358974358974358,0.9833333333333333,0.3789473684210526
glkwiki,True,36.0,0.23376623376623376,1.0,0.24358974358974358,0.9833333333333333,0.3789473684210526
glkwiki,True,37.0,0.23376623376623376,1.0,0.24358974358974358,0.9833333333333333,0.3789473684210526
glkwiki,True,38.0,0.23376623376623376,1.0,0.24358974358974358,0.9833333333333333,0.3789473684210526
glkwiki,True,39.0,0.23376623376623376,1.0,0.24358974358974358,0.9833333333333333,0.3789473684210526
glkwiki,True,40.0,0.23376623376623376,1.0,0.24358974358974358,0.9833333333333333,0.3789473684210526
glkwiki,True,41.0,0.23684210526315788,1.0,0.2564102564102564,0.9666666666666667,0.38297872340425526
glkwiki,True,42.0,0.23684210526315788,1.0,0.2564102564102564,0.9666666666666667,0.38297872340425526
glkwiki,True,43.0,0.23684210526315788,1.0,0.2564102564102564,0.9666666666666667,0.38297872340425526
glkwiki,True,44.0,0.23684210526315788,1.0,0.2564102564102564,0.9666666666666667,0.38297872340425526
glkwiki,True,45.0,0.23684210526315788,1.0,0.2564102564102564,0.9666666666666667,0.38297872340425526
glkwiki,True,46.0,0.23684210526315788,1.0,0.2564102564102564,0.9666666666666667,0.38297872340425526
glkwiki,True,47.0,0.23684210526315788,1.0,0.2564102564102564,0.9666666666666667,0.38297872340425526
glkwiki,True,48.0,0.23684210526315788,1.0,0.2564102564102564,0.9666666666666667,0.38297872340425526
glkwiki,True,49.0,0.23684210526315788,1.0,0.2564102564102564,0.9666666666666667,0.38297872340425526
glkwiki,True,50.0,0.23684210526315788,1.0,0.2564102564102564,0.9666666666666667,0.38297872340425526
glkwiki,True,51.0,0.23684210526315788,1.0,0.2564102564102564,0.9666666666666667,0.38297872340425526
glkwiki,True,52.0,0.23684210526315788,1.0,0.2564102564102564,0.9666666666666667,0.38297872340425526
glkwiki,True,53.0,0.23684210526315788,1.0,0.2564102564102564,0.9666666666666667,0.38297872340425526
glkwiki,True,54.0,0.23684210526315788,1.0,0.2564102564102564,0.9666666666666667,0.38297872340425526
glkwiki,True,55.0,0.23684210526315788,1.0,0.2564102564102564,0.9666666666666667,0.38297872340425526
glkwiki,True,56.0,0.23684210526315788,1.0,0.2564102564102564,0.9666666666666667,0.38297872340425526
glkwiki,True,57.0,0.22666666666666666,0.9444444444444444,0.24358974358974358,0.9666666666666667,0.3655913978494624
glkwiki,True,58.0,0.22972972972972974,0.9444444444444444,0.2564102564102564,0.95,0.3695652173913043
glkwiki,True,59.0,0.22972972972972974,0.9444444444444444,0.2564102564102564,0.95,0.3695652173913043
glkwiki,True,60.0,0.22972972972972974,0.9444444444444444,0.2564102564102564,0.95,0.3695652173913043
glkwiki,True,61.0,0.22972972972972974,0.9444444444444444,0.2564102564102564,0.95,0.3695652173913043
glkwiki,True,62.0,0.22972972972972974,0.9444444444444444,0.2564102564102564,0.95,0.3695652173913043
glkwiki,True,63.0,0.2328767123287671,0.9444444444444444,0.2692307692307692,0.9333333333333333,0.3736263736263736
glkwiki,True,64.0,0.2328767123287671,0.9444444444444444,0.2692307692307692,0.9333333333333333,0.3736263736263736
glkwiki,True,65.0,0.2328767123287671,0.9444444444444444,0.2692307692307692,0.9333333333333333,0.3736263736263736
glkwiki,True,66.0,0.2328767123287671,0.9444444444444444,0.2692307692307692,0.9333333333333333,0.3736263736263736
glkwiki,True,67.0,0.2328767123287671,0.9444444444444444,0.2692307692307692,0.9333333333333333,0.3736263736263736
glkwiki,True,68.0,0.2328767123287671,0.9444444444444444,0.2692307692307692,0.9333333333333333,0.3736263736263736
glkwiki,True,69.0,0.2361111111111111,0.9444444444444444,0.28205128205128205,0.9166666666666666,0.37777777777777777
glkwiki,True,70.0,0.2361111111111111,0.9444444444444444,0.28205128205128205,0.9166666666666666,0.37777777777777777
glkwiki,True,71.0,0.2361111111111111,0.9444444444444444,0.28205128205128205,0.9166666666666666,0.37777777777777777
glkwiki,True,72.0,0.23943661971830985,0.9444444444444444,0.2948717948717949,0.9,0.3820224719101124
glkwiki,True,73.0,0.23943661971830985,0.9444444444444444,0.2948717948717949,0.9,0.3820224719101124
glkwiki,True,74.0,0.24285714285714285,0.9444444444444444,0.3076923076923077,0.8833333333333333,0.38636363636363635
glkwiki,True,75.0,0.24242424242424243,0.8888888888888888,0.3333333333333333,0.8333333333333334,0.38095238095238093
glkwiki,True,76.0,0.24615384615384617,0.8888888888888888,0.34615384615384615,0.8166666666666667,0.3855421686746988
glkwiki,True,77.0,0.25,0.8888888888888888,0.358974358974359,0.8,0.3902439024390244
glkwiki,True,78.0,0.25806451612903225,0.8888888888888888,0.38461538461538464,0.7666666666666667,0.39999999999999997
glkwiki,True,79.0,0.2542372881355932,0.8333333333333334,0.3974358974358974,0.7333333333333333,0.38961038961038963
glkwiki,True,80.0,0.26785714285714285,0.8333333333333334,0.4358974358974359,0.6833333333333333,0.4054054054054054
glkwiki,True,81.0,0.26785714285714285,0.8333333333333334,0.4358974358974359,0.6833333333333333,0.4054054054054054
glkwiki,True,82.0,0.2727272727272727,0.8333333333333334,0.44871794871794873,0.6666666666666666,0.4109589041095891
glkwiki,True,83.0,0.2727272727272727,0.8333333333333334,0.44871794871794873,0.6666666666666666,0.4109589041095891
glkwiki,True,84.0,0.28846153846153844,0.8333333333333334,0.48717948717948717,0.6166666666666667,0.42857142857142855
glkwiki,True,85.0,0.28846153846153844,0.8333333333333334,0.48717948717948717,0.6166666666666667,0.42857142857142855
glkwiki,True,86.0,0.3125,0.8333333333333334,0.5384615384615384,0.55,0.45454545454545453
glkwiki,True,87.0,0.3191489361702128,0.8333333333333334,0.5512820512820513,0.5333333333333333,0.4615384615384616
glkwiki,True,88.0,0.3409090909090909,0.8333333333333334,0.5897435897435898,0.48333333333333334,0.4838709677419354
glkwiki,True,89.0,0.36585365853658536,0.8333333333333334,0.6282051282051282,0.43333333333333335,0.5084745762711864
glkwiki,True,90.0,0.38235294117647056,0.7222222222222222,0.6666666666666666,0.35,0.4999999999999999
glkwiki,True,91.0,0.4444444444444444,0.6666666666666666,0.7307692307692307,0.25,0.5333333333333333
glkwiki,True,92.0,0.47368421052631576,0.5,0.7564102564102564,0.16666666666666666,0.4864864864864865
glkwiki,True,93.0,0.6153846153846154,0.4444444444444444,0.8076923076923077,0.08333333333333333,0.5161290322580646
glkwiki,True,94.0,0.4444444444444444,0.2222222222222222,0.7564102564102564,0.08333333333333333,0.2962962962962963
glkwiki,True,95.0,0.3333333333333333,0.1111111111111111,0.7435897435897436,0.06666666666666667,0.16666666666666666
glkwiki,True,96.0,0.5,0.05555555555555555,0.7692307692307693,0.016666666666666666,0.09999999999999999
glkwiki,True,97.0,1.0,0.05555555555555555,0.782051282051282,0.0,0.10526315789473684
glkwiki,True,98.0,1.0,0.0,0.7692307692307693,0.0,0.0
glkwiki,True,99.0,1.0,0.0,0.7692307692307693,0.0,0.0
glkwiki,False,0.0,0.03218495013599275,1.0,0.03218495013599275,1.0,0.06236275801493193
glkwiki,False,1.0,0.03218495013599275,1.0,0.03218495013599275,1.0,0.06236275801493193
glkwiki,False,2.0,0.03219954648526077,1.0,0.032638259292837715,0.9995316159250586,0.062390158172231994
glkwiki,False,3.0,0.03219954648526077,1.0,0.032638259292837715,0.9995316159250586,0.062390158172231994
glkwiki,False,4.0,0.03221415607985481,1.0,0.03309156844968268,0.9990632318501171,0.06241758241758242
glkwiki,False,5.0,0.03237574099407205,1.0,0.038077969174977334,0.9939110070257611,0.06272084805653709
glkwiki,False,6.0,0.03252404947320202,1.0,0.04261106074342702,0.9892271662763467,0.0629991126885537
glkwiki,False,7.0,0.03239241092086997,0.9859154929577465,0.051677243880326386,0.9793911007025761,0.06272401433691756
glkwiki,False,8.0,0.0330188679245283,0.9859154929577465,0.07026291931097008,0.9601873536299765,0.06389776357827477
glkwiki,False,9.0,0.03326904532304725,0.971830985915493,0.09020852221214869,0.9391100702576113,0.06433566433566433
glkwiki,False,10.0,0.03400689995071464,0.971830985915493,0.11060743427017226,0.9180327868852459,0.06571428571428573
glkwiki,False,11.0,0.03458799593082401,0.9577464788732394,0.13825929283771532,0.8889929742388759,0.06676485027000491
glkwiki,False,12.0,0.03528801245459263,0.9577464788732394,0.1559383499546691,0.8707259953161592,0.06806806806806806
glkwiki,False,13.0,0.036344200962052375,0.9577464788732394,0.1813236627379873,0.8444964871194379,0.07003089598352213
glkwiki,False,14.0,0.037444933920704845,0.9577464788732394,0.20625566636446055,0.818735362997658,0.07207207207207209
glkwiki,False,15.0,0.03722504230118443,0.9295774647887324,0.22393472348141433,0.7995316159250585,0.07158351409978309
glkwiki,False,16.0,0.03804034582132565,0.9295774647887324,0.2411604714415231,0.7817330210772834,0.07308970099667775
glkwiki,False,17.0,0.03830288744843842,0.9154929577464789,0.257479601087942,0.7644028103044497,0.07352941176470588
glkwiki,False,18.0,0.03922751961375981,0.9154929577464789,0.2756119673617407,0.7456674473067916,0.07523148148148148
glkwiki,False,19.0,0.040548970679975045,0.9154929577464789,0.300090661831369,0.7203747072599531,0.07765830346475508
glkwiki,False,20.0,0.04073838319541693,0.9014084507042254,0.31368993653671806,0.7058548009367681,0.0779537149817296
glkwiki,False,21.0,0.04177545691906005,0.9014084507042254,0.3313689936536718,0.6875878220140516,0.07985028072364317
glkwiki,False,22.0,0.0431266846361186,0.9014084507042254,0.3531278331822303,0.6651053864168618,0.08231511254019293
glkwiki,False,23.0,0.043538355217691775,0.8873239436619719,0.36899365367180414,0.6482435597189695,0.08300395256916995
glkwiki,False,24.0,0.045,0.8873239436619719,0.39029918404351766,0.6262295081967213,0.08565601631543168
glkwiki,False,25.0,0.04632352941176471,0.8873239436619719,0.4084315503173164,0.6074941451990632,0.08805031446540881
glkwiki,False,26.0,0.04740406320541761,0.8873239436619719,0.4224841341795104,0.5929742388758782,0.09
glkwiki,False,27.0,0.048589341692789965,0.8732394366197183,0.4456029011786038,0.5686182669789227,0.09205642167780252
glkwiki,False,28.0,0.04878048780487805,0.8450704225352113,0.4646418857660925,0.5480093676814989,0.09223674096848578
glkwiki,False,29.0,0.0502092050209205,0.8450704225352113,0.48050770625566636,0.531615925058548,0.0947867298578199
glkwiki,False,30.0,0.052083333333333336,0.8450704225352113,0.5,0.5114754098360655,0.09811937857726902
glkwiki,False,31.0,0.05352363960749331,0.8450704225352113,0.514052583862194,0.49695550351288054,0.10067114093959732
glkwiki,False,32.0,0.055350553505535055,0.8450704225352113,0.5308250226654578,0.47962529274004684,0.1038961038961039
glkwiki,False,33.0,0.05736137667304015,0.8450704225352113,0.5480507706255666,0.46182669789227165,0.10743061772605192
glkwiki,False,34.0,0.05970149253731343,0.8450704225352113,0.5666364460562103,0.4426229508196721,0.11152416356877323
glkwiki,False,35.0,0.06166495375128469,0.8450704225352113,0.5811423390752494,0.4276346604215457,0.1149425287356322
glkwiki,False,36.0,0.06486486486486487,0.8450704225352113,0.6029011786038078,0.405152224824356,0.12048192771084337
glkwiki,False,37.0,0.06696428571428571,0.8450704225352113,0.6160471441523119,0.3915690866510539,0.12409513960703206
glkwiki,False,38.0,0.06936416184971098,0.8450704225352113,0.6300997280145059,0.3770491803278688,0.1282051282051282
glkwiki,False,39.0,0.06998813760379596,0.8309859154929577,0.6391659111514053,0.36721311475409835,0.12910284463894967
glkwiki,False,40.0,0.07212713936430318,0.8309859154929577,0.6504986400725294,0.35550351288056203,0.13273340832395952
glkwiki,False,41.0,0.07341772151898734,0.8169014084507042,0.6622846781504986,0.34285714285714286,0.13472706155632985
glkwiki,False,42.0,0.07671957671957672,0.8169014084507042,0.6776971894832275,0.3269320843091335,0.14026602176541716
glkwiki,False,43.0,0.0787292817679558,0.8028169014084507,0.6912964641885766,0.3124121779859485,0.14339622641509434
glkwiki,False,44.0,0.08073654390934844,0.8028169014084507,0.699456029011786,0.30398126463700237,0.1467181467181467
glkwiki,False,45.0,0.08211143695014662,0.7887323943661971,0.7094288304623754,0.29320843091334897,0.148738379814077
glkwiki,False,46.0,0.08396946564885496,0.7746478873239436,0.7207615593834995,0.2810304449648712,0.15151515151515152
glkwiki,False,47.0,0.08544303797468354,0.7605633802816901,0.7302810516772439,0.27072599531615926,0.15362731152204837
glkwiki,False,48.0,0.08794788273615635,0.7605633802816901,0.7384406165004533,0.26229508196721313,0.15766423357664233
glkwiki,False,49.0,0.09015025041736227,0.7605633802816901,0.7452402538531279,0.25526932084309134,0.16119402985074627
glkwiki,False,50.0,0.09608540925266904,0.7605633802816901,0.7620126926563917,0.23793911007025761,0.17061611374407584
glkwiki,False,51.0,0.10037174721189591,0.7605633802816901,0.7728921124206709,0.22669789227166276,0.17733990147783252
glkwiki,False,52.0,0.10433070866141732,0.7464788732394366,0.78558476881233,0.21311475409836064,0.18307426597582035
glkwiki,False,53.0,0.10993657505285412,0.7323943661971831,0.800543970988214,0.1971896955503513,0.19117647058823528
glkwiki,False,54.0,0.1111111111111111,0.704225352112676,0.8091568449682683,0.1873536299765808,0.19193857965451053
glkwiki,False,55.0,0.11352657004830918,0.6619718309859155,0.8227561196736174,0.1718969555035129,0.19381443298969073
glkwiki,False,56.0,0.11597938144329897,0.6338028169014085,0.8327289211242067,0.16065573770491803,0.19607843137254902
glkwiki,False,57.0,0.11956521739130435,0.6197183098591549,0.8408884859474162,0.15175644028103044,0.20045558086560367
glkwiki,False,58.0,0.1301775147928994,0.6197183098591549,0.8544877606527652,0.1377049180327869,0.21515892420537897
glkwiki,False,59.0,0.13707165109034267,0.6197183098591549,0.8621940163191296,0.1297423887587822,0.22448979591836732
glkwiki,False,60.0,0.14521452145214522,0.6197183098591549,0.8703535811423391,0.12131147540983607,0.23529411764705885
glkwiki,False,61.0,0.1506849315068493,0.6197183098591549,0.8753399818676337,0.1161592505854801,0.2424242424242424
glkwiki,False,62.0,0.15602836879432624,0.6197183098591549,0.8798730734360835,0.11147540983606558,0.2492917847025496
glkwiki,False,63.0,0.16165413533834586,0.6056338028169014,0.8862194016319129,0.10444964871194379,0.2551928783382789
glkwiki,False,64.0,0.16535433070866143,0.5915492957746479,0.8907524932003626,0.09929742388758782,0.25846153846153846
glkwiki,False,65.0,0.17427385892116182,0.5915492957746479,0.8966455122393472,0.09320843091334895,0.2692307692307692
glkwiki,False,66.0,0.18421052631578946,0.5915492957746479,0.9025385312783318,0.08711943793911008,0.2809364548494983
glkwiki,False,67.0,0.19704433497536947,0.5633802816901409,0.9120580235720761,0.07634660421545668,0.29197080291970806
glkwiki,False,68.0,0.20408163265306123,0.5633802816901409,0.9152311876699909,0.07306791569086651,0.299625468164794
glkwiki,False,69.0,0.2127659574468085,0.5633802816901409,0.9188576609247506,0.06932084309133489,0.30888030888030893
glkwiki,False,70.0,0.2122905027932961,0.5352112676056338,0.9211242067089755,0.06604215456674473,0.304
glkwiki,False,71.0,0.22485207100591717,0.5352112676056338,0.9256572982774252,0.06135831381733021,0.31666666666666665
glkwiki,False,72.0,0.15492957746478872,0.30985915492957744,0.9233907524932004,0.05620608899297424,0.20657276995305165
glkwiki,False,73.0,0.16417910447761194,0.30985915492957744,0.9270172257479601,0.05245901639344262,0.2146341463414634
glkwiki,False,74.0,0.176,0.30985915492957744,0.9310970081595649,0.048243559718969556,0.22448979591836732
glkwiki,False,75.0,0.1794871794871795,0.29577464788732394,0.9338168631006346,0.04496487119437939,0.22340425531914895
glkwiki,False,76.0,0.19090909090909092,0.29577464788732394,0.9369900271985494,0.041686182669789226,0.23204419889502761
glkwiki,False,77.0,0.19626168224299065,0.29577464788732394,0.9383499546690843,0.04028103044496487,0.2359550561797753
glkwiki,False,78.0,0.20388349514563106,0.29577464788732394,0.9401631912964642,0.03840749414519906,0.2413793103448276
glkwiki,False,79.0,0.20202020202020202,0.28169014084507044,0.9410698096101541,0.03700234192037471,0.23529411764705882
glkwiki,False,80.0,0.21052631578947367,0.28169014084507044,0.942883046237534,0.0351288056206089,0.24096385542168675
glkwiki,False,81.0,0.21978021978021978,0.28169014084507044,0.9446962828649139,0.03325526932084309,0.24691358024691362
glkwiki,False,82.0,0.2247191011235955,0.28169014084507044,0.9456029011786038,0.03231850117096019,0.25000000000000006
glkwiki,False,83.0,0.22988505747126436,0.28169014084507044,0.9465095194922938,0.03138173302107728,0.25316455696202533
glkwiki,False,84.0,0.25316455696202533,0.28169014084507044,0.9501359927470535,0.02763466042154567,0.26666666666666666
glkwiki,False,85.0,0.25,0.2676056338028169,0.9505893019038985,0.026697892271662763,0.2585034013605442
glkwiki,False,86.0,0.2608695652173913,0.2535211267605634,0.9528558476881233,0.023887587822014052,0.2571428571428571
glkwiki,False,87.0,0.25757575757575757,0.23943661971830985,0.9533091568449683,0.022950819672131147,0.2481751824817518
glkwiki,False,88.0,0.29310344827586204,0.23943661971830985,0.956935630099728,0.01920374707259953,0.2635658914728682
glkwiki,False,89.0,0.3269230769230769,0.23943661971830985,0.9596554850407978,0.01639344262295082,0.2764227642276423
glkwiki,False,90.0,0.3333333333333333,0.2112676056338028,0.9610154125113327,0.01405152224824356,0.2586206896551724
glkwiki,False,91.0,0.4,0.19718309859154928,0.9646418857660924,0.009836065573770493,0.26415094339622647
glkwiki,False,92.0,0.4166666666666667,0.14084507042253522,0.9660018132366274,0.006557377049180328,0.2105263157894737
glkwiki,False,93.0,0.5294117647058824,0.1267605633802817,0.9682683590208522,0.003747072599531616,0.20454545454545459
glkwiki,False,94.0,0.38461538461538464,0.07042253521126761,0.9664551223934723,0.003747072599531616,0.11904761904761905
glkwiki,False,95.0,0.25,0.028169014084507043,0.9660018132366274,0.002810304449648712,0.05063291139240506
glkwiki,False,96.0,0.25,0.014084507042253521,0.9669084315503174,0.001405152224824356,0.02666666666666667
glkwiki,False,97.0,0.5,0.014084507042253521,0.9678150498640072,0.000468384074941452,0.027397260273972605
glkwiki,False,98.0,0.5,0.0,0.9678150498640072,0.0,0.0
glkwiki,False,99.0,0.5,0.0,0.9678150498640072,0.0,0.0
