wiki_db,user_is_anonymous_or_bot,threshold,precision,recall,accuracy,fpr,F1
gorwiki,True,0.0,0.2619047619047619,1.0,0.2619047619047619,1.0,0.41509433962264153
gorwiki,True,1.0,0.2619047619047619,1.0,0.2619047619047619,1.0,0.41509433962264153
gorwiki,True,2.0,0.2619047619047619,1.0,0.2619047619047619,1.0,0.41509433962264153
gorwiki,True,3.0,0.2619047619047619,1.0,0.2619047619047619,1.0,0.41509433962264153
gorwiki,True,4.0,0.2619047619047619,1.0,0.2619047619047619,1.0,0.41509433962264153
gorwiki,True,5.0,0.2619047619047619,1.0,0.2619047619047619,1.0,0.41509433962264153
gorwiki,True,6.0,0.2619047619047619,1.0,0.2619047619047619,1.0,0.41509433962264153
gorwiki,True,7.0,0.2619047619047619,1.0,0.2619047619047619,1.0,0.41509433962264153
gorwiki,True,8.0,0.2619047619047619,1.0,0.2619047619047619,1.0,0.41509433962264153
gorwiki,True,9.0,0.2619047619047619,1.0,0.2619047619047619,1.0,0.41509433962264153
gorwiki,True,10.0,0.2619047619047619,1.0,0.2619047619047619,1.0,0.41509433962264153
gorwiki,True,11.0,0.2619047619047619,1.0,0.2619047619047619,1.0,0.41509433962264153
gorwiki,True,12.0,0.2619047619047619,1.0,0.2619047619047619,1.0,0.41509433962264153
gorwiki,True,13.0,0.2619047619047619,1.0,0.2619047619047619,1.0,0.41509433962264153
gorwiki,True,14.0,0.2619047619047619,1.0,0.2619047619047619,1.0,0.41509433962264153
gorwiki,True,15.0,0.2619047619047619,1.0,0.2619047619047619,1.0,0.41509433962264153
gorwiki,True,16.0,0.2619047619047619,1.0,0.2619047619047619,1.0,0.41509433962264153
gorwiki,True,17.0,0.2619047619047619,1.0,0.2619047619047619,1.0,0.41509433962264153
gorwiki,True,18.0,0.2619047619047619,1.0,0.2619047619047619,1.0,0.41509433962264153
gorwiki,True,19.0,0.2619047619047619,1.0,0.2619047619047619,1.0,0.41509433962264153
gorwiki,True,20.0,0.2619047619047619,1.0,0.2619047619047619,1.0,0.41509433962264153
gorwiki,True,21.0,0.2619047619047619,1.0,0.2619047619047619,1.0,0.41509433962264153
gorwiki,True,22.0,0.2619047619047619,1.0,0.2619047619047619,1.0,0.41509433962264153
gorwiki,True,23.0,0.2619047619047619,1.0,0.2619047619047619,1.0,0.41509433962264153
gorwiki,True,24.0,0.2619047619047619,1.0,0.2619047619047619,1.0,0.41509433962264153
gorwiki,True,25.0,0.2619047619047619,1.0,0.2619047619047619,1.0,0.41509433962264153
gorwiki,True,26.0,0.2619047619047619,1.0,0.2619047619047619,1.0,0.41509433962264153
gorwiki,True,27.0,0.2619047619047619,1.0,0.2619047619047619,1.0,0.41509433962264153
gorwiki,True,28.0,0.2619047619047619,1.0,0.2619047619047619,1.0,0.41509433962264153
gorwiki,True,29.0,0.2619047619047619,1.0,0.2619047619047619,1.0,0.41509433962264153
gorwiki,True,30.0,0.2619047619047619,1.0,0.2619047619047619,1.0,0.41509433962264153
gorwiki,True,31.0,0.2682926829268293,1.0,0.2857142857142857,0.967741935483871,0.4230769230769231
gorwiki,True,32.0,0.2682926829268293,1.0,0.2857142857142857,0.967741935483871,0.4230769230769231
gorwiki,True,33.0,0.28205128205128205,1.0,0.3333333333333333,0.9032258064516129,0.44000000000000006
gorwiki,True,34.0,0.28205128205128205,1.0,0.3333333333333333,0.9032258064516129,0.44000000000000006
gorwiki,True,35.0,0.28205128205128205,1.0,0.3333333333333333,0.9032258064516129,0.44000000000000006
gorwiki,True,36.0,0.2631578947368421,0.9090909090909091,0.30952380952380953,0.9032258064516129,0.4081632653061224
gorwiki,True,37.0,0.2631578947368421,0.9090909090909091,0.30952380952380953,0.9032258064516129,0.4081632653061224
gorwiki,True,38.0,0.2631578947368421,0.9090909090909091,0.30952380952380953,0.9032258064516129,0.4081632653061224
gorwiki,True,39.0,0.2702702702702703,0.9090909090909091,0.3333333333333333,0.8709677419354839,0.4166666666666667
gorwiki,True,40.0,0.2702702702702703,0.9090909090909091,0.3333333333333333,0.8709677419354839,0.4166666666666667
gorwiki,True,41.0,0.2702702702702703,0.9090909090909091,0.3333333333333333,0.8709677419354839,0.4166666666666667
gorwiki,True,42.0,0.2777777777777778,0.9090909090909091,0.35714285714285715,0.8387096774193549,0.4255319148936171
gorwiki,True,43.0,0.2777777777777778,0.9090909090909091,0.35714285714285715,0.8387096774193549,0.4255319148936171
gorwiki,True,44.0,0.2777777777777778,0.9090909090909091,0.35714285714285715,0.8387096774193549,0.4255319148936171
gorwiki,True,45.0,0.2777777777777778,0.9090909090909091,0.35714285714285715,0.8387096774193549,0.4255319148936171
gorwiki,True,46.0,0.2777777777777778,0.9090909090909091,0.35714285714285715,0.8387096774193549,0.4255319148936171
gorwiki,True,47.0,0.2777777777777778,0.9090909090909091,0.35714285714285715,0.8387096774193549,0.4255319148936171
gorwiki,True,48.0,0.2777777777777778,0.9090909090909091,0.35714285714285715,0.8387096774193549,0.4255319148936171
gorwiki,True,49.0,0.2777777777777778,0.9090909090909091,0.35714285714285715,0.8387096774193549,0.4255319148936171
gorwiki,True,50.0,0.2777777777777778,0.9090909090909091,0.35714285714285715,0.8387096774193549,0.4255319148936171
gorwiki,True,51.0,0.2777777777777778,0.9090909090909091,0.35714285714285715,0.8387096774193549,0.4255319148936171
gorwiki,True,52.0,0.2777777777777778,0.9090909090909091,0.35714285714285715,0.8387096774193549,0.4255319148936171
gorwiki,True,53.0,0.2777777777777778,0.9090909090909091,0.35714285714285715,0.8387096774193549,0.4255319148936171
gorwiki,True,54.0,0.2777777777777778,0.9090909090909091,0.35714285714285715,0.8387096774193549,0.4255319148936171
gorwiki,True,55.0,0.2777777777777778,0.9090909090909091,0.35714285714285715,0.8387096774193549,0.4255319148936171
gorwiki,True,56.0,0.2777777777777778,0.9090909090909091,0.35714285714285715,0.8387096774193549,0.4255319148936171
gorwiki,True,57.0,0.2777777777777778,0.9090909090909091,0.35714285714285715,0.8387096774193549,0.4255319148936171
gorwiki,True,58.0,0.2777777777777778,0.9090909090909091,0.35714285714285715,0.8387096774193549,0.4255319148936171
gorwiki,True,59.0,0.2777777777777778,0.9090909090909091,0.35714285714285715,0.8387096774193549,0.4255319148936171
gorwiki,True,60.0,0.2777777777777778,0.9090909090909091,0.35714285714285715,0.8387096774193549,0.4255319148936171
gorwiki,True,61.0,0.2777777777777778,0.9090909090909091,0.35714285714285715,0.8387096774193549,0.4255319148936171
gorwiki,True,62.0,0.2857142857142857,0.9090909090909091,0.38095238095238093,0.8064516129032258,0.43478260869565216
gorwiki,True,63.0,0.2857142857142857,0.9090909090909091,0.38095238095238093,0.8064516129032258,0.43478260869565216
gorwiki,True,64.0,0.2857142857142857,0.9090909090909091,0.38095238095238093,0.8064516129032258,0.43478260869565216
gorwiki,True,65.0,0.29411764705882354,0.9090909090909091,0.40476190476190477,0.7741935483870968,0.4444444444444445
gorwiki,True,66.0,0.29411764705882354,0.9090909090909091,0.40476190476190477,0.7741935483870968,0.4444444444444445
gorwiki,True,67.0,0.29411764705882354,0.9090909090909091,0.40476190476190477,0.7741935483870968,0.4444444444444445
gorwiki,True,68.0,0.29411764705882354,0.9090909090909091,0.40476190476190477,0.7741935483870968,0.4444444444444445
gorwiki,True,69.0,0.29411764705882354,0.9090909090909091,0.40476190476190477,0.7741935483870968,0.4444444444444445
gorwiki,True,70.0,0.29411764705882354,0.9090909090909091,0.40476190476190477,0.7741935483870968,0.4444444444444445
gorwiki,True,71.0,0.29411764705882354,0.9090909090909091,0.40476190476190477,0.7741935483870968,0.4444444444444445
gorwiki,True,72.0,0.29411764705882354,0.9090909090909091,0.40476190476190477,0.7741935483870968,0.4444444444444445
gorwiki,True,73.0,0.30303030303030304,0.9090909090909091,0.42857142857142855,0.7419354838709677,0.45454545454545453
gorwiki,True,74.0,0.30303030303030304,0.9090909090909091,0.42857142857142855,0.7419354838709677,0.45454545454545453
gorwiki,True,75.0,0.30303030303030304,0.9090909090909091,0.42857142857142855,0.7419354838709677,0.45454545454545453
gorwiki,True,76.0,0.30303030303030304,0.9090909090909091,0.42857142857142855,0.7419354838709677,0.45454545454545453
gorwiki,True,77.0,0.3125,0.9090909090909091,0.4523809523809524,0.7096774193548387,0.4651162790697674
gorwiki,True,78.0,0.3,0.8181818181818182,0.4523809523809524,0.6774193548387096,0.43902439024390244
gorwiki,True,79.0,0.3103448275862069,0.8181818181818182,0.47619047619047616,0.6451612903225806,0.45000000000000007
gorwiki,True,80.0,0.3103448275862069,0.8181818181818182,0.47619047619047616,0.6451612903225806,0.45000000000000007
gorwiki,True,81.0,0.3103448275862069,0.8181818181818182,0.47619047619047616,0.6451612903225806,0.45000000000000007
gorwiki,True,82.0,0.2962962962962963,0.7272727272727273,0.47619047619047616,0.6129032258064516,0.42105263157894735
gorwiki,True,83.0,0.3076923076923077,0.7272727272727273,0.5,0.5806451612903226,0.43243243243243246
gorwiki,True,84.0,0.3076923076923077,0.7272727272727273,0.5,0.5806451612903226,0.43243243243243246
gorwiki,True,85.0,0.3076923076923077,0.7272727272727273,0.5,0.5806451612903226,0.43243243243243246
gorwiki,True,86.0,0.32,0.7272727272727273,0.5238095238095238,0.5483870967741935,0.4444444444444444
gorwiki,True,87.0,0.3333333333333333,0.6363636363636364,0.5714285714285714,0.45161290322580644,0.43749999999999994
gorwiki,True,88.0,0.375,0.5454545454545454,0.6428571428571429,0.3225806451612903,0.4444444444444444
gorwiki,True,89.0,0.3333333333333333,0.2727272727272727,0.6666666666666666,0.1935483870967742,0.3
gorwiki,True,90.0,0.3333333333333333,0.18181818181818182,0.6904761904761905,0.12903225806451613,0.23529411764705885
gorwiki,True,91.0,0.3333333333333333,0.18181818181818182,0.6904761904761905,0.12903225806451613,0.23529411764705885
gorwiki,True,92.0,0.3333333333333333,0.18181818181818182,0.6904761904761905,0.12903225806451613,0.23529411764705885
gorwiki,True,93.0,0.3333333333333333,0.09090909090909091,0.7142857142857143,0.06451612903225806,0.14285714285714288
gorwiki,True,94.0,0.0,0.0,0.7142857142857143,0.03225806451612903,0.14285714285714288
gorwiki,True,95.0,0.0,0.0,0.7142857142857143,0.03225806451612903,0.14285714285714288
gorwiki,True,96.0,0.0,0.0,0.7380952380952381,0.0,0.14285714285714288
gorwiki,True,97.0,0.0,0.0,0.7380952380952381,0.0,0.14285714285714288
gorwiki,True,98.0,0.0,0.0,0.7380952380952381,0.0,0.14285714285714288
gorwiki,True,99.0,0.0,0.0,0.7380952380952381,0.0,0.14285714285714288
gorwiki,False,0.0,0.014537902388369679,1.0,0.014537902388369679,1.0,0.02865916069600819
gorwiki,False,1.0,0.014537902388369679,1.0,0.014537902388369679,1.0,0.02865916069600819
gorwiki,False,2.0,0.014553014553014554,1.0,0.01557632398753894,0.9989462592202318,0.028688524590163935
gorwiki,False,3.0,0.014675052410901468,1.0,0.023883696780893044,0.9905163329820864,0.028925619834710748
gorwiki,False,4.0,0.014893617021276596,1.0,0.03842159916926272,0.9757639620653319,0.029350104821802937
gorwiki,False,5.0,0.015418502202643172,1.0,0.07165109034267912,0.9420442571127503,0.03036876355748373
gorwiki,False,6.0,0.016222479721900347,1.0,0.11838006230529595,0.8946259220231823,0.03192702394526795
gorwiki,False,7.0,0.01734820322180917,1.0,0.17653167185877466,0.8356164383561644,0.03410475030450671
gorwiki,False,8.0,0.01837270341207349,1.0,0.2232606438213915,0.7881981032665965,0.03608247422680412
gorwiki,False,9.0,0.019886363636363636,1.0,0.2834890965732087,0.7270811380400422,0.03899721448467967
gorwiki,False,10.0,0.022328548644338118,1.0,0.363447559709242,0.6459430979978925,0.0436817472698908
gorwiki,False,11.0,0.024263431542461005,1.0,0.4153686396677051,0.5932560590094836,0.047377326565143825
gorwiki,False,12.0,0.026365348399246705,1.0,0.46313603322949115,0.5447839831401475,0.05137614678899083
gorwiki,False,13.0,0.027944111776447105,1.0,0.49428868120456904,0.5131717597471022,0.054368932038834944
gorwiki,False,14.0,0.029787234042553193,1.0,0.5264797507788161,0.48050579557428874,0.057851239669421496
gorwiki,False,15.0,0.03167420814479638,1.0,0.5555555555555556,0.45100105374077976,0.06140350877192983
gorwiki,False,16.0,0.033816425120772944,1.0,0.5846313603322949,0.4214963119072708,0.06542056074766354
gorwiki,False,17.0,0.038461538461538464,1.0,0.6365524402907581,0.36880927291886195,0.07407407407407407
gorwiki,False,18.0,0.04081632653061224,1.0,0.6583592938733126,0.3466807165437302,0.07843137254901959
gorwiki,False,19.0,0.0440251572327044,1.0,0.6843198338525441,0.3203371970495258,0.08433734939759036
gorwiki,False,20.0,0.04697986577181208,1.0,0.7050882658359294,0.2992623814541623,0.08974358974358974
gorwiki,False,21.0,0.04827586206896552,1.0,0.7133956386292835,0.29083245521601686,0.09210526315789473
gorwiki,False,22.0,0.050359712230215826,1.0,0.7258566978193146,0.2781875658587987,0.09589041095890412
gorwiki,False,23.0,0.04980842911877394,0.9285714285714286,0.7414330218068536,0.2613277133825079,0.09454545454545454
gorwiki,False,24.0,0.05241935483870968,0.9285714285714286,0.754932502596054,0.2476290832455216,0.09923664122137406
gorwiki,False,25.0,0.055793991416309016,0.9285714285714286,0.770508826583593,0.23182297154899895,0.10526315789473685
gorwiki,False,26.0,0.05909090909090909,0.9285714285714286,0.7840083073727934,0.21812434141201265,0.1111111111111111
gorwiki,False,27.0,0.06074766355140187,0.9285714285714286,0.7902388369678089,0.21180189673340358,0.11403508771929825
gorwiki,False,28.0,0.06341463414634146,0.9285714285714286,0.7995846313603323,0.20231822971549,0.1187214611872146
gorwiki,False,29.0,0.06532663316582915,0.9285714285714286,0.8058151609553479,0.19599578503688092,0.12206572769953053
gorwiki,False,30.0,0.06914893617021277,0.9285714285714286,0.8172377985462098,0.18440463645943098,0.12871287128712872
gorwiki,False,31.0,0.07471264367816093,0.9285714285714286,0.8317757009345794,0.1696522655426765,0.13829787234042556
gorwiki,False,32.0,0.0755813953488372,0.9285714285714286,0.833852544132918,0.16754478398314016,0.13978494623655915
gorwiki,False,33.0,0.07926829268292683,0.9285714285714286,0.842159916926272,0.15911485774499473,0.14606741573033707
gorwiki,False,34.0,0.08125,0.9285714285714286,0.8463136033229491,0.15489989462592202,0.14942528735632185
gorwiki,False,35.0,0.08227848101265822,0.9285714285714286,0.8483904465212876,0.15279241306638566,0.1511627906976744
gorwiki,False,36.0,0.0784313725490196,0.8571428571428571,0.8515057113187954,0.14857744994731295,0.1437125748502994
gorwiki,False,37.0,0.08163265306122448,0.8571428571428571,0.857736240913811,0.1422550052687039,0.14906832298136644
gorwiki,False,38.0,0.0821917808219178,0.8571428571428571,0.8587746625129803,0.14120126448893572,0.15
gorwiki,False,39.0,0.08450704225352113,0.8571428571428571,0.8629283489096573,0.136986301369863,0.15384615384615383
gorwiki,False,40.0,0.08633093525179857,0.8571428571428571,0.8660436137071651,0.13382507903055849,0.1568627450980392
gorwiki,False,41.0,0.09090909090909091,0.8571428571428571,0.8733125649013499,0.12644889357218125,0.1643835616438356
gorwiki,False,42.0,0.09448818897637795,0.8571428571428571,0.8785046728971962,0.12118018967334036,0.17021276595744683
gorwiki,False,43.0,0.0975609756097561,0.8571428571428571,0.8826583592938733,0.11696522655426765,0.17518248175182483
gorwiki,False,44.0,0.09917355371900827,0.8571428571428571,0.8847352024922118,0.1148577449947313,0.17777777777777778
gorwiki,False,45.0,0.1,0.8571428571428571,0.885773624091381,0.11380400421496312,0.17910447761194032
gorwiki,False,46.0,0.10084033613445378,0.8571428571428571,0.8868120456905504,0.11275026343519494,0.18045112781954886
gorwiki,False,47.0,0.10344827586206896,0.8571428571428571,0.8899273104880582,0.1095890410958904,0.1846153846153846
gorwiki,False,48.0,0.10526315789473684,0.8571428571428571,0.8920041536863966,0.10748155953635406,0.1875
gorwiki,False,49.0,0.1,0.7857142857142857,0.8940809968847352,0.10432033719704953,0.1774193548387097
gorwiki,False,50.0,0.10891089108910891,0.7857142857142857,0.9034267912772586,0.09483667017913593,0.19130434782608696
gorwiki,False,51.0,0.1111111111111111,0.7857142857142857,0.9055036344755971,0.09272918861959958,0.19469026548672566
gorwiki,False,52.0,0.1134020618556701,0.7857142857142857,0.9075804776739356,0.09062170706006323,0.1981981981981982
gorwiki,False,53.0,0.11702127659574468,0.7857142857142857,0.9106957424714434,0.0874604847207587,0.20370370370370372
gorwiki,False,54.0,0.125,0.7857142857142857,0.9169262720664589,0.08113804004214963,0.21568627450980393
gorwiki,False,55.0,0.12941176470588237,0.7857142857142857,0.9200415368639667,0.0779768177028451,0.22222222222222227
gorwiki,False,56.0,0.13095238095238096,0.7857142857142857,0.9210799584631361,0.07692307692307693,0.22448979591836737
gorwiki,False,57.0,0.13253012048192772,0.7857142857142857,0.9221183800623053,0.07586933614330875,0.22680412371134023
gorwiki,False,58.0,0.13253012048192772,0.7857142857142857,0.9221183800623053,0.07586933614330875,0.22680412371134023
gorwiki,False,59.0,0.13580246913580246,0.7857142857142857,0.9241952232606438,0.0737618545837724,0.23157894736842102
gorwiki,False,60.0,0.14473684210526316,0.7857142857142857,0.9293873312564901,0.0684931506849315,0.24444444444444444
gorwiki,False,61.0,0.15492957746478872,0.7857142857142857,0.9345794392523364,0.06322444678609063,0.2588235294117647
gorwiki,False,62.0,0.15942028985507245,0.7857142857142857,0.936656282450675,0.06111696522655427,0.2650602409638554
gorwiki,False,63.0,0.16176470588235295,0.7857142857142857,0.9376947040498442,0.06006322444678609,0.2682926829268293
gorwiki,False,64.0,0.16176470588235295,0.7857142857142857,0.9376947040498442,0.06006322444678609,0.2682926829268293
gorwiki,False,65.0,0.16666666666666666,0.7857142857142857,0.9397715472481828,0.05795574288724974,0.27499999999999997
gorwiki,False,66.0,0.171875,0.7857142857142857,0.9418483904465212,0.05584826132771338,0.28205128205128205
gorwiki,False,67.0,0.18032786885245902,0.7857142857142857,0.944963655244029,0.05268703898840885,0.29333333333333333
gorwiki,False,68.0,0.1864406779661017,0.7857142857142857,0.9470404984423676,0.0505795574288725,0.3013698630136986
gorwiki,False,69.0,0.1864406779661017,0.7857142857142857,0.9470404984423676,0.0505795574288725,0.3013698630136986
gorwiki,False,70.0,0.1896551724137931,0.7857142857142857,0.9480789200415368,0.04952581664910432,0.3055555555555555
gorwiki,False,71.0,0.19642857142857142,0.7857142857142857,0.9501557632398754,0.04741833508956796,0.3142857142857143
gorwiki,False,72.0,0.19642857142857142,0.7857142857142857,0.9501557632398754,0.04741833508956796,0.3142857142857143
gorwiki,False,73.0,0.20754716981132076,0.7857142857142857,0.9532710280373832,0.044257112750263436,0.3283582089552239
gorwiki,False,74.0,0.20754716981132076,0.7857142857142857,0.9532710280373832,0.044257112750263436,0.3283582089552239
gorwiki,False,75.0,0.22,0.7857142857142857,0.956386292834891,0.0410958904109589,0.34374999999999994
gorwiki,False,76.0,0.22448979591836735,0.7857142857142857,0.9574247144340602,0.040042149631190724,0.3492063492063492
gorwiki,False,77.0,0.25,0.7857142857142857,0.9626168224299065,0.03477344573234984,0.37931034482758624
gorwiki,False,78.0,0.24390243902439024,0.7142857142857143,0.9636552440290758,0.032665964172813484,0.36363636363636365
gorwiki,False,79.0,0.2631578947368421,0.7142857142857143,0.9667705088265836,0.029504741833508957,0.3846153846153846
gorwiki,False,80.0,0.2702702702702703,0.7142857142857143,0.9678089304257529,0.02845100105374078,0.39215686274509803
gorwiki,False,81.0,0.2702702702702703,0.7142857142857143,0.9678089304257529,0.02845100105374078,0.39215686274509803
gorwiki,False,82.0,0.2647058823529412,0.6428571428571429,0.9688473520249221,0.026343519494204427,0.37499999999999994
gorwiki,False,83.0,0.2727272727272727,0.6428571428571429,0.9698857736240913,0.02528977871443625,0.3829787234042553
gorwiki,False,84.0,0.2727272727272727,0.6428571428571429,0.9698857736240913,0.02528977871443625,0.3829787234042553
gorwiki,False,85.0,0.28125,0.6428571428571429,0.9709241952232607,0.02423603793466807,0.391304347826087
gorwiki,False,86.0,0.3,0.6428571428571429,0.9730010384215991,0.022128556375131718,0.4090909090909091
gorwiki,False,87.0,0.3076923076923077,0.5714285714285714,0.9750778816199377,0.018967334035827187,0.4
gorwiki,False,88.0,0.35,0.5,0.9792315680166147,0.0136986301369863,0.4117647058823529
gorwiki,False,89.0,0.3333333333333333,0.2857142857142857,0.9813084112149533,0.008429926238145416,0.30769230769230765
gorwiki,False,90.0,0.42857142857142855,0.21428571428571427,0.9844236760124611,0.004214963119072708,0.2857142857142857
gorwiki,False,91.0,0.3333333333333333,0.14285714285714285,0.9833852544132918,0.004214963119072708,0.2
gorwiki,False,92.0,0.3333333333333333,0.14285714285714285,0.9833852544132918,0.004214963119072708,0.2
gorwiki,False,93.0,0.3333333333333333,0.07142857142857142,0.9844236760124611,0.002107481559536354,0.11764705882352941
gorwiki,False,94.0,0.0,0.0,0.9844236760124611,0.001053740779768177,0.11764705882352941
gorwiki,False,95.0,0.0,0.0,0.9844236760124611,0.001053740779768177,0.11764705882352941
gorwiki,False,96.0,0.0,0.0,0.9854620976116303,0.0,0.11764705882352941
gorwiki,False,97.0,0.0,0.0,0.9854620976116303,0.0,0.11764705882352941
gorwiki,False,98.0,0.0,0.0,0.9854620976116303,0.0,0.11764705882352941
gorwiki,False,99.0,0.0,0.0,0.9854620976116303,0.0,0.11764705882352941
