wiki_db,user_is_anonymous_or_bot,threshold,precision,recall,accuracy,fpr,F1
guwiki,True,0.0,0.07594637689718302,1.0,0.07594637689718302,1.0,0.14117130468192546
guwiki,True,1.0,0.07594637689718302,1.0,0.07594637689718302,1.0,0.14117130468192546
guwiki,True,2.0,0.07594637689718302,1.0,0.07594637689718302,1.0,0.14117130468192546
guwiki,True,3.0,0.07594637689718302,1.0,0.07594637689718302,1.0,0.14117130468192546
guwiki,True,4.0,0.07598227474150665,1.0,0.07641882714226658,0.9994887198824056,0.1412333205205645
guwiki,True,5.0,0.07665235027439751,0.9992223950233281,0.08580877576330243,0.989263117530517,0.14238227146814406
guwiki,True,6.0,0.07839177528914999,0.9961119751166407,0.11031713222701234,0.9624848213715089,0.14534520905429169
guwiki,True,7.0,0.07941924675808153,0.995334370139969,0.12342762652808126,0.9482328880935642,0.14710107452738033
guwiki,True,8.0,0.0817477096546864,0.9922239502332815,0.15295576684580406,0.9160222406851154,0.15105060668836937
guwiki,True,9.0,0.0833061091146684,0.9914463452566097,0.17079076359770862,0.8966575062312264,0.15369778795732625
guwiki,True,10.0,0.08611955420466058,0.9914463452566097,0.20031890391543142,0.8647024988815747,0.15847368093965572
guwiki,True,11.0,0.08985834096835577,0.9914463452566097,0.23669757278686587,0.8253339298268039,0.16478190630048464
guwiki,True,12.0,0.10131108462455304,0.9914463452566097,0.3314238469261206,0.7228222662491213,0.18383678177492613
guwiki,True,13.0,0.10820673852159891,0.9914463452566097,0.37878698399574795,0.67156643446028,0.19511821868543883
guwiki,True,14.0,0.11053315994798439,0.9914463452566097,0.39343294159333847,0.6557167508148527,0.1988924420872007
guwiki,True,15.0,0.11384945084382535,0.9914463452566097,0.4132758518868482,0.6342429858758868,0.20424509411293554
guwiki,True,16.0,0.11814306893995552,0.9914463452566097,0.4373117581054745,0.6082316098932703,0.21112767014406358
guwiki,True,17.0,0.1217017208413002,0.9898911353032659,0.45668221815390064,0.5871413050425002,0.2167546398774051
guwiki,True,18.0,0.12618953211736716,0.9898911353032659,0.47865115455028645,0.5633667795743593,0.22384385440478283
guwiki,True,19.0,0.13080558980682286,0.9898911353032659,0.49967519045650505,0.5406148143414073,0.23107642040297693
guwiki,True,20.0,0.1373098910581383,0.9898911353032659,0.5269001358294455,0.5111522975650284,0.2411669982002463
guwiki,True,21.0,0.14652394106813996,0.9898911353032659,0.5613299474399103,0.47389275899533456,0.25526368558251455
guwiki,True,22.0,0.15665764213635244,0.9898911353032659,0.5945195771570306,0.4379753307343261,0.270505737356566
guwiki,True,23.0,0.1717948717948718,0.9898911353032659,0.6368038740920097,0.39221576020962484,0.29277828886844526
guwiki,True,24.0,0.18397454440266126,0.9891135303265941,0.6659776767259198,0.36058030293346965,0.3102439024390244
guwiki,True,25.0,0.19428745990530014,0.9891135303265941,0.6876513317191283,0.33712532753882535,0.32477977786288775
guwiki,True,26.0,0.2077073807968648,0.9891135303265941,0.7126321384279218,0.31009139132102,0.34331983805668015
guwiki,True,27.0,0.22382544430758403,0.9891135303265941,0.7386759581881533,0.2819070748386272,0.36504520017219116
guwiki,True,28.0,0.23606983655274888,0.9883359253499222,0.7562156735368807,0.2628618904582348,0.3811094452773613
guwiki,True,29.0,0.25074037512339586,0.9875583203732504,0.7749365144983169,0.24253850578385633,0.39993701779247365
guwiki,True,30.0,0.26481636060100167,0.9867807153965785,0.7909407665505227,0.2251549817856458,0.41757156959526165
guwiki,True,31.0,0.28269102249944306,0.9867807153965785,0.8088348195830627,0.20579024733175688,0.4394805194805194
guwiki,True,32.0,0.2967032967032967,0.9867807153965785,0.8213547510777771,0.19224132421550458,0.4562286536041704
guwiki,True,33.0,0.3095703125,0.9860031104199067,0.8319258253115219,0.18073752156962997,0.4712002972872538
guwiki,True,34.0,0.3228105906313646,0.9860031104199067,0.8418472804582767,0.17000063910014698,0.48638281549673956
guwiki,True,35.0,0.3366073798778869,0.9860031104199067,0.8513553416405835,0.15971112673355914,0.501880071244805
guwiki,True,36.0,0.35192894809880654,0.9860031104199067,0.8610405716647965,0.1492298843228734,0.5187154837390059
guwiki,True,37.0,0.3687118348357081,0.9860031104199067,0.8707258016890096,0.13874864191218764,0.5367195767195767
guwiki,True,38.0,0.3835450695704779,0.9860031104199067,0.8785802870135239,0.1302486099571803,0.5522648083623694
guwiki,True,39.0,0.39842767295597487,0.9852255054432348,0.8859032658123192,0.12225985811976736,0.5673981191222571
guwiki,True,40.0,0.4135117493472585,0.9852255054432348,0.8927537943660309,0.11484629641464818,0.582528735632184
guwiki,True,41.0,0.4265993265993266,0.9852255054432348,0.8983050847457628,0.10883875503291365,0.5953947368421052
guwiki,True,42.0,0.44424964936886396,0.9852255054432348,0.9052737258607453,0.10129737329839586,0.6123731271145482
guwiki,True,43.0,0.4615664845173042,0.9852255054432348,0.911592747888738,0.0944590017255704,0.6286281319771769
guwiki,True,44.0,0.47757255936675463,0.9852255054432348,0.917025925707199,0.08857928037323448,0.6433104848946433
guwiki,True,45.0,0.4939571150097466,0.9852255054432348,0.9222228784031181,0.08295519907969578,0.6580109062581148
guwiki,True,46.0,0.5106811769447803,0.9852255054432348,0.9271836059764956,0.07758675784495431,0.6726838332890895
guwiki,True,47.0,0.5294609277058087,0.9852255054432348,0.9323805586724148,0.07196267655141561,0.6887741234030986
guwiki,True,48.0,0.5426124197002141,0.9852255054432348,0.9358058229492706,0.06825589569885601,0.6998066832366749
guwiki,True,49.0,0.5571679859278804,0.9852255054432348,0.9394082560680328,0.0643573848021985,0.7117977528089888
guwiki,True,50.0,0.5722673893405601,0.9852255054432348,0.9429516329061596,0.060522783920240304,0.7240000000000001
guwiki,True,51.0,0.5863026376677464,0.9852255054432348,0.9460816157798382,0.05713555314117722,0.7351319988395707
guwiki,True,52.0,0.598488427019367,0.9852255054432348,0.9486800921277978,0.05432351249440787,0.7446370849250662
guwiki,True,53.0,0.6103082851637764,0.9852255054432348,0.9511013996338511,0.05170320189173643,0.753718024985128
guwiki,True,54.0,0.6204701273261508,0.9852255054432348,0.9531093131754562,0.04953026139196012,0.7614182692307692
guwiki,True,55.0,0.6306620209059234,0.9852255054432348,0.9550581704364259,0.04742123090688311,0.7690440060698027
guwiki,True,56.0,0.6389309127584468,0.9852255054432348,0.9565936337329475,0.04575957052470122,0.7751605995717344
guwiki,True,57.0,0.6484135107471852,0.9852255054432348,0.9583062658713755,0.04390618009842142,0.7820987654320987
guwiki,True,58.0,0.6539256198347108,0.9844479004665629,0.9592511663615425,0.04281970984853326,0.7858472998137803
guwiki,True,59.0,0.6576623376623376,0.9844479004665629,0.9599007854485324,0.042116699686840925,0.7885393958268452
guwiki,True,60.0,0.6598852373500261,0.9836702954898912,0.9602551231323452,0.041669329583945806,0.7898844832969093
guwiki,True,61.0,0.6645636172450052,0.9828926905132193,0.9610228547806059,0.040774589378155555,0.7929736511919699
guwiki,True,62.0,0.6705570291777189,0.9828926905132193,0.9620268115514085,0.0396881191282674,0.7972248502049826
guwiki,True,63.0,0.6728822589238146,0.9821150855365475,0.9623811492352211,0.03924074902537228,0.7986089155864685
guwiki,True,64.0,0.6755888650963597,0.9813374805598756,0.9627945431996693,0.03872946890777785,0.8002536461636017
guwiki,True,65.0,0.677038626609442,0.9813374805598756,0.963030768322211,0.03847382884898064,0.8012698412698414
guwiki,True,66.0,0.6788596019365251,0.9813374805598756,0.9633260497253883,0.03815427877548412,0.8025437201907791
guwiki,True,67.0,0.6803234501347709,0.9813374805598756,0.9635622748479301,0.0378986387166869,0.8035657433938236
guwiki,True,68.0,0.6819902650081124,0.9805598755832037,0.9637984999704718,0.037579088643190386,0.8044657097288676
guwiki,True,69.0,0.6831253391209984,0.97900466562986,0.9639166125317428,0.037323448584393175,0.804729945669543
guwiki,True,70.0,0.683723462166576,0.9766718506998445,0.9639166125317428,0.03713171854029526,0.8043547870637208
guwiki,True,71.0,0.6857142857142857,0.9704510108864697,0.9639756688123782,0.03655652840800153,0.8036059240180297
guwiki,True,72.0,0.6854304635761589,0.9657853810264385,0.9637394436898364,0.036428708378602924,0.801807617817947
guwiki,True,73.0,0.6868406440866185,0.9618973561430794,0.9637984999704718,0.03604524829040711,0.8014253320375769
guwiki,True,74.0,0.6887640449438203,0.9533437013996889,0.9637394436898364,0.03540614814341407,0.7997390737116765
guwiki,True,75.0,0.6901648664013644,0.9440124416796267,0.9635622748479301,0.03483095801112034,0.7973727422003284
guwiki,True,76.0,0.6912018401380103,0.9346811819595645,0.9633260497253883,0.03431967789352591,0.794710743801653
guwiki,True,77.0,0.6912362159024956,0.9261275272161742,0.9629717120415756,0.0340001278200294,0.7916251246261217
guwiki,True,78.0,0.6912991656734208,0.9020217729393468,0.961967755270773,0.03310538761423915,0.7827260458839407
guwiki,True,79.0,0.6952554744525548,0.8888024883359253,0.961967755270773,0.032018917364350995,0.7802047781569966
guwiki,True,80.0,0.6960845245494096,0.8709175738724728,0.9613181361837831,0.03125199718795935,0.7737478411053541
guwiki,True,81.0,0.6968928344958782,0.854587869362364,0.9607275733774286,0.030548987026267016,0.7677261613691932
guwiki,True,82.0,0.6999347684279191,0.8343701399688958,0.9602551231323452,0.029398606761679554,0.7612628591699185
guwiki,True,83.0,0.7012195121951219,0.8048211508553654,0.9591330538002717,0.02818431648239279,0.7494569152787834
guwiki,True,84.0,0.7054208273894437,0.7690513219284604,0.9580700407488336,0.026394836070812295,0.7358630952380952
guwiki,True,85.0,0.704647676161919,0.7309486780715396,0.9562983523297702,0.02518054579152553,0.7175572519083969
guwiki,True,86.0,0.7063555913113435,0.6827371695178849,0.9543494950688005,0.023327155365245735,0.6943455911427442
guwiki,True,87.0,0.7065026362038664,0.6251944012441679,0.9518100750014764,0.02134594490956733,0.6633663366336633
guwiki,True,88.0,0.7038095238095238,0.5746500777604977,0.9493297112147877,0.01987601457148335,0.6327054794520548
guwiki,True,89.0,0.7029914529914529,0.5116640746500778,0.9464950097442864,0.01776698408640634,0.5922592259225923
guwiki,True,90.0,0.71875,0.44712286158631415,0.944723321325223,0.01437975330734326,0.551294343240652
guwiki,True,91.0,0.7397660818713451,0.39346811819595645,0.9434240831512432,0.011375982616476002,0.5137055837563452
guwiki,True,92.0,0.7637655417406749,0.3343701399688958,0.9415933384515444,0.00850003195500735,0.4651162790697675
guwiki,True,93.0,0.8106235565819861,0.2729393468118196,0.9399397625937519,0.005240621205342877,0.4083769633507854
guwiki,True,94.0,0.8167202572347267,0.19751166407465007,0.9356877103879998,0.0036428708378602927,0.3180964308077645
guwiki,True,95.0,0.8484848484848485,0.15241057542768274,0.9335616842851238,0.0022368505144756182,0.2584047462096243
guwiki,True,96.0,0.8641975308641975,0.1088646967340591,0.9310222642177995,0.0014060203233846743,0.19337016574585636
guwiki,True,97.0,0.8762886597938144,0.0660964230171073,0.9283647315892045,0.0007669201763916406,0.12292118582791033
guwiki,True,98.0,0.9,0.034992223950233284,0.9264158743282348,0.0003195500734965169,0.06736526946107785
guwiki,True,99.0,1.0,0.017107309486780714,0.9253528612767968,0.0,0.03363914373088685
guwiki,False,0.0,0.07002414625733011,1.0,0.07002414625733011,1.0,0.13088330109606705
guwiki,False,1.0,0.07002414625733011,1.0,0.07002414625733011,1.0,0.13088330109606705
guwiki,False,2.0,0.070196334575633,1.0,0.07247709938292898,0.9973623475107155,0.1311840310188842
guwiki,False,3.0,0.07073718445098343,1.0,0.08010425050783795,0.9891608968018464,0.1321280057855722
guwiki,False,4.0,0.07136994332616768,0.9994526546250684,0.08934115212142119,0.9791872733267392,0.1332263242375602
guwiki,False,5.0,0.07244650867373269,0.9989053092501369,0.10436549001571423,0.9629904385097263,0.13509512177067143
guwiki,False,6.0,0.07436767049401381,0.9961685823754789,0.13150128396765168,0.9336053412462908,0.13840304182509508
guwiki,False,7.0,0.07665725483585487,0.9956212370005474,0.15994020926756353,0.9029838443785031,0.14235404601659102
guwiki,False,8.0,0.0792507204610951,0.993431855500821,0.19133034379671152,0.8690652818991098,0.14679121679000365
guwiki,False,9.0,0.08114643976712942,0.9917898193760263,0.21302364800122647,0.8456149027365645,0.15001862814091152
guwiki,False,10.0,0.08382318907660263,0.9912424740010947,0.24073435284197617,0.8157764589515332,0.15457494025264593
guwiki,False,11.0,0.08712175879155241,0.9912424740010947,0.27208615997853663,0.7820639630728652,0.16016626868311665
guwiki,False,12.0,0.09544399915629614,0.9906951286261632,0.3418803418803419,0.706973293768546,0.17411379924005582
guwiki,False,13.0,0.10065061446922093,0.9906951286261632,0.379479514008662,0.6665430267062314,0.18273599192327106
guwiki,False,14.0,0.10292777398040556,0.9890530925013684,0.39561534628799205,0.6490685789647214,0.18645204560697518
guwiki,False,15.0,0.10607306472453894,0.9885057471264368,0.4158522095741827,0.6272667326079789,0.1915875457486872
guwiki,False,16.0,0.10965739670175866,0.9863163656267104,0.4382737342378598,0.6029920870425322,0.19737130339539977
guwiki,False,17.0,0.11317312531454454,0.9846743295019157,0.4586255797018129,0.5809841740850643,0.20301303391073747
guwiki,False,18.0,0.11718291490055428,0.9835796387520526,0.4799739373730405,0.5579459281239697,0.20941615196364058
guwiki,False,19.0,0.12142712345428745,0.9835796387520526,0.500517419799931,0.5358555885262116,0.21616744857452186
guwiki,False,20.0,0.1265260038105991,0.9813902572523262,0.52428040320417,0.5101384767556875,0.2241530191273909
guwiki,False,21.0,0.13342267887722434,0.9808429118773946,0.5525660189337319,0.47968183316848007,0.23489317079564823
guwiki,False,22.0,0.14116905624704584,0.9808429118773946,0.5808133072707063,0.4493076162215628,0.24681495764754494
guwiki,False,23.0,0.15143558905733887,0.9786535303776683,0.6145030853551033,0.4129162545334652,0.26228546281355436
guwiki,False,24.0,0.1597601360422447,0.9770114942528736,0.6385726879000422,0.3869106495219255,0.27461538461538465
guwiki,False,25.0,0.16710427606901726,0.9753694581280788,0.6578513663715457,0.3660567095285196,0.2853254343127052
guwiki,False,26.0,0.17676266137040714,0.9742747673782156,0.6804645279981603,0.34165842400263763,0.2992351012860385
guwiki,False,27.0,0.18757921419518378,0.9720853858784894,0.7032309991951248,0.31701285855588524,0.3144754316069057
guwiki,False,28.0,0.19693265170037785,0.969896004378763,0.7209382545705416,0.29780745136828224,0.3273903002309469
guwiki,False,29.0,0.2079557490879134,0.9671592775041051,0.7397570043309953,0.27736564457632706,0.342309182487408
guwiki,False,30.0,0.21813907448651323,0.9649698960043788,0.7553562531141006,0.26042696999670295,0.3558381269552932
guwiki,False,31.0,0.23027522935779818,0.9616858237547893,0.7722203058525928,0.24204582921200132,0.3715766099185788
guwiki,False,32.0,0.240735657425199,0.9600437876299945,0.7851749645471618,0.22799208704253215,0.3849445846592779
guwiki,False,33.0,0.2514014661492022,0.9573070607553367,0.7974014027825687,0.21463897131552917,0.398224043715847
guwiki,False,34.0,0.26257151460403494,0.9545703338806787,0.8090912575217508,0.2018628420705572,0.41185500059038854
guwiki,False,35.0,0.27431539187913123,0.9540229885057471,0.8200528918017708,0.19003461918892187,0.42610927759442613
guwiki,False,36.0,0.2868690201253712,0.9518336070060208,0.8309378712966157,0.17816518298714146,0.44086703004183037
guwiki,False,37.0,0.30020739716557204,0.9507389162561576,0.8413629220804109,0.16687273326739202,0.45632470773676603
guwiki,False,38.0,0.31314409690833483,0.9480021893814997,0.850753133264344,0.1565694032311243,0.47078010328893716
guwiki,False,39.0,0.32597623089983024,0.9458128078817734,0.8592618144187651,0.14725519287833827,0.48484848484848486
guwiki,False,40.0,0.33735893882399526,0.9326765188834154,0.8670039477214365,0.13794098252555226,0.4954928758359988
guwiki,False,41.0,0.34841351074718524,0.9315818281335523,0.8732129853206086,0.13118199802176064,0.5071513706793802
guwiki,False,42.0,0.36152535151256926,0.9288451012588944,0.8801502433789429,0.12351632047477745,0.520472320196289
guwiki,False,43.0,0.3737552555875194,0.9244663382594417,0.8862442988003526,0.11663369601055061,0.53230381342578
guwiki,False,44.0,0.3867491976157726,0.9233716475095786,0.8921083898662374,0.11024563138806462,0.5451607691064793
guwiki,False,45.0,0.3993830090175605,0.9211822660098522,0.8974742248284849,0.10431091328717441,0.5571925177950671
guwiki,False,46.0,0.413504189255791,0.9184455391351943,0.9030700241462574,0.09808770194526871,0.5702633814783348
guwiki,False,47.0,0.429047131147541,0.9168035030103996,0.9087424782492047,0.091864490603363,0.5845402198569185
guwiki,False,48.0,0.4412773818949591,0.9151614668856048,0.9129201640412403,0.08724859874711506,0.5954415954415955
guwiki,False,49.0,0.45348521833468947,0.9151614668856048,0.9168295580851634,0.08304484009231784,0.60645629307218
guwiki,False,50.0,0.46503204235163,0.9135194307608101,0.9203556782032118,0.0791295746785361,0.6163220088626292
guwiki,False,51.0,0.4772662281955962,0.9135194307608101,0.9238817983212602,0.07533794922518958,0.6269722013523666
guwiki,False,52.0,0.4862893815635939,0.9124247400109469,0.9263730788394465,0.07257665677546983,0.6344433872502379
guwiki,False,53.0,0.498355754857997,0.9124247400109469,0.9295542524242075,0.06915595120342895,0.6446249033255993
guwiki,False,54.0,0.5071537290715373,0.9118773946360154,0.9317772411942815,0.06672436531486976,0.6517996870109547
guwiki,False,55.0,0.5151702786377709,0.9107827038861521,0.9337319382162431,0.064540059347181,0.6580976863753213
guwiki,False,56.0,0.5224913494809689,0.9091406677613574,0.9354566708826798,0.0625618199802176,0.6636036755892929
guwiki,False,57.0,0.532263242375602,0.9074986316365626,0.9376796596527538,0.060047807451368285,0.6709834075273168
guwiki,False,58.0,0.5391134289439374,0.9053092501368364,0.9391744279636657,0.05827563468513024,0.675791624106231
guwiki,False,59.0,0.544137022397892,0.9042145593869731,0.9402475949561151,0.05703923508077811,0.6794159983549249
guwiki,False,60.0,0.5486018641810919,0.9020251778872469,0.9411674523782148,0.05588526211671612,0.6822604015731732
guwiki,False,61.0,0.5543954193331088,0.9009304871373837,0.9423556015484267,0.054525222551928786,0.6864053377814846
guwiki,False,62.0,0.5610504774897681,0.9003831417624522,0.9436970602889886,0.05304154302670623,0.691321706240807
guwiki,False,63.0,0.5654720882150241,0.8981937602627258,0.9445402629259132,0.05196999670293439,0.6940156481285683
guwiki,False,64.0,0.5710296684118674,0.8954570333880679,0.9455751025257751,0.05065117045829212,0.6973572037510657
guwiki,False,65.0,0.5750967288075977,0.8949096880131363,0.9463416503775248,0.04978569073524563,0.7002141327623126
guwiki,False,66.0,0.5788168614948637,0.8943623426382047,0.9470315434440995,0.049002637652489286,0.7027956989247313
guwiki,False,67.0,0.5815198002140564,0.8921729611384783,0.9474914721551493,0.04834322453016815,0.7041036717062635
guwiki,False,68.0,0.5847701149425287,0.8910782703886152,0.9480663830439615,0.047642598087701944,0.7061374972890913
guwiki,False,69.0,0.5882994186046512,0.886152162014231,0.9486029665401863,0.046694691724365314,0.7071412972264688
guwiki,False,70.0,0.59147685525349,0.8812260536398467,0.9490628952512361,0.04582921200131883,0.7078478786546494
guwiki,False,71.0,0.595816212177811,0.873015873015873,0.9496378061400483,0.0445928123969667,0.7082593250444049
guwiki,False,72.0,0.5975839939599848,0.866447728516694,0.9497911157103982,0.04393339927464557,0.7073279714030385
guwiki,False,73.0,0.6033690658499234,0.8626163108921729,0.9506726457399103,0.04269699967029344,0.7100698355485469
guwiki,False,74.0,0.6102423768569195,0.8544061302681992,0.9515925031620099,0.04108968018463567,0.7119726339794755
guwiki,False,75.0,0.6145584725536993,0.8456486042692939,0.9520524318730597,0.03993570722057369,0.7118175535590878
guwiki,False,76.0,0.6192400970088925,0.8385331143951834,0.9525890153692844,0.038822947576656774,0.7123924668681701
guwiki,False,77.0,0.622478386167147,0.8275862068965517,0.9527806523322219,0.03779261457303,0.7105263157894737
guwiki,False,78.0,0.6248941574936494,0.8078817733990148,0.9525890153692844,0.03651500164853281,0.7047027930293627
guwiki,False,79.0,0.6331592689295039,0.7963875205254516,0.953432218006209,0.034742828882294755,0.7054545454545456
guwiki,False,80.0,0.6372592924317062,0.7788724685276409,0.9534705453987965,0.03338278931750742,0.7009852216748768
guwiki,False,81.0,0.6436145689257723,0.7640941434044882,0.9538538193246714,0.031857896472139796,0.6986986986986987
guwiki,False,82.0,0.6487130600571973,0.7449370552818829,0.9538921467172589,0.030374216946917245,0.6935031847133759
guwiki,False,83.0,0.6532738095238095,0.7208538587848933,0.953662182361734,0.02880811078140455,0.6854020296643248
guwiki,False,84.0,0.6569037656903766,0.6874657909140668,0.9529722892951592,0.027035938015166502,0.6718373896763841
guwiki,False,85.0,0.6576477084483711,0.6518883415435139,0.9518607949101222,0.02555225848994395,0.6547553600879604
guwiki,False,86.0,0.6618876941457587,0.6064586754241926,0.9507493005250853,0.023326739202110123,0.6329620108540417
guwiki,False,87.0,0.6605981794538361,0.5561029009304871,0.9489095856808861,0.021513353115727003,0.6038632986627043
guwiki,False,88.0,0.6607142857142857,0.5062944718117132,0.9472231804070369,0.01957632706890867,0.5732878834831112
guwiki,False,89.0,0.6618589743589743,0.4521072796934866,0.9454601203480127,0.017392021101219915,0.5372357723577236
guwiki,False,90.0,0.6753975678203928,0.39518336070060206,0.9443486259629758,0.014301022090339597,0.49861878453038677
guwiki,False,91.0,0.6961748633879782,0.3486590038314176,0.943735387681576,0.011457303000329707,0.4646243617797228
guwiki,False,92.0,0.7272727272727273,0.2977558839627805,0.9430071672224138,0.008407517309594461,0.4225242718446602
guwiki,False,93.0,0.7728055077452668,0.24575807334428024,0.9421256371929018,0.005440158259149357,0.3729235880398671
guwiki,False,94.0,0.7780429594272077,0.17843459222769567,0.9389061362155533,0.0038328387734915927,0.2902938557435441
guwiki,False,95.0,0.8093645484949833,0.1324575807334428,0.9370664213713541,0.0023491592482690407,0.22765757290686733
guwiki,False,96.0,0.8203883495145631,0.09250136836343732,0.9350350695642176,0.0015248928453676228,0.16625676340383666
guwiki,False,97.0,0.8166666666666667,0.05363984674329502,0.9328887355793185,0.0009066930431915595,0.10066769388803287
guwiki,False,98.0,0.8666666666666667,0.028461959496442254,0.9316622590165191,0.0003297065611605671,0.05511393746687864
guwiki,False,99.0,0.9583333333333334,0.012588943623426382,0.9308190563795945,4.121332014507089e-05,0.02485143165856294
