wiki_db,user_is_anonymous_or_bot,threshold,precision,recall,accuracy,fpr,F1
hsbwiki,True,0.0,0.17391304347826086,1.0,0.17391304347826086,1.0,0.29629629629629634
hsbwiki,True,1.0,0.17391304347826086,1.0,0.17391304347826086,1.0,0.29629629629629634
hsbwiki,True,2.0,0.17391304347826086,1.0,0.17391304347826086,1.0,0.29629629629629634
hsbwiki,True,3.0,0.17391304347826086,1.0,0.17391304347826086,1.0,0.29629629629629634
hsbwiki,True,4.0,0.17391304347826086,1.0,0.17391304347826086,1.0,0.29629629629629634
hsbwiki,True,5.0,0.17391304347826086,1.0,0.17391304347826086,1.0,0.29629629629629634
hsbwiki,True,6.0,0.17391304347826086,1.0,0.17391304347826086,1.0,0.29629629629629634
hsbwiki,True,7.0,0.17391304347826086,1.0,0.17391304347826086,1.0,0.29629629629629634
hsbwiki,True,8.0,0.17391304347826086,1.0,0.17391304347826086,1.0,0.29629629629629634
hsbwiki,True,9.0,0.17391304347826086,1.0,0.17391304347826086,1.0,0.29629629629629634
hsbwiki,True,10.0,0.17391304347826086,1.0,0.17391304347826086,1.0,0.29629629629629634
hsbwiki,True,11.0,0.17391304347826086,1.0,0.17391304347826086,1.0,0.29629629629629634
hsbwiki,True,12.0,0.17391304347826086,1.0,0.17391304347826086,1.0,0.29629629629629634
hsbwiki,True,13.0,0.17391304347826086,1.0,0.17391304347826086,1.0,0.29629629629629634
hsbwiki,True,14.0,0.17391304347826086,1.0,0.17391304347826086,1.0,0.29629629629629634
hsbwiki,True,15.0,0.17391304347826086,1.0,0.17391304347826086,1.0,0.29629629629629634
hsbwiki,True,16.0,0.17391304347826086,1.0,0.17391304347826086,1.0,0.29629629629629634
hsbwiki,True,17.0,0.17391304347826086,1.0,0.17391304347826086,1.0,0.29629629629629634
hsbwiki,True,18.0,0.17391304347826086,1.0,0.17391304347826086,1.0,0.29629629629629634
hsbwiki,True,19.0,0.17391304347826086,1.0,0.17391304347826086,1.0,0.29629629629629634
hsbwiki,True,20.0,0.17391304347826086,1.0,0.17391304347826086,1.0,0.29629629629629634
hsbwiki,True,21.0,0.17391304347826086,1.0,0.17391304347826086,1.0,0.29629629629629634
hsbwiki,True,22.0,0.17391304347826086,1.0,0.17391304347826086,1.0,0.29629629629629634
hsbwiki,True,23.0,0.17391304347826086,1.0,0.17391304347826086,1.0,0.29629629629629634
hsbwiki,True,24.0,0.17391304347826086,1.0,0.17391304347826086,1.0,0.29629629629629634
hsbwiki,True,25.0,0.17391304347826086,1.0,0.17391304347826086,1.0,0.29629629629629634
hsbwiki,True,26.0,0.17391304347826086,1.0,0.17391304347826086,1.0,0.29629629629629634
hsbwiki,True,27.0,0.17391304347826086,1.0,0.17391304347826086,1.0,0.29629629629629634
hsbwiki,True,28.0,0.17391304347826086,1.0,0.17391304347826086,1.0,0.29629629629629634
hsbwiki,True,29.0,0.17391304347826086,1.0,0.17391304347826086,1.0,0.29629629629629634
hsbwiki,True,30.0,0.17391304347826086,1.0,0.17391304347826086,1.0,0.29629629629629634
hsbwiki,True,31.0,0.17391304347826086,1.0,0.17391304347826086,1.0,0.29629629629629634
hsbwiki,True,32.0,0.17391304347826086,1.0,0.17391304347826086,1.0,0.29629629629629634
hsbwiki,True,33.0,0.17391304347826086,1.0,0.17391304347826086,1.0,0.29629629629629634
hsbwiki,True,34.0,0.17777777777777778,1.0,0.1956521739130435,0.9736842105263158,0.3018867924528302
hsbwiki,True,35.0,0.17777777777777778,1.0,0.1956521739130435,0.9736842105263158,0.3018867924528302
hsbwiki,True,36.0,0.17777777777777778,1.0,0.1956521739130435,0.9736842105263158,0.3018867924528302
hsbwiki,True,37.0,0.17777777777777778,1.0,0.1956521739130435,0.9736842105263158,0.3018867924528302
hsbwiki,True,38.0,0.17777777777777778,1.0,0.1956521739130435,0.9736842105263158,0.3018867924528302
hsbwiki,True,39.0,0.17777777777777778,1.0,0.1956521739130435,0.9736842105263158,0.3018867924528302
hsbwiki,True,40.0,0.17777777777777778,1.0,0.1956521739130435,0.9736842105263158,0.3018867924528302
hsbwiki,True,41.0,0.17777777777777778,1.0,0.1956521739130435,0.9736842105263158,0.3018867924528302
hsbwiki,True,42.0,0.17777777777777778,1.0,0.1956521739130435,0.9736842105263158,0.3018867924528302
hsbwiki,True,43.0,0.17777777777777778,1.0,0.1956521739130435,0.9736842105263158,0.3018867924528302
hsbwiki,True,44.0,0.17777777777777778,1.0,0.1956521739130435,0.9736842105263158,0.3018867924528302
hsbwiki,True,45.0,0.17777777777777778,1.0,0.1956521739130435,0.9736842105263158,0.3018867924528302
hsbwiki,True,46.0,0.17777777777777778,1.0,0.1956521739130435,0.9736842105263158,0.3018867924528302
hsbwiki,True,47.0,0.17777777777777778,1.0,0.1956521739130435,0.9736842105263158,0.3018867924528302
hsbwiki,True,48.0,0.18181818181818182,1.0,0.21739130434782608,0.9473684210526315,0.3076923076923077
hsbwiki,True,49.0,0.18181818181818182,1.0,0.21739130434782608,0.9473684210526315,0.3076923076923077
hsbwiki,True,50.0,0.18181818181818182,1.0,0.21739130434782608,0.9473684210526315,0.3076923076923077
hsbwiki,True,51.0,0.18181818181818182,1.0,0.21739130434782608,0.9473684210526315,0.3076923076923077
hsbwiki,True,52.0,0.18181818181818182,1.0,0.21739130434782608,0.9473684210526315,0.3076923076923077
hsbwiki,True,53.0,0.18181818181818182,1.0,0.21739130434782608,0.9473684210526315,0.3076923076923077
hsbwiki,True,54.0,0.18181818181818182,1.0,0.21739130434782608,0.9473684210526315,0.3076923076923077
hsbwiki,True,55.0,0.18604651162790697,1.0,0.2391304347826087,0.9210526315789473,0.3137254901960785
hsbwiki,True,56.0,0.18604651162790697,1.0,0.2391304347826087,0.9210526315789473,0.3137254901960785
hsbwiki,True,57.0,0.18604651162790697,1.0,0.2391304347826087,0.9210526315789473,0.3137254901960785
hsbwiki,True,58.0,0.19047619047619047,1.0,0.2608695652173913,0.8947368421052632,0.32
hsbwiki,True,59.0,0.19047619047619047,1.0,0.2608695652173913,0.8947368421052632,0.32
hsbwiki,True,60.0,0.19047619047619047,1.0,0.2608695652173913,0.8947368421052632,0.32
hsbwiki,True,61.0,0.19047619047619047,1.0,0.2608695652173913,0.8947368421052632,0.32
hsbwiki,True,62.0,0.19047619047619047,1.0,0.2608695652173913,0.8947368421052632,0.32
hsbwiki,True,63.0,0.19047619047619047,1.0,0.2608695652173913,0.8947368421052632,0.32
hsbwiki,True,64.0,0.19047619047619047,1.0,0.2608695652173913,0.8947368421052632,0.32
hsbwiki,True,65.0,0.19047619047619047,1.0,0.2608695652173913,0.8947368421052632,0.32
hsbwiki,True,66.0,0.19047619047619047,1.0,0.2608695652173913,0.8947368421052632,0.32
hsbwiki,True,67.0,0.19047619047619047,1.0,0.2608695652173913,0.8947368421052632,0.32
hsbwiki,True,68.0,0.19047619047619047,1.0,0.2608695652173913,0.8947368421052632,0.32
hsbwiki,True,69.0,0.1951219512195122,1.0,0.2826086956521739,0.868421052631579,0.326530612244898
hsbwiki,True,70.0,0.1951219512195122,1.0,0.2826086956521739,0.868421052631579,0.326530612244898
hsbwiki,True,71.0,0.1951219512195122,1.0,0.2826086956521739,0.868421052631579,0.326530612244898
hsbwiki,True,72.0,0.2,1.0,0.30434782608695654,0.8421052631578947,0.33333333333333337
hsbwiki,True,73.0,0.2,1.0,0.30434782608695654,0.8421052631578947,0.33333333333333337
hsbwiki,True,74.0,0.2,1.0,0.30434782608695654,0.8421052631578947,0.33333333333333337
hsbwiki,True,75.0,0.2,1.0,0.30434782608695654,0.8421052631578947,0.33333333333333337
hsbwiki,True,76.0,0.2,1.0,0.30434782608695654,0.8421052631578947,0.33333333333333337
hsbwiki,True,77.0,0.18421052631578946,0.875,0.30434782608695654,0.8157894736842105,0.30434782608695654
hsbwiki,True,78.0,0.17142857142857143,0.75,0.32608695652173914,0.7631578947368421,0.2790697674418604
hsbwiki,True,79.0,0.17647058823529413,0.75,0.34782608695652173,0.7368421052631579,0.2857142857142857
hsbwiki,True,80.0,0.15151515151515152,0.625,0.32608695652173914,0.7368421052631579,0.24390243902439024
hsbwiki,True,81.0,0.17857142857142858,0.625,0.43478260869565216,0.6052631578947368,0.2777777777777778
hsbwiki,True,82.0,0.19230769230769232,0.625,0.4782608695652174,0.5526315789473685,0.29411764705882354
hsbwiki,True,83.0,0.2,0.625,0.5,0.5263157894736842,0.30303030303030304
hsbwiki,True,84.0,0.20833333333333334,0.625,0.5217391304347826,0.5,0.3125
hsbwiki,True,85.0,0.22727272727272727,0.625,0.5652173913043478,0.4473684210526316,0.3333333333333333
hsbwiki,True,86.0,0.22727272727272727,0.625,0.5652173913043478,0.4473684210526316,0.3333333333333333
hsbwiki,True,87.0,0.23809523809523808,0.625,0.5869565217391305,0.42105263157894735,0.3448275862068965
hsbwiki,True,88.0,0.2631578947368421,0.625,0.6304347826086957,0.3684210526315789,0.37037037037037035
hsbwiki,True,89.0,0.23529411764705882,0.5,0.6304347826086957,0.34210526315789475,0.31999999999999995
hsbwiki,True,90.0,0.2727272727272727,0.375,0.717391304347826,0.21052631578947367,0.3157894736842105
hsbwiki,True,91.0,0.2727272727272727,0.375,0.717391304347826,0.21052631578947367,0.3157894736842105
hsbwiki,True,92.0,0.375,0.375,0.782608695652174,0.13157894736842105,0.375
hsbwiki,True,93.0,0.6,0.375,0.8478260869565217,0.05263157894736842,0.4615384615384615
hsbwiki,True,94.0,1.0,0.25,0.8695652173913043,0.0,0.4
hsbwiki,True,95.0,1.0,0.25,0.8695652173913043,0.0,0.4
hsbwiki,True,96.0,1.0,0.125,0.8478260869565217,0.0,0.2222222222222222
hsbwiki,True,97.0,1.0,0.125,0.8478260869565217,0.0,0.2222222222222222
hsbwiki,True,98.0,1.0,0.125,0.8478260869565217,0.0,0.2222222222222222
hsbwiki,True,99.0,1.0,0.125,0.8478260869565217,0.0,0.2222222222222222
hsbwiki,False,0.0,0.015503875968992248,1.0,0.015503875968992248,1.0,0.030534351145038167
hsbwiki,False,1.0,0.015503875968992248,1.0,0.015503875968992248,1.0,0.030534351145038167
hsbwiki,False,2.0,0.015665796344647518,1.0,0.025839793281653745,0.989501312335958,0.030848329048843184
hsbwiki,False,3.0,0.015915119363395226,1.0,0.041343669250646,0.973753280839895,0.031331592689295036
hsbwiki,False,4.0,0.016423357664233577,1.0,0.0714900947459087,0.9431321084864392,0.03231597845601436
hsbwiki,False,5.0,0.01725790987535954,1.0,0.11714039621016366,0.8967629046369204,0.033930254476908575
hsbwiki,False,6.0,0.018108651911468814,1.0,0.15934539190353145,0.8538932633420823,0.03557312252964427
hsbwiki,False,7.0,0.01900739176346357,1.0,0.19982773471145565,0.8127734033245845,0.03730569948186528
hsbwiki,False,8.0,0.019867549668874173,1.0,0.2351421188630491,0.7769028871391076,0.03896103896103896
hsbwiki,False,9.0,0.020761245674740483,1.0,0.268733850129199,0.7427821522309711,0.04067796610169491
hsbwiki,False,10.0,0.021634615384615384,1.0,0.2988802756244617,0.7121609798775154,0.042352941176470586
hsbwiki,False,11.0,0.022613065326633167,1.0,0.3298880275624462,0.6806649168853893,0.044226044226044224
hsbwiki,False,12.0,0.023778071334214,1.0,0.363479758828596,0.6465441819772528,0.04645161290322581
hsbwiki,False,13.0,0.02455661664392906,1.0,0.384151593453919,0.6255468066491688,0.04793608521970706
hsbwiki,False,14.0,0.025423728813559324,1.0,0.40568475452196384,0.6036745406824147,0.04958677685950414
hsbwiki,False,15.0,0.026627218934911243,1.0,0.43324720068906114,0.5756780402449694,0.05187319884726225
hsbwiki,False,16.0,0.02786377708978328,1.0,0.4590869939707149,0.5494313210848644,0.05421686746987951
hsbwiki,False,17.0,0.02936378466557912,1.0,0.48751076658053405,0.5205599300087489,0.057052297939778125
hsbwiki,False,18.0,0.029159519725557463,0.9444444444444444,0.5116279069767442,0.49518810148731407,0.05657237936772047
hsbwiki,False,19.0,0.02857142857142857,0.8888888888888888,0.5297157622739018,0.4759405074365704,0.05536332179930795
hsbwiki,False,20.0,0.029411764705882353,0.8888888888888888,0.5434969853574505,0.46194225721784776,0.05693950177935943
hsbwiki,False,21.0,0.03088803088803089,0.8888888888888888,0.5658914728682171,0.43919510061242345,0.05970149253731343
hsbwiki,False,22.0,0.03278688524590164,0.8888888888888888,0.5917312661498708,0.41294838145231844,0.06324110671936758
hsbwiki,False,23.0,0.03177966101694915,0.8333333333333334,0.6037898363479759,0.399825021872266,0.06122448979591836
hsbwiki,False,24.0,0.03260869565217391,0.8333333333333334,0.6141257536606374,0.389326334208224,0.06276150627615062
hsbwiki,False,25.0,0.033860045146726865,0.8333333333333334,0.6287683031869078,0.37445319335083116,0.0650759219088937
hsbwiki,False,26.0,0.03480278422273782,0.8333333333333334,0.6391042204995694,0.36395450568678916,0.06681514476614699
hsbwiki,False,27.0,0.03546099290780142,0.8333333333333334,0.6459948320413437,0.3569553805774278,0.06802721088435375
hsbwiki,False,28.0,0.03694581280788178,0.8333333333333334,0.6606373815676141,0.342082239720035,0.07075471698113209
hsbwiki,False,29.0,0.03865979381443299,0.8333333333333334,0.6761412575366064,0.326334208223972,0.07389162561576355
hsbwiki,False,30.0,0.03968253968253968,0.8333333333333334,0.6847545219638242,0.31758530183727035,0.07575757575757576
hsbwiki,False,31.0,0.04087193460490463,0.8333333333333334,0.694229112833764,0.3079615048118985,0.07792207792207792
hsbwiki,False,32.0,0.04335260115606936,0.8333333333333334,0.7123169681309216,0.289588801399825,0.08241758241758243
hsbwiki,False,33.0,0.04437869822485207,0.8333333333333334,0.719207579672696,0.28258967629046366,0.08426966292134831
hsbwiki,False,34.0,0.04643962848297214,0.8333333333333334,0.7321274763135228,0.2694663167104112,0.08797653958944282
hsbwiki,False,35.0,0.04792332268370607,0.8333333333333334,0.7407407407407407,0.26071741032370954,0.09063444108761329
hsbwiki,False,36.0,0.05,0.8333333333333334,0.751937984496124,0.24934383202099739,0.09433962264150944
hsbwiki,False,37.0,0.053003533568904596,0.8333333333333334,0.7665805340223945,0.23447069116360456,0.09966777408637874
hsbwiki,False,38.0,0.05474452554744526,0.8333333333333334,0.7743324720068906,0.22659667541557305,0.10273972602739727
hsbwiki,False,39.0,0.055970149253731345,0.8333333333333334,0.7795004306632214,0.22134733158355205,0.1048951048951049
hsbwiki,False,40.0,0.05747126436781609,0.8333333333333334,0.7855297157622739,0.2152230971128609,0.1075268817204301
hsbwiki,False,41.0,0.058823529411764705,0.8333333333333334,0.7906976744186046,0.2099737532808399,0.10989010989010989
hsbwiki,False,42.0,0.06172839506172839,0.8333333333333334,0.8010335917312662,0.1994750656167979,0.1149425287356322
hsbwiki,False,43.0,0.06329113924050633,0.8333333333333334,0.8062015503875969,0.1942257217847769,0.11764705882352942
hsbwiki,False,44.0,0.06493506493506493,0.8333333333333334,0.8113695090439277,0.1889763779527559,0.12048192771084336
hsbwiki,False,45.0,0.06637168141592921,0.8333333333333334,0.8156761412575366,0.18460192475940507,0.12295081967213116
hsbwiki,False,46.0,0.06787330316742081,0.8333333333333334,0.8199827734711456,0.18022747156605423,0.12552301255230125
hsbwiki,False,47.0,0.06880733944954129,0.8333333333333334,0.8225667527993109,0.17760279965004375,0.1271186440677966
hsbwiki,False,48.0,0.0673076923076923,0.7777777777777778,0.8294573643410853,0.16972878390201224,0.12389380530973451
hsbwiki,False,49.0,0.07,0.7777777777777778,0.8363479758828596,0.16272965879265092,0.12844036697247707
hsbwiki,False,50.0,0.07329842931937172,0.7777777777777778,0.8440999138673557,0.15485564304461943,0.1339712918660287
hsbwiki,False,51.0,0.07650273224043716,0.7777777777777778,0.85099052540913,0.14785651793525809,0.13930348258706468
hsbwiki,False,52.0,0.0782122905027933,0.7777777777777778,0.8544358311800172,0.14435695538057744,0.14213197969543145
hsbwiki,False,53.0,0.07954545454545454,0.7777777777777778,0.8570198105081827,0.14173228346456693,0.14432989690721648
hsbwiki,False,54.0,0.08187134502923976,0.7777777777777778,0.8613264427217916,0.1373578302712161,0.14814814814814814
hsbwiki,False,55.0,0.08433734939759036,0.7777777777777778,0.8656330749354005,0.13298337707786526,0.15217391304347824
hsbwiki,False,56.0,0.08588957055214724,0.7777777777777778,0.8682170542635659,0.13035870516185477,0.15469613259668508
hsbwiki,False,57.0,0.0880503144654088,0.7777777777777778,0.8716623600344531,0.1268591426071741,0.1581920903954802
hsbwiki,False,58.0,0.0915032679738562,0.7777777777777778,0.8768303186907838,0.1216097987751531,0.16374269005847952
hsbwiki,False,59.0,0.09210526315789473,0.7777777777777778,0.8776916451335056,0.12073490813648294,0.16470588235294117
hsbwiki,False,60.0,0.0945945945945946,0.7777777777777778,0.8811369509043928,0.11723534558180228,0.16867469879518074
hsbwiki,False,61.0,0.09523809523809523,0.7777777777777778,0.8819982773471146,0.1163604549431321,0.16969696969696968
hsbwiki,False,62.0,0.09420289855072464,0.7222222222222222,0.8880275624461671,0.10936132983377078,0.16666666666666666
hsbwiki,False,63.0,0.09558823529411764,0.7222222222222222,0.8897502153316107,0.10761154855643044,0.1688311688311688
hsbwiki,False,64.0,0.09701492537313433,0.7222222222222222,0.8914728682170543,0.10586176727909011,0.17105263157894737
hsbwiki,False,65.0,0.10077519379844961,0.7222222222222222,0.8957795004306632,0.10148731408573929,0.17687074829931973
hsbwiki,False,66.0,0.1015625,0.7222222222222222,0.896640826873385,0.10061242344706911,0.17808219178082194
hsbwiki,False,67.0,0.10317460317460317,0.7222222222222222,0.8983634797588286,0.09886264216972879,0.18055555555555555
hsbwiki,False,68.0,0.10483870967741936,0.7222222222222222,0.9000861326442722,0.09711286089238845,0.18309859154929578
hsbwiki,False,69.0,0.10526315789473684,0.6666666666666666,0.9069767441860465,0.08923884514435695,0.18181818181818182
hsbwiki,False,70.0,0.10909090909090909,0.6666666666666666,0.9104220499569337,0.0857392825896763,0.1875
hsbwiki,False,71.0,0.11214953271028037,0.6666666666666666,0.9130060292850991,0.0831146106736658,0.192
hsbwiki,False,72.0,0.11764705882352941,0.6666666666666666,0.917312661498708,0.07874015748031496,0.2
hsbwiki,False,73.0,0.12371134020618557,0.6666666666666666,0.921619293712317,0.07436570428696412,0.20869565217391306
hsbwiki,False,74.0,0.13043478260869565,0.6666666666666666,0.9259259259259259,0.0699912510936133,0.21818181818181817
hsbwiki,False,75.0,0.125,0.6111111111111112,0.9276485788113695,0.0673665791776028,0.20754716981132076
hsbwiki,False,76.0,0.12941176470588237,0.6111111111111112,0.9302325581395349,0.0647419072615923,0.21359223300970875
hsbwiki,False,77.0,0.12195121951219512,0.5555555555555556,0.9310938845822567,0.06299212598425197,0.2
hsbwiki,False,78.0,0.12,0.5,0.9354005167958657,0.05774278215223097,0.1935483870967742
hsbwiki,False,79.0,0.125,0.5,0.937984496124031,0.05511811023622047,0.2
hsbwiki,False,80.0,0.11428571428571428,0.4444444444444444,0.937984496124031,0.0542432195975503,0.1818181818181818
hsbwiki,False,81.0,0.13114754098360656,0.4444444444444444,0.9457364341085271,0.04636920384951881,0.20253164556962025
hsbwiki,False,82.0,0.14285714285714285,0.4444444444444444,0.9500430663221361,0.04199475065616798,0.21621621621621623
hsbwiki,False,83.0,0.15384615384615385,0.4444444444444444,0.9534883720930233,0.03849518810148731,0.2285714285714286
hsbwiki,False,84.0,0.16326530612244897,0.4444444444444444,0.9560723514211886,0.03587051618547681,0.23880597014925373
hsbwiki,False,85.0,0.18181818181818182,0.4444444444444444,0.9603789836347976,0.031496062992125984,0.2580645161290322
hsbwiki,False,86.0,0.2,0.4444444444444444,0.9638242894056848,0.02799650043744532,0.2758620689655173
hsbwiki,False,87.0,0.22857142857142856,0.4444444444444444,0.9681309216192937,0.023622047244094488,0.3018867924528302
hsbwiki,False,88.0,0.26666666666666666,0.4444444444444444,0.9724375538329026,0.019247594050743656,0.33333333333333337
hsbwiki,False,89.0,0.25925925925925924,0.3888888888888889,0.9732988802756245,0.017497812773403325,0.3111111111111111
hsbwiki,False,90.0,0.3,0.3333333333333333,0.9776055124892334,0.012248468941382326,0.3157894736842105
hsbwiki,False,91.0,0.29411764705882354,0.2777777777777778,0.9784668389319552,0.010498687664041995,0.28571428571428575
hsbwiki,False,92.0,0.36363636363636365,0.2222222222222222,0.9819121447028424,0.006124234470691163,0.27586206896551724
hsbwiki,False,93.0,0.5,0.16666666666666666,0.9844961240310077,0.0026246719160104987,0.25
hsbwiki,False,94.0,0.6666666666666666,0.1111111111111111,0.9853574504737296,0.0008748906386701663,0.1904761904761905
hsbwiki,False,95.0,1.0,0.1111111111111111,0.9862187769164513,0.0,0.19999999999999998
hsbwiki,False,96.0,1.0,0.05555555555555555,0.9853574504737296,0.0,0.10526315789473684
hsbwiki,False,97.0,1.0,0.05555555555555555,0.9853574504737296,0.0,0.10526315789473684
hsbwiki,False,98.0,1.0,0.05555555555555555,0.9853574504737296,0.0,0.10526315789473684
hsbwiki,False,99.0,1.0,0.05555555555555555,0.9853574504737296,0.0,0.10526315789473684
