wiki_db,user_is_anonymous_or_bot,threshold,precision,recall,accuracy,fpr,F1
iuwiki,True,0.0,0.2916666666666667,1.0,0.2916666666666667,1.0,0.45161290322580644
iuwiki,True,1.0,0.2916666666666667,1.0,0.2916666666666667,1.0,0.45161290322580644
iuwiki,True,2.0,0.2916666666666667,1.0,0.2916666666666667,1.0,0.45161290322580644
iuwiki,True,3.0,0.2916666666666667,1.0,0.2916666666666667,1.0,0.45161290322580644
iuwiki,True,4.0,0.2916666666666667,1.0,0.2916666666666667,1.0,0.45161290322580644
iuwiki,True,5.0,0.2916666666666667,1.0,0.2916666666666667,1.0,0.45161290322580644
iuwiki,True,6.0,0.2916666666666667,1.0,0.2916666666666667,1.0,0.45161290322580644
iuwiki,True,7.0,0.2916666666666667,1.0,0.2916666666666667,1.0,0.45161290322580644
iuwiki,True,8.0,0.2916666666666667,1.0,0.2916666666666667,1.0,0.45161290322580644
iuwiki,True,9.0,0.2937062937062937,1.0,0.2986111111111111,0.9901960784313726,0.454054054054054
iuwiki,True,10.0,0.3,1.0,0.3194444444444444,0.9607843137254902,0.4615384615384615
iuwiki,True,11.0,0.3,1.0,0.3194444444444444,0.9607843137254902,0.4615384615384615
iuwiki,True,12.0,0.302158273381295,1.0,0.3263888888888889,0.9509803921568627,0.4640883977900553
iuwiki,True,13.0,0.302158273381295,1.0,0.3263888888888889,0.9509803921568627,0.4640883977900553
iuwiki,True,14.0,0.30434782608695654,1.0,0.3333333333333333,0.9411764705882353,0.4666666666666667
iuwiki,True,15.0,0.30434782608695654,1.0,0.3333333333333333,0.9411764705882353,0.4666666666666667
iuwiki,True,16.0,0.30434782608695654,1.0,0.3333333333333333,0.9411764705882353,0.4666666666666667
iuwiki,True,17.0,0.30434782608695654,1.0,0.3333333333333333,0.9411764705882353,0.4666666666666667
iuwiki,True,18.0,0.30434782608695654,1.0,0.3333333333333333,0.9411764705882353,0.4666666666666667
iuwiki,True,19.0,0.30434782608695654,1.0,0.3333333333333333,0.9411764705882353,0.4666666666666667
iuwiki,True,20.0,0.30434782608695654,1.0,0.3333333333333333,0.9411764705882353,0.4666666666666667
iuwiki,True,21.0,0.30434782608695654,1.0,0.3333333333333333,0.9411764705882353,0.4666666666666667
iuwiki,True,22.0,0.30656934306569344,1.0,0.3402777777777778,0.9313725490196079,0.4692737430167598
iuwiki,True,23.0,0.3088235294117647,1.0,0.3472222222222222,0.9215686274509803,0.4719101123595506
iuwiki,True,24.0,0.3111111111111111,1.0,0.3541666666666667,0.9117647058823529,0.4745762711864407
iuwiki,True,25.0,0.3111111111111111,1.0,0.3541666666666667,0.9117647058823529,0.4745762711864407
iuwiki,True,26.0,0.3157894736842105,1.0,0.3680555555555556,0.8921568627450981,0.4799999999999999
iuwiki,True,27.0,0.3157894736842105,1.0,0.3680555555555556,0.8921568627450981,0.4799999999999999
iuwiki,True,28.0,0.3230769230769231,1.0,0.3888888888888889,0.8627450980392157,0.48837209302325585
iuwiki,True,29.0,0.3230769230769231,1.0,0.3888888888888889,0.8627450980392157,0.48837209302325585
iuwiki,True,30.0,0.3333333333333333,1.0,0.4166666666666667,0.8235294117647058,0.5
iuwiki,True,31.0,0.336,1.0,0.4236111111111111,0.8137254901960784,0.5029940119760479
iuwiki,True,32.0,0.35,1.0,0.4583333333333333,0.7647058823529411,0.5185185185185185
iuwiki,True,33.0,0.35294117647058826,1.0,0.4652777777777778,0.7549019607843137,0.5217391304347826
iuwiki,True,34.0,0.35344827586206895,0.9761904761904762,0.4722222222222222,0.7352941176470589,0.5189873417721518
iuwiki,True,35.0,0.35964912280701755,0.9761904761904762,0.4861111111111111,0.7156862745098039,0.5256410256410255
iuwiki,True,36.0,0.36936936936936937,0.9761904761904762,0.5069444444444444,0.6862745098039216,0.5359477124183006
iuwiki,True,37.0,0.37272727272727274,0.9761904761904762,0.5138888888888888,0.6764705882352942,0.5394736842105263
iuwiki,True,38.0,0.37962962962962965,0.9761904761904762,0.5277777777777778,0.6568627450980392,0.5466666666666667
iuwiki,True,39.0,0.3942307692307692,0.9761904761904762,0.5555555555555556,0.6176470588235294,0.5616438356164383
iuwiki,True,40.0,0.3942307692307692,0.9761904761904762,0.5555555555555556,0.6176470588235294,0.5616438356164383
iuwiki,True,41.0,0.4019607843137255,0.9761904761904762,0.5694444444444444,0.5980392156862745,0.5694444444444444
iuwiki,True,42.0,0.40594059405940597,0.9761904761904762,0.5763888888888888,0.5882352941176471,0.5734265734265734
iuwiki,True,43.0,0.41414141414141414,0.9761904761904762,0.5902777777777778,0.5686274509803921,0.5815602836879433
iuwiki,True,44.0,0.422680412371134,0.9761904761904762,0.6041666666666666,0.5490196078431373,0.5899280575539568
iuwiki,True,45.0,0.4270833333333333,0.9761904761904762,0.6111111111111112,0.5392156862745098,0.5942028985507246
iuwiki,True,46.0,0.44086021505376344,0.9761904761904762,0.6319444444444444,0.5098039215686274,0.6074074074074074
iuwiki,True,47.0,0.44086021505376344,0.9761904761904762,0.6319444444444444,0.5098039215686274,0.6074074074074074
iuwiki,True,48.0,0.44565217391304346,0.9761904761904762,0.6388888888888888,0.5,0.6119402985074626
iuwiki,True,49.0,0.449438202247191,0.9523809523809523,0.6458333333333334,0.4803921568627451,0.6106870229007633
iuwiki,True,50.0,0.47058823529411764,0.9523809523809523,0.6736111111111112,0.4411764705882353,0.6299212598425197
iuwiki,True,51.0,0.4878048780487805,0.9523809523809523,0.6944444444444444,0.4117647058823529,0.6451612903225806
iuwiki,True,52.0,0.49382716049382713,0.9523809523809523,0.7013888888888888,0.4019607843137255,0.6504065040650406
iuwiki,True,53.0,0.49382716049382713,0.9523809523809523,0.7013888888888888,0.4019607843137255,0.6504065040650406
iuwiki,True,54.0,0.49382716049382713,0.9523809523809523,0.7013888888888888,0.4019607843137255,0.6504065040650406
iuwiki,True,55.0,0.5063291139240507,0.9523809523809523,0.7152777777777778,0.38235294117647056,0.6611570247933884
iuwiki,True,56.0,0.5063291139240507,0.9523809523809523,0.7152777777777778,0.38235294117647056,0.6611570247933884
iuwiki,True,57.0,0.5194805194805194,0.9523809523809523,0.7291666666666666,0.3627450980392157,0.6722689075630252
iuwiki,True,58.0,0.5405405405405406,0.9523809523809523,0.75,0.3333333333333333,0.6896551724137931
iuwiki,True,59.0,0.547945205479452,0.9523809523809523,0.7569444444444444,0.3235294117647059,0.6956521739130435
iuwiki,True,60.0,0.547945205479452,0.9523809523809523,0.7569444444444444,0.3235294117647059,0.6956521739130435
iuwiki,True,61.0,0.5633802816901409,0.9523809523809523,0.7708333333333334,0.30392156862745096,0.7079646017699116
iuwiki,True,62.0,0.5714285714285714,0.9523809523809523,0.7777777777777778,0.29411764705882354,0.7142857142857142
iuwiki,True,63.0,0.6060606060606061,0.9523809523809523,0.8055555555555556,0.2549019607843137,0.7407407407407407
iuwiki,True,64.0,0.625,0.9523809523809523,0.8194444444444444,0.23529411764705882,0.7547169811320755
iuwiki,True,65.0,0.625,0.9523809523809523,0.8194444444444444,0.23529411764705882,0.7547169811320755
iuwiki,True,66.0,0.6451612903225806,0.9523809523809523,0.8333333333333334,0.21568627450980393,0.7692307692307692
iuwiki,True,67.0,0.6557377049180327,0.9523809523809523,0.8402777777777778,0.20588235294117646,0.7766990291262135
iuwiki,True,68.0,0.6557377049180327,0.9523809523809523,0.8402777777777778,0.20588235294117646,0.7766990291262135
iuwiki,True,69.0,0.6666666666666666,0.9523809523809523,0.8472222222222222,0.19607843137254902,0.7843137254901961
iuwiki,True,70.0,0.6666666666666666,0.9523809523809523,0.8472222222222222,0.19607843137254902,0.7843137254901961
iuwiki,True,71.0,0.6610169491525424,0.9285714285714286,0.8402777777777778,0.19607843137254902,0.7722772277227723
iuwiki,True,72.0,0.6610169491525424,0.9285714285714286,0.8402777777777778,0.19607843137254902,0.7722772277227723
iuwiki,True,73.0,0.6610169491525424,0.9285714285714286,0.8402777777777778,0.19607843137254902,0.7722772277227723
iuwiki,True,74.0,0.6724137931034483,0.9285714285714286,0.8472222222222222,0.18627450980392157,0.78
iuwiki,True,75.0,0.6666666666666666,0.8095238095238095,0.8263888888888888,0.16666666666666666,0.7311827956989246
iuwiki,True,76.0,0.6666666666666666,0.8095238095238095,0.8263888888888888,0.16666666666666666,0.7311827956989246
iuwiki,True,77.0,0.6666666666666666,0.8095238095238095,0.8263888888888888,0.16666666666666666,0.7311827956989246
iuwiki,True,78.0,0.68,0.8095238095238095,0.8333333333333334,0.1568627450980392,0.7391304347826089
iuwiki,True,79.0,0.7083333333333334,0.8095238095238095,0.8472222222222222,0.13725490196078433,0.7555555555555556
iuwiki,True,80.0,0.723404255319149,0.8095238095238095,0.8541666666666666,0.12745098039215685,0.7640449438202246
iuwiki,True,81.0,0.7391304347826086,0.8095238095238095,0.8611111111111112,0.11764705882352941,0.7727272727272727
iuwiki,True,82.0,0.7391304347826086,0.8095238095238095,0.8611111111111112,0.11764705882352941,0.7727272727272727
iuwiki,True,83.0,0.7555555555555555,0.8095238095238095,0.8680555555555556,0.10784313725490197,0.7816091954022989
iuwiki,True,84.0,0.7727272727272727,0.8095238095238095,0.875,0.09803921568627451,0.7906976744186046
iuwiki,True,85.0,0.7857142857142857,0.7857142857142857,0.875,0.08823529411764706,0.7857142857142857
iuwiki,True,86.0,0.7096774193548387,0.5238095238095238,0.7986111111111112,0.08823529411764706,0.6027397260273972
iuwiki,True,87.0,0.7142857142857143,0.47619047619047616,0.7916666666666666,0.0784313725490196,0.5714285714285714
iuwiki,True,88.0,0.72,0.42857142857142855,0.7847222222222222,0.06862745098039216,0.5373134328358209
iuwiki,True,89.0,0.75,0.42857142857142855,0.7916666666666666,0.058823529411764705,0.5454545454545454
iuwiki,True,90.0,0.782608695652174,0.42857142857142855,0.7986111111111112,0.049019607843137254,0.5538461538461539
iuwiki,True,91.0,0.8,0.38095238095238093,0.7916666666666666,0.0392156862745098,0.5161290322580645
iuwiki,True,92.0,0.8,0.38095238095238093,0.7916666666666666,0.0392156862745098,0.5161290322580645
iuwiki,True,93.0,0.8333333333333334,0.35714285714285715,0.7916666666666666,0.029411764705882353,0.5
iuwiki,True,94.0,0.9333333333333333,0.3333333333333333,0.7986111111111112,0.00980392156862745,0.4912280701754386
iuwiki,True,95.0,1.0,0.2857142857142857,0.7916666666666666,0.0,0.4444444444444445
iuwiki,True,96.0,1.0,0.16666666666666666,0.7569444444444444,0.0,0.2857142857142857
iuwiki,True,97.0,1.0,0.11904761904761904,0.7430555555555556,0.0,0.21276595744680848
iuwiki,True,98.0,1.0,0.09523809523809523,0.7361111111111112,0.0,0.17391304347826084
iuwiki,True,99.0,1.0,0.047619047619047616,0.7222222222222222,0.0,0.0909090909090909
iuwiki,False,0.0,0.20938628158844766,1.0,0.20938628158844766,1.0,0.3462686567164179
iuwiki,False,1.0,0.20938628158844766,1.0,0.20938628158844766,1.0,0.3462686567164179
iuwiki,False,2.0,0.20938628158844766,1.0,0.20938628158844766,1.0,0.3462686567164179
iuwiki,False,3.0,0.20938628158844766,1.0,0.20938628158844766,1.0,0.3462686567164179
iuwiki,False,4.0,0.20938628158844766,1.0,0.20938628158844766,1.0,0.3462686567164179
iuwiki,False,5.0,0.20938628158844766,1.0,0.20938628158844766,1.0,0.3462686567164179
iuwiki,False,6.0,0.20938628158844766,1.0,0.20938628158844766,1.0,0.3462686567164179
iuwiki,False,7.0,0.20938628158844766,1.0,0.20938628158844766,1.0,0.3462686567164179
iuwiki,False,8.0,0.20938628158844766,1.0,0.20938628158844766,1.0,0.3462686567164179
iuwiki,False,9.0,0.21014492753623187,1.0,0.21299638989169675,0.9954337899543378,0.34730538922155685
iuwiki,False,10.0,0.21245421245421245,1.0,0.22382671480144403,0.9817351598173516,0.3504531722054381
iuwiki,False,11.0,0.21245421245421245,1.0,0.22382671480144403,0.9817351598173516,0.3504531722054381
iuwiki,False,12.0,0.21323529411764705,1.0,0.22743682310469315,0.9771689497716894,0.3515151515151515
iuwiki,False,13.0,0.21323529411764705,1.0,0.22743682310469315,0.9771689497716894,0.3515151515151515
iuwiki,False,14.0,0.2140221402214022,1.0,0.23104693140794225,0.9726027397260274,0.3525835866261398
iuwiki,False,15.0,0.2140221402214022,1.0,0.23104693140794225,0.9726027397260274,0.3525835866261398
iuwiki,False,16.0,0.2140221402214022,1.0,0.23104693140794225,0.9726027397260274,0.3525835866261398
iuwiki,False,17.0,0.2140221402214022,1.0,0.23104693140794225,0.9726027397260274,0.3525835866261398
iuwiki,False,18.0,0.21481481481481482,1.0,0.23465703971119134,0.9680365296803652,0.3536585365853659
iuwiki,False,19.0,0.21481481481481482,1.0,0.23465703971119134,0.9680365296803652,0.3536585365853659
iuwiki,False,20.0,0.21481481481481482,1.0,0.23465703971119134,0.9680365296803652,0.3536585365853659
iuwiki,False,21.0,0.21481481481481482,1.0,0.23465703971119134,0.9680365296803652,0.3536585365853659
iuwiki,False,22.0,0.21561338289962825,1.0,0.23826714801444043,0.9634703196347032,0.3547400611620795
iuwiki,False,23.0,0.21641791044776118,1.0,0.24187725631768953,0.958904109589041,0.35582822085889565
iuwiki,False,24.0,0.21722846441947566,1.0,0.24548736462093862,0.954337899543379,0.3569230769230769
iuwiki,False,25.0,0.21804511278195488,1.0,0.2490974729241877,0.9497716894977168,0.35802469135802467
iuwiki,False,26.0,0.22137404580152673,1.0,0.26353790613718414,0.9315068493150684,0.3625
iuwiki,False,27.0,0.2230769230769231,1.0,0.27075812274368233,0.9223744292237442,0.36477987421383645
iuwiki,False,28.0,0.22568093385214008,1.0,0.2815884476534296,0.908675799086758,0.3682539682539682
iuwiki,False,29.0,0.22568093385214008,1.0,0.2815884476534296,0.908675799086758,0.3682539682539682
iuwiki,False,30.0,0.22924901185770752,1.0,0.296028880866426,0.8904109589041096,0.3729903536977492
iuwiki,False,31.0,0.23015873015873015,1.0,0.2996389891696751,0.8858447488584474,0.37419354838709673
iuwiki,False,32.0,0.23481781376518218,1.0,0.3176895306859206,0.863013698630137,0.380327868852459
iuwiki,False,33.0,0.23673469387755103,1.0,0.3249097472924188,0.8538812785388128,0.38283828382838286
iuwiki,False,34.0,0.23553719008264462,0.9827586206896551,0.3285198555956679,0.8447488584474886,0.37999999999999995
iuwiki,False,35.0,0.2384937238493724,0.9827586206896551,0.33935018050541516,0.8310502283105022,0.38383838383838387
iuwiki,False,36.0,0.2425531914893617,0.9827586206896551,0.35379061371841153,0.8127853881278538,0.3890784982935154
iuwiki,False,37.0,0.2446351931330472,0.9827586206896551,0.36101083032490977,0.8036529680365296,0.3917525773195876
iuwiki,False,38.0,0.24675324675324675,0.9827586206896551,0.36823104693140796,0.7945205479452054,0.3944636678200692
iuwiki,False,39.0,0.2511013215859031,0.9827586206896551,0.38267148014440433,0.776255707762557,0.39999999999999997
iuwiki,False,40.0,0.2511013215859031,0.9827586206896551,0.38267148014440433,0.776255707762557,0.39999999999999997
iuwiki,False,41.0,0.25333333333333335,0.9827586206896551,0.3898916967509025,0.7671232876712328,0.40282685512367494
iuwiki,False,42.0,0.2544642857142857,0.9827586206896551,0.3935018050541516,0.7625570776255708,0.4042553191489362
iuwiki,False,43.0,0.25675675675675674,0.9827586206896551,0.4007220216606498,0.7534246575342466,0.4071428571428571
iuwiki,False,44.0,0.2590909090909091,0.9827586206896551,0.40794223826714804,0.7442922374429224,0.4100719424460431
iuwiki,False,45.0,0.26146788990825687,0.9827586206896551,0.4151624548736462,0.7351598173515982,0.4130434782608695
iuwiki,False,46.0,0.26635514018691586,0.9827586206896551,0.4296028880866426,0.7168949771689498,0.41911764705882354
iuwiki,False,47.0,0.26635514018691586,0.9827586206896551,0.4296028880866426,0.7168949771689498,0.41911764705882354
iuwiki,False,48.0,0.2676056338028169,0.9827586206896551,0.4332129963898917,0.7123287671232876,0.42066420664206644
iuwiki,False,49.0,0.2679425837320574,0.9655172413793104,0.4404332129963899,0.6986301369863014,0.41947565543071164
iuwiki,False,50.0,0.27722772277227725,0.9655172413793104,0.4657039711191336,0.6666666666666666,0.43076923076923085
iuwiki,False,51.0,0.2857142857142857,0.9655172413793104,0.48736462093862815,0.639269406392694,0.4409448818897638
iuwiki,False,52.0,0.28865979381443296,0.9655172413793104,0.49458483754512633,0.6301369863013698,0.4444444444444444
iuwiki,False,53.0,0.28865979381443296,0.9655172413793104,0.49458483754512633,0.6301369863013698,0.4444444444444444
iuwiki,False,54.0,0.2916666666666667,0.9655172413793104,0.5018050541516246,0.6210045662100456,0.44800000000000006
iuwiki,False,55.0,0.2994652406417112,0.9655172413793104,0.51985559566787,0.5981735159817352,0.4571428571428571
iuwiki,False,56.0,0.2994652406417112,0.9655172413793104,0.51985559566787,0.5981735159817352,0.4571428571428571
iuwiki,False,57.0,0.3027027027027027,0.9655172413793104,0.5270758122743683,0.589041095890411,0.4609053497942387
iuwiki,False,58.0,0.30939226519337015,0.9655172413793104,0.5415162454873647,0.5707762557077626,0.46861924686192463
iuwiki,False,59.0,0.3128491620111732,0.9655172413793104,0.5487364620938628,0.5616438356164384,0.47257383966244726
iuwiki,False,60.0,0.3146067415730337,0.9655172413793104,0.5523465703971119,0.5570776255707762,0.4745762711864407
iuwiki,False,61.0,0.3142857142857143,0.9482758620689655,0.555956678700361,0.547945205479452,0.47210300429184543
iuwiki,False,62.0,0.31976744186046513,0.9482758620689655,0.5667870036101083,0.5342465753424658,0.47826086956521746
iuwiki,False,63.0,0.3353658536585366,0.9482758620689655,0.5956678700361011,0.4977168949771689,0.49549549549549554
iuwiki,False,64.0,0.3416149068322981,0.9482758620689655,0.6064981949458483,0.4840182648401826,0.5022831050228309
iuwiki,False,65.0,0.34375,0.9482758620689655,0.6101083032490975,0.4794520547945205,0.5045871559633027
iuwiki,False,66.0,0.34810126582278483,0.9482758620689655,0.6173285198555957,0.4703196347031963,0.5092592592592593
iuwiki,False,67.0,0.3548387096774194,0.9482758620689655,0.628158844765343,0.45662100456621,0.5164319248826292
iuwiki,False,68.0,0.35714285714285715,0.9482758620689655,0.631768953068592,0.4520547945205479,0.5188679245283019
iuwiki,False,69.0,0.3576158940397351,0.9310344827586207,0.6353790613718412,0.4429223744292237,0.5167464114832536
iuwiki,False,70.0,0.3576158940397351,0.9310344827586207,0.6353790613718412,0.4429223744292237,0.5167464114832536
iuwiki,False,71.0,0.363013698630137,0.9137931034482759,0.6462093862815884,0.4246575342465753,0.5196078431372549
iuwiki,False,72.0,0.36551724137931035,0.9137931034482759,0.6498194945848376,0.4200913242009132,0.5221674876847291
iuwiki,False,73.0,0.39097744360902253,0.896551724137931,0.6859205776173285,0.3698630136986301,0.5445026178010471
iuwiki,False,74.0,0.3969465648854962,0.896551724137931,0.6931407942238267,0.3607305936073059,0.5502645502645502
iuwiki,False,75.0,0.3821138211382114,0.8103448275862069,0.6859205776173285,0.3470319634703196,0.5193370165745856
iuwiki,False,76.0,0.38016528925619836,0.7931034482758621,0.6859205776173285,0.3424657534246575,0.5139664804469273
iuwiki,False,77.0,0.3813559322033898,0.7758620689655172,0.6895306859205776,0.3333333333333333,0.5113636363636364
iuwiki,False,78.0,0.40540540540540543,0.7758620689655172,0.7148014440433214,0.3013698630136986,0.5325443786982249
iuwiki,False,79.0,0.4205607476635514,0.7758620689655172,0.7292418772563177,0.2831050228310502,0.5454545454545454
iuwiki,False,80.0,0.42857142857142855,0.7758620689655172,0.7364620938628159,0.273972602739726,0.5521472392638037
iuwiki,False,81.0,0.4411764705882353,0.7758620689655172,0.7472924187725631,0.2602739726027397,0.5625
iuwiki,False,82.0,0.44554455445544555,0.7758620689655172,0.7509025270758123,0.2557077625570776,0.5660377358490566
iuwiki,False,83.0,0.45,0.7758620689655172,0.7545126353790613,0.2511415525114155,0.5696202531645569
iuwiki,False,84.0,0.4639175257731959,0.7758620689655172,0.7653429602888087,0.2374429223744292,0.5806451612903226
iuwiki,False,85.0,0.4673913043478261,0.7413793103448276,0.7689530685920578,0.2237442922374429,0.5733333333333334
iuwiki,False,86.0,0.4,0.5517241379310345,0.7328519855595668,0.2191780821917808,0.463768115942029
iuwiki,False,87.0,0.38961038961038963,0.5172413793103449,0.7292418772563177,0.2146118721461187,0.4444444444444445
iuwiki,False,88.0,0.39436619718309857,0.4827586206896552,0.7364620938628159,0.1963470319634703,0.43410852713178294
iuwiki,False,89.0,0.4307692307692308,0.4827586206896552,0.7581227436823105,0.1689497716894977,0.45528455284552843
iuwiki,False,90.0,0.45161290322580644,0.4827586206896552,0.7689530685920578,0.1552511415525114,0.4666666666666667
iuwiki,False,91.0,0.44642857142857145,0.43103448275862066,0.7689530685920578,0.1415525114155251,0.43859649122807015
iuwiki,False,92.0,0.49019607843137253,0.43103448275862066,0.7870036101083032,0.1187214611872146,0.45871559633027525
iuwiki,False,93.0,0.5106382978723404,0.41379310344827586,0.7942238267148014,0.1050228310502283,0.4571428571428571
iuwiki,False,94.0,0.5609756097560976,0.39655172413793105,0.8086642599277978,0.0821917808219178,0.4646464646464647
iuwiki,False,95.0,0.5526315789473685,0.3620689655172414,0.8050541516245487,0.0776255707762557,0.4375
iuwiki,False,96.0,0.5172413793103449,0.25862068965517243,0.7942238267148014,0.0639269406392694,0.3448275862068966
iuwiki,False,97.0,0.6111111111111112,0.1896551724137931,0.8050541516245487,0.0319634703196347,0.28947368421052627
iuwiki,False,98.0,0.7272727272727273,0.13793103448275862,0.8086642599277978,0.0136986301369863,0.23188405797101447
iuwiki,False,99.0,0.6666666666666666,0.06896551724137931,0.7978339350180506,0.0091324200913242,0.125
