wiki_db,user_is_anonymous_or_bot,threshold,precision,recall,accuracy,fpr,F1
jvwiki,True,0.0,0.22799097065462753,1.0,0.22799097065462753,1.0,0.3713235294117647
jvwiki,True,1.0,0.22799097065462753,1.0,0.22799097065462753,1.0,0.3713235294117647
jvwiki,True,2.0,0.22799097065462753,1.0,0.22799097065462753,1.0,0.3713235294117647
jvwiki,True,3.0,0.22799097065462753,1.0,0.22799097065462753,1.0,0.3713235294117647
jvwiki,True,4.0,0.22799097065462753,1.0,0.22799097065462753,1.0,0.3713235294117647
jvwiki,True,5.0,0.2287655719139298,1.0,0.23137697516930023,0.9956140350877193,0.3723502304147465
jvwiki,True,6.0,0.2311212814645309,1.0,0.24153498871331827,0.9824561403508771,0.3754646840148699
jvwiki,True,7.0,0.23325635103926096,1.0,0.2505643340857788,0.9707602339181286,0.3782771535580524
jvwiki,True,8.0,0.2346109175377468,1.0,0.2562076749435666,0.9634502923976608,0.3800564440263405
jvwiki,True,9.0,0.23570595099183198,1.0,0.26072234762979685,0.9576023391812866,0.3814919735599622
jvwiki,True,10.0,0.23570595099183198,1.0,0.26072234762979685,0.9576023391812866,0.3814919735599622
jvwiki,True,11.0,0.23681125439624853,1.0,0.2652370203160271,0.9517543859649122,0.3829383886255924
jvwiki,True,12.0,0.23708920187793428,1.0,0.26636568848758463,0.9502923976608187,0.38330170777988615
jvwiki,True,13.0,0.2376470588235294,1.0,0.2686230248306998,0.9473684210526315,0.3840304182509506
jvwiki,True,14.0,0.23820754716981132,1.0,0.2708803611738149,0.9444444444444444,0.38476190476190475
jvwiki,True,15.0,0.2384887839433294,1.0,0.27200902934537247,0.9429824561403509,0.3851286939942803
jvwiki,True,16.0,0.23905325443786982,1.0,0.2742663656884876,0.9400584795321637,0.3858643744030563
jvwiki,True,17.0,0.23990498812351543,1.0,0.27765237020316025,0.935672514619883,0.3869731800766284
jvwiki,True,18.0,0.24019024970273484,1.0,0.27878103837471785,0.9342105263157895,0.38734419942473636
jvwiki,True,19.0,0.24133811230585425,1.0,0.2832957110609481,0.9283625730994152,0.3888354186717998
jvwiki,True,20.0,0.24043062200956938,0.995049504950495,0.28216704288939054,0.9283625730994152,0.3872832369942197
jvwiki,True,21.0,0.2407185628742515,0.995049504950495,0.2832957110609481,0.9269005847953217,0.38765670202507235
jvwiki,True,22.0,0.24129651860744297,0.995049504950495,0.28555304740406323,0.9239766081871345,0.3884057971014493
jvwiki,True,23.0,0.24246079613992763,0.995049504950495,0.29006772009029347,0.9181286549707602,0.38991270611057227
jvwiki,True,24.0,0.2430471584038694,0.995049504950495,0.29232505643340856,0.9152046783625731,0.39067055393586003
jvwiki,True,25.0,0.2430471584038694,0.995049504950495,0.29232505643340856,0.9152046783625731,0.39067055393586003
jvwiki,True,26.0,0.24363636363636362,0.995049504950495,0.2945823927765237,0.9122807017543859,0.39143135345666985
jvwiki,True,27.0,0.24393203883495146,0.995049504950495,0.29571106094808125,0.9108187134502924,0.391812865497076
jvwiki,True,28.0,0.2451219512195122,0.995049504950495,0.3002257336343115,0.9049707602339181,0.3933463796477495
jvwiki,True,29.0,0.24572127139364303,0.995049504950495,0.30248306997742663,0.902046783625731,0.3941176470588235
jvwiki,True,30.0,0.24692874692874692,0.995049504950495,0.30699774266365687,0.8961988304093568,0.39566929133858264
jvwiki,True,31.0,0.24753694581280788,0.995049504950495,0.309255079006772,0.8932748538011696,0.39644970414201186
jvwiki,True,32.0,0.24784217016029594,0.995049504950495,0.31038374717832956,0.8918128654970761,0.39684106614017767
jvwiki,True,33.0,0.24876237623762376,0.995049504950495,0.31376975169300225,0.8874269005847953,0.398019801980198
jvwiki,True,34.0,0.2506234413965087,0.995049504950495,0.32054176072234764,0.8786549707602339,0.40039840637450197
jvwiki,True,35.0,0.25156445556946183,0.995049504950495,0.3239277652370203,0.8742690058479532,0.4015984015984016
jvwiki,True,36.0,0.2531486146095718,0.995049504950495,0.3295711060948081,0.8669590643274854,0.4036144578313252
jvwiki,True,37.0,0.25443037974683547,0.995049504950495,0.3340857787810384,0.8611111111111112,0.405241935483871
jvwiki,True,38.0,0.25475285171102663,0.995049504950495,0.33521444695259595,0.8596491228070176,0.40565085771947523
jvwiki,True,39.0,0.2567049808429119,0.995049504950495,0.34198645598194133,0.8508771929824561,0.40812182741116754
jvwiki,True,40.0,0.25802310654685495,0.995049504950495,0.34650112866817157,0.8450292397660819,0.4097859327217125
jvwiki,True,41.0,0.25806451612903225,0.9900990099009901,0.34875846501128666,0.8406432748538012,0.4094165813715455
jvwiki,True,42.0,0.25906735751295334,0.9900990099009901,0.35214446952595935,0.8362573099415205,0.4106776180698151
jvwiki,True,43.0,0.2604166666666667,0.9900990099009901,0.35665914221218964,0.8304093567251462,0.4123711340206186
jvwiki,True,44.0,0.2607561929595828,0.9900990099009901,0.3577878103837472,0.8289473684210527,0.412796697626419
jvwiki,True,45.0,0.2631578947368421,0.9900990099009901,0.3656884875846501,0.8187134502923976,0.41580041580041577
jvwiki,True,46.0,0.26595744680851063,0.9900990099009901,0.3747178329571106,0.8070175438596491,0.41928721174004197
jvwiki,True,47.0,0.26737967914438504,0.9900990099009901,0.3792325056433409,0.8011695906432749,0.42105263157894746
jvwiki,True,48.0,0.2699055330634278,0.9900990099009901,0.3871331828442438,0.7909356725146199,0.4241781548250266
jvwiki,True,49.0,0.27137042062415195,0.9900990099009901,0.39164785553047404,0.7850877192982456,0.4259850905218317
jvwiki,True,50.0,0.2726027397260274,0.9851485148514851,0.3972911963882618,0.7763157894736842,0.4270386266094421
jvwiki,True,51.0,0.2727272727272727,0.9801980198019802,0.39954853273137697,0.7719298245614035,0.4267241379310344
jvwiki,True,52.0,0.2753824756606398,0.9801980198019802,0.4074492099322799,0.7616959064327485,0.4299674267100977
jvwiki,True,53.0,0.27475592747559274,0.9752475247524752,0.4074492099322799,0.7602339181286549,0.42872687704026113
jvwiki,True,54.0,0.27864214992927866,0.9752475247524752,0.4187358916478555,0.7456140350877193,0.4334433443344335
jvwiki,True,55.0,0.2802275960170697,0.9752475247524752,0.42325056433408575,0.7397660818713451,0.4353591160220994
jvwiki,True,56.0,0.28183118741058655,0.9752475247524752,0.42776523702031605,0.7339181286549707,0.4372918978912319
jvwiki,True,57.0,0.28304597701149425,0.9752475247524752,0.43115124153498874,0.72953216374269,0.4387527839643652
jvwiki,True,58.0,0.2846820809248555,0.9752475247524752,0.435665914221219,0.7236842105263158,0.4407158836689038
jvwiki,True,59.0,0.28509406657018815,0.9752475247524752,0.4367945823927765,0.7222222222222222,0.44120940649496077
jvwiki,True,60.0,0.2867540029112082,0.9752475247524752,0.44130925507900676,0.716374269005848,0.4431946006749157
jvwiki,True,61.0,0.2884333821376281,0.9752475247524752,0.445823927765237,0.7105263157894737,0.44519774011299434
jvwiki,True,62.0,0.29056047197640117,0.9752475247524752,0.45146726862302483,0.7032163742690059,0.4477272727272727
jvwiki,True,63.0,0.293591654247392,0.9752475247524752,0.45936794582392776,0.6929824561403509,0.4513172966781214
jvwiki,True,64.0,0.2944693572496263,0.9752475247524752,0.4616252821670429,0.6900584795321637,0.45235361653272105
jvwiki,True,65.0,0.29473684210526313,0.9702970297029703,0.463882618510158,0.685672514619883,0.4521337946943483
jvwiki,True,66.0,0.29652042360060515,0.9702970297029703,0.4683972911963883,0.6798245614035088,0.45422943221320977
jvwiki,True,67.0,0.3001531393568147,0.9702970297029703,0.47742663656884876,0.6681286549707602,0.4584795321637427
jvwiki,True,68.0,0.300462249614792,0.9653465346534653,0.4796839729119639,0.6637426900584795,0.45828437132784966
jvwiki,True,69.0,0.30139103554868624,0.9653465346534653,0.481941309255079,0.6608187134502924,0.45936395759717313
jvwiki,True,70.0,0.30326594090202175,0.9653465346534653,0.48645598194130923,0.6549707602339181,0.4615384615384615
jvwiki,True,71.0,0.305993690851735,0.9603960396039604,0.49435665914221216,0.6432748538011696,0.46411483253588515
jvwiki,True,72.0,0.3083067092651757,0.9554455445544554,0.5011286681715575,0.6330409356725146,0.46618357487922707
jvwiki,True,73.0,0.3070739549839228,0.9455445544554455,0.5011286681715575,0.6301169590643275,0.46359223300970875
jvwiki,True,74.0,0.3104575163398693,0.9405940594059405,0.510158013544018,0.6169590643274854,0.4668304668304668
jvwiki,True,75.0,0.3144758735440932,0.9356435643564357,0.5203160270880361,0.6023391812865497,0.4707347447073475
jvwiki,True,76.0,0.3202725724020443,0.9306930693069307,0.5338600451467269,0.5833333333333334,0.47655259822560203
jvwiki,True,77.0,0.3246527777777778,0.9257425742574258,0.5440180586907449,0.5687134502923976,0.48071979434447304
jvwiki,True,78.0,0.3291814946619217,0.9158415841584159,0.5553047404063205,0.5511695906432749,0.48429319371727747
jvwiki,True,79.0,0.3290676416819013,0.8910891089108911,0.5609480812641083,0.5365497076023392,0.4806408544726302
jvwiki,True,80.0,0.3370998116760829,0.8861386138613861,0.5767494356659142,0.5146198830409356,0.4884038199181446
jvwiki,True,81.0,0.3411764705882353,0.8613861386138614,0.5891647855530474,0.49122807017543857,0.48876404494382025
jvwiki,True,82.0,0.34959349593495936,0.8514851485148515,0.6049661399548533,0.4678362573099415,0.4956772334293949
jvwiki,True,83.0,0.3618843683083512,0.8366336633663366,0.626410835214447,0.43567251461988304,0.5052316890881914
jvwiki,True,84.0,0.3761261261261261,0.8267326732673267,0.6478555304740407,0.40497076023391815,0.5170278637770898
jvwiki,True,85.0,0.3794749403341289,0.7871287128712872,0.6580135440180587,0.38011695906432746,0.5120772946859904
jvwiki,True,86.0,0.3848101265822785,0.7524752475247525,0.6693002257336343,0.35526315789473684,0.509212730318258
jvwiki,True,87.0,0.3972602739726027,0.7178217821782178,0.6873589164785553,0.3216374269005848,0.511463844797178
jvwiki,True,88.0,0.3952802359882006,0.6633663366336634,0.6918735891647856,0.2997076023391813,0.4953789279112754
jvwiki,True,89.0,0.41830065359477125,0.6336633663366337,0.7155756207674944,0.260233918128655,0.5039370078740157
jvwiki,True,90.0,0.4352517985611511,0.599009900990099,0.7313769751693002,0.22953216374269006,0.5041666666666667
jvwiki,True,91.0,0.45569620253164556,0.5346534653465347,0.7483069977426636,0.18859649122807018,0.4920273348519362
jvwiki,True,92.0,0.489247311827957,0.4504950495049505,0.7674943566591422,0.1388888888888889,0.4690721649484536
jvwiki,True,93.0,0.5073529411764706,0.3415841584158416,0.7742663656884876,0.097953216374269,0.40828402366863903
jvwiki,True,94.0,0.5684210526315789,0.26732673267326734,0.7866817155756207,0.059941520467836254,0.36363636363636365
jvwiki,True,95.0,0.5671641791044776,0.18811881188118812,0.7821670428893905,0.04239766081871345,0.28252788104089216
jvwiki,True,96.0,0.6382978723404256,0.1485148514851485,0.7866817155756207,0.024853801169590642,0.24096385542168675
jvwiki,True,97.0,0.65625,0.10396039603960396,0.7832957110609481,0.01608187134502924,0.17948717948717946
jvwiki,True,98.0,0.75,0.07425742574257425,0.7832957110609481,0.007309941520467836,0.13513513513513511
jvwiki,True,99.0,1.0,0.04455445544554455,0.7821670428893905,0.0,0.08530805687203791
jvwiki,False,0.0,0.03884106655469242,1.0,0.03884106655469242,1.0,0.07477768795472918
jvwiki,False,1.0,0.03884106655469242,1.0,0.03884106655469242,1.0,0.07477768795472918
jvwiki,False,2.0,0.03884514435695538,1.0,0.03894604241024564,0.9998907820008738,0.07478524507326934
jvwiki,False,3.0,0.03905425374709732,1.0,0.04429981104346,0.9943206640454347,0.07517269402681837
jvwiki,False,4.0,0.03928685811892815,0.9945945945945946,0.05511232416544195,0.9828527741371778,0.07558796343843073
jvwiki,False,5.0,0.03984799131378936,0.9918918918918919,0.07138358177619147,0.9658147662734818,0.07661795407098121
jvwiki,False,6.0,0.040741563055062165,0.9918918918918919,0.09258870459794247,0.9437527304499782,0.0782682874813393
jvwiki,False,7.0,0.04177128509472723,0.9891891891891892,0.11820281335292883,0.9169943206640454,0.08015768725361366
jvwiki,False,8.0,0.042780121894045946,0.9864864864864865,0.1421373084190636,0.8919833988641328,0.08200404403504831
jvwiki,False,9.0,0.04391362046085173,0.9837837837837838,0.1674364896073903,0.8655526430755789,0.08407437348423605
jvwiki,False,10.0,0.044934030370923576,0.9756756756756757,0.19357547764014277,0.8380297072957623,0.08591147072822465
jvwiki,False,11.0,0.04561090584787871,0.9675675675675676,0.21236615578416965,0.8181520314547838,0.08711522082978464
jvwiki,False,12.0,0.04649947753396029,0.9621621621621622,0.23220659248372874,0.7972913936216689,0.0887116870171941
jvwiki,False,13.0,0.047549085080806734,0.9621621621621622,0.24994751207222338,0.7788335517693316,0.09061982945144458
jvwiki,False,14.0,0.04832764505119454,0.9567567567567568,0.2665336972496326,0.7613586719091306,0.09200779727095516
jvwiki,False,15.0,0.0493517356754496,0.9567567567567568,0.28249002729372247,0.7447575360419397,0.09386185867691899
jvwiki,False,16.0,0.0501562944018187,0.9540540540540541,0.2964518160823011,0.7301223241590215,0.0953023758099352
jvwiki,False,17.0,0.05107799160758211,0.9540540540540541,0.30978374973756034,0.716251638269987,0.09696470265073479
jvwiki,False,18.0,0.05173176123802505,0.9486486486486486,0.32259080411505353,0.7027086063783311,0.09811320754716979
jvwiki,False,19.0,0.0527190332326284,0.9432432432432433,0.3394919168591224,0.6849060725207514,0.09985693848354793
jvwiki,False,20.0,0.05391547545059043,0.9378378378378378,0.3583875708587025,0.6650283966797729,0.10196885101381135
jvwiki,False,21.0,0.05573401863154513,0.9378378378378378,0.38043250052487926,0.642092616863259,0.1052152819890843
jvwiki,False,22.0,0.05757071547420965,0.9351351351351351,0.40289733361326896,0.6186107470511141,0.1084639498432602
jvwiki,False,23.0,0.059097174362508616,0.927027027027027,0.4238925047239135,0.5964394932284841,0.1111111111111111
jvwiki,False,24.0,0.06166846458108594,0.927027027027027,0.4492966617677934,0.5700087374399301,0.11564396493594066
jvwiki,False,25.0,0.06402553511077731,0.9216216216216216,0.47365106025614107,0.5444517256443862,0.11973314606741571
jvwiki,False,26.0,0.06669289789494393,0.9162162162162162,0.4987402897333613,0.5181301878549585,0.12433522831468916
jvwiki,False,27.0,0.0692481048965376,0.9135135135135135,0.5197354608440059,0.49617737003058104,0.12873738335555132
jvwiki,False,28.0,0.07228400342172797,0.9135135135135135,0.5412555112324166,0.4737876802096986,0.13396749900911614
jvwiki,False,29.0,0.07535321821036106,0.9081081081081082,0.563615368465253,0.4503058103975535,0.13915924622074963
jvwiki,False,30.0,0.07912816868040749,0.9027027027027027,0.5881797186647071,0.4245303626037571,0.14550206926595513
jvwiki,False,31.0,0.0819753086419753,0.8972972972972973,0.6057106865420954,0.4060725207514198,0.1502262443438914
jvwiki,False,32.0,0.08465473145780052,0.8945945945945946,0.62019735460844,0.39089121887287026,0.15467289719626168
jvwiki,False,33.0,0.08708311275807305,0.8891891891891892,0.6336342641192526,0.376692878986457,0.15863066538090648
jvwiki,False,34.0,0.08949522510231923,0.8864864864864865,0.6452865840856603,0.3644604630843163,0.16257744733581167
jvwiki,False,35.0,0.09271335412531896,0.8837837837837837,0.6595633004408986,0.34949759720401924,0.1678214010777521
jvwiki,False,36.0,0.09534951740274934,0.8810810810810811,0.6706907411295402,0.3378112712975098,0.17207706518870416
jvwiki,False,37.0,0.09845501363223266,0.8783783783783784,0.682867940373714,0.32503276539973786,0.1770634704440207
jvwiki,False,38.0,0.1034702324100605,0.8783783783783784,0.6996640772622297,0.3075578855395369,0.18513244090002848
jvwiki,False,39.0,0.10696599537801255,0.8756756756756757,0.7112114213730842,0.2954346876365225,0.19064430714916153
jvwiki,False,40.0,0.11126373626373626,0.8756756756756757,0.7234935964728113,0.28265618173875057,0.19744058500914077
jvwiki,False,41.0,0.11537083482622716,0.8702702702702703,0.7357757715725383,0.2696592398427261,0.20373299588737742
jvwiki,False,42.0,0.11899482631189948,0.8702702702702703,0.7446987192945622,0.2603757099169943,0.2093628088426528
jvwiki,False,43.0,0.1217292377701934,0.8675675675675676,0.7517321016166282,0.2529488859764089,0.2135018290655138
jvwiki,False,44.0,0.125195007800312,0.8675675675675676,0.7593953390720134,0.24497597204019222,0.21881390593047031
jvwiki,False,45.0,0.12907117008443908,0.8675675675675676,0.7674784799496116,0.23656618610747052,0.22471123556177808
jvwiki,False,46.0,0.1317193270414444,0.8675675675675676,0.7727272727272727,0.23110528615115772,0.22871392946205915
jvwiki,False,47.0,0.13487394957983193,0.8675675675675676,0.7787108964938064,0.22487986020096112,0.23345454545454544
jvwiki,False,48.0,0.13800515907136715,0.8675675675675676,0.7843795926936804,0.2189820882481433,0.2381305637982196
jvwiki,False,49.0,0.14078310602727673,0.8648648648648649,0.7897333613268949,0.21330275229357798,0.24214907302307986
jvwiki,False,50.0,0.14234234234234233,0.8540540540540541,0.7944572748267898,0.20795107033639143,0.244015444015444
jvwiki,False,51.0,0.14503464203233257,0.8486486486486486,0.7998110434600042,0.20216251638269986,0.24773175542406314
jvwiki,False,52.0,0.14853358561967833,0.8486486486486486,0.8051648120932186,0.1965923984272608,0.2528180354267311
jvwiki,False,53.0,0.15194174757281553,0.845945945945946,0.8106235565819861,0.19080384447356924,0.25761316872427986
jvwiki,False,54.0,0.15495764823119082,0.8405405405405405,0.815767373504094,0.1852337265181302,0.26167437946992
jvwiki,False,55.0,0.15762797769893563,0.8405405405405405,0.8193365525929036,0.18152031454783749,0.2654716175842936
jvwiki,False,56.0,0.16047471620227038,0.8405405405405405,0.8230107075372665,0.17769768457841853,0.2694974003466205
jvwiki,False,57.0,0.16316894018887723,0.8405405405405405,0.8263699349149696,0.17420270860637832,0.27328646748681895
jvwiki,False,58.0,0.16648764769065522,0.8378378378378378,0.8307789208482049,0.16950633464394932,0.27777777777777773
jvwiki,False,59.0,0.1709873138444567,0.8378378378378378,0.8359227377703128,0.16415465268676277,0.28401282638570774
jvwiki,False,60.0,0.1738391845979615,0.8297297297297297,0.840226747847995,0.15934906072520752,0.28745318352059923
jvwiki,False,61.0,0.17780360255665312,0.827027027027027,0.8447407096367835,0.15454346876365224,0.2926829268292683
jvwiki,False,62.0,0.18225134008338298,0.827027027027027,0.8491496955700188,0.1499563128003495,0.29868228404099567
jvwiki,False,63.0,0.18658536585365854,0.827027027027027,0.8532437539365946,0.1456968108344255,0.30447761194029854
jvwiki,False,64.0,0.18991282689912828,0.8243243243243243,0.8566029813142977,0.14209261686325905,0.30870445344129555
jvwiki,False,65.0,0.19363057324840766,0.8216216216216217,0.8601721604031073,0.1382699868938401,0.3134020618556701
jvwiki,False,66.0,0.19700910273081926,0.8189189189189189,0.863321436069704,0.13488422892092616,0.3176100628930818
jvwiki,False,67.0,0.2,0.8135135135135135,0.8663657358807474,0.13149847094801223,0.32106666666666667
jvwiki,False,68.0,0.2033898305084746,0.8108108108108109,0.8693050598362376,0.1283311489733508,0.3252032520325203
jvwiki,False,69.0,0.20792767732962447,0.8081081081081081,0.8729792147806005,0.12439930100480559,0.33075221238938046
jvwiki,False,70.0,0.2096317280453258,0.8,0.875078731891665,0.1218872870249017,0.3322109988776656
jvwiki,False,71.0,0.21402483564645727,0.7918918918918919,0.8789628385471342,0.11751856705985146,0.336975273145486
jvwiki,False,72.0,0.21739130434782608,0.7837837837837838,0.8820071383581776,0.11402359108781127,0.34037558685446007
jvwiki,False,73.0,0.22041763341067286,0.7702702702702703,0.8852613898803275,0.11009174311926606,0.3427540589296452
jvwiki,False,74.0,0.22523961661341854,0.7621621621621621,0.8889355448246903,0.10594145915246833,0.34771886559802717
jvwiki,False,75.0,0.2330259849119866,0.7513513513513513,0.8942893134579046,0.09993446920052425,0.3557261676263596
jvwiki,False,76.0,0.23846823324630112,0.7405405405405405,0.8980684442578207,0.095565749235474,0.3607636603028308
jvwiki,False,77.0,0.2429481346678799,0.7216216216216216,0.9018475750577367,0.09086937527304499,0.3635125936010892
jvwiki,False,78.0,0.24880838894184937,0.7054054054054054,0.9058366575687592,0.08606378331148973,0.36786469344608874
jvwiki,False,79.0,0.2524850894632207,0.6864864864864865,0.9088809573798027,0.08213193534294452,0.3691860465116279
jvwiki,False,80.0,0.26173096976016685,0.6783783783783783,0.9131849674574848,0.07732634338138926,0.37772761474793076
jvwiki,False,81.0,0.27078651685393257,0.6513513513513514,0.9183287843795926,0.07088248143294015,0.38253968253968257
jvwiki,False,82.0,0.28180737217598095,0.6405405405405405,0.9226327944572749,0.06596767147225863,0.3914120561519405
jvwiki,False,83.0,0.2968152866242038,0.6297297297297297,0.9276716355238295,0.06028833551769332,0.40346320346320347
jvwiki,False,84.0,0.31448275862068964,0.6162162162162163,0.9329204283014907,0.054281345565749234,0.4164383561643835
jvwiki,False,85.0,0.32585949177877427,0.5891891891891892,0.9366995591014067,0.04925731760594146,0.4196342637151107
jvwiki,False,86.0,0.3392568659127625,0.5675675675675675,0.9402687381902163,0.044670161642638706,0.4246713852376137
jvwiki,False,87.0,0.35335689045936397,0.5405405405405406,0.9437329414234726,0.0399737876802097,0.42735042735042733
jvwiki,False,88.0,0.357421875,0.4945945945945946,0.945832458534537,0.035932721712538224,0.4149659863945578
jvwiki,False,89.0,0.38392857142857145,0.4648648648648649,0.9502414444677724,0.03014416775884666,0.42053789731051344
jvwiki,False,90.0,0.41102756892230574,0.44324324324324327,0.9537056477010287,0.025666229794670162,0.4265279583875163
jvwiki,False,91.0,0.44345238095238093,0.4027027027027027,0.9571698509342851,0.02042376583660987,0.42209631728045327
jvwiki,False,92.0,0.4867924528301887,0.34864864864864864,0.9604241024564351,0.014853647881170816,0.4062992125984252
jvwiki,False,93.0,0.4897959183673469,0.2594594594594595,0.9607390300230947,0.010921799912625601,0.33922261484098937
jvwiki,False,94.0,0.5342465753424658,0.21081081081081082,0.9622086920008398,0.007426823940585408,0.3023255813953489
jvwiki,False,95.0,0.5462962962962963,0.15945945945945947,0.9622086920008398,0.005351681957186544,0.24686192468619247
jvwiki,False,96.0,0.6329113924050633,0.13513513513513514,0.9633634264119253,0.0031673219746614243,0.22271714922049
jvwiki,False,97.0,0.673469387755102,0.0891891891891892,0.9629435229897124,0.0017474879860200961,0.15751789976133654
jvwiki,False,98.0,0.71875,0.062162162162162166,0.9626285954230527,0.000982961992136304,0.11442786069651742
jvwiki,False,99.0,1.0,0.03513513513513514,0.9625236195674994,0.0,0.06788511749347258
