wiki_db,user_is_anonymous_or_bot,threshold,precision,recall,accuracy,fpr,F1
kbdwiki,True,0.0,0.3333333333333333,1.0,0.3333333333333333,1.0,0.5
kbdwiki,True,1.0,0.3333333333333333,1.0,0.3333333333333333,1.0,0.5
kbdwiki,True,2.0,0.3333333333333333,1.0,0.3333333333333333,1.0,0.5
kbdwiki,True,3.0,0.3333333333333333,1.0,0.3333333333333333,1.0,0.5
kbdwiki,True,4.0,0.3333333333333333,1.0,0.3333333333333333,1.0,0.5
kbdwiki,True,5.0,0.3333333333333333,1.0,0.3333333333333333,1.0,0.5
kbdwiki,True,6.0,0.3333333333333333,1.0,0.3333333333333333,1.0,0.5
kbdwiki,True,7.0,0.3333333333333333,1.0,0.3333333333333333,1.0,0.5
kbdwiki,True,8.0,0.3333333333333333,1.0,0.3333333333333333,1.0,0.5
kbdwiki,True,9.0,0.3333333333333333,1.0,0.3333333333333333,1.0,0.5
kbdwiki,True,10.0,0.3333333333333333,1.0,0.3333333333333333,1.0,0.5
kbdwiki,True,11.0,0.3333333333333333,1.0,0.3333333333333333,1.0,0.5
kbdwiki,True,12.0,0.3333333333333333,1.0,0.3333333333333333,1.0,0.5
kbdwiki,True,13.0,0.3333333333333333,1.0,0.3333333333333333,1.0,0.5
kbdwiki,True,14.0,0.3333333333333333,1.0,0.3333333333333333,1.0,0.5
kbdwiki,True,15.0,0.3333333333333333,1.0,0.3333333333333333,1.0,0.5
kbdwiki,True,16.0,0.3333333333333333,1.0,0.3333333333333333,1.0,0.5
kbdwiki,True,17.0,0.3333333333333333,1.0,0.3333333333333333,1.0,0.5
kbdwiki,True,18.0,0.3333333333333333,1.0,0.3333333333333333,1.0,0.5
kbdwiki,True,19.0,0.3333333333333333,1.0,0.3333333333333333,1.0,0.5
kbdwiki,True,20.0,0.3333333333333333,1.0,0.3333333333333333,1.0,0.5
kbdwiki,True,21.0,0.3333333333333333,1.0,0.3333333333333333,1.0,0.5
kbdwiki,True,22.0,0.3333333333333333,1.0,0.3333333333333333,1.0,0.5
kbdwiki,True,23.0,0.3333333333333333,1.0,0.3333333333333333,1.0,0.5
kbdwiki,True,24.0,0.3333333333333333,1.0,0.3333333333333333,1.0,0.5
kbdwiki,True,25.0,0.3333333333333333,1.0,0.3333333333333333,1.0,0.5
kbdwiki,True,26.0,0.3333333333333333,1.0,0.3333333333333333,1.0,0.5
kbdwiki,True,27.0,0.3333333333333333,1.0,0.3333333333333333,1.0,0.5
kbdwiki,True,28.0,0.3333333333333333,1.0,0.3333333333333333,1.0,0.5
kbdwiki,True,29.0,0.3333333333333333,1.0,0.3333333333333333,1.0,0.5
kbdwiki,True,30.0,0.3333333333333333,1.0,0.3333333333333333,1.0,0.5
kbdwiki,True,31.0,0.3333333333333333,1.0,0.3333333333333333,1.0,0.5
kbdwiki,True,32.0,0.3333333333333333,1.0,0.3333333333333333,1.0,0.5
kbdwiki,True,33.0,0.3333333333333333,1.0,0.3333333333333333,1.0,0.5
kbdwiki,True,34.0,0.3333333333333333,1.0,0.3333333333333333,1.0,0.5
kbdwiki,True,35.0,0.3333333333333333,1.0,0.3333333333333333,1.0,0.5
kbdwiki,True,36.0,0.3333333333333333,1.0,0.3333333333333333,1.0,0.5
kbdwiki,True,37.0,0.3333333333333333,1.0,0.3333333333333333,1.0,0.5
kbdwiki,True,38.0,0.3333333333333333,1.0,0.3333333333333333,1.0,0.5
kbdwiki,True,39.0,0.3333333333333333,1.0,0.3333333333333333,1.0,0.5
kbdwiki,True,40.0,0.3333333333333333,1.0,0.3333333333333333,1.0,0.5
kbdwiki,True,41.0,0.3333333333333333,1.0,0.3333333333333333,1.0,0.5
kbdwiki,True,42.0,0.3333333333333333,1.0,0.3333333333333333,1.0,0.5
kbdwiki,True,43.0,0.3333333333333333,1.0,0.3333333333333333,1.0,0.5
kbdwiki,True,44.0,0.3333333333333333,1.0,0.3333333333333333,1.0,0.5
kbdwiki,True,45.0,0.3333333333333333,1.0,0.3333333333333333,1.0,0.5
kbdwiki,True,46.0,0.3333333333333333,1.0,0.3333333333333333,1.0,0.5
kbdwiki,True,47.0,0.3333333333333333,1.0,0.3333333333333333,1.0,0.5
kbdwiki,True,48.0,0.375,1.0,0.4444444444444444,0.8333333333333334,0.5454545454545454
kbdwiki,True,49.0,0.375,1.0,0.4444444444444444,0.8333333333333334,0.5454545454545454
kbdwiki,True,50.0,0.375,1.0,0.4444444444444444,0.8333333333333334,0.5454545454545454
kbdwiki,True,51.0,0.375,1.0,0.4444444444444444,0.8333333333333334,0.5454545454545454
kbdwiki,True,52.0,0.375,1.0,0.4444444444444444,0.8333333333333334,0.5454545454545454
kbdwiki,True,53.0,0.375,1.0,0.4444444444444444,0.8333333333333334,0.5454545454545454
kbdwiki,True,54.0,0.375,1.0,0.4444444444444444,0.8333333333333334,0.5454545454545454
kbdwiki,True,55.0,0.375,1.0,0.4444444444444444,0.8333333333333334,0.5454545454545454
kbdwiki,True,56.0,0.375,1.0,0.4444444444444444,0.8333333333333334,0.5454545454545454
kbdwiki,True,57.0,0.375,1.0,0.4444444444444444,0.8333333333333334,0.5454545454545454
kbdwiki,True,58.0,0.375,1.0,0.4444444444444444,0.8333333333333334,0.5454545454545454
kbdwiki,True,59.0,0.375,1.0,0.4444444444444444,0.8333333333333334,0.5454545454545454
kbdwiki,True,60.0,0.375,1.0,0.4444444444444444,0.8333333333333334,0.5454545454545454
kbdwiki,True,61.0,0.375,1.0,0.4444444444444444,0.8333333333333334,0.5454545454545454
kbdwiki,True,62.0,0.375,1.0,0.4444444444444444,0.8333333333333334,0.5454545454545454
kbdwiki,True,63.0,0.375,1.0,0.4444444444444444,0.8333333333333334,0.5454545454545454
kbdwiki,True,64.0,0.375,1.0,0.4444444444444444,0.8333333333333334,0.5454545454545454
kbdwiki,True,65.0,0.375,1.0,0.4444444444444444,0.8333333333333334,0.5454545454545454
kbdwiki,True,66.0,0.375,1.0,0.4444444444444444,0.8333333333333334,0.5454545454545454
kbdwiki,True,67.0,0.375,1.0,0.4444444444444444,0.8333333333333334,0.5454545454545454
kbdwiki,True,68.0,0.375,1.0,0.4444444444444444,0.8333333333333334,0.5454545454545454
kbdwiki,True,69.0,0.375,1.0,0.4444444444444444,0.8333333333333334,0.5454545454545454
kbdwiki,True,70.0,0.375,1.0,0.4444444444444444,0.8333333333333334,0.5454545454545454
kbdwiki,True,71.0,0.375,1.0,0.4444444444444444,0.8333333333333334,0.5454545454545454
kbdwiki,True,72.0,0.375,1.0,0.4444444444444444,0.8333333333333334,0.5454545454545454
kbdwiki,True,73.0,0.375,1.0,0.4444444444444444,0.8333333333333334,0.5454545454545454
kbdwiki,True,74.0,0.375,1.0,0.4444444444444444,0.8333333333333334,0.5454545454545454
kbdwiki,True,75.0,0.375,1.0,0.4444444444444444,0.8333333333333334,0.5454545454545454
kbdwiki,True,76.0,0.375,1.0,0.4444444444444444,0.8333333333333334,0.5454545454545454
kbdwiki,True,77.0,0.375,1.0,0.4444444444444444,0.8333333333333334,0.5454545454545454
kbdwiki,True,78.0,0.375,1.0,0.4444444444444444,0.8333333333333334,0.5454545454545454
kbdwiki,True,79.0,0.375,1.0,0.4444444444444444,0.8333333333333334,0.5454545454545454
kbdwiki,True,80.0,0.375,1.0,0.4444444444444444,0.8333333333333334,0.5454545454545454
kbdwiki,True,81.0,0.375,1.0,0.4444444444444444,0.8333333333333334,0.5454545454545454
kbdwiki,True,82.0,0.42857142857142855,1.0,0.5555555555555556,0.6666666666666666,0.6
kbdwiki,True,83.0,0.42857142857142855,1.0,0.5555555555555556,0.6666666666666666,0.6
kbdwiki,True,84.0,0.42857142857142855,1.0,0.5555555555555556,0.6666666666666666,0.6
kbdwiki,True,85.0,0.42857142857142855,1.0,0.5555555555555556,0.6666666666666666,0.6
kbdwiki,True,86.0,0.5,1.0,0.6666666666666666,0.5,0.6666666666666666
kbdwiki,True,87.0,0.6,1.0,0.7777777777777778,0.3333333333333333,0.7499999999999999
kbdwiki,True,88.0,0.5,0.6666666666666666,0.6666666666666666,0.3333333333333333,0.5714285714285715
kbdwiki,True,89.0,0.0,0.0,0.4444444444444444,0.3333333333333333,0.5714285714285715
kbdwiki,True,90.0,0.0,0.0,0.4444444444444444,0.3333333333333333,0.5714285714285715
kbdwiki,True,91.0,0.0,0.0,0.4444444444444444,0.3333333333333333,0.5714285714285715
kbdwiki,True,92.0,0.0,0.0,0.4444444444444444,0.3333333333333333,0.5714285714285715
kbdwiki,True,93.0,0.0,0.0,0.5555555555555556,0.16666666666666666,0.5714285714285715
kbdwiki,True,94.0,0.0,0.0,0.5555555555555556,0.16666666666666666,0.5714285714285715
kbdwiki,True,95.0,0.0,0.0,0.6666666666666666,0.0,0.5714285714285715
kbdwiki,True,96.0,0.0,0.0,0.6666666666666666,0.0,0.5714285714285715
kbdwiki,True,97.0,0.0,0.0,0.6666666666666666,0.0,0.5714285714285715
kbdwiki,True,98.0,0.0,0.0,0.6666666666666666,0.0,0.5714285714285715
kbdwiki,True,99.0,0.0,0.0,0.6666666666666666,0.0,0.5714285714285715
kbdwiki,False,0.0,0.026737967914438502,1.0,0.026737967914438502,1.0,0.05208333333333333
kbdwiki,False,1.0,0.026737967914438502,1.0,0.026737967914438502,1.0,0.05208333333333333
kbdwiki,False,2.0,0.026737967914438502,1.0,0.026737967914438502,1.0,0.05208333333333333
kbdwiki,False,3.0,0.026737967914438502,1.0,0.026737967914438502,1.0,0.05208333333333333
kbdwiki,False,4.0,0.026737967914438502,1.0,0.026737967914438502,1.0,0.05208333333333333
kbdwiki,False,5.0,0.026737967914438502,1.0,0.026737967914438502,1.0,0.05208333333333333
kbdwiki,False,6.0,0.026737967914438502,1.0,0.026737967914438502,1.0,0.05208333333333333
kbdwiki,False,7.0,0.026737967914438502,1.0,0.026737967914438502,1.0,0.05208333333333333
kbdwiki,False,8.0,0.026737967914438502,1.0,0.026737967914438502,1.0,0.05208333333333333
kbdwiki,False,9.0,0.02717391304347826,1.0,0.0427807486631016,0.9835164835164835,0.05291005291005291
kbdwiki,False,10.0,0.028089887640449437,1.0,0.0748663101604278,0.9505494505494505,0.0546448087431694
kbdwiki,False,11.0,0.02824858757062147,1.0,0.08021390374331551,0.945054945054945,0.054945054945054944
kbdwiki,False,12.0,0.02857142857142857,1.0,0.09090909090909091,0.9340659340659341,0.05555555555555556
kbdwiki,False,13.0,0.029585798816568046,1.0,0.12299465240641712,0.9010989010989011,0.05747126436781609
kbdwiki,False,14.0,0.02976190476190476,1.0,0.12834224598930483,0.8956043956043956,0.05780346820809249
kbdwiki,False,15.0,0.029940119760479042,1.0,0.13368983957219252,0.8901098901098901,0.058139534883720936
kbdwiki,False,16.0,0.030120481927710843,1.0,0.13903743315508021,0.8846153846153846,0.058479532163742694
kbdwiki,False,17.0,0.031055900621118012,1.0,0.1657754010695187,0.8571428571428571,0.060240963855421686
kbdwiki,False,18.0,0.03125,1.0,0.1711229946524064,0.8516483516483516,0.06060606060606061
kbdwiki,False,19.0,0.03184713375796178,1.0,0.18716577540106952,0.8351648351648352,0.0617283950617284
kbdwiki,False,20.0,0.03184713375796178,1.0,0.18716577540106952,0.8351648351648352,0.0617283950617284
kbdwiki,False,21.0,0.03184713375796178,1.0,0.18716577540106952,0.8351648351648352,0.0617283950617284
kbdwiki,False,22.0,0.03225806451612903,1.0,0.19786096256684493,0.8241758241758241,0.0625
kbdwiki,False,23.0,0.032467532467532464,1.0,0.20320855614973263,0.8186813186813187,0.06289308176100628
kbdwiki,False,24.0,0.03333333333333333,1.0,0.22459893048128343,0.7967032967032966,0.06451612903225806
kbdwiki,False,25.0,0.03496503496503497,1.0,0.2620320855614973,0.7582417582417582,0.06756756756756757
kbdwiki,False,26.0,0.036231884057971016,1.0,0.2887700534759358,0.7307692307692307,0.06993006993006994
kbdwiki,False,27.0,0.037037037037037035,1.0,0.3048128342245989,0.7142857142857143,0.07142857142857142
kbdwiki,False,28.0,0.03787878787878788,1.0,0.32085561497326204,0.6978021978021978,0.07299270072992702
kbdwiki,False,29.0,0.038461538461538464,1.0,0.3315508021390374,0.6868131868131868,0.07407407407407407
kbdwiki,False,30.0,0.03937007874015748,1.0,0.34759358288770054,0.6703296703296703,0.07575757575757576
kbdwiki,False,31.0,0.04032258064516129,1.0,0.36363636363636365,0.6538461538461539,0.07751937984496124
kbdwiki,False,32.0,0.04201680672268908,1.0,0.39037433155080214,0.6263736263736264,0.08064516129032258
kbdwiki,False,33.0,0.03508771929824561,0.8,0.40641711229946526,0.6043956043956044,0.06722689075630252
kbdwiki,False,34.0,0.04,0.8,0.48128342245989303,0.5274725274725275,0.07619047619047618
kbdwiki,False,35.0,0.043010752688172046,0.8,0.5187165775401069,0.489010989010989,0.08163265306122451
kbdwiki,False,36.0,0.046511627906976744,0.8,0.5561497326203209,0.45054945054945056,0.0879120879120879
kbdwiki,False,37.0,0.04819277108433735,0.8,0.5721925133689839,0.4340659340659341,0.09090909090909091
kbdwiki,False,38.0,0.05,0.8,0.5882352941176471,0.4175824175824176,0.09411764705882354
kbdwiki,False,39.0,0.0547945205479452,0.8,0.6256684491978609,0.3791208791208791,0.10256410256410256
kbdwiki,False,40.0,0.057971014492753624,0.8,0.6470588235294118,0.35714285714285715,0.1081081081081081
kbdwiki,False,41.0,0.0625,0.8,0.6737967914438503,0.32967032967032966,0.11594202898550725
kbdwiki,False,42.0,0.06896551724137931,0.8,0.7058823529411765,0.2967032967032967,0.12698412698412698
kbdwiki,False,43.0,0.07142857142857142,0.8,0.7165775401069518,0.2857142857142857,0.13114754098360656
kbdwiki,False,44.0,0.07407407407407407,0.8,0.7272727272727273,0.27472527472527475,0.13559322033898305
kbdwiki,False,45.0,0.07547169811320754,0.8,0.732620320855615,0.2692307692307692,0.13793103448275862
kbdwiki,False,46.0,0.08,0.8,0.7486631016042781,0.25274725274725274,0.14545454545454545
kbdwiki,False,47.0,0.08,0.8,0.7486631016042781,0.25274725274725274,0.14545454545454545
kbdwiki,False,48.0,0.08163265306122448,0.8,0.7540106951871658,0.24725274725274726,0.1481481481481481
kbdwiki,False,49.0,0.08695652173913043,0.8,0.7700534759358288,0.23076923076923078,0.1568627450980392
kbdwiki,False,50.0,0.08888888888888889,0.8,0.7754010695187166,0.22527472527472528,0.15999999999999998
kbdwiki,False,51.0,0.09302325581395349,0.8,0.786096256684492,0.21428571428571427,0.16666666666666666
kbdwiki,False,52.0,0.09302325581395349,0.8,0.786096256684492,0.21428571428571427,0.16666666666666666
kbdwiki,False,53.0,0.0975609756097561,0.8,0.7967914438502673,0.2032967032967033,0.1739130434782609
kbdwiki,False,54.0,0.10526315789473684,0.8,0.8128342245989305,0.18681318681318682,0.18604651162790697
kbdwiki,False,55.0,0.10810810810810811,0.8,0.8181818181818182,0.1813186813186813,0.19047619047619047
kbdwiki,False,56.0,0.10810810810810811,0.8,0.8181818181818182,0.1813186813186813,0.19047619047619047
kbdwiki,False,57.0,0.10810810810810811,0.8,0.8181818181818182,0.1813186813186813,0.19047619047619047
kbdwiki,False,58.0,0.10810810810810811,0.8,0.8181818181818182,0.1813186813186813,0.19047619047619047
kbdwiki,False,59.0,0.11764705882352941,0.8,0.8342245989304813,0.16483516483516483,0.20512820512820512
kbdwiki,False,60.0,0.12121212121212122,0.8,0.839572192513369,0.15934065934065933,0.2105263157894737
kbdwiki,False,61.0,0.125,0.8,0.8449197860962567,0.15384615384615385,0.21621621621621623
kbdwiki,False,62.0,0.125,0.8,0.8449197860962567,0.15384615384615385,0.21621621621621623
kbdwiki,False,63.0,0.125,0.8,0.8449197860962567,0.15384615384615385,0.21621621621621623
kbdwiki,False,64.0,0.12903225806451613,0.8,0.8502673796791443,0.14835164835164835,0.2222222222222222
kbdwiki,False,65.0,0.14285714285714285,0.8,0.8663101604278075,0.13186813186813187,0.24242424242424243
kbdwiki,False,66.0,0.14285714285714285,0.8,0.8663101604278075,0.13186813186813187,0.24242424242424243
kbdwiki,False,67.0,0.14814814814814814,0.8,0.8716577540106952,0.12637362637362637,0.25
kbdwiki,False,68.0,0.15384615384615385,0.8,0.8770053475935828,0.12087912087912088,0.25806451612903225
kbdwiki,False,69.0,0.15384615384615385,0.8,0.8770053475935828,0.12087912087912088,0.25806451612903225
kbdwiki,False,70.0,0.15384615384615385,0.8,0.8770053475935828,0.12087912087912088,0.25806451612903225
kbdwiki,False,71.0,0.15384615384615385,0.8,0.8770053475935828,0.12087912087912088,0.25806451612903225
kbdwiki,False,72.0,0.15384615384615385,0.8,0.8770053475935828,0.12087912087912088,0.25806451612903225
kbdwiki,False,73.0,0.16666666666666666,0.8,0.8877005347593583,0.10989010989010989,0.27586206896551724
kbdwiki,False,74.0,0.16666666666666666,0.8,0.8877005347593583,0.10989010989010989,0.27586206896551724
kbdwiki,False,75.0,0.16666666666666666,0.8,0.8877005347593583,0.10989010989010989,0.27586206896551724
kbdwiki,False,76.0,0.16666666666666666,0.8,0.8877005347593583,0.10989010989010989,0.27586206896551724
kbdwiki,False,77.0,0.16666666666666666,0.8,0.8877005347593583,0.10989010989010989,0.27586206896551724
kbdwiki,False,78.0,0.16666666666666666,0.8,0.8877005347593583,0.10989010989010989,0.27586206896551724
kbdwiki,False,79.0,0.16666666666666666,0.8,0.8877005347593583,0.10989010989010989,0.27586206896551724
kbdwiki,False,80.0,0.17391304347826086,0.8,0.893048128342246,0.1043956043956044,0.2857142857142857
kbdwiki,False,81.0,0.2,0.8,0.9090909090909091,0.08791208791208792,0.32000000000000006
kbdwiki,False,82.0,0.23529411764705882,0.8,0.9251336898395722,0.07142857142857142,0.3636363636363636
kbdwiki,False,83.0,0.26666666666666666,0.8,0.9358288770053476,0.06043956043956044,0.4
kbdwiki,False,84.0,0.3076923076923077,0.8,0.946524064171123,0.04945054945054945,0.4444444444444444
kbdwiki,False,85.0,0.3076923076923077,0.8,0.946524064171123,0.04945054945054945,0.4444444444444444
kbdwiki,False,86.0,0.36363636363636365,0.8,0.9572192513368984,0.038461538461538464,0.5000000000000001
kbdwiki,False,87.0,0.4444444444444444,0.8,0.9679144385026738,0.027472527472527472,0.5714285714285714
kbdwiki,False,88.0,0.375,0.6,0.9625668449197861,0.027472527472527472,0.4615384615384615
kbdwiki,False,89.0,0.16666666666666666,0.2,0.9518716577540107,0.027472527472527472,0.1818181818181818
kbdwiki,False,90.0,0.16666666666666666,0.2,0.9518716577540107,0.027472527472527472,0.1818181818181818
kbdwiki,False,91.0,0.2,0.2,0.9572192513368984,0.02197802197802198,0.20000000000000004
kbdwiki,False,92.0,0.2,0.2,0.9572192513368984,0.02197802197802198,0.20000000000000004
kbdwiki,False,93.0,0.0,0.0,0.9572192513368984,0.016483516483516484,0.20000000000000004
kbdwiki,False,94.0,0.0,0.0,0.9572192513368984,0.016483516483516484,0.20000000000000004
kbdwiki,False,95.0,0.0,0.0,0.9679144385026738,0.005494505494505495,0.20000000000000004
kbdwiki,False,96.0,0.0,0.0,0.9679144385026738,0.005494505494505495,0.20000000000000004
kbdwiki,False,97.0,0.0,0.0,0.9732620320855615,0.0,0.20000000000000004
kbdwiki,False,98.0,0.0,0.0,0.9732620320855615,0.0,0.20000000000000004
kbdwiki,False,99.0,0.0,0.0,0.9732620320855615,0.0,0.20000000000000004
