wiki_db,user_is_anonymous_or_bot,threshold,precision,recall,accuracy,fpr,F1
lvwiki,True,0.0,0.18836309262028322,1.0,0.18836309262028322,1.0,0.3170126938307242
lvwiki,True,1.0,0.18836309262028322,1.0,0.18836309262028322,1.0,0.3170126938307242
lvwiki,True,2.0,0.18837137705062235,1.0,0.1884070718620811,0.9999458141425088,0.31702442635085126
lvwiki,True,3.0,0.18855381906229363,1.0,0.18937461518163426,0.9987537252777026,0.3172827616860508
lvwiki,True,4.0,0.1890400070652654,0.999533037590474,0.1922332658984959,0.9951232728257925,0.3179471944743585
lvwiki,True,5.0,0.1911889549171172,0.9990660751809479,0.20371184800774034,0.9808723923056082,0.3209570957095709
lvwiki,True,6.0,0.19957071531893053,0.9985991127714219,0.2453162107485267,0.9295041994039556,0.33265925176946415
lvwiki,True,7.0,0.21486064996478518,0.9971982255428438,0.31308822235904654,0.8456786778650772,0.3535449691651836
lvwiki,True,8.0,0.23638682488632584,0.9953303759047397,0.39348227636555544,0.7461934435112436,0.382040596854416
lvwiki,True,9.0,0.2636532507739938,0.9941629698809246,0.47589937549476646,0.6443782172852885,0.41677678265550827
lvwiki,True,10.0,0.28872761801410746,0.9939294886761616,0.5376462309789779,0.5682470875101598,0.44746938560992283
lvwiki,True,11.0,0.3115942028985507,0.9939294886761616,0.5852317706042748,0.5096179897046871,0.4744497074393981
lvwiki,True,12.0,0.3324994136502228,0.9929955638571095,0.6231858562758378,0.4626388512598212,0.498184373901839
lvwiki,True,13.0,0.35201125641450093,0.9929955638571095,0.6543671387105287,0.4242210782985641,0.5197677971280171
lvwiki,True,14.0,0.3694178974804518,0.9927620826523464,0.6794353065353154,0.39328095367109184,0.538466409168619
lvwiki,True,15.0,0.3850402970207371,0.9927620826523464,0.6999736124549213,0.36797615822270385,0.5548740702074905
lvwiki,True,16.0,0.39977435125987215,0.9927620826523464,0.7178731638666549,0.3459225142237876,0.5700113948656077
lvwiki,True,17.0,0.41271844660194174,0.9925286014475835,0.732562230627144,0.3277702519642373,0.583007611602551
lvwiki,True,18.0,0.4271210293526337,0.9920616390380574,0.7478670067728033,0.30880520184231913,0.5971470732907034
lvwiki,True,19.0,0.4423036867319308,0.9915946766285314,0.7629079074676752,0.29016526686534816,0.6117392870003601
lvwiki,True,20.0,0.45652173913043476,0.9904272706047164,0.7761016800070367,0.27363858033053373,0.6249723756906077
lvwiki,True,21.0,0.4679982343853454,0.9901937893999533,0.7861289471369514,0.2612300189650501,0.6355938553765456
lvwiki,True,22.0,0.47909132007233274,0.9897268269904272,0.7953645879145044,0.24974261717691681,0.6456477039067855
lvwiki,True,23.0,0.4884149855907781,0.9892598645809012,0.8027970797783446,0.2404768355459225,0.653958944281525
lvwiki,True,24.0,0.4965428337044416,0.9892598645809012,0.8090421321136424,0.23278244378217286,0.6612047440699126
lvwiki,True,25.0,0.5044068604097189,0.9887929021713752,0.8148913712727592,0.22546735302086154,0.6680337566054106
lvwiki,True,26.0,0.5104279686558167,0.9885594209666122,0.8192453162107485,0.22004876727174208,0.6732389887104467
lvwiki,True,27.0,0.515210513506936,0.9885594209666122,0.8226317178291846,0.21587645624492008,0.6773858091352691
lvwiki,True,28.0,0.5207923228346457,0.9883259397618491,0.8265018911073974,0.21105391492820375,0.6821368141165096
lvwiki,True,29.0,0.52668906308324,0.9883259397618491,0.8305040021110036,0.206123001896505,0.6871753246753247
lvwiki,True,30.0,0.5297209360530597,0.9883259397618491,0.8325270472337057,0.20363045245191005,0.6897506925207756
lvwiki,True,31.0,0.5331234256926952,0.9883259397618491,0.8347699885653971,0.20086697371985912,0.6926286509040332
lvwiki,True,32.0,0.5373191165270373,0.9883259397618491,0.8374967015568652,0.19750745055540503,0.6961598552750596
lvwiki,True,33.0,0.5391969407265774,0.9876254961475601,0.8386841410854077,0.19588187483066918,0.6975593667546174
lvwiki,True,34.0,0.5415439764434772,0.9876254961475601,0.8401794353065353,0.19403955567596856,0.6995204233504217
lvwiki,True,35.0,0.5446819469482359,0.9876254961475601,0.8421585011874395,0.1916011920888648,0.702132957091875
lvwiki,True,36.0,0.5457360340601213,0.9876254961475601,0.8428181898144076,0.19078840422649687,0.7030081435931527
lvwiki,True,37.0,0.5470063364800207,0.9876254961475601,0.8436098161667693,0.1898130587916554,0.7040612516644474
lvwiki,True,38.0,0.5484958506224067,0.9876254961475601,0.8445333802445246,0.1886751557843403,0.7052938724468529
lvwiki,True,39.0,0.5499349804941482,0.9873920149427972,0.845412965080482,0.1875372527770252,0.7064227845986804
lvwiki,True,40.0,0.5510815741464686,0.9873920149427972,0.846116632949248,0.18667027905716607,0.7073680689136072
lvwiki,True,41.0,0.5522329589971272,0.9873920149427972,0.8468203008180138,0.18580330533730696,0.7083158864416715
lvwiki,True,42.0,0.5533891651400157,0.9873920149427972,0.8475239686867798,0.18493633161744785,0.7092662473794549
lvwiki,True,43.0,0.554768463859373,0.9873920149427972,0.8483595742809394,0.18390680032511514,0.710398118595666
lvwiki,True,44.0,0.5558769392584801,0.9871585337380341,0.8490192629079074,0.18303982660525603,0.7112456892926236
lvwiki,True,45.0,0.5566087414428647,0.9871585337380341,0.8494590553258862,0.18249796803034407,0.7118444313494401
lvwiki,True,46.0,0.5575933500461803,0.986691571328508,0.8500307854692585,0.18168518016797616,0.7125273984151071
lvwiki,True,47.0,0.5589363672443445,0.9864580901237451,0.8508224118216202,0.18065564887564345,0.7135618983279852
lvwiki,True,48.0,0.5593063277733651,0.9864580901237451,0.8510423080306095,0.18038471958818747,0.713863309960294
lvwiki,True,49.0,0.5598992843890803,0.9864580901237451,0.8513941419649925,0.17995123272825791,0.7143460985713078
lvwiki,True,50.0,0.560137912743668,0.986224608918982,0.8515260796903862,0.17973448929829314,0.7144790257104195
lvwiki,True,51.0,0.5608816890187226,0.986224608918982,0.8519658721083648,0.1791926307233812,0.7150837988826815
lvwiki,True,52.0,0.5610468978344626,0.985991127714219,0.8520538305919606,0.1790300731509076,0.715156646909399
lvwiki,True,53.0,0.5622420450006657,0.985991127714219,0.8527574984607266,0.1781630994310485,0.7161268441580464
lvwiki,True,54.0,0.563367129135539,0.985991127714219,0.8534171870876947,0.17735031156868059,0.7170387978605994
lvwiki,True,55.0,0.5643458505946812,0.985991127714219,0.853988917231067,0.17664589542129505,0.7178310385857555
lvwiki,True,56.0,0.565025421461065,0.985991127714219,0.8543847304072478,0.1761582227038743,0.7183805392532109
lvwiki,True,57.0,0.5660276176431157,0.985757646509456,0.8549564605506201,0.17539962069899756,0.7191279168795777
lvwiki,True,58.0,0.5669397072646704,0.985757646509456,0.8554842114521946,0.17474939040910323,0.7198635976129583
lvwiki,True,59.0,0.5677966101694916,0.985524165304693,0.8559679831119712,0.1740991601192089,0.7204915934112828
lvwiki,True,60.0,0.5685983827493262,0.985057202895167,0.8564077755299498,0.17344892982931454,0.7210117064000684
lvwiki,True,61.0,0.5696151249155975,0.9848237216904039,0.8569795056733222,0.17269032782443783,0.7217659137577
lvwiki,True,62.0,0.5699607949168581,0.9843567592808778,0.8571554226405137,0.17236521267949065,0.7219178082191781
lvwiki,True,63.0,0.5706543828749492,0.9834228344618258,0.8575072565748967,0.17171498238959632,0.7222222222222222
lvwiki,True,64.0,0.5722244870226934,0.9831893532570628,0.8583868414108541,0.17057707938228123,0.7234152207524481
lvwiki,True,65.0,0.5743344709897611,0.9822554284380107,0.8595303016975987,0.16895150365754538,0.7248449345279119
lvwiki,True,66.0,0.5762061403508771,0.9815549848237217,0.8605418242589498,0.16754267136277431,0.7261421538993005
lvwiki,True,67.0,0.577594501718213,0.9810880224141957,0.8612894713695136,0.1665131400704416,0.7271154178923689
lvwiki,True,68.0,0.5799143528111618,0.9801540975951436,0.862520890139854,0.16477919263072338,0.7286929352542961
lvwiki,True,69.0,0.5830782076259393,0.9782862479570394,0.8641481220863753,0.16234082904361963,0.730665271601709
lvwiki,True,70.0,0.5853044086773967,0.9764183983189353,0.865247603131322,0.16055269574641018,0.7318865943297164
lvwiki,True,71.0,0.5895153313550939,0.9740835862713052,0.8673586067376199,0.1574099160119209,0.7345070422535211
lvwiki,True,72.0,0.593513359051293,0.9698809245855708,0.8692057348931305,0.1541587645624492,0.7363942563375288
lvwiki,True,73.0,0.597053726169844,0.9652113004903106,0.870745008356056,0.1511785424004335,0.7377531899705541
lvwiki,True,74.0,0.6001169248757673,0.958673826756946,0.8718884686428006,0.14825250609590898,0.7381573033707866
lvwiki,True,75.0,0.6027518863737239,0.9512024282045295,0.8727240742369602,0.14548902736385802,0.7379097989494656
lvwiki,True,76.0,0.6087283671933785,0.9444314732664021,0.875186911777641,0.14088322947710646,0.7403001464128843
lvwiki,True,77.0,0.6163667128134134,0.9355591874854075,0.8781775002198962,0.13513952858303982,0.7431379821958457
lvwiki,True,78.0,0.6234645669291339,0.9243520896567826,0.8805963585187792,0.12955838526144675,0.7446628420953636
lvwiki,True,79.0,0.6319097502014505,0.915479803875788,0.8836309262028322,0.12376049850988892,0.7477116704805492
lvwiki,True,80.0,0.6397350993377483,0.902171375204296,0.8858738675345237,0.11790842590083989,0.7486195873292647
lvwiki,True,81.0,0.6478945566586786,0.8837263600280177,0.8876330372064386,0.1114603088593877,0.7476543209876544
lvwiki,True,82.0,0.6574634841467759,0.8617791267802942,0.8893922068783534,0.1041994039555676,0.7458825906840458
lvwiki,True,83.0,0.6689113355780022,0.8349287882325472,0.8910634180666726,0.09590896775941479,0.7427562571398898
lvwiki,True,84.0,0.6751279024006297,0.8010740135419099,0.8899199577799278,0.08946085071796261,0.7327282434596902
lvwiki,True,85.0,0.6845386533665836,0.7690870884893766,0.8897440408127364,0.0822541316716337,0.7243540406816933
lvwiki,True,86.0,0.6954495005549389,0.7314966145225309,0.8890843521857683,0.07434299647791927,0.7130177514792899
lvwiki,True,87.0,0.7021883920076119,0.6892365164604249,0.8864016184360982,0.06784069357897589,0.6956521739130435
lvwiki,True,88.0,0.7119565217391305,0.6423067943030586,0.8836749054446301,0.06030885938769981,0.6753406161777341
lvwiki,True,89.0,0.7308894572321682,0.6005136586504787,0.8831031753012578,0.051314007044161475,0.6593181235580621
lvwiki,True,90.0,0.7422291993720566,0.5519495680597711,0.8794968774738323,0.04448658900027093,0.6331012319228709
lvwiki,True,91.0,0.7681003584229391,0.5003502218071445,0.8774298531093324,0.03505824979680303,0.6059663509119185
lvwiki,True,92.0,0.7872962808190556,0.43987858977352323,0.87210836485179,0.02758060146301815,0.5644098262432595
lvwiki,True,93.0,0.8153310104529616,0.38244221340182116,0.8673586067376199,0.02010295312923327,0.5206611570247933
lvwiki,True,94.0,0.8574097135740971,0.32150361895867385,0.8621250769636731,0.012408561365483609,0.467651553744269
lvwiki,True,95.0,0.8924148606811145,0.2692038290917581,0.8562318585627584,0.007531834191276077,0.4136322869955157
lvwiki,True,96.0,0.9301397205588823,0.21760448283913145,0.8495470138094819,0.003793010024383636,0.3526963103122044
lvwiki,True,97.0,0.9553219448094612,0.16974083586271305,0.8421145219456416,0.0018423191547006232,0.28826328310864396
lvwiki,True,98.0,0.9872727272727273,0.126780294186318,0.8352097809833758,0.0003793010024383636,0.22470515207945377
lvwiki,True,99.0,0.9854651162790697,0.07915012841466262,0.8263259741402058,0.000270929287455974,0.1465312297384915
lvwiki,False,0.0,0.05803860603705143,1.0,0.05803860603705143,1.0,0.10970980776294845
lvwiki,False,1.0,0.05804737944587211,1.0,0.05818974824027292,0.9998395452253244,0.10972548219206042
lvwiki,False,2.0,0.05825989876326429,0.9998139880952381,0.062000690935786154,0.9957823316370972,0.110103958621396
lvwiki,False,3.0,0.058634836119233626,0.9996279761904762,0.06853219328928618,0.9888369321047082,0.11077214824586719
lvwiki,False,4.0,0.05944389055057051,0.9981398809523809,0.08327935397503994,0.9730894420758264,0.11220542416828723
lvwiki,False,5.0,0.06092566045463854,0.99609375,0.10869283585956731,0.9459840462109751,0.11482791894499839
lvwiki,False,6.0,0.06342570047391113,0.9933035714285714,0.1483244807185732,0.9037385962499427,0.11923768268039164
lvwiki,False,7.0,0.06705935659265971,0.9910714285714286,0.19924860733255603,0.8495392655755742,0.12561889942000282
lvwiki,False,8.0,0.07140745121230041,0.98828125,0.25342229131580085,0.7918557740796772,0.1331912760090248
lvwiki,False,9.0,0.07614899153261166,0.9853050595238095,0.30536122986569936,0.7365332599825792,0.14137208588547714
lvwiki,False,10.0,0.08078903807246643,0.98046875,0.3514056224899598,0.6873538715444918,0.14927782497875955
lvwiki,False,11.0,0.08542093121486824,0.9780505952380952,0.390961696247355,0.6452115710814652,0.15711937845510232
lvwiki,False,12.0,0.09000240326844508,0.9752604166666666,0.42626419657123116,0.6075620043093568,0.1647964796479648
lvwiki,False,13.0,0.0945405160706202,0.9711681547619048,0.4584898734723842,0.5730986109200935,0.1723073876668702
lvwiki,False,14.0,0.09956056553305312,0.9693080357142857,0.4894200457744958,0.540148076834915,0.18057384434125723
lvwiki,False,15.0,0.1047515546700477,0.9681919642857143,0.5179103510817463,0.5098335854765507,0.1890493053663852
lvwiki,False,16.0,0.10986153683542965,0.9667038690476191,0.5434749751694952,0.4826021180030257,0.197300734610201
lvwiki,False,17.0,0.11498536066010115,0.9642857142857143,0.5671719134602928,0.4572961078256086,0.20546967895362667
lvwiki,False,18.0,0.12022328177695081,0.9614955357142857,0.5894006132055102,0.4335258790629441,0.21372309855078456
lvwiki,False,19.0,0.1254991721048018,0.9587053571428571,0.6098803817420219,0.4116123412643836,0.22194470760485746
lvwiki,False,20.0,0.13098943715874878,0.9549851190476191,0.6296800103640368,0.3903635446751937,0.23037917881983397
lvwiki,False,21.0,0.13660866780529463,0.9521949404761905,0.6479466252105195,0.3707995232200981,0.23893764002987303
lvwiki,False,22.0,0.1424984656586509,0.9501488095238095,0.6652632033510386,0.35228991885572825,0.24782882926592598
lvwiki,False,23.0,0.1484064907774924,0.9458705357142857,0.6818456622187675,0.33442213359006095,0.25655903128153384
lvwiki,False,24.0,0.15473864191499756,0.9427083333333334,0.6978019605302932,0.31728785586576813,0.265841376416282
lvwiki,False,25.0,0.16077969232729242,0.9389880952380952,0.7119985317614544,0.3019873469949113,0.2745492616865635
lvwiki,False,26.0,0.16697089376389765,0.9358258928571429,0.7252990456449454,0.2876724888827763,0.2833807418255555
lvwiki,False,27.0,0.173875402569519,0.9339657738095238,0.7386211512717537,0.27341493604731126,0.293171401045164
lvwiki,False,28.0,0.1812124284783081,0.9308035714285714,0.7518892775402686,0.2591344611011782,0.30336465595635037
lvwiki,False,29.0,0.18859085757461277,0.9285714285714286,0.7639806537979876,0.24616054646311833,0.3135087609118885
lvwiki,False,30.0,0.1958515369779982,0.9255952380952381,0.7751111974780844,0.23416082152844633,0.32329532534190947
lvwiki,False,31.0,0.20297272950618295,0.9220610119047619,0.7853348879388522,0.22308944207582634,0.3327068930800725
lvwiki,False,32.0,0.21077782992703845,0.9188988095238095,0.7956017618862546,0.2119951405125384,0.34290077395620033
lvwiki,False,33.0,0.2181254154664303,0.9155505952380952,0.8046271105929093,0.20220739925732362,0.35231380408718366
lvwiki,False,34.0,0.22611538284451402,0.9135044642857143,0.8135229088396597,0.19263741805345436,0.3625023066986529
lvwiki,False,35.0,0.23438771115471121,0.9110863095238095,0.8221164226799672,0.18336542428826846,0.3728542610284322
lvwiki,False,36.0,0.24222618340265398,0.9099702380952381,0.8295547782527961,0.17539999083115573,0.38260597528546847
lvwiki,False,37.0,0.25023046194817167,0.9088541666666666,0.8366584618042061,0.16778985008939623,0.3924182796562525
lvwiki,False,38.0,0.25859690087030357,0.9064360119047619,0.8437405536122986,0.16012240407096687,0.4023947151114781
lvwiki,False,39.0,0.26613035626333936,0.9045758928571429,0.8496890788962301,0.1536927520286068,0.41126474692376
lvwiki,False,40.0,0.27336711711711714,0.9030877976190477,0.8550546271105929,0.14790491908494935,0.4196922544951591
lvwiki,False,41.0,0.2804419505987158,0.9017857142857143,0.860009932201926,0.14256406729931692,0.4278339143096678
lvwiki,False,42.0,0.28795531522966306,0.9014136904761905,0.8649112579349657,0.13733782606702424,0.4364782706597613
lvwiki,False,43.0,0.2954781229023006,0.9006696428571429,0.8695966662348318,0.13231788383074314,0.44497541699214255
lvwiki,False,44.0,0.30281204985282145,0.8993675595238095,0.873979790128255,0.1275844679778114,0.4530759499601743
lvwiki,False,45.0,0.3105909587807858,0.8984375,0.8783629140216781,0.1228739742355476,0.46160462560328763
lvwiki,False,46.0,0.3177502307793749,0.8963913690476191,0.8822818154337781,0.1185875395406409,0.4691850842177003
lvwiki,False,47.0,0.32443725569483756,0.8954613095238095,0.8857149026212376,0.11488561866776693,0.4763035519936677
lvwiki,False,48.0,0.33060522696011,0.8941592261904762,0.8887809301723021,0.11155045156558016,0.48272745531231165
lvwiki,False,49.0,0.3375263527758257,0.8934151785714286,0.8920412834132228,0.10804336863338376,0.48995205549321635
lvwiki,False,50.0,0.3431884887966211,0.8917410714285714,0.8946646802262814,0.10515518268922203,0.4956319462393383
lvwiki,False,51.0,0.34949258961816454,0.8904389880952381,0.8974500151142203,0.1021180030257186,0.5019661301315996
lvwiki,False,52.0,0.3553804994054697,0.8895089285714286,0.8999438614673749,0.09941319396690047,0.5078589634664401
lvwiki,False,53.0,0.36204545454545456,0.8889508928571429,0.9026428293820443,0.09651354696740476,0.5145348837209301
lvwiki,False,54.0,0.3677479004545805,0.8878348214285714,0.904899166558708,0.0940494200706001,0.5200762734949606
lvwiki,False,55.0,0.3736479071954852,0.88671875,0.9071555037353716,0.09158529317379545,0.525752729679056
lvwiki,False,56.0,0.37898925586947874,0.8857886904761905,0.9091311482489096,0.08943061477100811,0.5308511231258013
lvwiki,False,57.0,0.3847460368812682,0.8848586309523809,0.911193159735717,0.08718424792554899,0.5363021420518602
lvwiki,False,58.0,0.3910182595821681,0.8843005952380952,0.9133523340674526,0.08485765369275203,0.5422607505418044
lvwiki,False,59.0,0.3968904121039873,0.8831845238095238,0.9153279785809906,0.08269151423463073,0.5476671088298056
lvwiki,False,60.0,0.4021554650373388,0.8815104166666666,0.9170661139180377,0.08074313482785495,0.5523310023310024
lvwiki,False,61.0,0.40741696781965236,0.8807663690476191,0.9187286781534741,0.07893228808508687,0.5571243675726555
lvwiki,False,62.0,0.413983199159958,0.8800223214285714,0.9207367102819881,0.07675468757163159,0.5630802189954773
lvwiki,False,63.0,0.41914308524793753,0.87890625,0.922280519929179,0.0750469903268693,0.5676016577572226
lvwiki,False,64.0,0.4260948081264108,0.8777901785714286,0.9242885520576931,0.07284646770274607,0.5737037262172512
lvwiki,False,65.0,0.4327302782624667,0.8764880952380952,0.9261454419829857,0.07079493879796452,0.5794036274208422
lvwiki,False,66.0,0.43823995525309967,0.8744419642857143,0.9276568640152005,0.06906431944253427,0.5838663603055332
lvwiki,False,67.0,0.44354152886705095,0.8731398809523809,0.9290603273308287,0.06749415486177968,0.588257409612131
lvwiki,False,68.0,0.4501586080938191,0.87109375,0.9307660750528998,0.06555723651033787,0.5935737372457063
lvwiki,False,69.0,0.45741448593550915,0.8681175595238095,0.9325797814915576,0.06344840232888645,0.599139867770717
lvwiki,False,70.0,0.4638259654725077,0.8645833333333334,0.9341343870104072,0.06158025030944849,0.6037539780476715
lvwiki,False,71.0,0.4708515617051582,0.8608630952380952,0.9357753595025262,0.05960894879200477,0.6087471226570207
lvwiki,False,72.0,0.47969173088939804,0.8567708333333334,0.9377510040160643,0.057259432448539864,0.6150353852316731
lvwiki,False,73.0,0.487649063032368,0.8519345238095238,0.9394567517381354,0.05515059826708844,0.6202600216684724
lvwiki,False,74.0,0.4942366246193997,0.8454241071428571,0.9408170315671287,0.053305368358318436,0.6237990667032665
lvwiki,False,75.0,0.5011688745407993,0.8374255952380952,0.9421881072677808,0.051356988951542656,0.6270631659586322
lvwiki,False,76.0,0.5102857142857142,0.8305431547619048,0.9439046508615105,0.04911062210608353,0.6321676341497947
lvwiki,False,77.0,0.5216981132075472,0.8229166666666666,0.945934274733342,0.04648604043460322,0.6385681293302541
lvwiki,False,78.0,0.5309002433090024,0.8117559523809523,0.9474456967655569,0.04419382936780819,0.6419535157399235
lvwiki,False,79.0,0.5424154832223199,0.8028273809523809,0.949248607332556,0.04172970247100353,0.6474161854046351
lvwiki,False,80.0,0.5541492693110647,0.7899925595238095,0.9509219674396511,0.039162426076193094,0.6513803680981595
lvwiki,False,81.0,0.5671072353181632,0.7741815476190477,0.9525953275467461,0.036411772796039056,0.6546598505701927
lvwiki,False,82.0,0.5812222699298698,0.7553943452380952,0.9542147082955478,0.0335350479072113,0.656960284720537
lvwiki,False,83.0,0.5950613543402514,0.7306547619047619,0.9555102128945892,0.030635400907715583,0.6559238540536028
lvwiki,False,84.0,0.6044979919678715,0.6999627976190477,0.9560068229908882,0.028217118232246825,0.6487371778294975
lvwiki,False,85.0,0.6163446743032998,0.6705729166666666,0.956654575290409,0.025718608169440244,0.6423162583518931
lvwiki,False,86.0,0.6313261913557444,0.6357886904761905,0.9573131234615883,0.022876266446614404,0.6335495829471733
lvwiki,False,87.0,0.641871625674865,0.5970982142857143,0.9572807358466122,0.0205267501031495,0.6186759178953455
lvwiki,False,88.0,0.6558669001751314,0.5572916666666666,0.9573347152049057,0.01801677898500894,0.6025744167337088
lvwiki,False,89.0,0.6746492501209482,0.5187872023809523,0.9575506326380792,0.01541511942419658,0.5865404837013669
lvwiki,False,90.0,0.6888769478774852,0.47693452380952384,0.9571403895150494,0.013271902076743227,0.5636403605187953
lvwiki,False,91.0,0.7135384615384616,0.43136160714285715,0.9569460638251932,0.010670242515930867,0.5376767910966844
lvwiki,False,92.0,0.7350396539293439,0.37927827380952384,0.9560392106058643,0.008423875670471736,0.5003680981595092
lvwiki,False,93.0,0.7675324675324675,0.32979910714285715,0.9553050913330743,0.006154586714344656,0.4613583138173302
lvwiki,False,94.0,0.8135223555070883,0.2775297619047619,0.954376646370428,0.003919680924219502,0.413869625520111
lvwiki,False,95.0,0.853809196980096,0.23139880952380953,0.9530919376430453,0.0024412047861367076,0.36411532269866825
lvwiki,False,96.0,0.9048473967684022,0.1875,0.9516992701990759,0.0012148718654013662,0.3106317411402157
lvwiki,False,97.0,0.9387755102040817,0.14546130952380953,0.949853176145442,0.0005845138220327327,0.2518924142373974
lvwiki,False,98.0,0.9747899159663865,0.10788690476190477,0.9480610614501015,0.0001719158300096273,0.19427231619494223
lvwiki,False,99.0,0.9836512261580381,0.06715029761904762,0.9457939284017791,6.876633200385091e-05,0.1257182657147832
