wiki_db,user_is_anonymous_or_bot,threshold,precision,recall,accuracy,fpr,F1
mhrwiki,True,0.0,0.06593406593406594,1.0,0.06593406593406594,1.0,0.12371134020618557
mhrwiki,True,1.0,0.06593406593406594,1.0,0.06593406593406594,1.0,0.12371134020618557
mhrwiki,True,2.0,0.06593406593406594,1.0,0.06593406593406594,1.0,0.12371134020618557
mhrwiki,True,3.0,0.06593406593406594,1.0,0.06593406593406594,1.0,0.12371134020618557
mhrwiki,True,4.0,0.06593406593406594,1.0,0.06593406593406594,1.0,0.12371134020618557
mhrwiki,True,5.0,0.06593406593406594,1.0,0.06593406593406594,1.0,0.12371134020618557
mhrwiki,True,6.0,0.06593406593406594,1.0,0.06593406593406594,1.0,0.12371134020618557
mhrwiki,True,7.0,0.06593406593406594,1.0,0.06593406593406594,1.0,0.12371134020618557
mhrwiki,True,8.0,0.06593406593406594,1.0,0.06593406593406594,1.0,0.12371134020618557
mhrwiki,True,9.0,0.06593406593406594,1.0,0.06593406593406594,1.0,0.12371134020618557
mhrwiki,True,10.0,0.06593406593406594,1.0,0.06593406593406594,1.0,0.12371134020618557
mhrwiki,True,11.0,0.06666666666666667,1.0,0.07692307692307693,0.9882352941176471,0.125
mhrwiki,True,12.0,0.06666666666666667,1.0,0.07692307692307693,0.9882352941176471,0.125
mhrwiki,True,13.0,0.06666666666666667,1.0,0.07692307692307693,0.9882352941176471,0.125
mhrwiki,True,14.0,0.06666666666666667,1.0,0.07692307692307693,0.9882352941176471,0.125
mhrwiki,True,15.0,0.06666666666666667,1.0,0.07692307692307693,0.9882352941176471,0.125
mhrwiki,True,16.0,0.06666666666666667,1.0,0.07692307692307693,0.9882352941176471,0.125
mhrwiki,True,17.0,0.06741573033707865,1.0,0.08791208791208792,0.9764705882352941,0.12631578947368421
mhrwiki,True,18.0,0.06741573033707865,1.0,0.08791208791208792,0.9764705882352941,0.12631578947368421
mhrwiki,True,19.0,0.06741573033707865,1.0,0.08791208791208792,0.9764705882352941,0.12631578947368421
mhrwiki,True,20.0,0.06896551724137931,1.0,0.10989010989010989,0.9529411764705882,0.12903225806451613
mhrwiki,True,21.0,0.06896551724137931,1.0,0.10989010989010989,0.9529411764705882,0.12903225806451613
mhrwiki,True,22.0,0.06896551724137931,1.0,0.10989010989010989,0.9529411764705882,0.12903225806451613
mhrwiki,True,23.0,0.06976744186046512,1.0,0.12087912087912088,0.9411764705882353,0.13043478260869565
mhrwiki,True,24.0,0.06976744186046512,1.0,0.12087912087912088,0.9411764705882353,0.13043478260869565
mhrwiki,True,25.0,0.07058823529411765,1.0,0.13186813186813187,0.9294117647058824,0.13186813186813187
mhrwiki,True,26.0,0.07058823529411765,1.0,0.13186813186813187,0.9294117647058824,0.13186813186813187
mhrwiki,True,27.0,0.07058823529411765,1.0,0.13186813186813187,0.9294117647058824,0.13186813186813187
mhrwiki,True,28.0,0.07058823529411765,1.0,0.13186813186813187,0.9294117647058824,0.13186813186813187
mhrwiki,True,29.0,0.07058823529411765,1.0,0.13186813186813187,0.9294117647058824,0.13186813186813187
mhrwiki,True,30.0,0.07058823529411765,1.0,0.13186813186813187,0.9294117647058824,0.13186813186813187
mhrwiki,True,31.0,0.07058823529411765,1.0,0.13186813186813187,0.9294117647058824,0.13186813186813187
mhrwiki,True,32.0,0.07058823529411765,1.0,0.13186813186813187,0.9294117647058824,0.13186813186813187
mhrwiki,True,33.0,0.07058823529411765,1.0,0.13186813186813187,0.9294117647058824,0.13186813186813187
mhrwiki,True,34.0,0.07058823529411765,1.0,0.13186813186813187,0.9294117647058824,0.13186813186813187
mhrwiki,True,35.0,0.07058823529411765,1.0,0.13186813186813187,0.9294117647058824,0.13186813186813187
mhrwiki,True,36.0,0.07058823529411765,1.0,0.13186813186813187,0.9294117647058824,0.13186813186813187
mhrwiki,True,37.0,0.07058823529411765,1.0,0.13186813186813187,0.9294117647058824,0.13186813186813187
mhrwiki,True,38.0,0.07058823529411765,1.0,0.13186813186813187,0.9294117647058824,0.13186813186813187
mhrwiki,True,39.0,0.07058823529411765,1.0,0.13186813186813187,0.9294117647058824,0.13186813186813187
mhrwiki,True,40.0,0.07058823529411765,1.0,0.13186813186813187,0.9294117647058824,0.13186813186813187
mhrwiki,True,41.0,0.07058823529411765,1.0,0.13186813186813187,0.9294117647058824,0.13186813186813187
mhrwiki,True,42.0,0.07142857142857142,1.0,0.14285714285714285,0.9176470588235294,0.13333333333333333
mhrwiki,True,43.0,0.07228915662650602,1.0,0.15384615384615385,0.9058823529411765,0.1348314606741573
mhrwiki,True,44.0,0.07317073170731707,1.0,0.16483516483516483,0.8941176470588236,0.13636363636363635
mhrwiki,True,45.0,0.07317073170731707,1.0,0.16483516483516483,0.8941176470588236,0.13636363636363635
mhrwiki,True,46.0,0.07407407407407407,1.0,0.17582417582417584,0.8823529411764706,0.13793103448275862
mhrwiki,True,47.0,0.07407407407407407,1.0,0.17582417582417584,0.8823529411764706,0.13793103448275862
mhrwiki,True,48.0,0.07692307692307693,1.0,0.2087912087912088,0.8470588235294118,0.14285714285714288
mhrwiki,True,49.0,0.07692307692307693,1.0,0.2087912087912088,0.8470588235294118,0.14285714285714288
mhrwiki,True,50.0,0.07692307692307693,1.0,0.2087912087912088,0.8470588235294118,0.14285714285714288
mhrwiki,True,51.0,0.07692307692307693,1.0,0.2087912087912088,0.8470588235294118,0.14285714285714288
mhrwiki,True,52.0,0.07692307692307693,1.0,0.2087912087912088,0.8470588235294118,0.14285714285714288
mhrwiki,True,53.0,0.07692307692307693,1.0,0.2087912087912088,0.8470588235294118,0.14285714285714288
mhrwiki,True,54.0,0.07692307692307693,1.0,0.2087912087912088,0.8470588235294118,0.14285714285714288
mhrwiki,True,55.0,0.07894736842105263,1.0,0.23076923076923078,0.8235294117647058,0.14634146341463414
mhrwiki,True,56.0,0.08,1.0,0.24175824175824176,0.8117647058823529,0.14814814814814814
mhrwiki,True,57.0,0.08,1.0,0.24175824175824176,0.8117647058823529,0.14814814814814814
mhrwiki,True,58.0,0.08108108108108109,1.0,0.25274725274725274,0.8,0.15
mhrwiki,True,59.0,0.08108108108108109,1.0,0.25274725274725274,0.8,0.15
mhrwiki,True,60.0,0.0821917808219178,1.0,0.26373626373626374,0.788235294117647,0.1518987341772152
mhrwiki,True,61.0,0.08450704225352113,1.0,0.2857142857142857,0.7647058823529411,0.15584415584415587
mhrwiki,True,62.0,0.08571428571428572,1.0,0.2967032967032967,0.7529411764705882,0.15789473684210528
mhrwiki,True,63.0,0.08571428571428572,1.0,0.2967032967032967,0.7529411764705882,0.15789473684210528
mhrwiki,True,64.0,0.08695652173913043,1.0,0.3076923076923077,0.7411764705882353,0.16
mhrwiki,True,65.0,0.08695652173913043,1.0,0.3076923076923077,0.7411764705882353,0.16
mhrwiki,True,66.0,0.08695652173913043,1.0,0.3076923076923077,0.7411764705882353,0.16
mhrwiki,True,67.0,0.08955223880597014,1.0,0.32967032967032966,0.7176470588235294,0.1643835616438356
mhrwiki,True,68.0,0.09090909090909091,1.0,0.34065934065934067,0.7058823529411765,0.16666666666666669
mhrwiki,True,69.0,0.09375,1.0,0.3626373626373626,0.6823529411764706,0.17142857142857143
mhrwiki,True,70.0,0.09523809523809523,1.0,0.37362637362637363,0.6705882352941176,0.17391304347826084
mhrwiki,True,71.0,0.09523809523809523,1.0,0.37362637362637363,0.6705882352941176,0.17391304347826084
mhrwiki,True,72.0,0.1016949152542373,1.0,0.4175824175824176,0.6235294117647059,0.18461538461538463
mhrwiki,True,73.0,0.10344827586206896,1.0,0.42857142857142855,0.611764705882353,0.1875
mhrwiki,True,74.0,0.11764705882352941,1.0,0.5054945054945055,0.5294117647058824,0.21052631578947367
mhrwiki,True,75.0,0.12,1.0,0.5164835164835165,0.5176470588235295,0.21428571428571425
mhrwiki,True,76.0,0.1276595744680851,1.0,0.5494505494505495,0.4823529411764706,0.22641509433962262
mhrwiki,True,77.0,0.13636363636363635,1.0,0.5824175824175825,0.4470588235294118,0.24000000000000002
mhrwiki,True,78.0,0.14285714285714285,1.0,0.6043956043956044,0.4235294117647059,0.25
mhrwiki,True,79.0,0.15384615384615385,1.0,0.6373626373626373,0.38823529411764707,0.2666666666666667
mhrwiki,True,80.0,0.15789473684210525,1.0,0.6483516483516484,0.3764705882352941,0.2727272727272727
mhrwiki,True,81.0,0.14705882352941177,0.8333333333333334,0.6703296703296703,0.3411764705882353,0.25
mhrwiki,True,82.0,0.15625,0.8333333333333334,0.6923076923076923,0.3176470588235294,0.2631578947368421
mhrwiki,True,83.0,0.16129032258064516,0.8333333333333334,0.7032967032967034,0.3058823529411765,0.27027027027027023
mhrwiki,True,84.0,0.1724137931034483,0.8333333333333334,0.7252747252747253,0.2823529411764706,0.28571428571428575
mhrwiki,True,85.0,0.17857142857142858,0.8333333333333334,0.7362637362637363,0.27058823529411763,0.29411764705882354
mhrwiki,True,86.0,0.2,0.8333333333333334,0.7692307692307693,0.23529411764705882,0.3225806451612903
mhrwiki,True,87.0,0.21739130434782608,0.8333333333333334,0.7912087912087912,0.21176470588235294,0.3448275862068966
mhrwiki,True,88.0,0.2777777777777778,0.8333333333333334,0.8461538461538461,0.15294117647058825,0.4166666666666667
mhrwiki,True,89.0,0.25,0.6666666666666666,0.8461538461538461,0.1411764705882353,0.36363636363636365
mhrwiki,True,90.0,0.2857142857142857,0.6666666666666666,0.8681318681318682,0.11764705882352941,0.4
mhrwiki,True,91.0,0.36363636363636365,0.6666666666666666,0.9010989010989011,0.08235294117647059,0.4705882352941177
mhrwiki,True,92.0,0.5714285714285714,0.6666666666666666,0.945054945054945,0.03529411764705882,0.6153846153846153
mhrwiki,True,93.0,0.5714285714285714,0.6666666666666666,0.945054945054945,0.03529411764705882,0.6153846153846153
mhrwiki,True,94.0,0.5,0.5,0.9340659340659341,0.03529411764705882,0.5
mhrwiki,True,95.0,0.75,0.5,0.9560439560439561,0.011764705882352941,0.6
mhrwiki,True,96.0,1.0,0.5,0.967032967032967,0.0,0.6666666666666666
mhrwiki,True,97.0,1.0,0.3333333333333333,0.9560439560439561,0.0,0.5
mhrwiki,True,98.0,1.0,0.3333333333333333,0.9560439560439561,0.0,0.5
mhrwiki,True,99.0,1.0,0.16666666666666666,0.945054945054945,0.0,0.2857142857142857
mhrwiki,False,0.0,0.029304029304029304,1.0,0.029304029304029304,1.0,0.056939501779359435
mhrwiki,False,1.0,0.029304029304029304,1.0,0.029304029304029304,1.0,0.056939501779359435
mhrwiki,False,2.0,0.029304029304029304,1.0,0.029304029304029304,1.0,0.056939501779359435
mhrwiki,False,3.0,0.029304029304029304,1.0,0.029304029304029304,1.0,0.056939501779359435
mhrwiki,False,4.0,0.029304029304029304,1.0,0.029304029304029304,1.0,0.056939501779359435
mhrwiki,False,5.0,0.029304029304029304,1.0,0.029304029304029304,1.0,0.056939501779359435
mhrwiki,False,6.0,0.029304029304029304,1.0,0.029304029304029304,1.0,0.056939501779359435
mhrwiki,False,7.0,0.029304029304029304,1.0,0.029304029304029304,1.0,0.056939501779359435
mhrwiki,False,8.0,0.02952029520295203,1.0,0.03663003663003663,0.9924528301886792,0.05734767025089605
mhrwiki,False,9.0,0.02952029520295203,1.0,0.03663003663003663,0.9924528301886792,0.05734767025089605
mhrwiki,False,10.0,0.02952029520295203,1.0,0.03663003663003663,0.9924528301886792,0.05734767025089605
mhrwiki,False,11.0,0.02973977695167286,1.0,0.04395604395604396,0.9849056603773585,0.057761732851985555
mhrwiki,False,12.0,0.0299625468164794,1.0,0.05128205128205128,0.9773584905660377,0.05818181818181818
mhrwiki,False,13.0,0.0299625468164794,1.0,0.05128205128205128,0.9773584905660377,0.05818181818181818
mhrwiki,False,14.0,0.03007518796992481,1.0,0.054945054945054944,0.9735849056603774,0.058394160583941604
mhrwiki,False,15.0,0.03007518796992481,1.0,0.054945054945054944,0.9735849056603774,0.058394160583941604
mhrwiki,False,16.0,0.03018867924528302,1.0,0.05860805860805861,0.969811320754717,0.05860805860805861
mhrwiki,False,17.0,0.030418250950570342,1.0,0.06593406593406594,0.9622641509433962,0.05904059040590406
mhrwiki,False,18.0,0.03065134099616858,1.0,0.07326007326007326,0.9547169811320755,0.05947955390334572
mhrwiki,False,19.0,0.03125,1.0,0.09157509157509157,0.9358490566037736,0.06060606060606061
mhrwiki,False,20.0,0.0326530612244898,1.0,0.13186813186813187,0.8943396226415095,0.0632411067193676
mhrwiki,False,21.0,0.03333333333333333,1.0,0.15018315018315018,0.8754716981132076,0.06451612903225806
mhrwiki,False,22.0,0.029914529914529916,0.875,0.16483516483516483,0.8566037735849057,0.05785123966942149
mhrwiki,False,23.0,0.03056768558951965,0.875,0.18315018315018314,0.8377358490566038,0.05907172995780591
mhrwiki,False,24.0,0.03153153153153153,0.875,0.2087912087912088,0.8113207547169812,0.06086956521739129
mhrwiki,False,25.0,0.0319634703196347,0.875,0.21978021978021978,0.8,0.06167400881057268
mhrwiki,False,26.0,0.0319634703196347,0.875,0.21978021978021978,0.8,0.06167400881057268
mhrwiki,False,27.0,0.0330188679245283,0.875,0.2454212454212454,0.7735849056603774,0.06363636363636363
mhrwiki,False,28.0,0.03317535545023697,0.875,0.2490842490842491,0.769811320754717,0.0639269406392694
mhrwiki,False,29.0,0.034653465346534656,0.875,0.28205128205128205,0.7358490566037735,0.06666666666666667
mhrwiki,False,30.0,0.035,0.875,0.2893772893772894,0.7283018867924528,0.06730769230769232
mhrwiki,False,31.0,0.03535353535353535,0.875,0.2967032967032967,0.720754716981132,0.06796116504854369
mhrwiki,False,32.0,0.03571428571428571,0.875,0.304029304029304,0.7132075471698113,0.06862745098039216
mhrwiki,False,33.0,0.03608247422680412,0.875,0.31135531135531136,0.7056603773584905,0.0693069306930693
mhrwiki,False,34.0,0.03664921465968586,0.875,0.32234432234432236,0.6943396226415094,0.07035175879396985
mhrwiki,False,35.0,0.037037037037037035,0.875,0.32967032967032966,0.6867924528301886,0.07106598984771574
mhrwiki,False,36.0,0.03763440860215054,0.875,0.34065934065934067,0.6754716981132075,0.07216494845360824
mhrwiki,False,37.0,0.03804347826086957,0.875,0.34798534798534797,0.6679245283018868,0.07291666666666667
mhrwiki,False,38.0,0.03804347826086957,0.875,0.34798534798534797,0.6679245283018868,0.07291666666666667
mhrwiki,False,39.0,0.03804347826086957,0.875,0.34798534798534797,0.6679245283018868,0.07291666666666667
mhrwiki,False,40.0,0.03867403314917127,0.875,0.358974358974359,0.6566037735849056,0.07407407407407407
mhrwiki,False,41.0,0.03888888888888889,0.875,0.3626373626373626,0.6528301886792452,0.07446808510638299
mhrwiki,False,42.0,0.03954802259887006,0.875,0.37362637362637363,0.6415094339622641,0.07567567567567568
mhrwiki,False,43.0,0.040229885057471264,0.875,0.38461538461538464,0.630188679245283,0.07692307692307691
mhrwiki,False,44.0,0.04093567251461988,0.875,0.3956043956043956,0.6188679245283019,0.07821229050279328
mhrwiki,False,45.0,0.04142011834319527,0.875,0.40293040293040294,0.6113207547169811,0.07909604519774012
mhrwiki,False,46.0,0.043209876543209874,0.875,0.42857142857142855,0.5849056603773585,0.08235294117647059
mhrwiki,False,47.0,0.043209876543209874,0.875,0.42857142857142855,0.5849056603773585,0.08235294117647059
mhrwiki,False,48.0,0.0440251572327044,0.875,0.43956043956043955,0.5735849056603773,0.08383233532934131
mhrwiki,False,49.0,0.04487179487179487,0.875,0.45054945054945056,0.5622641509433962,0.08536585365853659
mhrwiki,False,50.0,0.045454545454545456,0.875,0.45787545787545786,0.5547169811320755,0.08641975308641976
mhrwiki,False,51.0,0.046357615894039736,0.875,0.46886446886446886,0.5433962264150943,0.0880503144654088
mhrwiki,False,52.0,0.04697986577181208,0.875,0.47619047619047616,0.5358490566037736,0.089171974522293
mhrwiki,False,53.0,0.047619047619047616,0.875,0.4835164835164835,0.5283018867924528,0.09032258064516129
mhrwiki,False,54.0,0.04794520547945205,0.875,0.48717948717948717,0.5245283018867924,0.09090909090909091
mhrwiki,False,55.0,0.04929577464788732,0.875,0.5018315018315018,0.5094339622641509,0.09333333333333332
mhrwiki,False,56.0,0.04964539007092199,0.875,0.5054945054945055,0.5056603773584906,0.09395973154362416
mhrwiki,False,57.0,0.05,0.875,0.5091575091575091,0.5018867924528302,0.0945945945945946
mhrwiki,False,58.0,0.050724637681159424,0.875,0.5164835164835165,0.49433962264150944,0.09589041095890412
mhrwiki,False,59.0,0.051094890510948905,0.875,0.5201465201465202,0.49056603773584906,0.09655172413793103
mhrwiki,False,60.0,0.05223880597014925,0.875,0.5311355311355311,0.47924528301886793,0.09859154929577464
mhrwiki,False,61.0,0.05343511450381679,0.875,0.5421245421245421,0.4679245283018868,0.10071942446043167
mhrwiki,False,62.0,0.05384615384615385,0.875,0.5457875457875457,0.4641509433962264,0.10144927536231883
mhrwiki,False,63.0,0.05426356589147287,0.875,0.5494505494505495,0.46037735849056605,0.10218978102189781
mhrwiki,False,64.0,0.056,0.875,0.5641025641025641,0.44528301886792454,0.10526315789473684
mhrwiki,False,65.0,0.056910569105691054,0.875,0.5714285714285714,0.4377358490566038,0.10687022900763359
mhrwiki,False,66.0,0.05737704918032787,0.875,0.575091575091575,0.4339622641509434,0.1076923076923077
mhrwiki,False,67.0,0.059322033898305086,0.875,0.5897435897435898,0.4188679245283019,0.11111111111111112
mhrwiki,False,68.0,0.0603448275862069,0.875,0.5970695970695971,0.41132075471698115,0.11290322580645162
mhrwiki,False,69.0,0.06140350877192982,0.875,0.6043956043956044,0.4037735849056604,0.11475409836065574
mhrwiki,False,70.0,0.06306306306306306,0.875,0.6153846153846154,0.39245283018867927,0.1176470588235294
mhrwiki,False,71.0,0.06363636363636363,0.875,0.6190476190476191,0.3886792452830189,0.11864406779661017
mhrwiki,False,72.0,0.0673076923076923,0.875,0.6410256410256411,0.3660377358490566,0.125
mhrwiki,False,73.0,0.06862745098039216,0.875,0.6483516483516484,0.3584905660377358,0.1272727272727273
mhrwiki,False,74.0,0.07526881720430108,0.875,0.6813186813186813,0.32452830188679244,0.1386138613861386
mhrwiki,False,75.0,0.07777777777777778,0.875,0.6923076923076923,0.3132075471698113,0.14285714285714288
mhrwiki,False,76.0,0.08235294117647059,0.875,0.7106227106227107,0.2943396226415094,0.15053763440860213
mhrwiki,False,77.0,0.08641975308641975,0.875,0.7252747252747253,0.2792452830188679,0.15730337078651688
mhrwiki,False,78.0,0.09210526315789473,0.875,0.7435897435897436,0.26037735849056604,0.16666666666666669
mhrwiki,False,79.0,0.09859154929577464,0.875,0.7619047619047619,0.24150943396226415,0.17721518987341772
mhrwiki,False,80.0,0.10144927536231885,0.875,0.7692307692307693,0.2339622641509434,0.18181818181818182
mhrwiki,False,81.0,0.09230769230769231,0.75,0.7765567765567766,0.22264150943396227,0.16438356164383564
mhrwiki,False,82.0,0.09836065573770492,0.75,0.7912087912087912,0.20754716981132076,0.17391304347826086
mhrwiki,False,83.0,0.1,0.75,0.7948717948717948,0.2037735849056604,0.17647058823529416
mhrwiki,False,84.0,0.10344827586206896,0.75,0.8021978021978022,0.19622641509433963,0.18181818181818182
mhrwiki,False,85.0,0.11320754716981132,0.75,0.8205128205128205,0.17735849056603772,0.19672131147540986
mhrwiki,False,86.0,0.12244897959183673,0.75,0.8351648351648352,0.16226415094339622,0.21052631578947364
mhrwiki,False,87.0,0.13636363636363635,0.75,0.8534798534798534,0.14339622641509434,0.23076923076923075
mhrwiki,False,88.0,0.15151515151515152,0.625,0.8864468864468864,0.10566037735849057,0.24390243902439024
mhrwiki,False,89.0,0.13333333333333333,0.5,0.8901098901098901,0.09811320754716982,0.2105263157894737
mhrwiki,False,90.0,0.15384615384615385,0.5,0.9047619047619048,0.0830188679245283,0.23529411764705882
mhrwiki,False,91.0,0.21052631578947367,0.5,0.9304029304029304,0.05660377358490566,0.2962962962962963
mhrwiki,False,92.0,0.3076923076923077,0.5,0.9523809523809523,0.033962264150943396,0.380952380952381
mhrwiki,False,93.0,0.3333333333333333,0.5,0.9560439560439561,0.03018867924528302,0.4
mhrwiki,False,94.0,0.3,0.375,0.9560439560439561,0.026415094339622643,0.33333333333333326
mhrwiki,False,95.0,0.5,0.375,0.9706959706959707,0.011320754716981131,0.42857142857142855
mhrwiki,False,96.0,1.0,0.375,0.9816849816849816,0.0,0.5454545454545454
mhrwiki,False,97.0,1.0,0.25,0.978021978021978,0.0,0.4
mhrwiki,False,98.0,1.0,0.25,0.978021978021978,0.0,0.4
mhrwiki,False,99.0,1.0,0.125,0.9743589743589743,0.0,0.2222222222222222
