wiki_db,user_is_anonymous_or_bot,threshold,precision,recall,accuracy,fpr,F1
mnwiki,True,0.0,0.3580199539524175,1.0,0.3580199539524175,1.0,0.5272675897146086
mnwiki,True,1.0,0.3580199539524175,1.0,0.3580199539524175,1.0,0.5272675897146086
mnwiki,True,2.0,0.3580199539524175,1.0,0.3580199539524175,1.0,0.5272675897146086
mnwiki,True,3.0,0.3580199539524175,1.0,0.3580199539524175,1.0,0.5272675897146086
mnwiki,True,4.0,0.3580199539524175,1.0,0.3580199539524175,1.0,0.5272675897146086
mnwiki,True,5.0,0.3580199539524175,1.0,0.3580199539524175,1.0,0.5272675897146086
mnwiki,True,6.0,0.3580199539524175,1.0,0.3580199539524175,1.0,0.5272675897146086
mnwiki,True,7.0,0.3580199539524175,1.0,0.3580199539524175,1.0,0.5272675897146086
mnwiki,True,8.0,0.3580199539524175,1.0,0.3580199539524175,1.0,0.5272675897146086
mnwiki,True,9.0,0.3581573896353167,1.0,0.35840368380660015,0.9994022713687986,0.5274166195590729
mnwiki,True,10.0,0.3581573896353167,1.0,0.35840368380660015,0.9994022713687986,0.5274166195590729
mnwiki,True,11.0,0.3581573896353167,1.0,0.35840368380660015,0.9994022713687986,0.5274166195590729
mnwiki,True,12.0,0.358294930875576,1.0,0.3587874136607828,0.9988045427375971,0.5275657336726038
mnwiki,True,13.0,0.358294930875576,1.0,0.3587874136607828,0.9988045427375971,0.5275657336726038
mnwiki,True,14.0,0.358294930875576,1.0,0.3587874136607828,0.9988045427375971,0.5275657336726038
mnwiki,True,15.0,0.358294930875576,1.0,0.3587874136607828,0.9988045427375971,0.5275657336726038
mnwiki,True,16.0,0.358294930875576,1.0,0.3587874136607828,0.9988045427375971,0.5275657336726038
mnwiki,True,17.0,0.3584325777948521,1.0,0.3591711435149655,0.9982068141063957,0.5277149321266968
mnwiki,True,18.0,0.3584325777948521,1.0,0.3591711435149655,0.9982068141063957,0.5277149321266968
mnwiki,True,19.0,0.3585703305149885,1.0,0.3595548733691481,0.9976090854751942,0.5278642149929279
mnwiki,True,20.0,0.3589842247018084,1.0,0.3607060629316961,0.99581589958159,0.5283125707814269
mnwiki,True,21.0,0.35912240184757505,1.0,0.3610897927858787,0.9952181709503886,0.5284621920135939
mnwiki,True,22.0,0.35939907550077044,1.0,0.36185725249424405,0.9940227136879857,0.5287616888637008
mnwiki,True,23.0,0.35953757225433525,1.0,0.3622409823484267,0.9934249850567842,0.5289115646258503
mnwiki,True,24.0,0.35953757225433525,1.0,0.3622409823484267,0.9934249850567842,0.5289115646258503
mnwiki,True,25.0,0.35967617579028527,1.0,0.3626247122026094,0.9928272564255828,0.5290615253756733
mnwiki,True,26.0,0.3598148862321635,1.0,0.363008442056792,0.9922295277943813,0.5292115711854792
mnwiki,True,27.0,0.3599537037037037,1.0,0.36339217191097467,0.9916317991631799,0.5293617021276595
mnwiki,True,28.0,0.36009262832883054,1.0,0.36377590176515734,0.9910340705319785,0.5295119182746878
mnwiki,True,29.0,0.3598455598455598,0.9989281886387996,0.36339217191097467,0.9910340705319785,0.5290945217144479
mnwiki,True,30.0,0.3601236476043277,0.9989281886387996,0.36415963161934,0.9898386132695756,0.5293950582220961
mnwiki,True,31.0,0.3602628527251643,0.9989281886387996,0.3645433614735226,0.9892408846383742,0.5295454545454545
mnwiki,True,32.0,0.3606811145510836,0.9989281886387996,0.3656945510360706,0.9874476987447699,0.5299971566676144
mnwiki,True,33.0,0.36152055857253684,0.9989281886387996,0.3679969301611665,0.9838613269575612,0.5309028766733125
mnwiki,True,34.0,0.36152055857253684,0.9989281886387996,0.3679969301611665,0.9838613269575612,0.5309028766733125
mnwiki,True,35.0,0.36166084594489717,0.9989281886387996,0.3683806600153492,0.9832635983263598,0.531054131054131
mnwiki,True,36.0,0.36180124223602483,0.9989281886387996,0.36876438986953186,0.9826658696951583,0.5312054716443432
mnwiki,True,37.0,0.3620823620823621,0.9989281886387996,0.36953184957789714,0.9814704124327556,0.5315084117479327
mnwiki,True,38.0,0.36250486192143133,0.9989281886387996,0.37068303914044515,0.9796772265391512,0.5319634703196348
mnwiki,True,39.0,0.3629283489096573,0.9989281886387996,0.3718342287029931,0.9778840406455469,0.5324193087689232
mnwiki,True,40.0,0.36363636363636365,0.9989281886387996,0.3737528779739064,0.9748953974895398,0.5331807780320367
mnwiki,True,41.0,0.36491777603758807,0.9989281886387996,0.3772064466615503,0.9695158398087268,0.5345569257241182
mnwiki,True,42.0,0.36549019607843136,0.9989281886387996,0.3787413660782809,0.9671249252839211,0.5351708297444732
mnwiki,True,43.0,0.36592069100903024,0.9989281886387996,0.37989255564082886,0.9653317393903168,0.535632183908046
mnwiki,True,44.0,0.3661030279197798,0.9978563772775991,0.3806600153491942,0.9635385534967125,0.5356731875719217
mnwiki,True,45.0,0.3671135646687697,0.9978563772775991,0.38334612432847276,0.9593544530783025,0.5367541078120496
mnwiki,True,46.0,0.36798418972332014,0.9978563772775991,0.3856485034535687,0.9557680812910938,0.5376840889402252
mnwiki,True,47.0,0.3682753164556962,0.9978563772775991,0.386415963161934,0.9545726240286909,0.5379947991909853
mnwiki,True,48.0,0.36915146708961144,0.9978563772775991,0.38871834228702995,0.9509862522414824,0.5389290882778582
mnwiki,True,49.0,0.36959110758237396,0.9978563772775991,0.3898695318495779,0.949193066347878,0.5393974507531865
mnwiki,True,50.0,0.3698847834723878,0.9978563772775991,0.3906369915579432,0.9479976090854751,0.5397101449275362
mnwiki,True,51.0,0.3703261734287987,0.9978563772775991,0.3917881811204912,0.9462044231918709,0.5401798665506237
mnwiki,True,52.0,0.37062101910828027,0.9978563772775991,0.39255564082885647,0.945008965929468,0.5404934687953556
mnwiki,True,53.0,0.3709163346613546,0.9978563772775991,0.3933231005372218,0.9438135086670651,0.5408074353761255
mnwiki,True,54.0,0.37140575079872207,0.9967845659163987,0.3948580199539524,0.9408248655110579,0.5411696246726797
mnwiki,True,55.0,0.37244693632358833,0.9967845659163987,0.397544128933231,0.9366407650926479,0.5422740524781341
mnwiki,True,56.0,0.37289494787489974,0.9967845659163987,0.398695318495779,0.9348475791990436,0.5427487598482638
mnwiki,True,57.0,0.37349397590361444,0.9967845659163987,0.4002302379125096,0.9324566646742379,0.5433829973707274
mnwiki,True,58.0,0.3743961352657005,0.9967845659163987,0.4025326170376055,0.9288702928870293,0.5443371378402106
mnwiki,True,59.0,0.3754541784416633,0.9967845659163987,0.40521872601688413,0.9246861924686193,0.5454545454545454
mnwiki,True,60.0,0.3760129659643436,0.9946409431939979,0.40713737528779737,0.9205020920502092,0.5457218465157306
mnwiki,True,61.0,0.3775427176566314,0.9946409431939979,0.41097467382962394,0.9145248057381948,0.5473311707460926
mnwiki,True,62.0,0.37816843826655766,0.9914255091103966,0.4132770529547199,0.909145248057382,0.5474992601361349
mnwiki,True,63.0,0.3801482701812191,0.9892818863879957,0.418649270913277,0.899581589958159,0.5492412972329663
mnwiki,True,64.0,0.3810508895324783,0.9871382636655949,0.42133537989255565,0.8942020322773461,0.5498507462686567
mnwiki,True,65.0,0.38359017076218244,0.9871382636655949,0.4274750575594781,0.8846383741781231,0.5524895020995801
mnwiki,True,66.0,0.3859060402684564,0.9860664523043944,0.433231005372218,0.8750747160789002,0.554718118782032
mnwiki,True,67.0,0.38783269961977185,0.9839228295819936,0.4382194934765925,0.8661087866108786,0.5563636363636364
mnwiki,True,68.0,0.3887000849617672,0.9807073954983923,0.44090560245587107,0.8601315002988643,0.5567386674779434
mnwiki,True,69.0,0.3897216274089936,0.9753483386923901,0.444359171143515,0.8517632994620442,0.5569155446756426
mnwiki,True,70.0,0.3914544669831679,0.9721329046087889,0.44896392939370683,0.8427973699940227,0.5581538461538462
mnwiki,True,71.0,0.3944954128440367,0.9678456591639871,0.4566385264773599,0.8284518828451883,0.5605214152700186
mnwiki,True,72.0,0.3944223107569721,0.954983922829582,0.4589409056024559,0.8176927674835625,0.5582706766917293
mnwiki,True,73.0,0.3981981981981982,0.947481243301179,0.46853415195702225,0.7985654512851166,0.5607358071677767
mnwiki,True,74.0,0.40248390064397427,0.9378349410503751,0.47927858787413663,0.7764494919306635,0.5632442870936595
mnwiki,True,75.0,0.4074074074074074,0.9314040728831725,0.4904067536454336,0.7555289898386133,0.5668623613829092
mnwiki,True,76.0,0.40955137481910275,0.909967845659164,0.4980813507290867,0.7316198445905558,0.5648702594810379
mnwiki,True,77.0,0.41543026706231456,0.9003215434083601,0.5107444359171144,0.7065152420800956,0.5685279187817259
mnwiki,True,78.0,0.4214029697900666,0.8821007502679529,0.5241749808135073,0.675433353257621,0.5703395703395703
mnwiki,True,79.0,0.42705005324813633,0.8595927116827439,0.5368380660015349,0.6431560071727436,0.5706154393454287
mnwiki,True,80.0,0.4348543155579989,0.8478027867095391,0.5510360706062931,0.6144650328750747,0.5748546511627908
mnwiki,True,81.0,0.44041450777202074,0.819935691318328,0.5625479662317728,0.5809922295277944,0.5730337078651686
mnwiki,True,82.0,0.44343065693430656,0.7813504823151125,0.5706062931696086,0.5469216975493126,0.5657741559953434
mnwiki,True,83.0,0.4475388601036269,0.7406216505894962,0.5798158096699924,0.5098625224148237,0.5579329834477189
mnwiki,True,84.0,0.4540466392318244,0.7095391211146839,0.5905602455871066,0.4757919904363419,0.5537432036804685
mnwiki,True,85.0,0.4626099706744868,0.6763129689174705,0.6028396009209517,0.43813508667065154,0.5494122768828907
mnwiki,True,86.0,0.4631245043616178,0.6259378349410504,0.6062931696085956,0.4046622833233712,0.5323609845031905
mnwiki,True,87.0,0.4678111587982833,0.5841371918542336,0.6132003069838834,0.3705917513448894,0.5195424213536701
mnwiki,True,88.0,0.4782608695652174,0.5423365487674169,0.6243284727551803,0.3299462044231919,0.5082872928176796
mnwiki,True,89.0,0.4864864864864865,0.5016077170418006,0.6320030698388335,0.2952779438135087,0.49393139841688655
mnwiki,True,90.0,0.49883177570093457,0.45766345123258306,0.6412125863392172,0.25642558278541544,0.47736165455561763
mnwiki,True,91.0,0.5165289256198347,0.40192926045016075,0.6511895625479662,0.20980274955170353,0.45207956600361665
mnwiki,True,92.0,0.5454545454545454,0.3536977491961415,0.6630851880276285,0.1643753735803945,0.42912873862158646
mnwiki,True,93.0,0.5596707818930041,0.2915326902465166,0.6642363775901765,0.127913927077107,0.3833685694150811
mnwiki,True,94.0,0.5835777126099707,0.2132904608788853,0.6638526477359938,0.08487746563060371,0.31240188383045525
mnwiki,True,95.0,0.6406926406926406,0.15862808145766344,0.6669224865694551,0.049611476389719064,0.2542955326460481
mnwiki,True,96.0,0.7354838709677419,0.12218649517684887,0.6699923254029163,0.024506873879258817,0.20955882352941174
mnwiki,True,97.0,0.8,0.09003215434083602,0.6661550268610897,0.012552301255230125,0.161849710982659
mnwiki,True,98.0,0.8382352941176471,0.06109324758842444,0.6596316193399846,0.00657501494321578,0.1138861138861139
mnwiki,True,99.0,0.8518518518518519,0.02465166130760986,0.649270913277053,0.002390914524805738,0.04791666666666666
mnwiki,False,0.0,0.09410064018723756,1.0,0.09410064018723756,1.0,0.17201459670315844
mnwiki,False,1.0,0.09411359724612736,1.0,0.09423831486198114,0.9998480243161094,0.1720362446513969
mnwiki,False,2.0,0.09443216358109975,1.0,0.09761134439319887,0.9961246200607903,0.17256832670580066
mnwiki,False,3.0,0.0954408992529498,1.0,0.10814345701108281,0.9844984802431611,0.17425111536010196
mnwiki,False,4.0,0.09785100286532951,0.9992684711046086,0.13299373580229917,0.9569908814589666,0.17824753702616297
mnwiki,False,5.0,0.10079065986846966,0.9978054133138259,0.16211192951056652,0.9246960486322189,0.18308724832214765
mnwiki,False,6.0,0.10398534127347686,0.9963423555230432,0.1917808219178082,0.8917933130699088,0.18831662633944
mnwiki,False,7.0,0.10730899629425215,0.9956108266276518,0.22021064225235767,0.8603343465045593,0.19373665480427046
mnwiki,False,8.0,0.11084828711256117,0.9941477688368691,0.24905348661113788,0.8283434650455928,0.19945696044617303
mnwiki,False,9.0,0.11418947368421052,0.991953182150695,0.2751428374750465,0.7993161094224924,0.20480289986406888
mnwiki,False,10.0,0.11793933054393306,0.9897585954645208,0.3024712604116473,0.7689209726443769,0.2107640781992367
mnwiki,False,11.0,0.12183701035569564,0.9897585954645208,0.3277345632270944,0.7410334346504559,0.2169660038486209
mnwiki,False,12.0,0.12565104166666666,0.9882955376737381,0.35175879396984927,0.7143617021276596,0.2229556894133179
mnwiki,False,13.0,0.12912193251533743,0.9853694220921726,0.3732360432298479,0.6903495440729484,0.228324434274091
mnwiki,False,14.0,0.13272243570795153,0.9853694220921726,0.39271700970606455,0.6688449848024316,0.23393539423410903
mnwiki,False,15.0,0.13620689655172413,0.9824433065106072,0.4120603015075377,0.6471884498480243,0.23924467800837268
mnwiki,False,16.0,0.13912591050988554,0.978054133138259,0.4284435878020238,0.6286474164133738,0.24360025507880112
mnwiki,False,17.0,0.14210919970082272,0.9729334308705194,0.44475803675913816,0.6101063829787234,0.24799552489278387
mnwiki,False,18.0,0.14547449259462425,0.9700073152889539,0.4610036483788807,0.5918693009118541,0.25300515168860904
mnwiki,False,19.0,0.14909008703515317,0.9648866130212144,0.47848833207131547,0.5720364741641337,0.25827295868415895
mnwiki,False,20.0,0.1531657355679702,0.9626920263350403,0.4956288290768913,0.552887537993921,0.26428356260668734
mnwiki,False,21.0,0.15690726577437858,0.9604974396488661,0.5106353686239417,0.5360942249240122,0.2697483307652799
mnwiki,False,22.0,0.16013712047012732,0.9568397951719093,0.5237144627245818,0.5212765957446809,0.2743576297850026
mnwiki,False,23.0,0.16404381216165176,0.9531821506949525,0.5385144902595168,0.5045592705167173,0.27991407089151454
mnwiki,False,24.0,0.167248287449916,0.9465983906364301,0.5514559096854134,0.48958966565349543,0.2842706502636204
mnwiki,False,25.0,0.17139824887237995,0.9451353328456474,0.5648791904729125,0.4746200607902736,0.2901740595171252
mnwiki,False,26.0,0.1746742671009772,0.9414776883686906,0.575893164452399,0.4620820668693009,0.29467658843732114
mnwiki,False,27.0,0.17801556420233464,0.9370885149963424,0.5869071384318855,0.449468085106383,0.2991942076375102
mnwiki,False,28.0,0.18192154633314384,0.936356986100951,0.5977834377366283,0.43738601823708206,0.3046531000833036
mnwiki,False,29.0,0.18568524970963995,0.9356254572055597,0.6078336889929098,0.42621580547112464,0.3098728043609934
mnwiki,False,30.0,0.18879361324659966,0.9341623994147769,0.6160941694775246,0.4169452887537994,0.314106505964826
mnwiki,False,31.0,0.19251094670089083,0.9326993416239941,0.6255248846974599,0.40638297872340423,0.3191489361702128
mnwiki,False,32.0,0.19677968725808948,0.9297732260424286,0.6362635093274592,0.39422492401215803,0.3248147201635574
mnwiki,False,33.0,0.19832092507524157,0.9158741770299926,0.6436979417636126,0.38457446808510637,0.32604166666666673
mnwiki,False,34.0,0.20240025948751217,0.9129480614484272,0.6532663316582915,0.3737082066869301,0.331342094782955
mnwiki,False,35.0,0.20654159056948365,0.9100219458668617,0.6625593722034832,0.36314589665653496,0.33667117726657647
mnwiki,False,36.0,0.21019647696476965,0.9078273591806877,0.6703379913264955,0.35433130699088144,0.34135607206711593
mnwiki,False,37.0,0.21345987920621226,0.9049012435991222,0.6772905624010463,0.34635258358662613,0.34543423624685843
mnwiki,False,38.0,0.21666666666666667,0.9034381858083395,0.6835547601018792,0.3392857142857143,0.3495118154804019
mnwiki,False,39.0,0.22009654925800107,0.9005120702267739,0.6903696565016865,0.33145896656534957,0.35373563218390797
mnwiki,False,40.0,0.2239213544511196,0.8997805413313826,0.697115715564122,0.32393617021276594,0.358600583090379
mnwiki,False,41.0,0.22791388270230142,0.8983174835405998,0.7040682866386728,0.3161094224924012,0.36358253145817915
mnwiki,False,42.0,0.23124764417640406,0.8975859546452085,0.7095752736284161,0.3099544072948328,0.3677506368949498
mnwiki,False,43.0,0.2348993288590604,0.8961228968544257,0.7155641219797618,0.30319148936170215,0.37222728653904585
mnwiki,False,44.0,0.23742962531547274,0.894659839063643,0.7196943622220693,0.2984802431610942,0.37526848726603257
mnwiki,False,45.0,0.24139976275207592,0.8931967812728603,0.7258208852481586,0.2915653495440729,0.3800778210116732
mnwiki,False,46.0,0.2441860465116279,0.8910021945866862,0.7302264748399532,0.2864741641337386,0.38332022029897717
mnwiki,False,47.0,0.24760546158549013,0.888807607900512,0.7353892751428375,0.2805471124620061,0.38731271915843163
mnwiki,False,48.0,0.25171197343847274,0.8873445501097293,0.7411716114820679,0.27401215805471124,0.3921758810216618
mnwiki,False,49.0,0.25451112043642465,0.8873445501097293,0.7448199903627728,0.26998480243161094,0.3955649763574107
mnwiki,False,50.0,0.2586501495087569,0.8858814923189466,0.750326977352516,0.26375379939209725,0.4003967597950074
mnwiki,False,51.0,0.2623590633130963,0.8851499634235552,0.7550079162937977,0.25851063829787235,0.40474995818698783
mnwiki,False,52.0,0.2653061224489796,0.8844184345281638,0.7586562951745026,0.25440729483282676,0.4081701553004726
mnwiki,False,53.0,0.2691534509716328,0.8814923189465984,0.7636125834652716,0.2486322188449848,0.4123887748117727
mnwiki,False,54.0,0.27268602540834846,0.8792977322604243,0.7679493357196944,0.24361702127659574,0.41627705627705625
mnwiki,False,55.0,0.276905311778291,0.8771031455742502,0.7729056240104633,0.2379179331306991,0.4209232929612076
mnwiki,False,56.0,0.2803563056727614,0.8749085588880761,0.7768981895780271,0.23328267477203649,0.42464051127285635
mnwiki,False,57.0,0.2832026609645997,0.8719824433065106,0.7802712191092449,0.22925531914893618,0.42754662840746055
mnwiki,False,58.0,0.2863680154142582,0.8697878566203365,0.7837819233152061,0.2251519756838906,0.43087515854321434
mnwiki,False,59.0,0.2897879600292469,0.8697878566203365,0.7871549528464239,0.22142857142857142,0.4347349177330896
mnwiki,False,60.0,0.2933761739990114,0.8683247988295537,0.7908033317271288,0.21724924012158053,0.4385738038056531
mnwiki,False,61.0,0.29716151720673195,0.8653986832479883,0.7947270599573208,0.21261398176291793,0.4424083769633508
mnwiki,False,62.0,0.2999234889058914,0.8602779809802488,0.7978935774764232,0.20858662613981763,0.4447806354009078
mnwiki,False,63.0,0.3030852994555354,0.8551572787125091,0.8013354443450127,0.20425531914893616,0.4475497702909648
mnwiki,False,64.0,0.3071654373024236,0.852962692026335,0.8051214979004612,0.19984802431610943,0.4516753825295371
mnwiki,False,65.0,0.3108974358974359,0.8514996342355523,0.8084256900943072,0.196048632218845,0.4554881627861475
mnwiki,False,66.0,0.3153030714868171,0.8485735186539868,0.8123494183244993,0.19141337386018237,0.4597701149425287
mnwiki,False,67.0,0.3176925200110406,0.8419897585954645,0.8149652371446272,0.1878419452887538,0.46132264529058126
mnwiki,False,68.0,0.3210880538418396,0.8376005852231163,0.8180629173263578,0.1839665653495441,0.4642205554429354
mnwiki,False,69.0,0.3241852487135506,0.8295537673738113,0.8212294348454602,0.17963525835866262,0.4661870503597122
mnwiki,False,70.0,0.3285797438882421,0.8258961228968544,0.8248089763887932,0.17530395136778115,0.47012283989173437
mnwiki,False,71.0,0.3331355680806882,0.8215069495245062,0.8284573552694982,0.17082066869300913,0.4740396791895315
mnwiki,False,72.0,0.335249621785174,0.8105340160936357,0.8309354994148827,0.16694528875379938,0.47431506849315064
mnwiki,False,73.0,0.33983890954151175,0.8024871982443307,0.8347215529703311,0.16193009118541032,0.4774755168661588
mnwiki,False,74.0,0.3430680359435173,0.7820043891733723,0.8385764438631513,0.1555471124620061,0.4769127816194513
mnwiki,False,75.0,0.3498677248677249,0.7739575713240673,0.8433950574791768,0.1493920972644377,0.48189478478706443
mnwiki,False,76.0,0.3537881384984573,0.7549378200438918,0.8471811110346252,0.1432370820668693,0.48179271708683474
mnwiki,False,77.0,0.3611209648811635,0.7446964155084126,0.8519997246506505,0.13685410334346504,0.48638318203535597
mnwiki,False,78.0,0.3679140422378659,0.7264081931236284,0.8568183382666759,0.1296352583586626,0.48844072798819477
mnwiki,False,79.0,0.37543587756683455,0.7088514996342355,0.8616369518827012,0.12249240121580547,0.4908814589665653
mnwiki,False,80.0,0.3839321760193783,0.695683979517191,0.8663178908239829,0.11595744680851064,0.4947970863683663
mnwiki,False,81.0,0.3908780903665814,0.6708119970738844,0.8706546430784057,0.10858662613981764,0.49394021007271743
mnwiki,False,82.0,0.39609800362976405,0.6386247256766642,0.8743718592964824,0.10113981762917933,0.48893867264071683
mnwiki,False,83.0,0.40077257363592467,0.6071689831748354,0.8776072141529566,0.09430091185410334,0.4828388598022106
mnwiki,False,84.0,0.40698869475847893,0.5793708851499634,0.8809802436841743,0.08768996960486322,0.47811651071536365
mnwiki,False,85.0,0.4181010549694614,0.5508412582297001,0.8855923452880843,0.07963525835866261,0.4753787878787879
mnwiki,False,86.0,0.4198795180722892,0.5098756400877835,0.8875886280718662,0.07317629179331307,0.4605219689461513
mnwiki,False,87.0,0.4286653517422748,0.4769568397951719,0.8909616576030839,0.06603343465045593,0.45152354570637115
mnwiki,False,88.0,0.438136826783115,0.4403803950256035,0.8941970124595581,0.058662613981762916,0.4392557460780737
mnwiki,False,89.0,0.4483037156704362,0.4059985369422092,0.8970881806291733,0.05189969604863222,0.42610364683301344
mnwiki,False,90.0,0.46098003629764067,0.37161667885881494,0.8999793487987885,0.04513677811550152,0.4115026326447955
mnwiki,False,91.0,0.4797872340425532,0.32991953182150696,0.9032835409926344,0.037158054711246204,0.3909839618552232
mnwiki,False,92.0,0.5102564102564102,0.29114850036576445,0.907000757210711,0.029027355623100305,0.3707498835584537
mnwiki,False,93.0,0.5221518987341772,0.24140453547915142,0.9078268052591726,0.022948328267477204,0.3301650825412706
mnwiki,False,94.0,0.5448577680525164,0.18215069495245062,0.9087216906450059,0.015805471124620062,0.2730263157894737
mnwiki,False,95.0,0.5981308411214953,0.14045354791514264,0.9102361120671852,0.009802431610942249,0.2274881516587678
mnwiki,False,96.0,0.6788990825688074,0.10826627651792246,0.9112686721277621,0.005319148936170213,0.18675078864353314
mnwiki,False,97.0,0.7746478873239436,0.08046817849305048,0.9112686721277621,0.0024316109422492403,0.14579191517561302
mnwiki,False,98.0,0.8314606741573034,0.05413313825896123,0.9099607627176981,0.0011398176291793312,0.10164835164835165
mnwiki,False,99.0,0.868421052631579,0.024140453547915143,0.9078268052591726,0.00037993920972644377,0.04697508896797153
