wiki_db,user_is_anonymous_or_bot,threshold,precision,recall,accuracy,fpr,F1
mznwiki,True,0.0,0.6804123711340206,1.0,0.6804123711340206,1.0,0.8098159509202454
mznwiki,True,1.0,0.6804123711340206,1.0,0.6804123711340206,1.0,0.8098159509202454
mznwiki,True,2.0,0.6804123711340206,1.0,0.6804123711340206,1.0,0.8098159509202454
mznwiki,True,3.0,0.6804123711340206,1.0,0.6804123711340206,1.0,0.8098159509202454
mznwiki,True,4.0,0.6804123711340206,1.0,0.6804123711340206,1.0,0.8098159509202454
mznwiki,True,5.0,0.6804123711340206,1.0,0.6804123711340206,1.0,0.8098159509202454
mznwiki,True,6.0,0.6804123711340206,1.0,0.6804123711340206,1.0,0.8098159509202454
mznwiki,True,7.0,0.6804123711340206,1.0,0.6804123711340206,1.0,0.8098159509202454
mznwiki,True,8.0,0.6804123711340206,1.0,0.6804123711340206,1.0,0.8098159509202454
mznwiki,True,9.0,0.6804123711340206,1.0,0.6804123711340206,1.0,0.8098159509202454
mznwiki,True,10.0,0.6804123711340206,1.0,0.6804123711340206,1.0,0.8098159509202454
mznwiki,True,11.0,0.6804123711340206,1.0,0.6804123711340206,1.0,0.8098159509202454
mznwiki,True,12.0,0.6804123711340206,1.0,0.6804123711340206,1.0,0.8098159509202454
mznwiki,True,13.0,0.6804123711340206,1.0,0.6804123711340206,1.0,0.8098159509202454
mznwiki,True,14.0,0.6804123711340206,1.0,0.6804123711340206,1.0,0.8098159509202454
mznwiki,True,15.0,0.6804123711340206,1.0,0.6804123711340206,1.0,0.8098159509202454
mznwiki,True,16.0,0.6804123711340206,1.0,0.6804123711340206,1.0,0.8098159509202454
mznwiki,True,17.0,0.6804123711340206,1.0,0.6804123711340206,1.0,0.8098159509202454
mznwiki,True,18.0,0.6804123711340206,1.0,0.6804123711340206,1.0,0.8098159509202454
mznwiki,True,19.0,0.6804123711340206,1.0,0.6804123711340206,1.0,0.8098159509202454
mznwiki,True,20.0,0.6818181818181818,1.0,0.6824742268041237,0.9935483870967742,0.8108108108108109
mznwiki,True,21.0,0.6818181818181818,1.0,0.6824742268041237,0.9935483870967742,0.8108108108108109
mznwiki,True,22.0,0.6818181818181818,1.0,0.6824742268041237,0.9935483870967742,0.8108108108108109
mznwiki,True,23.0,0.6818181818181818,1.0,0.6824742268041237,0.9935483870967742,0.8108108108108109
mznwiki,True,24.0,0.6818181818181818,1.0,0.6824742268041237,0.9935483870967742,0.8108108108108109
mznwiki,True,25.0,0.6818181818181818,1.0,0.6824742268041237,0.9935483870967742,0.8108108108108109
mznwiki,True,26.0,0.6818181818181818,1.0,0.6824742268041237,0.9935483870967742,0.8108108108108109
mznwiki,True,27.0,0.6818181818181818,1.0,0.6824742268041237,0.9935483870967742,0.8108108108108109
mznwiki,True,28.0,0.6818181818181818,1.0,0.6824742268041237,0.9935483870967742,0.8108108108108109
mznwiki,True,29.0,0.6818181818181818,1.0,0.6824742268041237,0.9935483870967742,0.8108108108108109
mznwiki,True,30.0,0.6818181818181818,1.0,0.6824742268041237,0.9935483870967742,0.8108108108108109
mznwiki,True,31.0,0.6818181818181818,1.0,0.6824742268041237,0.9935483870967742,0.8108108108108109
mznwiki,True,32.0,0.6818181818181818,1.0,0.6824742268041237,0.9935483870967742,0.8108108108108109
mznwiki,True,33.0,0.6818181818181818,1.0,0.6824742268041237,0.9935483870967742,0.8108108108108109
mznwiki,True,34.0,0.6818181818181818,1.0,0.6824742268041237,0.9935483870967742,0.8108108108108109
mznwiki,True,35.0,0.6818181818181818,1.0,0.6824742268041237,0.9935483870967742,0.8108108108108109
mznwiki,True,36.0,0.6818181818181818,1.0,0.6824742268041237,0.9935483870967742,0.8108108108108109
mznwiki,True,37.0,0.6818181818181818,1.0,0.6824742268041237,0.9935483870967742,0.8108108108108109
mznwiki,True,38.0,0.6818181818181818,1.0,0.6824742268041237,0.9935483870967742,0.8108108108108109
mznwiki,True,39.0,0.6818181818181818,1.0,0.6824742268041237,0.9935483870967742,0.8108108108108109
mznwiki,True,40.0,0.6818181818181818,1.0,0.6824742268041237,0.9935483870967742,0.8108108108108109
mznwiki,True,41.0,0.6818181818181818,1.0,0.6824742268041237,0.9935483870967742,0.8108108108108109
mznwiki,True,42.0,0.6818181818181818,1.0,0.6824742268041237,0.9935483870967742,0.8108108108108109
mznwiki,True,43.0,0.6818181818181818,1.0,0.6824742268041237,0.9935483870967742,0.8108108108108109
mznwiki,True,44.0,0.6818181818181818,1.0,0.6824742268041237,0.9935483870967742,0.8108108108108109
mznwiki,True,45.0,0.6818181818181818,1.0,0.6824742268041237,0.9935483870967742,0.8108108108108109
mznwiki,True,46.0,0.6818181818181818,1.0,0.6824742268041237,0.9935483870967742,0.8108108108108109
mznwiki,True,47.0,0.6818181818181818,1.0,0.6824742268041237,0.9935483870967742,0.8108108108108109
mznwiki,True,48.0,0.6818181818181818,1.0,0.6824742268041237,0.9935483870967742,0.8108108108108109
mznwiki,True,49.0,0.6818181818181818,1.0,0.6824742268041237,0.9935483870967742,0.8108108108108109
mznwiki,True,50.0,0.6818181818181818,1.0,0.6824742268041237,0.9935483870967742,0.8108108108108109
mznwiki,True,51.0,0.6818181818181818,1.0,0.6824742268041237,0.9935483870967742,0.8108108108108109
mznwiki,True,52.0,0.6818181818181818,1.0,0.6824742268041237,0.9935483870967742,0.8108108108108109
mznwiki,True,53.0,0.6818181818181818,1.0,0.6824742268041237,0.9935483870967742,0.8108108108108109
mznwiki,True,54.0,0.6818181818181818,1.0,0.6824742268041237,0.9935483870967742,0.8108108108108109
mznwiki,True,55.0,0.6818181818181818,1.0,0.6824742268041237,0.9935483870967742,0.8108108108108109
mznwiki,True,56.0,0.6818181818181818,1.0,0.6824742268041237,0.9935483870967742,0.8108108108108109
mznwiki,True,57.0,0.6811594202898551,0.996969696969697,0.6804123711340206,0.9935483870967742,0.8093480934809348
mznwiki,True,58.0,0.6791666666666667,0.9878787878787879,0.6742268041237114,0.9935483870967742,0.8049382716049382
mznwiki,True,59.0,0.6784968684759917,0.9848484848484849,0.6721649484536083,0.9935483870967742,0.8034610630407912
mznwiki,True,60.0,0.6784968684759917,0.9848484848484849,0.6721649484536083,0.9935483870967742,0.8034610630407912
mznwiki,True,61.0,0.6784968684759917,0.9848484848484849,0.6721649484536083,0.9935483870967742,0.8034610630407912
mznwiki,True,62.0,0.6792452830188679,0.9818181818181818,0.6721649484536083,0.9870967741935484,0.8029739776951672
mznwiki,True,63.0,0.6792452830188679,0.9818181818181818,0.6721649484536083,0.9870967741935484,0.8029739776951672
mznwiki,True,64.0,0.6778947368421052,0.9757575757575757,0.668041237113402,0.9870967741935484,0.7999999999999999
mznwiki,True,65.0,0.6765327695560254,0.9696969696969697,0.6639175257731958,0.9870967741935484,0.797011207970112
mznwiki,True,66.0,0.676595744680851,0.9636363636363636,0.6618556701030928,0.9806451612903225,0.7949999999999999
mznwiki,True,67.0,0.6809421841541756,0.9636363636363636,0.668041237113402,0.9612903225806452,0.7979924717691342
mznwiki,True,68.0,0.6809421841541756,0.9636363636363636,0.668041237113402,0.9612903225806452,0.7979924717691342
mznwiki,True,69.0,0.6817204301075269,0.9606060606060606,0.668041237113402,0.9548387096774194,0.7974842767295598
mznwiki,True,70.0,0.6817204301075269,0.9606060606060606,0.668041237113402,0.9548387096774194,0.7974842767295598
mznwiki,True,71.0,0.6831896551724138,0.9606060606060606,0.6701030927835051,0.9483870967741935,0.7984886649874056
mznwiki,True,72.0,0.6826086956521739,0.9515151515151515,0.6659793814432989,0.9419354838709677,0.7949367088607595
mznwiki,True,73.0,0.6855895196506551,0.9515151515151515,0.6701030927835051,0.9290322580645162,0.7969543147208122
mznwiki,True,74.0,0.6894273127753304,0.9484848484848485,0.6742268041237114,0.9096774193548387,0.798469387755102
mznwiki,True,75.0,0.6904231625835189,0.9393939393939394,0.6721649484536083,0.896774193548387,0.7958921694480102
mznwiki,True,76.0,0.6886363636363636,0.9181818181818182,0.6618556701030928,0.8838709677419355,0.7870129870129869
mznwiki,True,77.0,0.6882217090069284,0.9030303030303031,0.6556701030927835,0.8709677419354839,0.7811271297509829
mznwiki,True,78.0,0.6876456876456877,0.8939393939393939,0.6515463917525773,0.864516129032258,0.77733860342556
mznwiki,True,79.0,0.6889952153110048,0.8727272727272727,0.6453608247422681,0.8387096774193549,0.770053475935829
mznwiki,True,80.0,0.6934306569343066,0.8636363636363636,0.6474226804123712,0.8129032258064516,0.7692307692307693
mznwiki,True,81.0,0.7095959595959596,0.8515151515151516,0.6618556701030928,0.7419354838709677,0.7741046831955922
mznwiki,True,82.0,0.7150395778364116,0.8212121212121212,0.6556701030927835,0.6967741935483871,0.7644569816643159
mznwiki,True,83.0,0.7202216066481995,0.7878787878787878,0.6474226804123712,0.6516129032258065,0.7525325615050652
mznwiki,True,84.0,0.7325581395348837,0.7636363636363637,0.6494845360824743,0.5935483870967742,0.7477744807121662
mznwiki,True,85.0,0.7587301587301587,0.7242424242424242,0.6556701030927835,0.49032258064516127,0.7410852713178295
mznwiki,True,86.0,0.7633333333333333,0.693939393939394,0.6453608247422681,0.45806451612903226,0.726984126984127
mznwiki,True,87.0,0.7781818181818182,0.6484848484848484,0.6350515463917525,0.3935483870967742,0.7074380165289256
mznwiki,True,88.0,0.7790697674418605,0.6090909090909091,0.6164948453608248,0.36774193548387096,0.6836734693877551
mznwiki,True,89.0,0.7838983050847458,0.5606060606060606,0.5958762886597938,0.32903225806451614,0.6537102473498234
mznwiki,True,90.0,0.783410138248848,0.5151515151515151,0.5731958762886598,0.3032258064516129,0.6215722120658136
mznwiki,True,91.0,0.7903225806451613,0.44545454545454544,0.5422680412371134,0.25161290322580643,0.569767441860465
mznwiki,True,92.0,0.8148148148148148,0.4,0.5298969072164949,0.1935483870967742,0.5365853658536586
mznwiki,True,93.0,0.8153846153846154,0.3212121212121212,0.488659793814433,0.15483870967741936,0.4608695652173913
mznwiki,True,94.0,0.8529411764705882,0.2636363636363636,0.46804123711340206,0.0967741935483871,0.40277777777777773
mznwiki,True,95.0,0.84,0.19090909090909092,0.4247422680412371,0.07741935483870968,0.31111111111111117
mznwiki,True,96.0,0.896551724137931,0.15757575757575756,0.4144329896907217,0.03870967741935484,0.26804123711340205
mznwiki,True,97.0,0.9534883720930233,0.12424242424242424,0.4,0.012903225806451613,0.21983914209115282
mznwiki,True,98.0,0.967741935483871,0.09090909090909091,0.37938144329896906,0.0064516129032258064,0.1662049861495845
mznwiki,True,99.0,1.0,0.045454545454545456,0.35051546391752575,0.0,0.08695652173913045
mznwiki,False,0.0,0.2419678714859438,1.0,0.2419678714859438,1.0,0.38965238480194025
mznwiki,False,1.0,0.2419678714859438,1.0,0.2419678714859438,1.0,0.38965238480194025
mznwiki,False,2.0,0.24269889224572003,1.0,0.24497991967871485,0.9960264900662251,0.3905996758508914
mznwiki,False,3.0,0.24428643981716608,0.9979253112033195,0.25251004016064255,0.9854304635761589,0.3924928600571196
mznwiki,False,4.0,0.2464139344262295,0.9979253112033195,0.26104417670682734,0.9741721854304636,0.39523418241577646
mznwiki,False,5.0,0.25,0.9979253112033195,0.2751004016064257,0.9556291390728476,0.399833748960931
mznwiki,False,6.0,0.2534246575342466,0.9979253112033195,0.28815261044176704,0.93841059602649,0.4042016806722689
mznwiki,False,7.0,0.25763256561328335,0.9979253112033195,0.303714859437751,0.9178807947019868,0.4095359727543636
mznwiki,False,8.0,0.2616974972796518,0.9979253112033195,0.31827309236947793,0.8986754966887417,0.4146551724137931
mznwiki,False,9.0,0.2647220693450743,0.9979253112033195,0.3288152610441767,0.8847682119205298,0.4184428012179209
mznwiki,False,10.0,0.2694677871148459,0.9979253112033195,0.34487951807228917,0.8635761589403973,0.4243493603881782
mznwiki,False,11.0,0.2754868270332188,0.9979253112033195,0.3644578313253012,0.8377483443708609,0.4317773788150809
mznwiki,False,12.0,0.2805376972530684,0.995850622406639,0.3810240963855422,0.8152317880794702,0.43775649794801635
mznwiki,False,13.0,0.28520499108734404,0.995850622406639,0.3950803212851406,0.7966887417218543,0.443418013856813
mznwiki,False,14.0,0.290732889158086,0.995850622406639,0.411144578313253,0.7754966887417218,0.450070323488045
mznwiki,False,15.0,0.2983219390926041,0.995850622406639,0.4322289156626506,0.747682119205298,0.4591104734576758
mznwiki,False,16.0,0.30432020330368487,0.9937759336099585,0.44879518072289154,0.7251655629139073,0.465953307392996
mznwiki,False,17.0,0.3116036505867014,0.991701244813278,0.4678714859437751,0.6993377483443709,0.47420634920634913
mznwiki,False,18.0,0.31733333333333336,0.9875518672199171,0.48293172690763053,0.6781456953642384,0.4803229061553986
mznwiki,False,19.0,0.3251366120218579,0.9875518672199171,0.501004016064257,0.6543046357615894,0.48920863309352514
mznwiki,False,20.0,0.3324022346368715,0.9875518672199171,0.5170682730923695,0.633112582781457,0.49738766980146293
mznwiki,False,21.0,0.3373493975903614,0.9875518672199171,0.5276104417670683,0.6192052980132451,0.502905441098785
mznwiki,False,22.0,0.3412698412698413,0.9813278008298755,0.5371485943775101,0.604635761589404,0.506423982869379
mznwiki,False,23.0,0.3483063328424153,0.9813278008298755,0.5512048192771084,0.5860927152317881,0.5141304347826087
mznwiki,False,24.0,0.3529850746268657,0.9813278008298755,0.5602409638554217,0.5741721854304636,0.5192096597145994
mznwiki,False,25.0,0.3594224924012158,0.9813278008298755,0.572289156626506,0.5582781456953643,0.5261401557285873
mznwiki,False,26.0,0.36419753086419754,0.979253112033195,0.5813253012048193,0.5456953642384106,0.530933633295838
mznwiki,False,27.0,0.3710691823899371,0.979253112033195,0.5933734939759037,0.5298013245033113,0.5381984036488027
mznwiki,False,28.0,0.3764988009592326,0.9771784232365145,0.6029116465863453,0.5165562913907285,0.5435660703981534
mznwiki,False,29.0,0.3819951338199513,0.9771784232365145,0.6119477911646586,0.5046357615894039,0.549271137026239
mznwiki,False,30.0,0.3882934872217642,0.9771784232365145,0.6219879518072289,0.4913907284768212,0.5557522123893806
mznwiki,False,31.0,0.3941422594142259,0.9771784232365145,0.6310240963855421,0.4794701986754967,0.5617173524150267
mznwiki,False,32.0,0.3981403212172443,0.9771784232365145,0.6370481927710844,0.47152317880794703,0.5657657657657658
mznwiki,False,33.0,0.40482342807924204,0.975103734439834,0.6470883534136547,0.45761589403973507,0.5721241631162508
mznwiki,False,34.0,0.4133685136323659,0.975103734439834,0.6591365461847389,0.4417218543046358,0.5806053119209389
mznwiki,False,35.0,0.42190305206463197,0.975103734439834,0.6706827309236948,0.42649006622516555,0.5889724310776943
mznwiki,False,36.0,0.4275296262534184,0.9730290456431535,0.6782128514056225,0.41589403973509936,0.5940468651044964
mznwiki,False,37.0,0.4298808432630614,0.9730290456431535,0.6812248995983936,0.4119205298013245,0.59631277813096
mznwiki,False,38.0,0.43506493506493504,0.9730290456431535,0.6877510040160643,0.4033112582781457,0.6012820512820513
mznwiki,False,39.0,0.44015080113100846,0.9688796680497925,0.6942771084337349,0.3933774834437086,0.6053143227478938
mznwiki,False,40.0,0.44561068702290074,0.9688796680497925,0.7008032128514057,0.3847682119205298,0.6104575163398692
mznwiki,False,41.0,0.44990366088631983,0.9688796680497925,0.7058232931726908,0.3781456953642384,0.6144736842105262
mznwiki,False,42.0,0.45419103313840153,0.966804979253112,0.7108433734939759,0.3708609271523179,0.6180371352785146
mznwiki,False,43.0,0.45956607495069035,0.966804979253112,0.7168674698795181,0.3629139072847682,0.6229946524064172
mznwiki,False,44.0,0.4645354645354645,0.9647302904564315,0.7223895582329317,0.35496688741721855,0.6271072151045178
mznwiki,False,45.0,0.4716024340770791,0.9647302904564315,0.7299196787148594,0.34503311258278146,0.6335149863760218
mznwiki,False,46.0,0.4759467758444217,0.9647302904564315,0.7344377510040161,0.3390728476821192,0.6374228923920493
mznwiki,False,47.0,0.48336798336798337,0.9647302904564315,0.7419678714859438,0.3291390728476821,0.6440443213296398
mznwiki,False,48.0,0.4915433403805497,0.9647302904564315,0.75,0.3185430463576159,0.6512605042016807
mznwiki,False,49.0,0.49946178686759957,0.9626556016597511,0.7575301204819277,0.3079470198675497,0.6576895818568391
mznwiki,False,50.0,0.5054585152838428,0.9605809128630706,0.7630522088353414,0.3,0.6623748211731044
mznwiki,False,51.0,0.5110619469026548,0.9585062240663901,0.7680722891566265,0.29271523178807946,0.6666666666666666
mznwiki,False,52.0,0.5145413870246085,0.9543568464730291,0.7710843373493976,0.28741721854304636,0.6686046511627908
mznwiki,False,53.0,0.5209988649262202,0.9522821576763485,0.7766064257028112,0.27947019867549666,0.673514306676449
mznwiki,False,54.0,0.5217889908256881,0.9439834024896265,0.7771084337349398,0.276158940397351,0.6720827178729689
mznwiki,False,55.0,0.5260115606936416,0.9439834024896265,0.7806224899598394,0.271523178807947,0.6755753526354864
mznwiki,False,56.0,0.5310668229777257,0.9398340248962656,0.7846385542168675,0.26490066225165565,0.6786516853932584
mznwiki,False,57.0,0.5406698564593302,0.9377593360995851,0.7921686746987951,0.2543046357615894,0.6858877086494689
mznwiki,False,58.0,0.5443499392466585,0.9294605809128631,0.7946787148594378,0.24834437086092714,0.6865900383141762
mznwiki,False,59.0,0.5484662576687117,0.9273858921161826,0.7976907630522089,0.24370860927152319,0.6892829606784888
mznwiki,False,60.0,0.554726368159204,0.9253112033195021,0.8022088353413654,0.2370860927152318,0.6936236391912909
mznwiki,False,61.0,0.55819774718398,0.9253112033195021,0.804718875502008,0.2337748344370861,0.6963309914129585
mznwiki,False,62.0,0.5606060606060606,0.921161825726141,0.8062248995983936,0.2304635761589404,0.6970172684458399
mznwiki,False,63.0,0.5641677255400254,0.921161825726141,0.8087349397590361,0.2271523178807947,0.6997635933806146
mznwiki,False,64.0,0.5661103979460848,0.9149377593360996,0.8097389558232931,0.223841059602649,0.6994448850118953
mznwiki,False,65.0,0.5680933852140078,0.9087136929460581,0.8107429718875502,0.2205298013245033,0.6991221069433359
mznwiki,False,66.0,0.5733157199471598,0.9004149377593361,0.8137550200803213,0.2139072847682119,0.7005649717514124
mznwiki,False,67.0,0.5804289544235925,0.8983402489626556,0.8182730923694779,0.20728476821192052,0.7052117263843649
mznwiki,False,68.0,0.5859269282814614,0.8983402489626556,0.8217871485943775,0.20264900662251656,0.7092547092547091
mznwiki,False,69.0,0.5909712722298222,0.8962655601659751,0.8247991967871486,0.19801324503311257,0.7122835943940643
mznwiki,False,70.0,0.5966620305980529,0.8900414937759336,0.8278112449799196,0.19205298013245034,0.7144046627810158
mznwiki,False,71.0,0.6028169014084507,0.8879668049792531,0.8313253012048193,0.18675496688741722,0.7181208053691275
mznwiki,False,72.0,0.6042857142857143,0.8775933609958506,0.8313253012048193,0.18344370860927153,0.7157360406091371
mznwiki,False,73.0,0.6066282420749279,0.8734439834024896,0.8323293172690763,0.18079470198675496,0.7159863945578231
mznwiki,False,74.0,0.6134699853587116,0.8692946058091287,0.8358433734939759,0.17483443708609273,0.7193133047210301
mznwiki,False,75.0,0.6221889055472264,0.8609958506224067,0.839859437751004,0.16688741721854305,0.72236727589208
mznwiki,False,76.0,0.6283048211508554,0.8381742738589212,0.8408634538152611,0.15827814569536425,0.7182222222222222
mznwiki,False,77.0,0.632,0.8195020746887967,0.8408634538152611,0.152317880794702,0.7136404697380309
mznwiki,False,78.0,0.6344262295081967,0.8029045643153527,0.8403614457831325,0.147682119205298,0.7087912087912089
mznwiki,False,79.0,0.6362098138747885,0.7800829875518672,0.838855421686747,0.1423841059602649,0.700838769804287
mznwiki,False,80.0,0.647887323943662,0.7634854771784232,0.8423694779116466,0.13245033112582782,0.700952380952381
mznwiki,False,81.0,0.6660516605166051,0.7489626556016598,0.8483935742971888,0.11986754966887417,0.705078125
mznwiki,False,82.0,0.67578125,0.7178423236514523,0.8483935742971888,0.10993377483443709,0.6961770623742455
mznwiki,False,83.0,0.6864754098360656,0.6950207468879668,0.8493975903614458,0.10132450331125828,0.6907216494845361
mznwiki,False,84.0,0.6982758620689655,0.6721991701244814,0.8504016064257028,0.09271523178807947,0.6849894291754757
mznwiki,False,85.0,0.7276995305164319,0.6431535269709544,0.8554216867469879,0.07682119205298013,0.6828193832599119
mznwiki,False,86.0,0.7358024691358025,0.6182572614107884,0.8539156626506024,0.07086092715231788,0.6719278466741827
mznwiki,False,87.0,0.7506702412868632,0.5809128630705395,0.8519076305220884,0.06158940397350993,0.6549707602339181
mznwiki,False,88.0,0.7492877492877493,0.5456431535269709,0.8458835341365462,0.05827814569536424,0.631452581032413
mznwiki,False,89.0,0.759493670886076,0.4979253112033195,0.8403614457831325,0.05033112582781457,0.6015037593984962
mznwiki,False,90.0,0.7689655172413793,0.46265560165975106,0.8363453815261044,0.04437086092715232,0.577720207253886
mznwiki,False,91.0,0.7817460317460317,0.4087136929460581,0.8293172690763052,0.03642384105960265,0.5367847411444141
mznwiki,False,92.0,0.8045454545454546,0.36721991701244816,0.8253012048192772,0.02847682119205298,0.5042735042735043
mznwiki,False,93.0,0.8186813186813187,0.3091286307053942,0.8162650602409639,0.02185430463576159,0.44879518072289154
mznwiki,False,94.0,0.8472222222222222,0.25311203319502074,0.8082329317269076,0.01456953642384106,0.389776357827476
mznwiki,False,95.0,0.839622641509434,0.18464730290456433,0.7941767068273092,0.011258278145695364,0.30272108843537415
mznwiki,False,96.0,0.8809523809523809,0.15352697095435686,0.7901606425702812,0.006622516556291391,0.2614840989399294
mznwiki,False,97.0,0.9666666666666667,0.12033195020746888,0.786144578313253,0.0013245033112582781,0.21402214022140223
mznwiki,False,98.0,0.9782608695652174,0.09336099585062241,0.7801204819277109,0.0006622516556291391,0.17045454545454544
mznwiki,False,99.0,1.0,0.05186721991701245,0.7705823293172691,0.0,0.09861932938856016
