wiki_db,user_is_anonymous_or_bot,threshold,precision,recall,accuracy,fpr,F1
newwiki,True,0.0,0.047619047619047616,1.0,0.047619047619047616,1.0,0.0909090909090909
newwiki,True,1.0,0.047619047619047616,1.0,0.047619047619047616,1.0,0.0909090909090909
newwiki,True,2.0,0.047619047619047616,1.0,0.047619047619047616,1.0,0.0909090909090909
newwiki,True,3.0,0.047619047619047616,1.0,0.047619047619047616,1.0,0.0909090909090909
newwiki,True,4.0,0.047619047619047616,1.0,0.047619047619047616,1.0,0.0909090909090909
newwiki,True,5.0,0.047619047619047616,1.0,0.047619047619047616,1.0,0.0909090909090909
newwiki,True,6.0,0.047619047619047616,1.0,0.047619047619047616,1.0,0.0909090909090909
newwiki,True,7.0,0.047619047619047616,1.0,0.047619047619047616,1.0,0.0909090909090909
newwiki,True,8.0,0.047619047619047616,1.0,0.047619047619047616,1.0,0.0909090909090909
newwiki,True,9.0,0.047619047619047616,1.0,0.047619047619047616,1.0,0.0909090909090909
newwiki,True,10.0,0.047619047619047616,1.0,0.047619047619047616,1.0,0.0909090909090909
newwiki,True,11.0,0.047619047619047616,1.0,0.047619047619047616,1.0,0.0909090909090909
newwiki,True,12.0,0.047619047619047616,1.0,0.047619047619047616,1.0,0.0909090909090909
newwiki,True,13.0,0.047619047619047616,1.0,0.047619047619047616,1.0,0.0909090909090909
newwiki,True,14.0,0.047619047619047616,1.0,0.047619047619047616,1.0,0.0909090909090909
newwiki,True,15.0,0.047619047619047616,1.0,0.047619047619047616,1.0,0.0909090909090909
newwiki,True,16.0,0.047619047619047616,1.0,0.047619047619047616,1.0,0.0909090909090909
newwiki,True,17.0,0.047619047619047616,1.0,0.047619047619047616,1.0,0.0909090909090909
newwiki,True,18.0,0.047619047619047616,1.0,0.047619047619047616,1.0,0.0909090909090909
newwiki,True,19.0,0.047619047619047616,1.0,0.047619047619047616,1.0,0.0909090909090909
newwiki,True,20.0,0.047619047619047616,1.0,0.047619047619047616,1.0,0.0909090909090909
newwiki,True,21.0,0.04838709677419355,1.0,0.06349206349206349,0.9833333333333333,0.09230769230769231
newwiki,True,22.0,0.04838709677419355,1.0,0.06349206349206349,0.9833333333333333,0.09230769230769231
newwiki,True,23.0,0.04838709677419355,1.0,0.06349206349206349,0.9833333333333333,0.09230769230769231
newwiki,True,24.0,0.04838709677419355,1.0,0.06349206349206349,0.9833333333333333,0.09230769230769231
newwiki,True,25.0,0.04838709677419355,1.0,0.06349206349206349,0.9833333333333333,0.09230769230769231
newwiki,True,26.0,0.04838709677419355,1.0,0.06349206349206349,0.9833333333333333,0.09230769230769231
newwiki,True,27.0,0.04838709677419355,1.0,0.06349206349206349,0.9833333333333333,0.09230769230769231
newwiki,True,28.0,0.04838709677419355,1.0,0.06349206349206349,0.9833333333333333,0.09230769230769231
newwiki,True,29.0,0.04838709677419355,1.0,0.06349206349206349,0.9833333333333333,0.09230769230769231
newwiki,True,30.0,0.04838709677419355,1.0,0.06349206349206349,0.9833333333333333,0.09230769230769231
newwiki,True,31.0,0.04838709677419355,1.0,0.06349206349206349,0.9833333333333333,0.09230769230769231
newwiki,True,32.0,0.04838709677419355,1.0,0.06349206349206349,0.9833333333333333,0.09230769230769231
newwiki,True,33.0,0.04838709677419355,1.0,0.06349206349206349,0.9833333333333333,0.09230769230769231
newwiki,True,34.0,0.04838709677419355,1.0,0.06349206349206349,0.9833333333333333,0.09230769230769231
newwiki,True,35.0,0.04838709677419355,1.0,0.06349206349206349,0.9833333333333333,0.09230769230769231
newwiki,True,36.0,0.04838709677419355,1.0,0.06349206349206349,0.9833333333333333,0.09230769230769231
newwiki,True,37.0,0.04918032786885246,1.0,0.07936507936507936,0.9666666666666667,0.09375
newwiki,True,38.0,0.05,1.0,0.09523809523809523,0.95,0.09523809523809523
newwiki,True,39.0,0.05,1.0,0.09523809523809523,0.95,0.09523809523809523
newwiki,True,40.0,0.05084745762711865,1.0,0.1111111111111111,0.9333333333333333,0.0967741935483871
newwiki,True,41.0,0.05084745762711865,1.0,0.1111111111111111,0.9333333333333333,0.0967741935483871
newwiki,True,42.0,0.05084745762711865,1.0,0.1111111111111111,0.9333333333333333,0.0967741935483871
newwiki,True,43.0,0.05263157894736842,1.0,0.14285714285714285,0.9,0.1
newwiki,True,44.0,0.05263157894736842,1.0,0.14285714285714285,0.9,0.1
newwiki,True,45.0,0.05263157894736842,1.0,0.14285714285714285,0.9,0.1
newwiki,True,46.0,0.05263157894736842,1.0,0.14285714285714285,0.9,0.1
newwiki,True,47.0,0.05263157894736842,1.0,0.14285714285714285,0.9,0.1
newwiki,True,48.0,0.05263157894736842,1.0,0.14285714285714285,0.9,0.1
newwiki,True,49.0,0.05263157894736842,1.0,0.14285714285714285,0.9,0.1
newwiki,True,50.0,0.05357142857142857,1.0,0.15873015873015872,0.8833333333333333,0.10169491525423728
newwiki,True,51.0,0.05454545454545454,1.0,0.1746031746031746,0.8666666666666667,0.10344827586206896
newwiki,True,52.0,0.05454545454545454,1.0,0.1746031746031746,0.8666666666666667,0.10344827586206896
newwiki,True,53.0,0.05454545454545454,1.0,0.1746031746031746,0.8666666666666667,0.10344827586206896
newwiki,True,54.0,0.05454545454545454,1.0,0.1746031746031746,0.8666666666666667,0.10344827586206896
newwiki,True,55.0,0.05454545454545454,1.0,0.1746031746031746,0.8666666666666667,0.10344827586206896
newwiki,True,56.0,0.05454545454545454,1.0,0.1746031746031746,0.8666666666666667,0.10344827586206896
newwiki,True,57.0,0.05454545454545454,1.0,0.1746031746031746,0.8666666666666667,0.10344827586206896
newwiki,True,58.0,0.05454545454545454,1.0,0.1746031746031746,0.8666666666666667,0.10344827586206896
newwiki,True,59.0,0.05454545454545454,1.0,0.1746031746031746,0.8666666666666667,0.10344827586206896
newwiki,True,60.0,0.05555555555555555,1.0,0.19047619047619047,0.85,0.10526315789473684
newwiki,True,61.0,0.05555555555555555,1.0,0.19047619047619047,0.85,0.10526315789473684
newwiki,True,62.0,0.05555555555555555,1.0,0.19047619047619047,0.85,0.10526315789473684
newwiki,True,63.0,0.05555555555555555,1.0,0.19047619047619047,0.85,0.10526315789473684
newwiki,True,64.0,0.05555555555555555,1.0,0.19047619047619047,0.85,0.10526315789473684
newwiki,True,65.0,0.05555555555555555,1.0,0.19047619047619047,0.85,0.10526315789473684
newwiki,True,66.0,0.05555555555555555,1.0,0.19047619047619047,0.85,0.10526315789473684
newwiki,True,67.0,0.05555555555555555,1.0,0.19047619047619047,0.85,0.10526315789473684
newwiki,True,68.0,0.05555555555555555,1.0,0.19047619047619047,0.85,0.10526315789473684
newwiki,True,69.0,0.05555555555555555,1.0,0.19047619047619047,0.85,0.10526315789473684
newwiki,True,70.0,0.05555555555555555,1.0,0.19047619047619047,0.85,0.10526315789473684
newwiki,True,71.0,0.05555555555555555,1.0,0.19047619047619047,0.85,0.10526315789473684
newwiki,True,72.0,0.05555555555555555,1.0,0.19047619047619047,0.85,0.10526315789473684
newwiki,True,73.0,0.05555555555555555,1.0,0.19047619047619047,0.85,0.10526315789473684
newwiki,True,74.0,0.05555555555555555,1.0,0.19047619047619047,0.85,0.10526315789473684
newwiki,True,75.0,0.05555555555555555,1.0,0.19047619047619047,0.85,0.10526315789473684
newwiki,True,76.0,0.05555555555555555,1.0,0.19047619047619047,0.85,0.10526315789473684
newwiki,True,77.0,0.05555555555555555,1.0,0.19047619047619047,0.85,0.10526315789473684
newwiki,True,78.0,0.05555555555555555,1.0,0.19047619047619047,0.85,0.10526315789473684
newwiki,True,79.0,0.05555555555555555,1.0,0.19047619047619047,0.85,0.10526315789473684
newwiki,True,80.0,0.05555555555555555,1.0,0.19047619047619047,0.85,0.10526315789473684
newwiki,True,81.0,0.057692307692307696,1.0,0.2222222222222222,0.8166666666666667,0.1090909090909091
newwiki,True,82.0,0.057692307692307696,1.0,0.2222222222222222,0.8166666666666667,0.1090909090909091
newwiki,True,83.0,0.06,1.0,0.25396825396825395,0.7833333333333333,0.11320754716981131
newwiki,True,84.0,0.061224489795918366,1.0,0.2698412698412698,0.7666666666666667,0.11538461538461538
newwiki,True,85.0,0.0625,1.0,0.2857142857142857,0.75,0.11764705882352941
newwiki,True,86.0,0.06382978723404255,1.0,0.30158730158730157,0.7333333333333333,0.12
newwiki,True,87.0,0.06382978723404255,1.0,0.30158730158730157,0.7333333333333333,0.12
newwiki,True,88.0,0.07142857142857142,1.0,0.38095238095238093,0.65,0.13333333333333333
newwiki,True,89.0,0.07692307692307693,1.0,0.42857142857142855,0.6,0.14285714285714288
newwiki,True,90.0,0.0625,0.6666666666666666,0.5079365079365079,0.5,0.11428571428571428
newwiki,True,91.0,0.07692307692307693,0.6666666666666666,0.6031746031746031,0.4,0.13793103448275862
newwiki,True,92.0,0.1111111111111111,0.6666666666666666,0.7301587301587301,0.26666666666666666,0.1904761904761905
newwiki,True,93.0,0.13333333333333333,0.6666666666666666,0.7777777777777778,0.21666666666666667,0.2222222222222222
newwiki,True,94.0,0.15384615384615385,0.6666666666666666,0.8095238095238095,0.18333333333333332,0.25
newwiki,True,95.0,0.125,0.3333333333333333,0.8571428571428571,0.11666666666666667,0.18181818181818182
newwiki,True,96.0,0.125,0.3333333333333333,0.8571428571428571,0.11666666666666667,0.18181818181818182
newwiki,True,97.0,0.16666666666666666,0.3333333333333333,0.8888888888888888,0.08333333333333333,0.2222222222222222
newwiki,True,98.0,0.2,0.3333333333333333,0.9047619047619048,0.06666666666666667,0.25
newwiki,True,99.0,0.0,0.0,0.9047619047619048,0.05,0.25
newwiki,False,0.0,0.028037383177570093,1.0,0.028037383177570093,1.0,0.05454545454545455
newwiki,False,1.0,0.028037383177570093,1.0,0.028037383177570093,1.0,0.05454545454545455
newwiki,False,2.0,0.028037383177570093,1.0,0.028037383177570093,1.0,0.05454545454545455
newwiki,False,3.0,0.028037383177570093,1.0,0.028037383177570093,1.0,0.05454545454545455
newwiki,False,4.0,0.028037383177570093,1.0,0.028037383177570093,1.0,0.05454545454545455
newwiki,False,5.0,0.028037383177570093,1.0,0.028037383177570093,1.0,0.05454545454545455
newwiki,False,6.0,0.028169014084507043,1.0,0.03271028037383177,0.9951923076923077,0.05479452054794521
newwiki,False,7.0,0.028169014084507043,1.0,0.03271028037383177,0.9951923076923077,0.05479452054794521
newwiki,False,8.0,0.028169014084507043,1.0,0.03271028037383177,0.9951923076923077,0.05479452054794521
newwiki,False,9.0,0.028169014084507043,1.0,0.03271028037383177,0.9951923076923077,0.05479452054794521
newwiki,False,10.0,0.02830188679245283,1.0,0.037383177570093455,0.9903846153846154,0.055045871559633024
newwiki,False,11.0,0.02830188679245283,1.0,0.037383177570093455,0.9903846153846154,0.055045871559633024
newwiki,False,12.0,0.02843601895734597,1.0,0.04205607476635514,0.9855769230769231,0.05529953917050691
newwiki,False,13.0,0.02843601895734597,1.0,0.04205607476635514,0.9855769230769231,0.05529953917050691
newwiki,False,14.0,0.02843601895734597,1.0,0.04205607476635514,0.9855769230769231,0.05529953917050691
newwiki,False,15.0,0.02843601895734597,1.0,0.04205607476635514,0.9855769230769231,0.05529953917050691
newwiki,False,16.0,0.02843601895734597,1.0,0.04205607476635514,0.9855769230769231,0.05529953917050691
newwiki,False,17.0,0.02843601895734597,1.0,0.04205607476635514,0.9855769230769231,0.05529953917050691
newwiki,False,18.0,0.02843601895734597,1.0,0.04205607476635514,0.9855769230769231,0.05529953917050691
newwiki,False,19.0,0.02857142857142857,1.0,0.04672897196261682,0.9807692307692307,0.05555555555555556
newwiki,False,20.0,0.02857142857142857,1.0,0.04672897196261682,0.9807692307692307,0.05555555555555556
newwiki,False,21.0,0.028708133971291867,1.0,0.0514018691588785,0.9759615384615384,0.0558139534883721
newwiki,False,22.0,0.028846153846153848,1.0,0.056074766355140186,0.9711538461538461,0.05607476635514019
newwiki,False,23.0,0.028985507246376812,1.0,0.06074766355140187,0.9663461538461539,0.05633802816901409
newwiki,False,24.0,0.02926829268292683,1.0,0.07009345794392523,0.9567307692307693,0.05687203791469195
newwiki,False,25.0,0.02926829268292683,1.0,0.07009345794392523,0.9567307692307693,0.05687203791469195
newwiki,False,26.0,0.029411764705882353,1.0,0.07476635514018691,0.9519230769230769,0.05714285714285715
newwiki,False,27.0,0.029411764705882353,1.0,0.07476635514018691,0.9519230769230769,0.05714285714285715
newwiki,False,28.0,0.029411764705882353,1.0,0.07476635514018691,0.9519230769230769,0.05714285714285715
newwiki,False,29.0,0.029411764705882353,1.0,0.07476635514018691,0.9519230769230769,0.05714285714285715
newwiki,False,30.0,0.029556650246305417,1.0,0.0794392523364486,0.9471153846153846,0.05741626794258373
newwiki,False,31.0,0.029850746268656716,1.0,0.08878504672897196,0.9375,0.05797101449275362
newwiki,False,32.0,0.029850746268656716,1.0,0.08878504672897196,0.9375,0.05797101449275362
newwiki,False,33.0,0.029850746268656716,1.0,0.08878504672897196,0.9375,0.05797101449275362
newwiki,False,34.0,0.03015075376884422,1.0,0.09813084112149532,0.9278846153846154,0.05853658536585366
newwiki,False,35.0,0.03015075376884422,1.0,0.09813084112149532,0.9278846153846154,0.05853658536585366
newwiki,False,36.0,0.030303030303030304,1.0,0.102803738317757,0.9230769230769231,0.05882352941176471
newwiki,False,37.0,0.030456852791878174,1.0,0.10747663551401869,0.9182692307692307,0.059113300492610835
newwiki,False,38.0,0.03076923076923077,1.0,0.11682242990654206,0.9086538461538461,0.059701492537313446
newwiki,False,39.0,0.03076923076923077,1.0,0.11682242990654206,0.9086538461538461,0.059701492537313446
newwiki,False,40.0,0.031914893617021274,1.0,0.14953271028037382,0.875,0.06185567010309278
newwiki,False,41.0,0.03208556149732621,1.0,0.1542056074766355,0.8701923076923077,0.06217616580310882
newwiki,False,42.0,0.032432432432432434,1.0,0.16355140186915887,0.8605769230769231,0.06282722513089005
newwiki,False,43.0,0.03592814371257485,1.0,0.24766355140186916,0.7740384615384616,0.06936416184971098
newwiki,False,44.0,0.036585365853658534,1.0,0.2616822429906542,0.7596153846153846,0.07058823529411765
newwiki,False,45.0,0.03680981595092025,1.0,0.26635514018691586,0.7548076923076923,0.07100591715976332
newwiki,False,46.0,0.037037037037037035,1.0,0.27102803738317754,0.75,0.07142857142857142
newwiki,False,47.0,0.0375,1.0,0.2803738317757009,0.7403846153846154,0.07228915662650602
newwiki,False,48.0,0.03773584905660377,1.0,0.2850467289719626,0.7355769230769231,0.07272727272727272
newwiki,False,49.0,0.03773584905660377,1.0,0.2850467289719626,0.7355769230769231,0.07272727272727272
newwiki,False,50.0,0.038461538461538464,1.0,0.29906542056074764,0.7211538461538461,0.07407407407407407
newwiki,False,51.0,0.0392156862745098,1.0,0.3130841121495327,0.7067307692307693,0.07547169811320754
newwiki,False,52.0,0.039473684210526314,1.0,0.3177570093457944,0.7019230769230769,0.07594936708860758
newwiki,False,53.0,0.04,1.0,0.32710280373831774,0.6923076923076923,0.07692307692307693
newwiki,False,54.0,0.04054054054054054,1.0,0.3364485981308411,0.6826923076923077,0.07792207792207792
newwiki,False,55.0,0.04081632653061224,1.0,0.3411214953271028,0.6778846153846154,0.07843137254901959
newwiki,False,56.0,0.041379310344827586,1.0,0.35046728971962615,0.6682692307692307,0.07947019867549668
newwiki,False,57.0,0.041666666666666664,1.0,0.35514018691588783,0.6634615384615384,0.07999999999999999
newwiki,False,58.0,0.04195804195804196,1.0,0.3598130841121495,0.6586538461538461,0.08053691275167786
newwiki,False,59.0,0.04285714285714286,1.0,0.37383177570093457,0.6442307692307693,0.0821917808219178
newwiki,False,60.0,0.043478260869565216,1.0,0.38317757009345793,0.6346153846153846,0.08333333333333333
newwiki,False,61.0,0.043795620437956206,1.0,0.3878504672897196,0.6298076923076923,0.08391608391608392
newwiki,False,62.0,0.043795620437956206,1.0,0.3878504672897196,0.6298076923076923,0.08391608391608392
newwiki,False,63.0,0.043795620437956206,1.0,0.3878504672897196,0.6298076923076923,0.08391608391608392
newwiki,False,64.0,0.044444444444444446,1.0,0.397196261682243,0.6201923076923077,0.0851063829787234
newwiki,False,65.0,0.046153846153846156,1.0,0.4205607476635514,0.5961538461538461,0.08823529411764706
newwiki,False,66.0,0.04838709677419355,1.0,0.4485981308411215,0.5673076923076923,0.09230769230769231
newwiki,False,67.0,0.04878048780487805,1.0,0.4532710280373832,0.5625,0.09302325581395349
newwiki,False,68.0,0.049586776859504134,1.0,0.46261682242990654,0.5528846153846154,0.09448818897637795
newwiki,False,69.0,0.05128205128205128,1.0,0.48130841121495327,0.5336538461538461,0.09756097560975609
newwiki,False,70.0,0.05172413793103448,1.0,0.48598130841121495,0.5288461538461539,0.09836065573770492
newwiki,False,71.0,0.05217391304347826,1.0,0.49065420560747663,0.5240384615384616,0.09917355371900827
newwiki,False,72.0,0.05309734513274336,1.0,0.5,0.5144230769230769,0.10084033613445377
newwiki,False,73.0,0.05405405405405406,1.0,0.5093457943925234,0.5048076923076923,0.10256410256410257
newwiki,False,74.0,0.05454545454545454,1.0,0.514018691588785,0.5,0.10344827586206896
newwiki,False,75.0,0.05454545454545454,1.0,0.514018691588785,0.5,0.10344827586206896
newwiki,False,76.0,0.056074766355140186,1.0,0.5280373831775701,0.4855769230769231,0.10619469026548672
newwiki,False,77.0,0.05714285714285714,1.0,0.5373831775700935,0.47596153846153844,0.1081081081081081
newwiki,False,78.0,0.05714285714285714,1.0,0.5373831775700935,0.47596153846153844,0.1081081081081081
newwiki,False,79.0,0.058823529411764705,1.0,0.5514018691588785,0.46153846153846156,0.1111111111111111
newwiki,False,80.0,0.061224489795918366,1.0,0.5700934579439252,0.4423076923076923,0.11538461538461538
newwiki,False,81.0,0.06666666666666667,1.0,0.6074766355140186,0.40384615384615385,0.125
newwiki,False,82.0,0.06818181818181818,1.0,0.616822429906542,0.3942307692307692,0.1276595744680851
newwiki,False,83.0,0.07142857142857142,1.0,0.6355140186915887,0.375,0.13333333333333333
newwiki,False,84.0,0.07317073170731707,1.0,0.6448598130841121,0.36538461538461536,0.13636363636363635
newwiki,False,85.0,0.0759493670886076,1.0,0.6588785046728972,0.35096153846153844,0.1411764705882353
newwiki,False,86.0,0.06578947368421052,0.8333333333333334,0.6635514018691588,0.34134615384615385,0.12195121951219512
newwiki,False,87.0,0.05555555555555555,0.6666666666666666,0.6728971962616822,0.3269230769230769,0.10256410256410256
newwiki,False,88.0,0.06060606060606061,0.6666666666666666,0.7009345794392523,0.2980769230769231,0.1111111111111111
newwiki,False,89.0,0.06779661016949153,0.6666666666666666,0.7336448598130841,0.2644230769230769,0.12307692307692307
newwiki,False,90.0,0.04081632653061224,0.3333333333333333,0.7616822429906542,0.22596153846153846,0.07272727272727272
newwiki,False,91.0,0.05263157894736842,0.3333333333333333,0.8130841121495327,0.17307692307692307,0.09090909090909091
newwiki,False,92.0,0.07142857142857142,0.3333333333333333,0.8598130841121495,0.125,0.11764705882352941
newwiki,False,93.0,0.09523809523809523,0.3333333333333333,0.8925233644859814,0.09134615384615384,0.14814814814814814
newwiki,False,94.0,0.125,0.3333333333333333,0.9158878504672897,0.0673076923076923,0.18181818181818182
newwiki,False,95.0,0.09090909090909091,0.16666666666666666,0.9299065420560748,0.04807692307692308,0.11764705882352942
newwiki,False,96.0,0.1,0.16666666666666666,0.9345794392523364,0.04326923076923077,0.125
newwiki,False,97.0,0.16666666666666666,0.16666666666666666,0.9532710280373832,0.02403846153846154,0.16666666666666666
newwiki,False,98.0,0.2,0.16666666666666666,0.9579439252336449,0.019230769230769232,0.1818181818181818
newwiki,False,99.0,0.0,0.0,0.9579439252336449,0.014423076923076924,0.1818181818181818
