wiki_db,user_is_anonymous_or_bot,threshold,precision,recall,accuracy,fpr,F1
novwiki,True,0.0,0.009523809523809525,1.0,0.009523809523809525,1.0,0.01886792452830189
novwiki,True,1.0,0.009523809523809525,1.0,0.009523809523809525,1.0,0.01886792452830189
novwiki,True,2.0,0.009523809523809525,1.0,0.009523809523809525,1.0,0.01886792452830189
novwiki,True,3.0,0.009523809523809525,1.0,0.009523809523809525,1.0,0.01886792452830189
novwiki,True,4.0,0.009523809523809525,1.0,0.009523809523809525,1.0,0.01886792452830189
novwiki,True,5.0,0.009523809523809525,1.0,0.009523809523809525,1.0,0.01886792452830189
novwiki,True,6.0,0.009523809523809525,1.0,0.009523809523809525,1.0,0.01886792452830189
novwiki,True,7.0,0.009523809523809525,1.0,0.009523809523809525,1.0,0.01886792452830189
novwiki,True,8.0,0.009523809523809525,1.0,0.009523809523809525,1.0,0.01886792452830189
novwiki,True,9.0,0.009523809523809525,1.0,0.009523809523809525,1.0,0.01886792452830189
novwiki,True,10.0,0.009523809523809525,1.0,0.009523809523809525,1.0,0.01886792452830189
novwiki,True,11.0,0.009523809523809525,1.0,0.009523809523809525,1.0,0.01886792452830189
novwiki,True,12.0,0.009523809523809525,1.0,0.009523809523809525,1.0,0.01886792452830189
novwiki,True,13.0,0.009523809523809525,1.0,0.009523809523809525,1.0,0.01886792452830189
novwiki,True,14.0,0.009523809523809525,1.0,0.009523809523809525,1.0,0.01886792452830189
novwiki,True,15.0,0.009523809523809525,1.0,0.009523809523809525,1.0,0.01886792452830189
novwiki,True,16.0,0.009523809523809525,1.0,0.009523809523809525,1.0,0.01886792452830189
novwiki,True,17.0,0.009523809523809525,1.0,0.009523809523809525,1.0,0.01886792452830189
novwiki,True,18.0,0.009523809523809525,1.0,0.009523809523809525,1.0,0.01886792452830189
novwiki,True,19.0,0.009523809523809525,1.0,0.009523809523809525,1.0,0.01886792452830189
novwiki,True,20.0,0.009523809523809525,1.0,0.009523809523809525,1.0,0.01886792452830189
novwiki,True,21.0,0.009523809523809525,1.0,0.009523809523809525,1.0,0.01886792452830189
novwiki,True,22.0,0.009523809523809525,1.0,0.009523809523809525,1.0,0.01886792452830189
novwiki,True,23.0,0.009523809523809525,1.0,0.009523809523809525,1.0,0.01886792452830189
novwiki,True,24.0,0.009523809523809525,1.0,0.009523809523809525,1.0,0.01886792452830189
novwiki,True,25.0,0.009523809523809525,1.0,0.009523809523809525,1.0,0.01886792452830189
novwiki,True,26.0,0.009523809523809525,1.0,0.009523809523809525,1.0,0.01886792452830189
novwiki,True,27.0,0.009523809523809525,1.0,0.009523809523809525,1.0,0.01886792452830189
novwiki,True,28.0,0.009523809523809525,1.0,0.009523809523809525,1.0,0.01886792452830189
novwiki,True,29.0,0.009584664536741214,1.0,0.015873015873015872,0.9935897435897436,0.0189873417721519
novwiki,True,30.0,0.009584664536741214,1.0,0.015873015873015872,0.9935897435897436,0.0189873417721519
novwiki,True,31.0,0.009584664536741214,1.0,0.015873015873015872,0.9935897435897436,0.0189873417721519
novwiki,True,32.0,0.009584664536741214,1.0,0.015873015873015872,0.9935897435897436,0.0189873417721519
novwiki,True,33.0,0.009584664536741214,1.0,0.015873015873015872,0.9935897435897436,0.0189873417721519
novwiki,True,34.0,0.00964630225080386,1.0,0.022222222222222223,0.9871794871794872,0.019108280254777073
novwiki,True,35.0,0.00967741935483871,1.0,0.025396825396825397,0.9839743589743589,0.019169329073482427
novwiki,True,36.0,0.00974025974025974,1.0,0.031746031746031744,0.9775641025641025,0.019292604501607715
novwiki,True,37.0,0.00974025974025974,1.0,0.031746031746031744,0.9775641025641025,0.019292604501607715
novwiki,True,38.0,0.00974025974025974,1.0,0.031746031746031744,0.9775641025641025,0.019292604501607715
novwiki,True,39.0,0.00974025974025974,1.0,0.031746031746031744,0.9775641025641025,0.019292604501607715
novwiki,True,40.0,0.00974025974025974,1.0,0.031746031746031744,0.9775641025641025,0.019292604501607715
novwiki,True,41.0,0.009868421052631578,1.0,0.044444444444444446,0.9647435897435898,0.019543973941368076
novwiki,True,42.0,0.009868421052631578,1.0,0.044444444444444446,0.9647435897435898,0.019543973941368076
novwiki,True,43.0,0.009933774834437087,1.0,0.050793650793650794,0.9583333333333334,0.019672131147540985
novwiki,True,44.0,0.009966777408637873,1.0,0.05396825396825397,0.9551282051282052,0.019736842105263157
novwiki,True,45.0,0.01,1.0,0.05714285714285714,0.9519230769230769,0.019801980198019802
novwiki,True,46.0,0.010452961672473868,1.0,0.09841269841269841,0.9102564102564102,0.020689655172413796
novwiki,True,47.0,0.011320754716981131,1.0,0.16825396825396827,0.8397435897435898,0.022388059701492536
novwiki,True,48.0,0.011764705882352941,1.0,0.2,0.8076923076923077,0.023255813953488372
novwiki,True,49.0,0.011904761904761904,1.0,0.20952380952380953,0.7980769230769231,0.023529411764705882
novwiki,True,50.0,0.012244897959183673,1.0,0.23174603174603176,0.7756410256410257,0.024193548387096774
novwiki,True,51.0,0.012658227848101266,1.0,0.2571428571428571,0.75,0.024999999999999998
novwiki,True,52.0,0.02112676056338028,1.0,0.5587301587301587,0.44551282051282054,0.041379310344827586
novwiki,True,53.0,0.021739130434782608,1.0,0.5714285714285714,0.4326923076923077,0.042553191489361694
novwiki,True,54.0,0.022556390977443608,1.0,0.5873015873015873,0.4166666666666667,0.04411764705882353
novwiki,True,55.0,0.022727272727272728,1.0,0.5904761904761905,0.41346153846153844,0.044444444444444446
novwiki,True,56.0,0.16666666666666666,1.0,0.9523809523809523,0.04807692307692308,0.2857142857142857
novwiki,True,57.0,0.1875,1.0,0.9587301587301588,0.041666666666666664,0.3157894736842105
novwiki,True,58.0,0.2,1.0,0.9619047619047619,0.038461538461538464,0.33333333333333337
novwiki,True,59.0,0.21428571428571427,1.0,0.9650793650793651,0.035256410256410256,0.35294117647058826
novwiki,True,60.0,0.21428571428571427,1.0,0.9650793650793651,0.035256410256410256,0.35294117647058826
novwiki,True,61.0,0.21428571428571427,1.0,0.9650793650793651,0.035256410256410256,0.35294117647058826
novwiki,True,62.0,0.21428571428571427,1.0,0.9650793650793651,0.035256410256410256,0.35294117647058826
novwiki,True,63.0,0.21428571428571427,1.0,0.9650793650793651,0.035256410256410256,0.35294117647058826
novwiki,True,64.0,0.21428571428571427,1.0,0.9650793650793651,0.035256410256410256,0.35294117647058826
novwiki,True,65.0,0.21428571428571427,1.0,0.9650793650793651,0.035256410256410256,0.35294117647058826
novwiki,True,66.0,0.21428571428571427,1.0,0.9650793650793651,0.035256410256410256,0.35294117647058826
novwiki,True,67.0,0.21428571428571427,1.0,0.9650793650793651,0.035256410256410256,0.35294117647058826
novwiki,True,68.0,0.21428571428571427,1.0,0.9650793650793651,0.035256410256410256,0.35294117647058826
novwiki,True,69.0,0.21428571428571427,1.0,0.9650793650793651,0.035256410256410256,0.35294117647058826
novwiki,True,70.0,0.21428571428571427,1.0,0.9650793650793651,0.035256410256410256,0.35294117647058826
novwiki,True,71.0,0.21428571428571427,1.0,0.9650793650793651,0.035256410256410256,0.35294117647058826
novwiki,True,72.0,0.21428571428571427,1.0,0.9650793650793651,0.035256410256410256,0.35294117647058826
novwiki,True,73.0,0.21428571428571427,1.0,0.9650793650793651,0.035256410256410256,0.35294117647058826
novwiki,True,74.0,0.21428571428571427,1.0,0.9650793650793651,0.035256410256410256,0.35294117647058826
novwiki,True,75.0,0.21428571428571427,1.0,0.9650793650793651,0.035256410256410256,0.35294117647058826
novwiki,True,76.0,0.23076923076923078,1.0,0.9682539682539683,0.03205128205128205,0.375
novwiki,True,77.0,0.25,1.0,0.9714285714285714,0.028846153846153848,0.4
novwiki,True,78.0,0.2727272727272727,1.0,0.9746031746031746,0.02564102564102564,0.42857142857142855
novwiki,True,79.0,0.2727272727272727,1.0,0.9746031746031746,0.02564102564102564,0.42857142857142855
novwiki,True,80.0,0.3,1.0,0.9777777777777777,0.022435897435897436,0.4615384615384615
novwiki,True,81.0,0.3,1.0,0.9777777777777777,0.022435897435897436,0.4615384615384615
novwiki,True,82.0,0.2222222222222222,0.6666666666666666,0.9746031746031746,0.022435897435897436,0.3333333333333333
novwiki,True,83.0,0.2857142857142857,0.6666666666666666,0.9809523809523809,0.016025641025641024,0.4
novwiki,True,84.0,0.3333333333333333,0.6666666666666666,0.9841269841269841,0.01282051282051282,0.4444444444444444
novwiki,True,85.0,0.3333333333333333,0.6666666666666666,0.9841269841269841,0.01282051282051282,0.4444444444444444
novwiki,True,86.0,0.4,0.6666666666666666,0.9873015873015873,0.009615384615384616,0.5
novwiki,True,87.0,0.4,0.6666666666666666,0.9873015873015873,0.009615384615384616,0.5
novwiki,True,88.0,0.25,0.3333333333333333,0.9841269841269841,0.009615384615384616,0.28571428571428575
novwiki,True,89.0,0.5,0.3333333333333333,0.9904761904761905,0.003205128205128205,0.4
novwiki,True,90.0,0.5,0.3333333333333333,0.9904761904761905,0.003205128205128205,0.4
novwiki,True,91.0,1.0,0.3333333333333333,0.9936507936507937,0.0,0.5
novwiki,True,92.0,1.0,0.0,0.9904761904761905,0.0,0.0
novwiki,True,93.0,1.0,0.0,0.9904761904761905,0.0,0.0
novwiki,True,94.0,1.0,0.0,0.9904761904761905,0.0,0.0
novwiki,True,95.0,1.0,0.0,0.9904761904761905,0.0,0.0
novwiki,True,96.0,1.0,0.0,0.9904761904761905,0.0,0.0
novwiki,True,97.0,1.0,0.0,0.9904761904761905,0.0,0.0
novwiki,True,98.0,1.0,0.0,0.9904761904761905,0.0,0.0
novwiki,True,99.0,1.0,0.0,0.9904761904761905,0.0,0.0
novwiki,False,0.0,0.012477718360071301,1.0,0.012477718360071301,1.0,0.024647887323943664
novwiki,False,1.0,0.012477718360071301,1.0,0.012477718360071301,1.0,0.024647887323943664
novwiki,False,2.0,0.012477718360071301,1.0,0.012477718360071301,1.0,0.024647887323943664
novwiki,False,3.0,0.012477718360071301,1.0,0.012477718360071301,1.0,0.024647887323943664
novwiki,False,4.0,0.012477718360071301,1.0,0.012477718360071301,1.0,0.024647887323943664
novwiki,False,5.0,0.012522361359570662,1.0,0.016042780748663103,0.9963898916967509,0.02473498233215548
novwiki,False,6.0,0.012522361359570662,1.0,0.016042780748663103,0.9963898916967509,0.02473498233215548
novwiki,False,7.0,0.012567324955116697,1.0,0.0196078431372549,0.9927797833935018,0.024822695035460998
novwiki,False,8.0,0.012589928057553957,1.0,0.0213903743315508,0.9909747292418772,0.024866785079928955
novwiki,False,9.0,0.01263537906137184,1.0,0.024955436720142603,0.9873646209386282,0.024955436720142603
novwiki,False,10.0,0.012681159420289856,1.0,0.0285204991087344,0.983754512635379,0.025044722719141328
novwiki,False,11.0,0.012750455373406194,1.0,0.0338680926916221,0.9783393501805054,0.025179856115107917
novwiki,False,12.0,0.012844036697247707,1.0,0.040998217468805706,0.9711191335740073,0.025362318840579712
novwiki,False,13.0,0.013011152416356878,1.0,0.053475935828877004,0.9584837545126353,0.02568807339449541
novwiki,False,14.0,0.013133208255159476,1.0,0.062388591800356503,0.9494584837545126,0.02592592592592593
novwiki,False,15.0,0.013232514177693762,1.0,0.06951871657754011,0.9422382671480144,0.02611940298507463
novwiki,False,16.0,0.013358778625954198,1.0,0.0784313725490196,0.9332129963898917,0.026365348399246705
novwiki,False,17.0,0.01348747591522158,1.0,0.0873440285204991,0.924187725631769,0.02661596958174905
novwiki,False,18.0,0.013539651837524178,1.0,0.09090909090909091,0.9205776173285198,0.0267175572519084
novwiki,False,19.0,0.013565891472868217,1.0,0.09269162210338681,0.9187725631768953,0.026768642447418736
novwiki,False,20.0,0.013671875,1.0,0.09982174688057041,0.9115523465703971,0.02697495183044316
novwiki,False,21.0,0.0137524557956778,1.0,0.1051693404634581,0.9061371841155235,0.027131782945736434
novwiki,False,22.0,0.013861386138613862,1.0,0.11229946524064172,0.8989169675090253,0.02734375
novwiki,False,23.0,0.013888888888888888,1.0,0.1140819964349376,0.8971119133574007,0.0273972602739726
novwiki,False,24.0,0.011976047904191617,0.8571428571428571,0.11586452762923351,0.8935018050541517,0.02362204724409449
novwiki,False,25.0,0.012121212121212121,0.8571428571428571,0.1265597147950089,0.8826714801444043,0.023904382470119525
novwiki,False,26.0,0.012145748987854251,0.8571428571428571,0.12834224598930483,0.8808664259927798,0.023952095808383235
novwiki,False,27.0,0.012170385395537525,0.8571428571428571,0.13012477718360071,0.8790613718411552,0.024
novwiki,False,28.0,0.012269938650306749,0.8571428571428571,0.13725490196078433,0.871841155234657,0.024193548387096774
novwiki,False,29.0,0.012345679012345678,0.8571428571428571,0.14260249554367202,0.8664259927797834,0.024340770791075054
novwiki,False,30.0,0.012371134020618556,0.8571428571428571,0.1443850267379679,0.8646209386281588,0.024390243902439025
novwiki,False,31.0,0.012371134020618556,0.8571428571428571,0.1443850267379679,0.8646209386281588,0.024390243902439025
novwiki,False,32.0,0.012422360248447204,0.8571428571428571,0.14795008912655971,0.8610108303249098,0.024489795918367346
novwiki,False,33.0,0.012474012474012475,0.8571428571428571,0.15151515151515152,0.8574007220216606,0.02459016393442623
novwiki,False,34.0,0.012578616352201259,0.8571428571428571,0.1586452762923351,0.8501805054151624,0.02479338842975207
novwiki,False,35.0,0.010548523206751054,0.7142857142857143,0.16042780748663102,0.8465703971119134,0.020790020790020788
novwiki,False,36.0,0.010615711252653927,0.7142857142857143,0.1657754010695187,0.8411552346570397,0.02092050209205021
novwiki,False,37.0,0.010683760683760684,0.7142857142857143,0.1711229946524064,0.8357400722021661,0.02105263157894737
novwiki,False,38.0,0.010706638115631691,0.7142857142857143,0.17290552584670232,0.8339350180505415,0.02109704641350211
novwiki,False,39.0,0.01072961373390558,0.7142857142857143,0.1746880570409982,0.8321299638989169,0.021141649048625793
novwiki,False,40.0,0.01072961373390558,0.7142857142857143,0.1746880570409982,0.8321299638989169,0.021141649048625793
novwiki,False,41.0,0.010822510822510822,0.7142857142857143,0.18181818181818182,0.8249097472924187,0.02132196162046908
novwiki,False,42.0,0.010845986984815618,0.7142857142857143,0.1836007130124777,0.8231046931407943,0.021367521367521368
novwiki,False,43.0,0.010940919037199124,0.7142857142857143,0.19073083778966132,0.8158844765342961,0.021551724137931032
novwiki,False,44.0,0.011061946902654867,0.7142857142857143,0.19964349376114082,0.8068592057761733,0.021786492374727674
novwiki,False,45.0,0.011111111111111112,0.7142857142857143,0.20320855614973263,0.8032490974729242,0.021881838074398252
novwiki,False,46.0,0.011467889908256881,0.7142857142857143,0.2281639928698752,0.7779783393501805,0.022573363431151242
novwiki,False,47.0,0.012077294685990338,0.7142857142857143,0.26737967914438504,0.7382671480144405,0.02375296912114014
novwiki,False,48.0,0.012376237623762377,0.7142857142857143,0.28520499108734404,0.720216606498195,0.024330900243309
novwiki,False,49.0,0.012594458438287154,0.7142857142857143,0.2976827094474153,0.7075812274368231,0.024752475247524754
novwiki,False,50.0,0.012919896640826873,0.7142857142857143,0.3155080213903743,0.6895306859205776,0.025380710659898477
novwiki,False,51.0,0.013227513227513227,0.7142857142857143,0.3315508021390374,0.6732851985559567,0.025974025974025972
novwiki,False,52.0,0.017793594306049824,0.7142857142857143,0.5044563279857398,0.4981949458483754,0.034722222222222224
novwiki,False,53.0,0.018050541516245487,0.7142857142857143,0.5115864527629234,0.49097472924187724,0.0352112676056338
novwiki,False,54.0,0.018518518518518517,0.7142857142857143,0.5240641711229946,0.47833935018050544,0.036101083032490974
novwiki,False,55.0,0.018656716417910446,0.7142857142857143,0.5276292335115864,0.4747292418772563,0.03636363636363636
novwiki,False,56.0,0.032679738562091505,0.7142857142857143,0.732620320855615,0.26714801444043323,0.0625
novwiki,False,57.0,0.0273972602739726,0.5714285714285714,0.7415329768270945,0.2563176895306859,0.05228758169934641
novwiki,False,58.0,0.028368794326241134,0.5714285714285714,0.750445632798574,0.24729241877256317,0.05405405405405404
novwiki,False,59.0,0.029197080291970802,0.5714285714285714,0.7575757575757576,0.24007220216606498,0.05555555555555555
novwiki,False,60.0,0.029411764705882353,0.5714285714285714,0.7593582887700535,0.23826714801444043,0.055944055944055944
novwiki,False,61.0,0.029850746268656716,0.5714285714285714,0.7629233511586453,0.23465703971119134,0.056737588652482275
novwiki,False,62.0,0.030303030303030304,0.5714285714285714,0.7664884135472371,0.23104693140794225,0.05755395683453238
novwiki,False,63.0,0.03076923076923077,0.5714285714285714,0.7700534759358288,0.22743682310469315,0.05839416058394161
novwiki,False,64.0,0.031496062992125984,0.5714285714285714,0.7754010695187166,0.22202166064981949,0.05970149253731344
novwiki,False,65.0,0.032520325203252036,0.5714285714285714,0.7825311942959001,0.2148014440433213,0.06153846153846155
novwiki,False,66.0,0.03361344537815126,0.5714285714285714,0.7896613190730838,0.2075812274368231,0.06349206349206349
novwiki,False,67.0,0.03418803418803419,0.5714285714285714,0.7932263814616756,0.20397111913357402,0.06451612903225806
novwiki,False,68.0,0.034482758620689655,0.5714285714285714,0.7950089126559715,0.20216606498194944,0.06504065040650407
novwiki,False,69.0,0.03636363636363636,0.5714285714285714,0.8057040998217468,0.19133574007220217,0.06837606837606837
novwiki,False,70.0,0.0380952380952381,0.5714285714285714,0.8146167557932263,0.18231046931407943,0.07142857142857144
novwiki,False,71.0,0.04081632653061224,0.5714285714285714,0.8270944741532977,0.16967509025270758,0.07619047619047617
novwiki,False,72.0,0.043478260869565216,0.5714285714285714,0.8377896613190731,0.1588447653429603,0.08080808080808081
novwiki,False,73.0,0.044444444444444446,0.5714285714285714,0.8413547237076648,0.1552346570397112,0.08247422680412372
novwiki,False,74.0,0.04819277108433735,0.5714285714285714,0.8538324420677362,0.14259927797833935,0.08888888888888889
novwiki,False,75.0,0.05128205128205128,0.5714285714285714,0.8627450980392157,0.13357400722021662,0.09411764705882351
novwiki,False,76.0,0.056338028169014086,0.5714285714285714,0.875222816399287,0.12093862815884476,0.10256410256410255
novwiki,False,77.0,0.06349206349206349,0.5714285714285714,0.8894830659536542,0.10649819494584838,0.11428571428571427
novwiki,False,78.0,0.07017543859649122,0.5714285714285714,0.9001782531194296,0.09566787003610108,0.125
novwiki,False,79.0,0.0784313725490196,0.5714285714285714,0.910873440285205,0.08483754512635379,0.13793103448275862
novwiki,False,80.0,0.08695652173913043,0.5714285714285714,0.9197860962566845,0.07581227436823104,0.15094339622641512
novwiki,False,81.0,0.09302325581395349,0.5714285714285714,0.9251336898395722,0.0703971119133574,0.16
novwiki,False,82.0,0.07317073170731707,0.42857142857142855,0.9251336898395722,0.06859205776173286,0.125
novwiki,False,83.0,0.09090909090909091,0.42857142857142855,0.9393939393939394,0.05415162454873646,0.15000000000000002
novwiki,False,84.0,0.0967741935483871,0.42857142857142855,0.9429590017825312,0.05054151624548736,0.15789473684210525
novwiki,False,85.0,0.0967741935483871,0.42857142857142855,0.9429590017825312,0.05054151624548736,0.15789473684210525
novwiki,False,86.0,0.07407407407407407,0.2857142857142857,0.946524064171123,0.04512635379061372,0.11764705882352941
novwiki,False,87.0,0.07692307692307693,0.2857142857142857,0.948306595365419,0.04332129963898917,0.12121212121212123
novwiki,False,88.0,0.045454545454545456,0.14285714285714285,0.9518716577540107,0.03790613718411552,0.06896551724137931
novwiki,False,89.0,0.06666666666666667,0.14285714285714285,0.964349376114082,0.02527075812274368,0.09090909090909091
novwiki,False,90.0,0.06666666666666667,0.14285714285714285,0.964349376114082,0.02527075812274368,0.09090909090909091
novwiki,False,91.0,0.1,0.14285714285714285,0.9732620320855615,0.016245487364620937,0.11764705882352941
novwiki,False,92.0,0.0,0.0,0.9750445632798574,0.01263537906137184,0.11764705882352941
novwiki,False,93.0,0.0,0.0,0.9803921568627451,0.007220216606498195,0.11764705882352941
novwiki,False,94.0,0.0,0.0,0.983957219251337,0.0036101083032490976,0.11764705882352941
novwiki,False,95.0,0.0,0.0,0.9857397504456328,0.0018050541516245488,0.11764705882352941
novwiki,False,96.0,0.0,0.0,0.9875222816399287,0.0,0.11764705882352941
novwiki,False,97.0,0.0,0.0,0.9875222816399287,0.0,0.11764705882352941
novwiki,False,98.0,0.0,0.0,0.9875222816399287,0.0,0.11764705882352941
novwiki,False,99.0,0.0,0.0,0.9875222816399287,0.0,0.11764705882352941
