wiki_db,user_is_anonymous_or_bot,threshold,precision,recall,accuracy,fpr,F1
rowiki,True,0.0,0.10387828759501422,1.0,0.10387828759501422,1.0,0.188206052718603
rowiki,True,1.0,0.103878899212209,1.0,0.10388417538550308,0.9999934296977661,0.18820705656452516
rowiki,True,2.0,0.10389258583122313,0.9999433202970016,0.10406080910016897,0.9997897503285151,0.1882285159479976
rowiki,True,3.0,0.11960749646393211,0.9969392960380887,0.23740748809194373,0.8506373193166886,0.21358963928135566
rowiki,True,4.0,0.14980622631063412,0.9968826163350905,0.41197458829625005,0.6558278580814717,0.26047035128250695
rowiki,True,5.0,0.18420170180659765,0.9963158193051068,0.5412528040602204,0.5114980289093298,0.31091968762989625
rowiki,True,6.0,0.18815401917206662,0.9956923425721249,0.5532697844479902,0.49801576872536135,0.31649971173248775
rowiki,True,7.0,0.1941700207342359,0.9925749589072154,0.5713217500868449,0.47750985545335084,0.3248015431411826
rowiki,True,8.0,0.21303875760939844,0.9897976534602959,0.6191306088564145,0.4238370565045992,0.3506133675989319
rowiki,True,9.0,0.22187436367338628,0.9881539420733435,0.6387781657177511,0.40172141918528254,0.3623816501938287
rowiki,True,10.0,0.28343995702495484,0.9869069886073797,0.7394652708678014,0.2892181340341656,0.4403976022459974
rowiki,True,11.0,0.28866681053802357,0.9856033554384175,0.7462126787680388,0.28153745072273323,0.4465473408489767
rowiki,True,12.0,0.3046415877819615,0.9813523777135408,0.7653774368092886,0.25965834428383705,0.4649489104018691
rowiki,True,13.0,0.31026060094470087,0.9791418692966048,0.7717185871657943,0.25232588699080155,0.4712091868743351
rowiki,True,14.0,0.3380740973559109,0.9754576886017118,0.7990555984055864,0.2213929040735874,0.5021225692570278
rowiki,True,15.0,0.3503984347932419,0.9744941336507397,0.8096830602379845,0.20942181340341656,0.5154549542797182
rowiki,True,16.0,0.35231243576567317,0.9714901093918268,0.811514163080021,0.20703022339027596,0.5170983361742567
rowiki,True,17.0,0.35533100465735196,0.968656124241909,0.8141872199619649,0.20371879106438895,0.5199348940507157
rowiki,True,18.0,0.35631173614599027,0.9650286232500142,0.8152705734119157,0.2020893561103811,0.5204579149280877
rowiki,True,19.0,0.3597737911168534,0.96276143513008,0.8181614785419475,0.1986005256241787,0.5238065869002096
rowiki,True,20.0,0.363692954965011,0.9603242079011506,0.8213467731964226,0.1947634691195795,0.5275809992371049
rowiki,True,21.0,0.36459412780656303,0.957206824236241,0.8222652685126852,0.193377135348226,0.528055281959883
rowiki,True,22.0,0.37117442423708663,0.9555064331462904,0.827222788104308,0.18764783180026282,0.5346569194906519
rowiki,True,23.0,0.3758804982222322,0.9527291276993709,0.8307613501881149,0.18337713534822603,0.5390782848529554
rowiki,True,24.0,0.37580833483024967,0.9486481890834892,0.8309909740171806,0.1826478318002628,0.5383489602598949
rowiki,True,25.0,0.37643535822038093,0.9476279544295187,0.8314973239992228,0.18196452036793692,0.5388272072449521
rowiki,True,26.0,0.3767468111525003,0.9458708836365698,0.831832928057088,0.1813863337713535,0.5388614420872486
rowiki,True,27.0,0.37729658792650916,0.9451340474975911,0.8322627367627751,0.18082128777923784,0.5393036756739275
rowiki,True,28.0,0.3776507677303758,0.9437737346256305,0.8325983408206402,0.1802890932982917,0.5394434185375968
rowiki,True,29.0,0.377757060348356,0.941619905911693,0.8328161890687282,0.17979632063074902,0.5391992989402963
rowiki,True,30.0,0.37806989565772087,0.9405996712577226,0.8330988030121936,0.17936268068331143,0.5393503095698523
rowiki,True,31.0,0.37843633791891956,0.9402029133367341,0.8333755291651702,0.1790078843626807,0.5396577526189081
rowiki,True,32.0,0.3788983070209509,0.9399761945247407,0.8337052454325465,0.17861366622864652,0.5400898847130854
rowiki,True,33.0,0.3793308618243398,0.9395227569007538,0.834029073909434,0.17819973718791066,0.5404541823576401
rowiki,True,34.0,0.37965635738831616,0.9392960380887604,0.8342645855289885,0.1779106438896189,0.5407469042141844
rowiki,True,35.0,0.3800229357798165,0.9391259989797653,0.8345236483104985,0.1776018396846255,0.5410904103326094
rowiki,True,36.0,0.3802658463233775,0.9388426004647735,0.8347061698156533,0.17736530880420498,0.5412895003431261
rowiki,True,37.0,0.3805911828253574,0.9385025222467834,0.8349475692256967,0.17705650459921157,0.5415624131220462
rowiki,True,38.0,0.38089429958806065,0.938105764325795,0.8351771930547623,0.17675427069645203,0.5418030640303785
rowiki,True,39.0,0.38128700781052,0.9379924049197982,0.8354480314172501,0.1764388961892247,0.5421813059004684
rowiki,True,40.0,0.381560741629001,0.9378223658108031,0.8356423285033825,0.1762023653088042,0.5424295572639205
rowiki,True,41.0,0.381843781737605,0.9376523267018081,0.8358425133800039,0.1759592641261498,0.54268702740827
rowiki,True,42.0,0.38220004158868787,0.9375956469988097,0.8360839127900472,0.17568331143232588,0.5430372267086861
rowiki,True,43.0,0.3824080283025412,0.9373689281868163,0.8362369953427577,0.1754862023653088,0.5432090655280013
rowiki,True,44.0,0.382701476646762,0.9371988890778212,0.8364430680098679,0.1752365308804205,0.5434764745517593
rowiki,True,45.0,0.38296886582653816,0.9370288499688262,0.8366314773055116,0.1750065703022339,0.5437174195458059
rowiki,True,46.0,0.38330782431241595,0.9368588108598311,0.8368669889250661,0.17472404730617608,0.5440302805891549
rowiki,True,47.0,0.38374901305094977,0.9366320920478377,0.837173154030487,0.17435611038107754,0.5444362078906185
rowiki,True,48.0,0.3841253603645494,0.9364620529388425,0.837432216811997,0.1740473061760841,0.5447860852361718
rowiki,True,49.0,0.3844542704212241,0.9363486935328459,0.8376559528505738,0.173784494086728,0.5450975863263656
rowiki,True,50.0,0.3849631770299245,0.9362353341268492,0.8379974446989278,0.17339027595269382,0.545589668213572
rowiki,True,51.0,0.3855672028576098,0.9360652950178541,0.8384037022426594,0.17291721419185282,0.546167074541967
rowiki,True,52.0,0.3863434267796134,0.9357818965028624,0.8389277155961682,0.17229960578186596,0.546896997200921
rowiki,True,53.0,0.3869727308963868,0.9354418182848722,0.8393575243018553,0.17178055190538766,0.547468984276521
rowiki,True,54.0,0.38765919451102027,0.9351017400668821,0.8398226597504754,0.17122207621550592,0.54809720768758
rowiki,True,55.0,0.3883460859329017,0.934931700957887,0.8402760196181179,0.1706964520367937,0.5487541169034232
rowiki,True,56.0,0.3888522116382156,0.9347616618488919,0.8406116236759831,0.17030223390275953,0.549229872616768
rowiki,True,57.0,0.38976759581057757,0.9344215836309018,0.841218066096336,0.16958607095926412,0.5500834167500834
rowiki,True,58.0,0.39110109159943046,0.93413818511591,0.8420835712981989,0.1685873850197109,0.5513607547296054
rowiki,True,59.0,0.3924249642686994,0.9337414271949215,0.842943188709573,0.16758212877792378,0.552605538131258
rowiki,True,60.0,0.39308649048676264,0.9332879895709346,0.8433847729962377,0.16703679369250984,0.5531814822280454
rowiki,True,61.0,0.3938233181709361,0.932381114322961,0.8438970107687688,0.16636005256241787,0.553750862605827
rowiki,True,62.0,0.3946780662359807,0.9314742390749873,0.8444799020271663,0.16560446780551905,0.5544347356701865
rowiki,True,63.0,0.3957052996891042,0.9306240435300119,0.8451628857238744,0.1647437582128778,0.5552962662337662
rowiki,True,64.0,0.3963582724766649,0.9290370118460579,0.8456515723344501,0.1640144546649146,0.5556553723070665
rowiki,True,65.0,0.3973851126394323,0.926826503429122,0.8463993217265356,0.16292378449408673,0.5562661586610423
rowiki,True,66.0,0.3985039601056028,0.9239925182792043,0.8472295001854654,0.1616688567674113,0.5568478762104833
rowiki,True,67.0,0.39944422585087547,0.9206484158023012,0.8479713617870621,0.16045335085413928,0.5571543725453204
rowiki,True,68.0,0.4005549499554058,0.9163974380774245,0.8488545303603916,0.15897503285151118,0.5574499629355077
rowiki,True,69.0,0.40116395244280145,0.9103327098566003,0.8495257384761221,0.15752299605781866,0.5569097938591168
rowiki,True,70.0,0.40263509932103286,0.9041546222297795,0.8506974087834058,0.1554993429697766,0.557158324892599
rowiki,True,71.0,0.40487244897959185,0.8995635662869127,0.8522105709390437,0.15327858081471749,0.5584152842038598
rowiki,True,72.0,0.40795557277541006,0.8951992291560392,0.8541594295908574,0.15059789750328514,0.5604883068952056
rowiki,True,73.0,0.41108260915087425,0.8901547355891856,0.8561200638236489,0.14782522996057817,0.5624294948699124
rowiki,True,74.0,0.41492108274999334,0.8835798900413762,0.858481067809683,0.14442838370565045,0.5646756257470932
rowiki,True,75.0,0.41914720260727867,0.8747378563736325,0.861065807834294,0.1405190538764783,0.56673337862402
rowiki,True,76.0,0.42293519519020306,0.8652156662699088,0.8633679339154395,0.13684625492772667,0.5681479827303856
rowiki,True,77.0,0.4274467603081106,0.8555234370571898,0.8659526739400505,0.132838370565046,0.5700689264469834
rowiki,True,78.0,0.43203292562749984,0.8448676528934989,0.8685079750122172,0.1287516425755585,0.571713491226388
rowiki,True,79.0,0.4373749141201422,0.8299042113019328,0.8714342068851822,0.12375164257555847,0.5728482003129891
rowiki,True,80.0,0.44278791246103033,0.8130703395114209,0.8742956730627698,0.11860709592641261,0.5733413269384492
rowiki,True,81.0,0.44866822654572264,0.7934024825709913,0.8772631194691568,0.11301576872536137,0.573195200851726
rowiki,True,82.0,0.4549603973687743,0.7683500538457179,0.8803188827328768,0.10670170827858082,0.5715128902379898
rowiki,True,83.0,0.4617993006251987,0.7410304370005101,0.8833864215775746,0.10011169513797635,0.5690037863950907
rowiki,True,84.0,0.46960041982157585,0.7100833191634076,0.8865717162320496,0.09296977660972405,0.565330204643397
rowiki,True,85.0,0.477776887963482,0.6763022161763872,0.8895862649623476,0.08568988173455978,0.5599643334819437
rowiki,True,86.0,0.4869614022968656,0.6392903701184606,0.8925654869497124,0.07807490144546649,0.5528244087734346
rowiki,True,87.0,0.4952165512041095,0.5955903191067279,0.8949264909357465,0.07037450722733246,0.5407853430085945
rowiki,True,88.0,0.5047446201711174,0.5517202289860001,0.8971991780644477,0.06275295663600526,0.5271880415944541
rowiki,True,89.0,0.5143712919762686,0.5061497477753216,0.8990597198589285,0.05539421813403417,0.510227402582562
rowiki,True,90.0,0.5272066930410533,0.46074930567363825,0.9010615686251421,0.04789750328515112,0.4917427862803218
rowiki,True,91.0,0.5415379980417263,0.4075270645581817,0.902615945314202,0.0399934296977661,0.46507115135834415
rowiki,True,92.0,0.5601588591028072,0.3517542368077991,0.9039701371266405,0.03201708278580815,0.4321426084534503
rowiki,True,93.0,0.5896656534954408,0.2968882843053902,0.9055009626537449,0.02394875164257556,0.39493327301515496
rowiki,True,94.0,0.6194844910441241,0.24111545655500766,0.9057835765972103,0.01716819973718791,0.3471236230110159
rowiki,True,95.0,0.6592395748160261,0.18279204216969902,0.9052948899866348,0.0109526938239159,0.2862214333259374
rowiki,True,96.0,0.7010869565217391,0.12429858867539534,0.9035285528399758,0.00614323258869908,0.21115979009195512
rowiki,True,97.0,0.7600235849056604,0.07306013716488126,0.9013147436161631,0.002674113009198423,0.1333057552096799
rowiki,True,98.0,0.8504043126684636,0.03576489259196282,0.8991833634591947,0.0007293035479632063,0.0686429154201795
rowiki,True,99.0,0.9154078549848943,0.017173950008501956,0.8977408547894232,0.00018396846254927727,0.033715366640703244
rowiki,False,0.0,0.07500194507118961,1.0,0.07500194507118961,1.0,0.13953824998190636
rowiki,False,1.0,0.0750154292000966,1.0,0.07518169647767729,0.9998056737465232,0.13956158611772576
rowiki,False,2.0,0.07550722171349233,0.9998926885105165,0.08178420709508313,0.992659108245524,0.14041124274473263
rowiki,False,3.0,0.0812348749370244,0.997817999713836,0.15341648400883195,0.9150504233121894,0.15023845878338896
rowiki,False,4.0,0.09061061555665358,0.9970668192874517,0.2492508122349002,0.8113846180619002,0.16612432206925326
rowiki,False,5.0,0.09972983044531396,0.9956002289311776,0.32559955142634084,0.7287263509300106,0.1812988535695675
rowiki,False,6.0,0.10292946835574285,0.9942767205608813,0.3496406313298653,0.7026286251272547,0.18654720558379892
rowiki,False,7.0,0.10635127870363259,0.9906996709114323,0.3749372882219903,0.6749907912558987,0.1920825588814603
rowiki,False,8.0,0.11234647284329445,0.987480326226928,0.41388700343673956,0.6326218672142606,0.20174073180891414
rowiki,False,9.0,0.11665515970672077,0.985155243954786,0.439382191733045,0.60487091806103,0.20860838114715294
rowiki,False,10.0,0.1290136349768839,0.9832236371440836,0.5008893670335921,0.5382199135103153,0.22809747272946043
rowiki,False,11.0,0.13281412806955475,0.9802904564315352,0.5184620791603731,0.5189845148079506,0.23393385318634036
rowiki,False,12.0,0.13811374609054747,0.9762126198311633,0.5413066049251886,0.49395703359523874,0.2419908314638623
rowiki,False,13.0,0.14211625842168485,0.9733509801116039,0.5573178943866587,0.47641546372914984,0.2480198335657579
rowiki,False,14.0,0.14908732713695322,0.9690942910287594,0.5828399112510966,0.44847888949797116,0.25841898175748185
rowiki,False,15.0,0.15414270293732973,0.9654099298898269,0.6000692177057818,0.42955383272280084,0.2658399286864618
rowiki,False,16.0,0.15800188279595198,0.9605809128630706,0.6131105846749854,0.4150634750754827,0.2713676509226136
rowiki,False,17.0,0.16209069461375641,0.9560022893117757,0.6260446373716588,0.40070943584478264,0.2771845944025845
rowiki,False,18.0,0.16591749076016382,0.9506367148376019,0.6378679873476473,0.38749235021651424,0.2825250356132928
rowiki,False,19.0,0.17017138219969472,0.9451280583774503,0.650211811545406,0.37370098700334414,0.28841357253183275
rowiki,False,20.0,0.17506774346034262,0.9405852053226499,0.6631270842443868,0.3593701509073876,0.2951923886503326
rowiki,False,21.0,0.1792856555016048,0.9351123193589927,0.674075822899256,0.34708989184438815,0.3008839372036278
rowiki,False,22.0,0.18452237344421896,0.9301759908427529,0.686443792808334,0.33331883137411866,0.30795466657192594
rowiki,False,23.0,0.1894401736987266,0.9238088424667334,0.6978244714101364,0.32049909942833277,0.3144067590270507
rowiki,False,24.0,0.19377585842418385,0.9180855630276148,0.7073647102380499,0.30972124333997525,0.32000897710837367
rowiki,False,25.0,0.19842551473556722,0.9142223494062097,0.7165722748211205,0.29945385621597476,0.3260780811431488
rowiki,False,26.0,0.20293139077497546,0.9097868078408928,0.7252191223302221,0.28974624471766136,0.33184377222109873
rowiki,False,27.0,0.20759018262031867,0.9055301187580483,0.73366475557833,0.28027066456678296,0.33775174612916353
rowiki,False,28.0,0.21213600403972396,0.9016311346401488,0.7414691860480714,0.27151728198479613,0.3434621463999564
rowiki,False,29.0,0.21655748189376522,0.8963013306624696,0.7490241108341806,0.26291762017048503,0.34883267669947515
rowiki,False,30.0,0.22071009066874855,0.8898984117899557,0.7560800242530256,0.25477041948367224,0.35369720061987286
rowiki,False,31.0,0.22524432635084718,0.8854270997281443,0.7629856976903285,0.24694226189958263,0.3591294885745376
rowiki,False,32.0,0.2298848429421975,0.8811704106452998,0.7696874740098246,0.23935193644661393,0.36464022973193
rowiki,False,33.0,0.23440950678304764,0.8770568035484333,0.7759358475278816,0.23226337878247352,0.36994455131832066
rowiki,False,34.0,0.23910893512851897,0.8734797538989841,0.7820366639212099,0.22537784854733875,0.37544299321192176
rowiki,False,35.0,0.24386598455211156,0.8696165402775791,0.7879899231898094,0.21862863672882207,0.38091283706500795
rowiki,False,36.0,0.24850240950237867,0.8651094577192732,0.7936641653498311,0.21212885860879804,0.3860982287534223
rowiki,False,37.0,0.2532251111835396,0.861532408069824,0.7990567075444617,0.20600903182019892,0.3914064467900121
rowiki,False,38.0,0.2578251846754336,0.8577049649449134,0.8041487697760082,0.20019374617510827,0.3964714733334987
rowiki,False,39.0,0.26232282166794857,0.8539848333094864,0.8089323034740313,0.1947207067674843,0.40135837129936286
rowiki,False,40.0,0.2669751873027284,0.8501931606810702,0.8136836428902953,0.1892766712782897,0.40634964054606226
rowiki,False,41.0,0.2711926605504587,0.8459007011017313,0.8179413366529215,0.18432570240239457,0.41071242488450443
rowiki,False,42.0,0.2752433090024331,0.8416797825153813,0.821901233309277,0.17970247780475143,0.41483022460421
rowiki,False,43.0,0.279303024520561,0.8377092574044928,0.8257055242704642,0.17526777867689924,0.4189295552931916
rowiki,False,44.0,0.2835232732093555,0.8338460437830877,0.829496400947585,0.17085628268379058,0.4231631495348309
rowiki,False,45.0,0.2872527418117001,0.8300901416511661,0.8327775348301886,0.16700456231636895,0.42680840889444743
rowiki,False,46.0,0.2911631657867214,0.8265488624982115,0.8360694001400452,0.16315864273263317,0.43063074815732827
rowiki,False,47.0,0.29504221304113526,0.8225425668908285,0.8392861454591307,0.15935622902654148,0.4343022267550569
rowiki,False,48.0,0.2987189364952923,0.8182501073114895,0.8422936279467829,0.15575684274945545,0.4376608343776606
rowiki,False,49.0,0.30242160325004647,0.8148161396480184,0.8451455047392665,0.15239528860349033,0.44112008365770056
rowiki,False,50.0,0.30618057149027494,0.8114179424810416,0.8479490901091118,0.14908884190254104,0.4445968856266476
rowiki,False,51.0,0.30992347568501605,0.8083774502790099,0.8506292640655475,0.14594481714479626,0.4480639213275968
rowiki,False,52.0,0.3133937647075205,0.8050865646015166,0.8530894437632969,0.14301832177527185,0.45116414260371046
rowiki,False,53.0,0.3167057958306226,0.8010087280011446,0.8554584063293958,0.14012663110786266,0.4539336319961079
rowiki,False,54.0,0.32007980823058263,0.7976463013306625,0.8577415174774707,0.13738576081628628,0.456839064564703
rowiki,False,55.0,0.32401289400370487,0.7946058091286307,0.8602580371682983,0.13441865996096072,0.4603222297052272
rowiki,False,56.0,0.32724151708421506,0.7910287594791816,0.862356031196259,0.13186051435548943,0.46296044298828676
rowiki,False,57.0,0.3303913180528662,0.7873443983402489,0.8643681738061958,0.12938648011346332,0.46546200450426634
rowiki,False,58.0,0.33396844752686533,0.7837315781943054,0.8665520192521805,0.12673262157717508,0.4683575421382842
rowiki,False,59.0,0.3374176181193725,0.7801545285448562,0.8686097704279425,0.12421798184934785,0.47108883944964036
rowiki,False,60.0,0.3405939042544856,0.7774717413077693,0.8704153330632591,0.12204848875083024,0.47367904893702806
rowiki,False,61.0,0.34345489809545005,0.772785806266991,0.8721618728486842,0.11978038232965274,0.47555526205727616
rowiki,False,62.0,0.34650431416821226,0.7685291171841465,0.8739298754886153,0.11752387747584699,0.47765142672936056
rowiki,False,63.0,0.3494586726850489,0.764343969094291,0.8756066609968959,0.11537178672838701,0.479630086866737
rowiki,False,64.0,0.3523946979876906,0.7598368865359851,0.8772566179370441,0.11322259637276996,0.48148693828979433
rowiki,False,65.0,0.355614658205262,0.7556875089426242,0.8789736462975235,0.11102990013950885,0.4836372377322207
rowiki,False,66.0,0.3587842339956604,0.7511804263843183,0.8806477489489909,0.10885460625730536,0.4856221166186826
rowiki,False,67.0,0.36170175894636514,0.7466018028330234,0.8821769773325427,0.10683013275093466,0.48731628162174145
rowiki,False,68.0,0.36474587017012433,0.7408427528974102,0.8837893742773054,0.10462003416661592,0.4888243763128703
rowiki,False,69.0,0.36756969545145474,0.7347975389898411,0.8852864083790984,0.10251144929679999,0.4900169366188784
rowiki,False,70.0,0.3708477666362808,0.7276076691944484,0.8869873395986982,0.10008962210794678,0.49129290148056903
rowiki,False,71.0,0.37492339975116523,0.7222063242237802,0.8888572907975328,0.09763008982513538,0.4936007921082548
rowiki,False,72.0,0.3798511279049946,0.7173773071970239,0.8909606505391201,0.09496462972147537,0.4966998130100429
rowiki,False,73.0,0.3845529554984445,0.7118686507368722,0.8929405988672978,0.09237748019757469,0.4993538835986801
rowiki,False,74.0,0.3902144427063739,0.7049291744169409,0.895247855726692,0.08932046719511806,0.5023515466676863
rowiki,False,75.0,0.39602107447262963,0.6963800257547574,0.8975712097269657,0.08611553420867159,0.5049082539065033
rowiki,False,76.0,0.4016797593180679,0.6877235656030906,0.8997470066025106,0.08306142159805789,0.5071485096280665
rowiki,False,77.0,0.40776177166200817,0.6783874660180284,0.9019791434711338,0.07989129331372669,0.5093599763650525
rowiki,False,78.0,0.4138977494240652,0.6683717269995707,0.9041415260626126,0.07674146777229604,0.511217510259918
rowiki,False,79.0,0.42022203871914854,0.6553154957790814,0.9063361029358502,0.0733103042221004,0.5120751341681574
rowiki,False,80.0,0.42732925173309194,0.6416511661181857,0.9086299455111781,0.06972251951238613,0.5130053050777172
rowiki,False,81.0,0.4345039988078089,0.6257690656746315,0.9108486680957351,0.06603612148001195,0.5128851622738868
rowiki,False,82.0,0.44204429834859515,0.6060952926026614,0.913078122107545,0.062030680344914595,0.5112314631828262
rowiki,False,83.0,0.4498238467466696,0.584597224209472,0.9152163589877045,0.0579759325484873,0.5084308113489298
rowiki,False,84.0,0.4583980084931908,0.5598798111317785,0.9173760587223699,0.05363694635145208,0.5040820598702114
rowiki,False,85.0,0.4675772194724641,0.5339104306767778,0.9194445413253849,0.04929505976257392,0.4985470456595076
rowiki,False,86.0,0.47787281517292673,0.5056159679496351,0.9214861953602674,0.044793651622334174,0.491353089423829
rowiki,False,87.0,0.48705274806344523,0.4723136357132637,0.9231146894459096,0.04033284896789556,0.4795699705807576
rowiki,False,88.0,0.4985353946297803,0.43833166404349694,0.9248048892382564,0.035750229856053556,0.466499162479062
rowiki,False,89.0,0.509770218925276,0.40313349549291744,0.9261570490721339,0.03143444679376184,0.45022371364653246
rowiki,False,90.0,0.5218473732344274,0.36739876949492056,0.9273053117882045,0.02729558763388934,0.43121037826944875
rowiki,False,91.0,0.5366856605768666,0.32679925597367293,0.9283489430885584,0.022875390465251857,0.406234020320594
rowiki,False,92.0,0.5517913043478261,0.28373157819430533,0.9289928287237382,0.01868722464404941,0.3747608135881505
rowiki,False,93.0,0.5765218878248974,0.24120045786235514,0.9298003686245261,0.01436564079807182,0.3401089478462625
rowiki,False,94.0,0.6031034859578188,0.19741737015309774,0.9300606057354113,0.010534223173550747,0.2974640903333603
rowiki,False,95.0,0.6373741925792399,0.15177421662612678,0.9299050000402429,0.007001545908852286,0.24516800046225407
rowiki,False,96.0,0.669954128440367,0.10448562026040921,0.9289740487260454,0.004173663861987755,0.1807773239262285
rowiki,False,97.0,0.7223120452708165,0.06392187723565602,0.9279491974233843,0.0019925691960983928,0.11744988498192573
rowiki,False,98.0,0.8120300751879699,0.030905708971240523,0.9267794718528077,0.0005800783685875961,0.05954514128187457
rowiki,False,99.0,0.9021479713603818,0.013521247674917728,0.9259021776748753,0.00011891606556045722,0.0266431718061674
