wiki_db,user_is_anonymous_or_bot,threshold,precision,recall,accuracy,fpr,F1
srwiki,True,0.0,0.22413293001284548,1.0,0.22413293001284548,1.0,0.36619050842867784
srwiki,True,1.0,0.22413293001284548,1.0,0.22413293001284548,1.0,0.36619050842867784
srwiki,True,2.0,0.22418169949539432,1.0,0.22435047445406706,0.9997196111941893,0.3662555968412233
srwiki,True,3.0,0.2257017635396014,0.9996764651506748,0.23126010027762814,0.9907204657124546,0.36825975175795556
srwiki,True,4.0,0.2338215885242,0.998983176187835,0.26608792939128995,0.945631275368511,0.3789469993162333
srwiki,True,5.0,0.24389802928945942,0.9975965982621556,0.30630257323996185,0.8933988464003418,0.3919660044310464
srwiki,True,6.0,0.2521904940163541,0.9963948973932335,0.3369763394522024,0.8535168767357403,0.4025056245857411
srwiki,True,7.0,0.2608416590977899,0.9955167313736365,0.3667074130858161,0.8149433881649221,0.4133728685071633
srwiki,True,8.0,0.27305180781055466,0.9933906452209281,0.4057514606555339,0.7640060884426405,0.42836073741903335
srwiki,True,9.0,0.28376052534025314,0.9906174893695693,0.4374715120374591,0.7223216193121128,0.4411534661616993
srwiki,True,10.0,0.2986465157208107,0.9882140876317249,0.47719927070815893,0.6704229865413374,0.4586770210985852
srwiki,True,11.0,0.30804156997275756,0.9877518949898317,0.4999482037044711,0.6409688100833155,0.46962521837539695
srwiki,True,12.0,0.31490604442608927,0.9867812904418561,0.5158703849500683,0.620166631061739,0.4774470559295123
srwiki,True,13.0,0.32046546546546545,0.986457755592531,0.5281357477313222,0.6042645802179022,0.4837707965002947
srwiki,True,14.0,0.3254000945886158,0.9858106858938805,0.5387539883147557,0.5903920102542192,0.4892926373260842
srwiki,True,15.0,0.330235295940022,0.9853484932519875,0.5488024696473708,0.5773071993163854,0.49468054250345156
srwiki,True,16.0,0.33526311649492646,0.9849787391384729,0.5589131065346207,0.5641689809869685,0.5002523444560509
srwiki,True,17.0,0.33911174785100284,0.9846089850249584,0.5664650064227407,0.5543286690878018,0.5044757033248082
srwiki,True,18.0,0.3433766987474005,0.9844703272323905,0.5745763063025733,0.5438341166417432,0.5091613180823982
srwiki,True,19.0,0.3469836717400515,0.9841467923830652,0.5813201839804417,0.5350486007263405,0.5130719741692972
srwiki,True,20.0,0.3494452468487395,0.9840543538546866,0.585816102432354,0.529227195043794,0.5157453611743618
srwiki,True,21.0,0.35148612945838836,0.9838232575337401,0.5895247171922264,0.5243804742576372,0.5179327461190326
srwiki,True,22.0,0.3534383977946427,0.9836845997411722,0.5930157875108772,0.5198408459730827,0.5200298095366084
srwiki,True,23.0,0.3552194454182735,0.9834535034202255,0.5961857207972486,0.5156884212775048,0.5219225627629175
srwiki,True,24.0,0.3568134171907757,0.9833148456276576,0.5989827207558115,0.5120433668019654,0.5236214174081048
srwiki,True,25.0,0.3584609939835179,0.983083749306711,0.6018625947872208,0.5082647938474685,0.5253603052869475
srwiki,True,26.0,0.35987950991674,0.9828988722499538,0.6043177391952927,0.505046998504593,0.5268556139133882
srwiki,True,27.0,0.36137082242545815,0.9825291181364393,0.6069075539717399,0.5016022217474898,0.5283984986701797
srwiki,True,28.0,0.36260961545023374,0.982344241079682,0.6090208428293209,0.4988250373851741,0.5296947040498442
srwiki,True,29.0,0.3636068042577951,0.9820207062303569,0.6107404798408818,0.49651516769920956,0.5307106282003247
srwiki,True,30.0,0.364887148304648,0.9818358291735996,0.6128952057348859,0.49368457594531084,0.5320459839206552
srwiki,True,31.0,0.36610298046922135,0.981604732852653,0.6149359797787263,0.49098750267036956,0.5333032003716398
srwiki,True,32.0,0.3671958770018332,0.9813274172675172,0.6167695686404508,0.48854411450544755,0.5344207002441541
srwiki,True,33.0,0.36827131581229944,0.9811887594749492,0.6185410019475407,0.48622089297158727,0.5355381491151727
srwiki,True,34.0,0.36937720778881794,0.9810963209465705,0.6203435130319479,0.4838709677419355,0.5366926665233935
srwiki,True,35.0,0.370418208475878,0.980865224625624,0.6220527907844031,0.4816011535996582,0.5377559294546929
srwiki,True,36.0,0.3715526449421282,0.980726566833056,0.6238863796461277,0.4791978209784234,0.5389294558384659
srwiki,True,37.0,0.3724894662921348,0.9806341283046774,0.6253884722164671,0.4772350993377483,0.5399002493765586
srwiki,True,38.0,0.37359560455041735,0.9805416897762987,0.6271495462644512,0.47493858149967955,0.5410471551350386
srwiki,True,39.0,0.3745211235280617,0.9804954705121095,0.6286102017983674,0.4730426190984832,0.5420099899078935
srwiki,True,40.0,0.37546685547393577,0.9804030319837308,0.630101935109601,0.4710932493057039,0.5429854987136988
srwiki,True,41.0,0.3764087819249951,0.9802181549269736,0.6315936684208345,0.4691171758171331,0.5439413175342078
srwiki,True,42.0,0.37746764690175694,0.9800794971344057,0.6332511498777608,0.46694082461012604,0.5450246102836287
srwiki,True,43.0,0.37841600771111866,0.979848400813459,0.6347428831889943,0.46495139927365947,0.5459766414710465
srwiki,True,44.0,0.37946652345148585,0.9797097430208911,0.6363692868686032,0.4628151036103397,0.5470475895530091
srwiki,True,45.0,0.3804386846639862,0.9796173044925125,0.6378610201798367,0.46086573381756035,0.5480426126079536
srwiki,True,46.0,0.38140748740100794,0.9794324274357552,0.6393527534910703,0.45888966032898953,0.5490180838385409
srwiki,True,47.0,0.38238480427560306,0.9788315770012941,0.6409066423569386,0.4567133091219825,0.5499350817969358
srwiki,True,48.0,0.3833562685594264,0.9785542614161582,0.6423983756681723,0.4547105319376202,0.550895087427144
srwiki,True,49.0,0.3843527531599593,0.9781845073026437,0.6439315460158289,0.4526276436658834,0.551864406779661
srwiki,True,50.0,0.385412870782013,0.9776760953965613,0.6455683089545435,0.45037118137150184,0.5528750653423941
srwiki,True,51.0,0.3864005993823438,0.9773063412830467,0.6470704015248829,0.4483283486434523,0.553831244516036
srwiki,True,52.0,0.38755226289151323,0.9767979293769643,0.6488211163137613,0.44592501602221746,0.554931204705388
srwiki,True,53.0,0.388753866548829,0.9758735440931781,0.6506857829528032,0.4432546464430677,0.5560120082161479
srwiki,True,54.0,0.3900842945874002,0.9753189129229063,0.6526747607011146,0.440530869472335,0.5572809380446839
srwiki,True,55.0,0.39180199933107884,0.9745794046958772,0.6552231384411387,0.4370326853236488,0.5589100644101043
srwiki,True,56.0,0.39346068380856347,0.9738861157330375,0.6576575643309991,0.4336947233497116,0.5604809214113767
srwiki,True,57.0,0.3955250540565949,0.9722684414864116,0.6607446235445241,0.42924855800042727,0.5623020275056467
srwiki,True,58.0,0.3974051027934863,0.971159179145868,0.6634794679484524,0.4254032258064516,0.5640124011864339
srwiki,True,59.0,0.39926154314643525,0.9695877241634313,0.6662039530932747,0.42143772698141424,0.5656124457386287
srwiki,True,60.0,0.4011080651036175,0.967045664633019,0.668990593792732,0.41711172826319165,0.5670266534776894
srwiki,True,61.0,0.40322642892979815,0.9657977444999075,0.6719637011560933,0.4129192480239265,0.5689237387350595
srwiki,True,62.0,0.40534807231963876,0.9626548345350342,0.6751025566651473,0.4079657124546037,0.570481655459538
srwiki,True,63.0,0.4085634489811974,0.9601127750046219,0.6795466788215306,0.40150341807306134,0.5732064017660045
srwiki,True,64.0,0.41143288443967746,0.9573858384174524,0.6834831972817305,0.3956419568468276,0.5755327720819094
srwiki,True,65.0,0.41436253461214334,0.9544740247735256,0.6874404342601417,0.3897003845332194,0.577860480734253
srwiki,True,66.0,0.4183090284133667,0.9505916065816232,0.6926511415903535,0.3818628498184149,0.5809640834427919
srwiki,True,67.0,0.4227872134056999,0.9468940654464781,0.6983487340985373,0.37345118564409313,0.5845662191659652
srwiki,True,68.0,0.42622642298523694,0.9420872619707894,0.7027721377367091,0.36636135441145057,0.5869158340291976
srwiki,True,69.0,0.4296201994483344,0.935847661305232,0.707143745079352,0.3589243751335185,0.5888956751883199
srwiki,True,70.0,0.43397651730985065,0.9293307450545387,0.712489122777939,0.3501522110660115,0.5916607815442562
srwiki,True,71.0,0.4381289273630092,0.9216583471991125,0.7175237227033523,0.34144680623798335,0.5939240506329114
srwiki,True,72.0,0.4415239286272583,0.9138010722869292,0.7216156300501388,0.3339030121768853,0.5953775502522021
srwiki,True,73.0,0.4457828581838054,0.9048345350342023,0.7265362781253885,0.32497062593462933,0.5972968025384428
srwiki,True,74.0,0.44986500325854206,0.893325938251063,0.7312393817594166,0.315584276863918,0.598390092879257
srwiki,True,75.0,0.45438082302761695,0.8813551488260307,0.7362014668710893,0.3057306131168554,0.5996258038142855
srwiki,True,76.0,0.4590027633091238,0.8675355888334257,0.7411324742054448,0.29538293099765006,0.6003614322954149
srwiki,True,77.0,0.46393669137043086,0.8535311517840636,0.746125637094435,0.2849017303994873,0.6011295389072444
srwiki,True,78.0,0.4683389971205479,0.8344425956738769,0.7505801185099241,0.27364612262337107,0.5999501536927806
srwiki,True,79.0,0.4747890125248616,0.8164633019042337,0.7564330999046948,0.26090845973082677,0.600421467659155
srwiki,True,80.0,0.48174629878869446,0.7940931780366056,0.7623793146314176,0.24678220465712455,0.5996858638743455
srwiki,True,81.0,0.4888771497329342,0.7699205028655943,0.7680147515849667,0.2325357829523606,0.5980254891401904
srwiki,True,82.0,0.4962343354528057,0.7430671103716029,0.7733394107653421,0.2179155095065157,0.5950697708849984
srwiki,True,83.0,0.5054244820599961,0.7148733592161213,0.7793063440102764,0.20208021790215766,0.5921742792603086
srwiki,True,84.0,0.5149650641359892,0.6846921797004991,0.7847863920772387,0.18629833368938262,0.5878221534432474
srwiki,True,85.0,0.5249879060767313,0.6520613791828435,0.7897795549662289,0.17043633838923308,0.581665257993362
srwiki,True,86.0,0.5361632062969358,0.6170733961915327,0.79452409563668,0.15421384319589831,0.5737800030083589
srwiki,True,87.0,0.5459236773633999,0.5818543168792752,0.7978079807732151,0.13980719931638538,0.5633166278861643
srwiki,True,88.0,0.5595503486221126,0.5452486596413385,0.8018791696017901,0.1239852595599231,0.5523069360237833
srwiki,True,89.0,0.5712335958005249,0.5029580329081161,0.8039820992002652,0.10905789361247596,0.5349260187779581
srwiki,True,90.0,0.5898013637711236,0.4597430208911074,0.8072452658185887,0.09236808374279,0.5167138515882703
srwiki,True,91.0,0.6091419187080881,0.4114438898132742,0.8089131065346207,0.07626575518051698,0.4911448275862068
srwiki,True,92.0,0.635118510620848,0.35792198188204843,0.8100008287407284,0.05940237128818628,0.457832037600875
srwiki,True,93.0,0.664804469273743,0.29700499168053246,0.8088716694981974,0.04325998718222602,0.410580793559517
srwiki,True,94.0,0.7069490586932448,0.23604178221482713,0.8068412547134629,0.02826586199530015,0.3539154539154539
srwiki,True,95.0,0.7529231359018593,0.1815492697356258,0.803205154767331,0.017210531937620167,0.2925557665810151
srwiki,True,96.0,0.794924154025671,0.12594749491588095,0.7968134918990594,0.009386349070711387,0.21744334503670604
srwiki,True,97.0,0.8337493759360959,0.07718617119615456,0.7897173994115941,0.004446165349284341,0.14129193282287747
srwiki,True,98.0,0.8610271903323263,0.03951747088186356,0.783294658766005,0.0018425550096133306,0.07556675062972293
srwiki,True,99.0,0.8746594005449592,0.014836383804769829,0.7787158662412464,0.0006141850032044435,0.029177839385538338
srwiki,False,0.0,0.09041313310346162,1.0,0.09041313310346162,1.0,0.16583280292329888
srwiki,False,1.0,0.09042213403758141,1.0,0.09051267658599037,0.9998905618735807,0.1658479431314717
srwiki,False,2.0,0.09124806725128246,0.999877668358921,0.09966238168842337,0.9898192142950513,0.1672344474112267
srwiki,False,3.0,0.09288039229621206,0.9992354272432564,0.11758297364033281,0.9700534726845477,0.16996252012495025
srwiki,False,4.0,0.09558931303975657,0.9972475380757233,0.14666902621588215,0.9378786635172806,0.17445642869371686
srwiki,False,5.0,0.09899142989311713,0.9947703223438742,0.1809009238188198,0.8999978720364308,0.18006432648180642
srwiki,False,6.0,0.10266805179010312,0.9913756193039329,0.21581303521903714,0.8612780549196998,0.18606680174724624
srwiki,False,7.0,0.10685990082469657,0.9879197504434521,0.2523593187907679,0.8207555486650069,0.19285891262750343
srwiki,False,8.0,0.11177635693932865,0.9837604746467674,0.2917370614210938,0.7770502169002866,0.200743888816081
srwiki,False,9.0,0.11641321256705872,0.9795400330295431,0.3259468382501362,0.7390204679695883,0.20809537731864988
srwiki,False,10.0,0.12157299258943002,0.9753501743225885,0.3605935003636102,0.7005134472097838,0.2161978944228644
srwiki,False,11.0,0.12627173161995378,0.9724753807572328,0.3891237684950408,0.6688615090909643,0.22352031491635035
srwiki,False,12.0,0.1308739950813235,0.9683466878708178,0.41571570381389794,0.639215936623165,0.23058408858367344
srwiki,False,13.0,0.13577431333990267,0.9649825677411462,0.4414919355953668,0.6105431475013148,0.23805410217623382
srwiki,False,14.0,0.14022829316237406,0.9599363875466389,0.46424315154665685,0.5850288643058431,0.24470925767834936
srwiki,False,15.0,0.1451020455548074,0.9556241971986055,0.4869390655632087,0.5596483388204394,0.2519482509081087
srwiki,False,16.0,0.1503271764239665,0.9513120068505719,0.5094497180983877,0.5344714898480938,0.2596277439278858
srwiki,False,17.0,0.15552262795720528,0.9469386506819989,0.5303151380751056,0.5110973300137102,0.26716654874281676
srwiki,False,18.0,0.16096789515165116,0.9431769527188207,0.550370384707909,0.488674673889583,0.27500234073004026
srwiki,False,19.0,0.16618644251391929,0.9384060187167411,0.5687389223311977,0.46800606773612036,0.28236723200235586
srwiki,False,20.0,0.17159693510695667,0.9342161600097866,0.5862862262236245,0.44829808513678243,0.2899380202549427
srwiki,False,21.0,0.17698702871381664,0.9297204722001345,0.6027606725821303,0.42973920286484696,0.2973657696784733
srwiki,False,22.0,0.18242285728069277,0.9251636185699431,0.6183475228880883,0.4121500639909045,0.30475451701783635
srwiki,False,23.0,0.18779284141175295,0.9205455991192122,0.6328476901764408,0.39574954476779356,0.31194780833346286
srwiki,False,24.0,0.19330665461821467,0.9159275796684813,0.64681419379457,0.37993573550020826,0.3192380668130556
srwiki,False,25.0,0.19887315669664016,0.9110954798458621,0.6601281345827884,0.36481807431456775,0.3264820791574656
srwiki,False,26.0,0.2045893586488575,0.9069056211389076,0.67279504273457,0.3504755998577304,0.33386248747480884
srwiki,False,27.0,0.20987733470103004,0.901064285277387,0.6843531470948511,0.3371879873416567,0.3404552807950081
srwiki,False,28.0,0.2153104076118877,0.8969050094807022,0.6951425545622714,0.3249126774949613,0.34725823831006597
srwiki,False,29.0,0.2206305890890399,0.8926234020429384,0.7052047415878845,0.31342471416889345,0.35380969409711066
srwiki,False,30.0,0.2260927791706246,0.8880665484127469,0.7150401906810709,0.3021586670436202,0.3604249931732989
srwiki,False,31.0,0.23115260311670027,0.883693192244174,0.723733654821914,0.29216635811194913,0.36645064742362177
srwiki,False,32.0,0.23611213847178045,0.8785858462291272,0.732026179935905,0.28254188288296506,0.3721990814217881
srwiki,False,33.0,0.2414354939470174,0.8746406508043305,0.7402081011804198,0.27315452359455605,0.3784137821530645
srwiki,False,34.0,0.2468435657301422,0.870573123738455,0.7481383986218758,0.264031639778327,0.38462889648556253
srwiki,False,35.0,0.2519666120879903,0.865955104287724,0.7554437842007903,0.25554106513696484,0.390352509753643
srwiki,False,36.0,0.25717257044855363,0.8621628234142761,0.7623814119136958,0.24753688216857728,0.3961719260524042
srwiki,False,37.0,0.262314695380704,0.8582787938100189,0.7689595770508031,0.23991877259061326,0.40182125368689325
srwiki,False,38.0,0.2671524738822763,0.8532326136155116,0.7751119172904264,0.23265329697555578,0.40690153067549534
srwiki,False,39.0,0.2723563680586885,0.8492874181907151,0.7812255461757329,0.22553981875830287,0.4124461607010248
srwiki,False,40.0,0.27751748216668504,0.8459538809713132,0.7869520615178722,0.2189127322140245,0.41793142002402334
srwiki,False,41.0,0.28250500076934915,0.8422533488286745,0.7923329397678978,0.2126291597887844,0.42309671769739515
srwiki,False,42.0,0.2873004566975322,0.8388280628784636,0.7972907582171762,0.20683805893243107,0.428007427866985
srwiki,False,43.0,0.29180341889479255,0.8347605358125879,0.8018891140906564,0.20137831240329165,0.43244056813770926
srwiki,False,44.0,0.2964190692196973,0.8313658327726466,0.8063381547403435,0.19614960191881514,0.43702072247319257
srwiki,False,45.0,0.3012941673522937,0.8287662853997186,0.8107512491324509,0.1910394494046262,0.4419275929549902
srwiki,False,46.0,0.3055800992319717,0.8250045874365405,0.8146721563053884,0.18635488960428997,0.445972754926597
srwiki,False,47.0,0.3102843021778794,0.8217627989479479,0.8187313183151712,0.18157001152140276,0.4504761266094421
srwiki,False,48.0,0.31480675845688955,0.8188268395620527,0.8224835545871573,0.17715296714120254,0.4547716714650904
srwiki,False,49.0,0.3189983018010476,0.8157685485350786,0.8258873886702927,0.17310679641164542,0.4586471336703462
srwiki,False,50.0,0.3231738464158011,0.8126490916875649,0.8291833839806886,0.1691731037564637,0.46244343891402717
srwiki,False,51.0,0.3276265169039696,0.8099883784940975,0.832526385935612,0.16523333120536976,0.4665439460264054
srwiki,False,52.0,0.331532391817862,0.8069606703773932,0.8354380327995775,0.16173131115995293,0.4699784478919901
srwiki,False,53.0,0.3359757578857194,0.8036271331579913,0.8386427799176555,0.15787665715162957,0.4738479293835487
srwiki,False,54.0,0.3398817644383811,0.8000183497461618,0.8414355276219339,0.15444759585715892,0.47707978078294416
srwiki,False,55.0,0.3444529618566784,0.7970518074499969,0.8445020199031663,0.1507814186221132,0.4810262089331857
srwiki,False,56.0,0.3486773197260642,0.7941158480641017,0.8472671166400757,0.14744963566223745,0.4845849507315616
srwiki,False,57.0,0.3531252134708655,0.7904764817420026,0.8501345219562506,0.14393545582499628,0.48817202270216165
srwiki,False,58.0,0.35724201116077625,0.7870511957917915,0.852714357211787,0.14075871021088118,0.4914260617170791
srwiki,False,59.0,0.3612332938589071,0.7836259098415805,0.8551531725337411,0.13773700194252675,0.49450931197529674
srwiki,False,60.0,0.36531518624641834,0.7798336289681326,0.857597518049169,0.13467273440278701,0.4975511717301801
srwiki,False,61.0,0.36944723325621665,0.7765306746590005,0.8599672059527003,0.1317391846251592,0.5006852353956126
srwiki,False,62.0,0.3735661955154296,0.7719126552082696,0.8623451891464423,0.12866579724155122,0.5034758584921656
srwiki,False,63.0,0.37850883147050396,0.7674475503088873,0.8650439235616658,0.12525497563481713,0.5069750997525128
srwiki,False,64.0,0.3832859666641063,0.7630436112300446,0.8675712219792009,0.12203871069727286,0.510261470657409
srwiki,False,65.0,0.3878639106913912,0.7586702550614717,0.8699243193023108,0.11901700242891841,0.5133049164045688
srwiki,False,66.0,0.39334025393276373,0.7532264970334577,0.8726534697816403,0.1154754630600724,0.5168025348063747
srwiki,False,67.0,0.39916110394803417,0.7479662364670622,0.8754185665185497,0.11191264405553376,0.5205333673871171
srwiki,False,68.0,0.40407741763549754,0.7419414031439232,0.8777384826808166,0.1087632579730235,0.5232056590752243
srwiki,False,69.0,0.40888578580794577,0.7343262584867576,0.8799975667148715,0.1055226734518305,0.5252841250916092
srwiki,False,70.0,0.4143624254681126,0.7268640283809408,0.8824225565531411,0.1021148917930525,0.5278271297859111
srwiki,False,71.0,0.4198974945086344,0.7190959691724265,0.8847811840697247,0.09874966940565978,0.5301989965612492
srwiki,False,72.0,0.42471959373059076,0.7110526637714845,0.8867969395909316,0.09573404103321752,0.5317932296431839
srwiki,False,73.0,0.43048629597690374,0.7022753685240688,0.8890809094956187,0.09235057895808824,0.5337749883774988
srwiki,False,74.0,0.4357448283832197,0.6918771790323567,0.8911381414678793,0.0890552753736856,0.5347215656613407
srwiki,False,75.0,0.4414855647208122,0.6809284971557893,0.8932672659552995,0.08562621407921496,0.5356670275472152
srwiki,False,76.0,0.4472219949267654,0.6686035843170837,0.8953189677340861,0.08214547366949078,0.5359515579417029
srwiki,False,77.0,0.4534706975173113,0.6569209125940424,0.897398320480242,0.07869817268728359,0.5365573401943396
srwiki,False,78.0,0.4588900083227474,0.6407731359716191,0.8992066937461807,0.07510495420318404,0.5347899331257339
srwiki,False,79.0,0.466062524192263,0.6260015903113341,0.9013441135238116,0.07128677957033376,0.5343200595168175
srwiki,False,80.0,0.4741007365736216,0.6082635023548841,0.9035783116872343,0.06706733180727946,0.5328671516028346
srwiki,False,81.0,0.48147222083312496,0.5889045201541379,0.9054889935324387,0.06304244071341499,0.5297969515214879
srwiki,False,82.0,0.48989925628988873,0.5681081411707138,0.9074688027960658,0.05879867336671196,0.5261130621955364
srwiki,False,83.0,0.5001120197154699,0.5461496115970396,0.9096089876704336,0.054263071016224206,0.5221179428705085
srwiki,False,84.0,0.5100023886301206,0.5223866903174507,0.9114394817102677,0.049888585907409265,0.5161202598579845
srwiki,False,85.0,0.5205703300224287,0.49688054315248636,0.9131372511067299,0.04548674126698951,0.508449646366652
srwiki,False,86.0,0.5324994802854965,0.4700287479356536,0.9147741883749803,0.04101801777153575,0.499317738791423
srwiki,False,87.0,0.5430490917279688,0.4425041286928864,0.9159299988110085,0.037011366365407826,0.4876478716591958
srwiki,False,88.0,0.5579501521757012,0.41488776071931005,0.9173789095011489,0.03267336063206598,0.47589981056619657
srwiki,False,89.0,0.5703132134051685,0.3820111321793382,0.9181033648462191,0.028608950214772323,0.4575457875457875
srwiki,False,90.0,0.5886092304511861,0.3483087650620833,0.9190683836074005,0.024197985730484293,0.4376428996868215
srwiki,False,91.0,0.6083089595893273,0.3116704385589333,0.9196214029547823,0.019948138487869086,0.4121655780469556
srwiki,False,92.0,0.6342125956108371,0.27133157991314455,0.9199698051436329,0.015555413691317604,0.38006297256195515
srwiki,False,93.0,0.6643576826196473,0.22585479234203926,0.9196905303732051,0.01134204582417549,0.3371068608207422
srwiki,False,94.0,0.7058402006449301,0.1807449996941709,0.9191181553486649,0.007487391815852113,0.28779430741886003
srwiki,False,95.0,0.7485197368421053,0.13918282463759252,0.9179429892354785,0.004648080424863126,0.23472071793284852
srwiki,False,96.0,0.79016637695555,0.09731482047831672,0.9160488979706956,0.002568756022896888,0.173287950987066
srwiki,False,97.0,0.8284536082474226,0.06144106673191021,0.913991665998435,0.0012646183497338525,0.11439797283831107
srwiki,False,98.0,0.8547351524879615,0.03257079943727445,0.9120312124119663,0.0005502305800524695,0.06275041244402545
srwiki,False,99.0,0.8669438669438669,0.01275307358248211,0.9105629460446674,0.00019455666918982348,0.025136381446095424
