wiki_db,user_is_anonymous_or_bot,threshold,precision,recall,accuracy,fpr,F1
sswiki,True,0.0,0.26666666666666666,1.0,0.26666666666666666,1.0,0.4210526315789474
sswiki,True,1.0,0.26666666666666666,1.0,0.26666666666666666,1.0,0.4210526315789474
sswiki,True,2.0,0.26666666666666666,1.0,0.26666666666666666,1.0,0.4210526315789474
sswiki,True,3.0,0.26666666666666666,1.0,0.26666666666666666,1.0,0.4210526315789474
sswiki,True,4.0,0.26666666666666666,1.0,0.26666666666666666,1.0,0.4210526315789474
sswiki,True,5.0,0.26666666666666666,1.0,0.26666666666666666,1.0,0.4210526315789474
sswiki,True,6.0,0.26666666666666666,1.0,0.26666666666666666,1.0,0.4210526315789474
sswiki,True,7.0,0.26666666666666666,1.0,0.26666666666666666,1.0,0.4210526315789474
sswiki,True,8.0,0.26666666666666666,1.0,0.26666666666666666,1.0,0.4210526315789474
sswiki,True,9.0,0.26666666666666666,1.0,0.26666666666666666,1.0,0.4210526315789474
sswiki,True,10.0,0.26666666666666666,1.0,0.26666666666666666,1.0,0.4210526315789474
sswiki,True,11.0,0.26666666666666666,1.0,0.26666666666666666,1.0,0.4210526315789474
sswiki,True,12.0,0.26666666666666666,1.0,0.26666666666666666,1.0,0.4210526315789474
sswiki,True,13.0,0.26666666666666666,1.0,0.26666666666666666,1.0,0.4210526315789474
sswiki,True,14.0,0.26666666666666666,1.0,0.26666666666666666,1.0,0.4210526315789474
sswiki,True,15.0,0.26666666666666666,1.0,0.26666666666666666,1.0,0.4210526315789474
sswiki,True,16.0,0.26666666666666666,1.0,0.26666666666666666,1.0,0.4210526315789474
sswiki,True,17.0,0.26666666666666666,1.0,0.26666666666666666,1.0,0.4210526315789474
sswiki,True,18.0,0.26666666666666666,1.0,0.26666666666666666,1.0,0.4210526315789474
sswiki,True,19.0,0.26666666666666666,1.0,0.26666666666666666,1.0,0.4210526315789474
sswiki,True,20.0,0.26666666666666666,1.0,0.26666666666666666,1.0,0.4210526315789474
sswiki,True,21.0,0.26666666666666666,1.0,0.26666666666666666,1.0,0.4210526315789474
sswiki,True,22.0,0.26666666666666666,1.0,0.26666666666666666,1.0,0.4210526315789474
sswiki,True,23.0,0.26666666666666666,1.0,0.26666666666666666,1.0,0.4210526315789474
sswiki,True,24.0,0.26666666666666666,1.0,0.26666666666666666,1.0,0.4210526315789474
sswiki,True,25.0,0.26666666666666666,1.0,0.26666666666666666,1.0,0.4210526315789474
sswiki,True,26.0,0.26666666666666666,1.0,0.26666666666666666,1.0,0.4210526315789474
sswiki,True,27.0,0.26666666666666666,1.0,0.26666666666666666,1.0,0.4210526315789474
sswiki,True,28.0,0.26666666666666666,1.0,0.26666666666666666,1.0,0.4210526315789474
sswiki,True,29.0,0.26666666666666666,1.0,0.26666666666666666,1.0,0.4210526315789474
sswiki,True,30.0,0.26666666666666666,1.0,0.26666666666666666,1.0,0.4210526315789474
sswiki,True,31.0,0.26666666666666666,1.0,0.26666666666666666,1.0,0.4210526315789474
sswiki,True,32.0,0.26666666666666666,1.0,0.26666666666666666,1.0,0.4210526315789474
sswiki,True,33.0,0.26666666666666666,1.0,0.26666666666666666,1.0,0.4210526315789474
sswiki,True,34.0,0.26666666666666666,1.0,0.26666666666666666,1.0,0.4210526315789474
sswiki,True,35.0,0.26666666666666666,1.0,0.26666666666666666,1.0,0.4210526315789474
sswiki,True,36.0,0.26666666666666666,1.0,0.26666666666666666,1.0,0.4210526315789474
sswiki,True,37.0,0.26666666666666666,1.0,0.26666666666666666,1.0,0.4210526315789474
sswiki,True,38.0,0.26666666666666666,1.0,0.26666666666666666,1.0,0.4210526315789474
sswiki,True,39.0,0.27586206896551724,1.0,0.3,0.9545454545454546,0.4324324324324324
sswiki,True,40.0,0.27586206896551724,1.0,0.3,0.9545454545454546,0.4324324324324324
sswiki,True,41.0,0.27586206896551724,1.0,0.3,0.9545454545454546,0.4324324324324324
sswiki,True,42.0,0.2857142857142857,1.0,0.3333333333333333,0.9090909090909091,0.4444444444444445
sswiki,True,43.0,0.2857142857142857,1.0,0.3333333333333333,0.9090909090909091,0.4444444444444445
sswiki,True,44.0,0.2962962962962963,1.0,0.36666666666666664,0.8636363636363636,0.45714285714285713
sswiki,True,45.0,0.2962962962962963,1.0,0.36666666666666664,0.8636363636363636,0.45714285714285713
sswiki,True,46.0,0.2962962962962963,1.0,0.36666666666666664,0.8636363636363636,0.45714285714285713
sswiki,True,47.0,0.2962962962962963,1.0,0.36666666666666664,0.8636363636363636,0.45714285714285713
sswiki,True,48.0,0.2962962962962963,1.0,0.36666666666666664,0.8636363636363636,0.45714285714285713
sswiki,True,49.0,0.2962962962962963,1.0,0.36666666666666664,0.8636363636363636,0.45714285714285713
sswiki,True,50.0,0.2962962962962963,1.0,0.36666666666666664,0.8636363636363636,0.45714285714285713
sswiki,True,51.0,0.2962962962962963,1.0,0.36666666666666664,0.8636363636363636,0.45714285714285713
sswiki,True,52.0,0.2962962962962963,1.0,0.36666666666666664,0.8636363636363636,0.45714285714285713
sswiki,True,53.0,0.2962962962962963,1.0,0.36666666666666664,0.8636363636363636,0.45714285714285713
sswiki,True,54.0,0.2962962962962963,1.0,0.36666666666666664,0.8636363636363636,0.45714285714285713
sswiki,True,55.0,0.2962962962962963,1.0,0.36666666666666664,0.8636363636363636,0.45714285714285713
sswiki,True,56.0,0.2962962962962963,1.0,0.36666666666666664,0.8636363636363636,0.45714285714285713
sswiki,True,57.0,0.2962962962962963,1.0,0.36666666666666664,0.8636363636363636,0.45714285714285713
sswiki,True,58.0,0.2962962962962963,1.0,0.36666666666666664,0.8636363636363636,0.45714285714285713
sswiki,True,59.0,0.2962962962962963,1.0,0.36666666666666664,0.8636363636363636,0.45714285714285713
sswiki,True,60.0,0.3076923076923077,1.0,0.4,0.8181818181818182,0.47058823529411764
sswiki,True,61.0,0.3076923076923077,1.0,0.4,0.8181818181818182,0.47058823529411764
sswiki,True,62.0,0.3076923076923077,1.0,0.4,0.8181818181818182,0.47058823529411764
sswiki,True,63.0,0.3076923076923077,1.0,0.4,0.8181818181818182,0.47058823529411764
sswiki,True,64.0,0.3076923076923077,1.0,0.4,0.8181818181818182,0.47058823529411764
sswiki,True,65.0,0.3076923076923077,1.0,0.4,0.8181818181818182,0.47058823529411764
sswiki,True,66.0,0.3076923076923077,1.0,0.4,0.8181818181818182,0.47058823529411764
sswiki,True,67.0,0.3076923076923077,1.0,0.4,0.8181818181818182,0.47058823529411764
sswiki,True,68.0,0.3076923076923077,1.0,0.4,0.8181818181818182,0.47058823529411764
sswiki,True,69.0,0.3076923076923077,1.0,0.4,0.8181818181818182,0.47058823529411764
sswiki,True,70.0,0.32,1.0,0.43333333333333335,0.7727272727272727,0.48484848484848486
sswiki,True,71.0,0.32,1.0,0.43333333333333335,0.7727272727272727,0.48484848484848486
sswiki,True,72.0,0.32,1.0,0.43333333333333335,0.7727272727272727,0.48484848484848486
sswiki,True,73.0,0.32,1.0,0.43333333333333335,0.7727272727272727,0.48484848484848486
sswiki,True,74.0,0.32,1.0,0.43333333333333335,0.7727272727272727,0.48484848484848486
sswiki,True,75.0,0.32,1.0,0.43333333333333335,0.7727272727272727,0.48484848484848486
sswiki,True,76.0,0.34782608695652173,1.0,0.5,0.6818181818181818,0.5161290322580645
sswiki,True,77.0,0.34782608695652173,1.0,0.5,0.6818181818181818,0.5161290322580645
sswiki,True,78.0,0.36363636363636365,1.0,0.5333333333333333,0.6363636363636364,0.5333333333333333
sswiki,True,79.0,0.36363636363636365,1.0,0.5333333333333333,0.6363636363636364,0.5333333333333333
sswiki,True,80.0,0.36363636363636365,1.0,0.5333333333333333,0.6363636363636364,0.5333333333333333
sswiki,True,81.0,0.38095238095238093,1.0,0.5666666666666667,0.5909090909090909,0.5517241379310345
sswiki,True,82.0,0.38095238095238093,1.0,0.5666666666666667,0.5909090909090909,0.5517241379310345
sswiki,True,83.0,0.42105263157894735,1.0,0.6333333333333333,0.5,0.5925925925925926
sswiki,True,84.0,0.47058823529411764,1.0,0.7,0.4090909090909091,0.6399999999999999
sswiki,True,85.0,0.47058823529411764,1.0,0.7,0.4090909090909091,0.6399999999999999
sswiki,True,86.0,0.4,0.75,0.6333333333333333,0.4090909090909091,0.5217391304347827
sswiki,True,87.0,0.35714285714285715,0.625,0.6,0.4090909090909091,0.45454545454545453
sswiki,True,88.0,0.4166666666666667,0.625,0.6666666666666666,0.3181818181818182,0.5
sswiki,True,89.0,0.5,0.625,0.7333333333333333,0.22727272727272727,0.5555555555555556
sswiki,True,90.0,0.5555555555555556,0.625,0.7666666666666667,0.18181818181818182,0.5882352941176471
sswiki,True,91.0,0.7142857142857143,0.625,0.8333333333333334,0.09090909090909091,0.6666666666666666
sswiki,True,92.0,0.7142857142857143,0.625,0.8333333333333334,0.09090909090909091,0.6666666666666666
sswiki,True,93.0,0.7142857142857143,0.625,0.8333333333333334,0.09090909090909091,0.6666666666666666
sswiki,True,94.0,0.7142857142857143,0.625,0.8333333333333334,0.09090909090909091,0.6666666666666666
sswiki,True,95.0,0.75,0.375,0.8,0.045454545454545456,0.5
sswiki,True,96.0,1.0,0.125,0.7666666666666667,0.0,0.2222222222222222
sswiki,True,97.0,1.0,0.0,0.7333333333333333,0.0,0.0
sswiki,True,98.0,1.0,0.0,0.7333333333333333,0.0,0.0
sswiki,True,99.0,1.0,0.0,0.7333333333333333,0.0,0.0
sswiki,False,0.0,0.07377049180327869,1.0,0.07377049180327869,1.0,0.13740458015267176
sswiki,False,1.0,0.07377049180327869,1.0,0.07377049180327869,1.0,0.13740458015267176
sswiki,False,2.0,0.07377049180327869,1.0,0.07377049180327869,1.0,0.13740458015267176
sswiki,False,3.0,0.07377049180327869,1.0,0.07377049180327869,1.0,0.13740458015267176
sswiki,False,4.0,0.07377049180327869,1.0,0.07377049180327869,1.0,0.13740458015267176
sswiki,False,5.0,0.07377049180327869,1.0,0.07377049180327869,1.0,0.13740458015267176
sswiki,False,6.0,0.07377049180327869,1.0,0.07377049180327869,1.0,0.13740458015267176
sswiki,False,7.0,0.0743801652892562,1.0,0.08196721311475409,0.9911504424778761,0.13846153846153847
sswiki,False,8.0,0.0743801652892562,1.0,0.08196721311475409,0.9911504424778761,0.13846153846153847
sswiki,False,9.0,0.0743801652892562,1.0,0.08196721311475409,0.9911504424778761,0.13846153846153847
sswiki,False,10.0,0.0743801652892562,1.0,0.08196721311475409,0.9911504424778761,0.13846153846153847
sswiki,False,11.0,0.07563025210084033,1.0,0.09836065573770492,0.9734513274336283,0.140625
sswiki,False,12.0,0.0782608695652174,1.0,0.13114754098360656,0.9380530973451328,0.14516129032258066
sswiki,False,13.0,0.08108108108108109,1.0,0.16393442622950818,0.9026548672566371,0.15
sswiki,False,14.0,0.08411214953271028,1.0,0.19672131147540983,0.8672566371681416,0.15517241379310345
sswiki,False,15.0,0.08571428571428572,1.0,0.21311475409836064,0.8495575221238938,0.15789473684210528
sswiki,False,16.0,0.09090909090909091,1.0,0.26229508196721313,0.7964601769911505,0.16666666666666669
sswiki,False,17.0,0.09278350515463918,1.0,0.2786885245901639,0.7787610619469026,0.16981132075471697
sswiki,False,18.0,0.0851063829787234,0.8888888888888888,0.28688524590163933,0.7610619469026548,0.15533980582524273
sswiki,False,19.0,0.09090909090909091,0.8888888888888888,0.3360655737704918,0.7079646017699115,0.16494845360824742
sswiki,False,20.0,0.0963855421686747,0.8888888888888888,0.3770491803278688,0.6637168141592921,0.17391304347826086
sswiki,False,21.0,0.09876543209876543,0.8888888888888888,0.39344262295081966,0.6460176991150443,0.17777777777777778
sswiki,False,22.0,0.09876543209876543,0.8888888888888888,0.39344262295081966,0.6460176991150443,0.17777777777777778
sswiki,False,23.0,0.1038961038961039,0.8888888888888888,0.4262295081967213,0.6106194690265486,0.18604651162790697
sswiki,False,24.0,0.10526315789473684,0.8888888888888888,0.4344262295081967,0.6017699115044248,0.18823529411764706
sswiki,False,25.0,0.1095890410958904,0.8888888888888888,0.45901639344262296,0.5752212389380531,0.1951219512195122
sswiki,False,26.0,0.11267605633802817,0.8888888888888888,0.47540983606557374,0.5575221238938053,0.2
sswiki,False,27.0,0.11428571428571428,0.8888888888888888,0.48360655737704916,0.5486725663716814,0.20253164556962022
sswiki,False,28.0,0.11594202898550725,0.8888888888888888,0.4918032786885246,0.5398230088495575,0.20512820512820512
sswiki,False,29.0,0.11764705882352941,0.8888888888888888,0.5,0.5309734513274337,0.20779220779220778
sswiki,False,30.0,0.12121212121212122,0.8888888888888888,0.5163934426229508,0.5132743362831859,0.21333333333333335
sswiki,False,31.0,0.12121212121212122,0.8888888888888888,0.5163934426229508,0.5132743362831859,0.21333333333333335
sswiki,False,32.0,0.12307692307692308,0.8888888888888888,0.5245901639344263,0.504424778761062,0.21621621621621623
sswiki,False,33.0,0.125,0.8888888888888888,0.5327868852459017,0.49557522123893805,0.2191780821917808
sswiki,False,34.0,0.125,0.8888888888888888,0.5327868852459017,0.49557522123893805,0.2191780821917808
sswiki,False,35.0,0.12698412698412698,0.8888888888888888,0.5409836065573771,0.48672566371681414,0.2222222222222222
sswiki,False,36.0,0.12698412698412698,0.8888888888888888,0.5409836065573771,0.48672566371681414,0.2222222222222222
sswiki,False,37.0,0.12698412698412698,0.8888888888888888,0.5409836065573771,0.48672566371681414,0.2222222222222222
sswiki,False,38.0,0.12903225806451613,0.8888888888888888,0.5491803278688525,0.4778761061946903,0.22535211267605634
sswiki,False,39.0,0.13333333333333333,0.8888888888888888,0.5655737704918032,0.46017699115044247,0.2318840579710145
sswiki,False,40.0,0.13333333333333333,0.8888888888888888,0.5655737704918032,0.46017699115044247,0.2318840579710145
sswiki,False,41.0,0.13333333333333333,0.8888888888888888,0.5655737704918032,0.46017699115044247,0.2318840579710145
sswiki,False,42.0,0.13793103448275862,0.8888888888888888,0.5819672131147541,0.4424778761061947,0.23880597014925373
sswiki,False,43.0,0.14285714285714285,0.8888888888888888,0.5983606557377049,0.4247787610619469,0.24615384615384617
sswiki,False,44.0,0.14545454545454545,0.8888888888888888,0.6065573770491803,0.415929203539823,0.25
sswiki,False,45.0,0.14545454545454545,0.8888888888888888,0.6065573770491803,0.415929203539823,0.25
sswiki,False,46.0,0.14545454545454545,0.8888888888888888,0.6065573770491803,0.415929203539823,0.25
sswiki,False,47.0,0.1509433962264151,0.8888888888888888,0.6229508196721312,0.39823008849557523,0.25806451612903225
sswiki,False,48.0,0.1509433962264151,0.8888888888888888,0.6229508196721312,0.39823008849557523,0.25806451612903225
sswiki,False,49.0,0.1509433962264151,0.8888888888888888,0.6229508196721312,0.39823008849557523,0.25806451612903225
sswiki,False,50.0,0.1509433962264151,0.8888888888888888,0.6229508196721312,0.39823008849557523,0.25806451612903225
sswiki,False,51.0,0.1568627450980392,0.8888888888888888,0.639344262295082,0.3805309734513274,0.26666666666666666
sswiki,False,52.0,0.1568627450980392,0.8888888888888888,0.639344262295082,0.3805309734513274,0.26666666666666666
sswiki,False,53.0,0.16,0.8888888888888888,0.6475409836065574,0.37168141592920356,0.27118644067796616
sswiki,False,54.0,0.16666666666666666,0.8888888888888888,0.6639344262295082,0.35398230088495575,0.2807017543859649
sswiki,False,55.0,0.16666666666666666,0.8888888888888888,0.6639344262295082,0.35398230088495575,0.2807017543859649
sswiki,False,56.0,0.1702127659574468,0.8888888888888888,0.6721311475409836,0.34513274336283184,0.2857142857142857
sswiki,False,57.0,0.1702127659574468,0.8888888888888888,0.6721311475409836,0.34513274336283184,0.2857142857142857
sswiki,False,58.0,0.17391304347826086,0.8888888888888888,0.680327868852459,0.336283185840708,0.29090909090909095
sswiki,False,59.0,0.17391304347826086,0.8888888888888888,0.680327868852459,0.336283185840708,0.29090909090909095
sswiki,False,60.0,0.17777777777777778,0.8888888888888888,0.6885245901639344,0.3274336283185841,0.2962962962962963
sswiki,False,61.0,0.18181818181818182,0.8888888888888888,0.6967213114754098,0.3185840707964602,0.3018867924528302
sswiki,False,62.0,0.18181818181818182,0.8888888888888888,0.6967213114754098,0.3185840707964602,0.3018867924528302
sswiki,False,63.0,0.18604651162790697,0.8888888888888888,0.7049180327868853,0.30973451327433627,0.3076923076923077
sswiki,False,64.0,0.2,0.8888888888888888,0.7295081967213115,0.2831858407079646,0.326530612244898
sswiki,False,65.0,0.20512820512820512,0.8888888888888888,0.7377049180327869,0.2743362831858407,0.3333333333333333
sswiki,False,66.0,0.21052631578947367,0.8888888888888888,0.7459016393442623,0.26548672566371684,0.3404255319148936
sswiki,False,67.0,0.2222222222222222,0.8888888888888888,0.7622950819672131,0.24778761061946902,0.3555555555555555
sswiki,False,68.0,0.23529411764705882,0.8888888888888888,0.7786885245901639,0.23008849557522124,0.3720930232558139
sswiki,False,69.0,0.23529411764705882,0.8888888888888888,0.7786885245901639,0.23008849557522124,0.3720930232558139
sswiki,False,70.0,0.24242424242424243,0.8888888888888888,0.7868852459016393,0.22123893805309736,0.38095238095238093
sswiki,False,71.0,0.24242424242424243,0.8888888888888888,0.7868852459016393,0.22123893805309736,0.38095238095238093
sswiki,False,72.0,0.25,0.8888888888888888,0.7950819672131147,0.21238938053097345,0.3902439024390244
sswiki,False,73.0,0.25806451612903225,0.8888888888888888,0.8032786885245902,0.20353982300884957,0.39999999999999997
sswiki,False,74.0,0.25806451612903225,0.8888888888888888,0.8032786885245902,0.20353982300884957,0.39999999999999997
sswiki,False,75.0,0.26666666666666666,0.8888888888888888,0.8114754098360656,0.19469026548672566,0.41025641025641024
sswiki,False,76.0,0.2857142857142857,0.8888888888888888,0.8278688524590164,0.17699115044247787,0.43243243243243246
sswiki,False,77.0,0.2857142857142857,0.8888888888888888,0.8278688524590164,0.17699115044247787,0.43243243243243246
sswiki,False,78.0,0.2962962962962963,0.8888888888888888,0.8360655737704918,0.168141592920354,0.4444444444444444
sswiki,False,79.0,0.3076923076923077,0.8888888888888888,0.8442622950819673,0.1592920353982301,0.4571428571428572
sswiki,False,80.0,0.3076923076923077,0.8888888888888888,0.8442622950819673,0.1592920353982301,0.4571428571428572
sswiki,False,81.0,0.32,0.8888888888888888,0.8524590163934426,0.1504424778761062,0.47058823529411764
sswiki,False,82.0,0.32,0.8888888888888888,0.8524590163934426,0.1504424778761062,0.47058823529411764
sswiki,False,83.0,0.34782608695652173,0.8888888888888888,0.8688524590163934,0.13274336283185842,0.5
sswiki,False,84.0,0.38095238095238093,0.8888888888888888,0.8852459016393442,0.11504424778761062,0.5333333333333333
sswiki,False,85.0,0.38095238095238093,0.8888888888888888,0.8852459016393442,0.11504424778761062,0.5333333333333333
sswiki,False,86.0,0.3333333333333333,0.6666666666666666,0.8770491803278688,0.10619469026548672,0.4444444444444444
sswiki,False,87.0,0.29411764705882354,0.5555555555555556,0.8688524590163934,0.10619469026548672,0.3846153846153846
sswiki,False,88.0,0.3333333333333333,0.5555555555555556,0.8852459016393442,0.08849557522123894,0.4166666666666667
sswiki,False,89.0,0.38461538461538464,0.5555555555555556,0.9016393442622951,0.07079646017699115,0.4545454545454546
sswiki,False,90.0,0.4166666666666667,0.5555555555555556,0.9098360655737705,0.061946902654867256,0.4761904761904762
sswiki,False,91.0,0.5555555555555556,0.5555555555555556,0.9344262295081968,0.035398230088495575,0.5555555555555556
sswiki,False,92.0,0.625,0.5555555555555556,0.9426229508196722,0.02654867256637168,0.5882352941176471
sswiki,False,93.0,0.625,0.5555555555555556,0.9426229508196722,0.02654867256637168,0.5882352941176471
sswiki,False,94.0,0.625,0.5555555555555556,0.9426229508196722,0.02654867256637168,0.5882352941176471
sswiki,False,95.0,0.6,0.3333333333333333,0.9344262295081968,0.017699115044247787,0.42857142857142855
sswiki,False,96.0,0.5,0.1111111111111111,0.9262295081967213,0.008849557522123894,0.1818181818181818
sswiki,False,97.0,0.0,0.0,0.9180327868852459,0.008849557522123894,0.1818181818181818
sswiki,False,98.0,0.0,0.0,0.9262295081967213,0.0,0.1818181818181818
sswiki,False,99.0,0.0,0.0,0.9262295081967213,0.0,0.1818181818181818
