wiki_db,user_is_anonymous_or_bot,threshold,precision,recall,accuracy,fpr,F1
stqwiki,True,0.0,0.013157894736842105,1.0,0.013157894736842105,1.0,0.025974025974025976
stqwiki,True,1.0,0.013157894736842105,1.0,0.013157894736842105,1.0,0.025974025974025976
stqwiki,True,2.0,0.013157894736842105,1.0,0.013157894736842105,1.0,0.025974025974025976
stqwiki,True,3.0,0.013157894736842105,1.0,0.013157894736842105,1.0,0.025974025974025976
stqwiki,True,4.0,0.013157894736842105,1.0,0.013157894736842105,1.0,0.025974025974025976
stqwiki,True,5.0,0.013157894736842105,1.0,0.013157894736842105,1.0,0.025974025974025976
stqwiki,True,6.0,0.013157894736842105,1.0,0.013157894736842105,1.0,0.025974025974025976
stqwiki,True,7.0,0.013157894736842105,1.0,0.013157894736842105,1.0,0.025974025974025976
stqwiki,True,8.0,0.013157894736842105,1.0,0.013157894736842105,1.0,0.025974025974025976
stqwiki,True,9.0,0.013157894736842105,1.0,0.013157894736842105,1.0,0.025974025974025976
stqwiki,True,10.0,0.013157894736842105,1.0,0.013157894736842105,1.0,0.025974025974025976
stqwiki,True,11.0,0.013157894736842105,1.0,0.013157894736842105,1.0,0.025974025974025976
stqwiki,True,12.0,0.013333333333333334,1.0,0.02631578947368421,0.9866666666666667,0.02631578947368421
stqwiki,True,13.0,0.013333333333333334,1.0,0.02631578947368421,0.9866666666666667,0.02631578947368421
stqwiki,True,14.0,0.013333333333333334,1.0,0.02631578947368421,0.9866666666666667,0.02631578947368421
stqwiki,True,15.0,0.013333333333333334,1.0,0.02631578947368421,0.9866666666666667,0.02631578947368421
stqwiki,True,16.0,0.013333333333333334,1.0,0.02631578947368421,0.9866666666666667,0.02631578947368421
stqwiki,True,17.0,0.013333333333333334,1.0,0.02631578947368421,0.9866666666666667,0.02631578947368421
stqwiki,True,18.0,0.013333333333333334,1.0,0.02631578947368421,0.9866666666666667,0.02631578947368421
stqwiki,True,19.0,0.013333333333333334,1.0,0.02631578947368421,0.9866666666666667,0.02631578947368421
stqwiki,True,20.0,0.013333333333333334,1.0,0.02631578947368421,0.9866666666666667,0.02631578947368421
stqwiki,True,21.0,0.013333333333333334,1.0,0.02631578947368421,0.9866666666666667,0.02631578947368421
stqwiki,True,22.0,0.013333333333333334,1.0,0.02631578947368421,0.9866666666666667,0.02631578947368421
stqwiki,True,23.0,0.013333333333333334,1.0,0.02631578947368421,0.9866666666666667,0.02631578947368421
stqwiki,True,24.0,0.013333333333333334,1.0,0.02631578947368421,0.9866666666666667,0.02631578947368421
stqwiki,True,25.0,0.013333333333333334,1.0,0.02631578947368421,0.9866666666666667,0.02631578947368421
stqwiki,True,26.0,0.013333333333333334,1.0,0.02631578947368421,0.9866666666666667,0.02631578947368421
stqwiki,True,27.0,0.013333333333333334,1.0,0.02631578947368421,0.9866666666666667,0.02631578947368421
stqwiki,True,28.0,0.013333333333333334,1.0,0.02631578947368421,0.9866666666666667,0.02631578947368421
stqwiki,True,29.0,0.013333333333333334,1.0,0.02631578947368421,0.9866666666666667,0.02631578947368421
stqwiki,True,30.0,0.013333333333333334,1.0,0.02631578947368421,0.9866666666666667,0.02631578947368421
stqwiki,True,31.0,0.013333333333333334,1.0,0.02631578947368421,0.9866666666666667,0.02631578947368421
stqwiki,True,32.0,0.013513513513513514,1.0,0.039473684210526314,0.9733333333333334,0.026666666666666665
stqwiki,True,33.0,0.013513513513513514,1.0,0.039473684210526314,0.9733333333333334,0.026666666666666665
stqwiki,True,34.0,0.013513513513513514,1.0,0.039473684210526314,0.9733333333333334,0.026666666666666665
stqwiki,True,35.0,0.0136986301369863,1.0,0.05263157894736842,0.96,0.027027027027027025
stqwiki,True,36.0,0.014084507042253521,1.0,0.07894736842105263,0.9333333333333333,0.02777777777777778
stqwiki,True,37.0,0.014492753623188406,1.0,0.10526315789473684,0.9066666666666666,0.02857142857142857
stqwiki,True,38.0,0.014705882352941176,1.0,0.11842105263157894,0.8933333333333333,0.028985507246376812
stqwiki,True,39.0,0.014705882352941176,1.0,0.11842105263157894,0.8933333333333333,0.028985507246376812
stqwiki,True,40.0,0.015384615384615385,1.0,0.15789473684210525,0.8533333333333334,0.030303030303030307
stqwiki,True,41.0,0.015625,1.0,0.17105263157894737,0.84,0.03076923076923077
stqwiki,True,42.0,0.01639344262295082,1.0,0.21052631578947367,0.8,0.03225806451612903
stqwiki,True,43.0,0.01639344262295082,1.0,0.21052631578947367,0.8,0.03225806451612903
stqwiki,True,44.0,0.017543859649122806,1.0,0.2631578947368421,0.7466666666666667,0.034482758620689655
stqwiki,True,45.0,0.020833333333333332,1.0,0.3815789473684211,0.6266666666666667,0.04081632653061225
stqwiki,True,46.0,0.021739130434782608,1.0,0.40789473684210525,0.6,0.042553191489361694
stqwiki,True,47.0,0.023809523809523808,1.0,0.4605263157894737,0.5466666666666666,0.046511627906976744
stqwiki,True,48.0,0.02702702702702703,1.0,0.5263157894736842,0.48,0.052631578947368425
stqwiki,True,49.0,0.03225806451612903,1.0,0.6052631578947368,0.4,0.0625
stqwiki,True,50.0,0.03571428571428571,1.0,0.6447368421052632,0.36,0.0689655172413793
stqwiki,True,51.0,0.038461538461538464,1.0,0.6710526315789473,0.3333333333333333,0.07407407407407407
stqwiki,True,52.0,0.04,1.0,0.6842105263157895,0.32,0.07692307692307693
stqwiki,True,53.0,0.05263157894736842,1.0,0.7631578947368421,0.24,0.1
stqwiki,True,54.0,0.05555555555555555,1.0,0.7763157894736842,0.22666666666666666,0.10526315789473684
stqwiki,True,55.0,0.0625,1.0,0.8026315789473685,0.2,0.11764705882352941
stqwiki,True,56.0,0.06666666666666667,1.0,0.8157894736842105,0.18666666666666668,0.125
stqwiki,True,57.0,0.08333333333333333,1.0,0.8552631578947368,0.14666666666666667,0.15384615384615385
stqwiki,True,58.0,0.08333333333333333,1.0,0.8552631578947368,0.14666666666666667,0.15384615384615385
stqwiki,True,59.0,0.1,1.0,0.881578947368421,0.12,0.18181818181818182
stqwiki,True,60.0,0.1111111111111111,1.0,0.8947368421052632,0.10666666666666667,0.19999999999999998
stqwiki,True,61.0,0.125,1.0,0.9078947368421053,0.09333333333333334,0.2222222222222222
stqwiki,True,62.0,0.125,1.0,0.9078947368421053,0.09333333333333334,0.2222222222222222
stqwiki,True,63.0,0.125,1.0,0.9078947368421053,0.09333333333333334,0.2222222222222222
stqwiki,True,64.0,0.14285714285714285,1.0,0.9210526315789473,0.08,0.25
stqwiki,True,65.0,0.14285714285714285,1.0,0.9210526315789473,0.08,0.25
stqwiki,True,66.0,0.14285714285714285,1.0,0.9210526315789473,0.08,0.25
stqwiki,True,67.0,0.16666666666666666,1.0,0.9342105263157895,0.06666666666666667,0.2857142857142857
stqwiki,True,68.0,0.0,0.0,0.9210526315789473,0.06666666666666667,0.2857142857142857
stqwiki,True,69.0,0.0,0.0,0.9210526315789473,0.06666666666666667,0.2857142857142857
stqwiki,True,70.0,0.0,0.0,0.9210526315789473,0.06666666666666667,0.2857142857142857
stqwiki,True,71.0,0.0,0.0,0.9210526315789473,0.06666666666666667,0.2857142857142857
stqwiki,True,72.0,0.0,0.0,0.9210526315789473,0.06666666666666667,0.2857142857142857
stqwiki,True,73.0,0.0,0.0,0.9210526315789473,0.06666666666666667,0.2857142857142857
stqwiki,True,74.0,0.0,0.0,0.9210526315789473,0.06666666666666667,0.2857142857142857
stqwiki,True,75.0,0.0,0.0,0.9210526315789473,0.06666666666666667,0.2857142857142857
stqwiki,True,76.0,0.0,0.0,0.9210526315789473,0.06666666666666667,0.2857142857142857
stqwiki,True,77.0,0.0,0.0,0.9210526315789473,0.06666666666666667,0.2857142857142857
stqwiki,True,78.0,0.0,0.0,0.9210526315789473,0.06666666666666667,0.2857142857142857
stqwiki,True,79.0,0.0,0.0,0.9210526315789473,0.06666666666666667,0.2857142857142857
stqwiki,True,80.0,0.0,0.0,0.9342105263157895,0.05333333333333334,0.2857142857142857
stqwiki,True,81.0,0.0,0.0,0.9342105263157895,0.05333333333333334,0.2857142857142857
stqwiki,True,82.0,0.0,0.0,0.9342105263157895,0.05333333333333334,0.2857142857142857
stqwiki,True,83.0,0.0,0.0,0.9342105263157895,0.05333333333333334,0.2857142857142857
stqwiki,True,84.0,0.0,0.0,0.9473684210526315,0.04,0.2857142857142857
stqwiki,True,85.0,0.0,0.0,0.9473684210526315,0.04,0.2857142857142857
stqwiki,True,86.0,0.0,0.0,0.9473684210526315,0.04,0.2857142857142857
stqwiki,True,87.0,0.0,0.0,0.9473684210526315,0.04,0.2857142857142857
stqwiki,True,88.0,0.0,0.0,0.9605263157894737,0.02666666666666667,0.2857142857142857
stqwiki,True,89.0,0.0,0.0,0.9605263157894737,0.02666666666666667,0.2857142857142857
stqwiki,True,90.0,0.0,0.0,0.9605263157894737,0.02666666666666667,0.2857142857142857
stqwiki,True,91.0,0.0,0.0,0.9868421052631579,0.0,0.2857142857142857
stqwiki,True,92.0,0.0,0.0,0.9868421052631579,0.0,0.2857142857142857
stqwiki,True,93.0,0.0,0.0,0.9868421052631579,0.0,0.2857142857142857
stqwiki,True,94.0,0.0,0.0,0.9868421052631579,0.0,0.2857142857142857
stqwiki,True,95.0,0.0,0.0,0.9868421052631579,0.0,0.2857142857142857
stqwiki,True,96.0,0.0,0.0,0.9868421052631579,0.0,0.2857142857142857
stqwiki,True,97.0,0.0,0.0,0.9868421052631579,0.0,0.2857142857142857
stqwiki,True,98.0,0.0,0.0,0.9868421052631579,0.0,0.2857142857142857
stqwiki,True,99.0,0.0,0.0,0.9868421052631579,0.0,0.2857142857142857
stqwiki,False,0.0,0.012195121951219513,1.0,0.012195121951219513,1.0,0.024096385542168676
stqwiki,False,1.0,0.012195121951219513,1.0,0.012195121951219513,1.0,0.024096385542168676
stqwiki,False,2.0,0.012269938650306749,1.0,0.018292682926829267,0.9938271604938271,0.024242424242424246
stqwiki,False,3.0,0.0125,1.0,0.036585365853658534,0.9753086419753086,0.02469135802469136
stqwiki,False,4.0,0.01282051282051282,1.0,0.06097560975609756,0.9506172839506173,0.02531645569620253
stqwiki,False,5.0,0.012903225806451613,1.0,0.06707317073170732,0.9444444444444444,0.025477707006369425
stqwiki,False,6.0,0.012987012987012988,1.0,0.07317073170731707,0.9382716049382716,0.025641025641025647
stqwiki,False,7.0,0.013422818791946308,1.0,0.10365853658536585,0.9074074074074074,0.026490066225165563
stqwiki,False,8.0,0.0136986301369863,1.0,0.12195121951219512,0.8888888888888888,0.027027027027027025
stqwiki,False,9.0,0.013888888888888888,1.0,0.13414634146341464,0.8765432098765432,0.0273972602739726
stqwiki,False,10.0,0.014492753623188406,1.0,0.17073170731707318,0.8395061728395061,0.02857142857142857
stqwiki,False,11.0,0.014925373134328358,1.0,0.1951219512195122,0.8148148148148148,0.029411764705882353
stqwiki,False,12.0,0.015267175572519083,1.0,0.21341463414634146,0.7962962962962963,0.03007518796992481
stqwiki,False,13.0,0.015873015873015872,1.0,0.24390243902439024,0.7654320987654321,0.03125
stqwiki,False,14.0,0.016,1.0,0.25,0.7592592592592593,0.031496062992125984
stqwiki,False,15.0,0.016129032258064516,1.0,0.25609756097560976,0.7530864197530864,0.031746031746031744
stqwiki,False,16.0,0.016129032258064516,1.0,0.25609756097560976,0.7530864197530864,0.031746031746031744
stqwiki,False,17.0,0.016129032258064516,1.0,0.25609756097560976,0.7530864197530864,0.031746031746031744
stqwiki,False,18.0,0.008130081300813009,0.5,0.25,0.7530864197530864,0.016
stqwiki,False,19.0,0.008130081300813009,0.5,0.25,0.7530864197530864,0.016
stqwiki,False,20.0,0.00819672131147541,0.5,0.25609756097560976,0.7469135802469136,0.016129032258064516
stqwiki,False,21.0,0.00819672131147541,0.5,0.25609756097560976,0.7469135802469136,0.016129032258064516
stqwiki,False,22.0,0.00819672131147541,0.5,0.25609756097560976,0.7469135802469136,0.016129032258064516
stqwiki,False,23.0,0.00819672131147541,0.5,0.25609756097560976,0.7469135802469136,0.016129032258064516
stqwiki,False,24.0,0.00819672131147541,0.5,0.25609756097560976,0.7469135802469136,0.016129032258064516
stqwiki,False,25.0,0.00819672131147541,0.5,0.25609756097560976,0.7469135802469136,0.016129032258064516
stqwiki,False,26.0,0.00819672131147541,0.5,0.25609756097560976,0.7469135802469136,0.016129032258064516
stqwiki,False,27.0,0.00819672131147541,0.5,0.25609756097560976,0.7469135802469136,0.016129032258064516
stqwiki,False,28.0,0.008264462809917356,0.5,0.2621951219512195,0.7407407407407407,0.016260162601626018
stqwiki,False,29.0,0.008333333333333333,0.5,0.2682926829268293,0.7345679012345679,0.01639344262295082
stqwiki,False,30.0,0.008333333333333333,0.5,0.2682926829268293,0.7345679012345679,0.01639344262295082
stqwiki,False,31.0,0.008333333333333333,0.5,0.2682926829268293,0.7345679012345679,0.01639344262295082
stqwiki,False,32.0,0.008403361344537815,0.5,0.27439024390243905,0.7283950617283951,0.01652892561983471
stqwiki,False,33.0,0.008403361344537815,0.5,0.27439024390243905,0.7283950617283951,0.01652892561983471
stqwiki,False,34.0,0.008403361344537815,0.5,0.27439024390243905,0.7283950617283951,0.01652892561983471
stqwiki,False,35.0,0.008547008547008548,0.5,0.2865853658536585,0.7160493827160493,0.016806722689075633
stqwiki,False,36.0,0.008771929824561403,0.5,0.3048780487804878,0.6975308641975309,0.017241379310344827
stqwiki,False,37.0,0.009009009009009009,0.5,0.3231707317073171,0.6790123456790124,0.017699115044247787
stqwiki,False,38.0,0.009345794392523364,0.5,0.3475609756097561,0.654320987654321,0.018348623853211007
stqwiki,False,39.0,0.009345794392523364,0.5,0.3475609756097561,0.654320987654321,0.018348623853211007
stqwiki,False,40.0,0.00980392156862745,0.5,0.3780487804878049,0.6234567901234568,0.019230769230769232
stqwiki,False,41.0,0.009900990099009901,0.5,0.38414634146341464,0.6172839506172839,0.019417475728155338
stqwiki,False,42.0,0.01020408163265306,0.5,0.4024390243902439,0.5987654320987654,0.019999999999999997
stqwiki,False,43.0,0.01020408163265306,0.5,0.4024390243902439,0.5987654320987654,0.019999999999999997
stqwiki,False,44.0,0.010752688172043012,0.5,0.4329268292682927,0.5679012345679012,0.02105263157894737
stqwiki,False,45.0,0.011904761904761904,0.5,0.4878048780487805,0.5123456790123457,0.023255813953488372
stqwiki,False,46.0,0.012195121951219513,0.5,0.5,0.5,0.023809523809523808
stqwiki,False,47.0,0.01282051282051282,0.5,0.524390243902439,0.47530864197530864,0.025
stqwiki,False,48.0,0.0136986301369863,0.5,0.5548780487804879,0.4444444444444444,0.02666666666666666
stqwiki,False,49.0,0.014925373134328358,0.5,0.5914634146341463,0.4074074074074074,0.02898550724637681
stqwiki,False,50.0,0.016129032258064516,0.5,0.6219512195121951,0.3765432098765432,0.03125
stqwiki,False,51.0,0.01694915254237288,0.5,0.6402439024390244,0.35802469135802467,0.03278688524590164
stqwiki,False,52.0,0.017543859649122806,0.5,0.6524390243902439,0.345679012345679,0.033898305084745756
stqwiki,False,53.0,0.0196078431372549,0.5,0.6890243902439024,0.30864197530864196,0.03773584905660377
stqwiki,False,54.0,0.02,0.5,0.6951219512195121,0.30246913580246915,0.038461538461538464
stqwiki,False,55.0,0.020833333333333332,0.5,0.7073170731707317,0.29012345679012347,0.039999999999999994
stqwiki,False,56.0,0.021739130434782608,0.5,0.7195121951219512,0.2777777777777778,0.041666666666666664
stqwiki,False,57.0,0.023255813953488372,0.5,0.7378048780487805,0.25925925925925924,0.04444444444444444
stqwiki,False,58.0,0.023809523809523808,0.5,0.7439024390243902,0.25308641975308643,0.04545454545454545
stqwiki,False,59.0,0.025,0.5,0.7560975609756098,0.24074074074074073,0.047619047619047616
stqwiki,False,60.0,0.02564102564102564,0.5,0.7621951219512195,0.2345679012345679,0.048780487804878044
stqwiki,False,61.0,0.02857142857142857,0.5,0.7865853658536586,0.20987654320987653,0.05405405405405405
stqwiki,False,62.0,0.02857142857142857,0.5,0.7865853658536586,0.20987654320987653,0.05405405405405405
stqwiki,False,63.0,0.030303030303030304,0.5,0.7987804878048781,0.19753086419753085,0.05714285714285715
stqwiki,False,64.0,0.03225806451612903,0.5,0.8109756097560976,0.18518518518518517,0.06060606060606061
stqwiki,False,65.0,0.03333333333333333,0.5,0.8170731707317073,0.17901234567901234,0.0625
stqwiki,False,66.0,0.034482758620689655,0.5,0.823170731707317,0.1728395061728395,0.06451612903225806
stqwiki,False,67.0,0.038461538461538464,0.5,0.8414634146341463,0.15432098765432098,0.07142857142857144
stqwiki,False,68.0,0.0,0.0,0.8353658536585366,0.15432098765432098,0.07142857142857144
stqwiki,False,69.0,0.0,0.0,0.8353658536585366,0.15432098765432098,0.07142857142857144
stqwiki,False,70.0,0.0,0.0,0.8414634146341463,0.14814814814814814,0.07142857142857144
stqwiki,False,71.0,0.0,0.0,0.8475609756097561,0.1419753086419753,0.07142857142857144
stqwiki,False,72.0,0.0,0.0,0.8597560975609756,0.12962962962962962,0.07142857142857144
stqwiki,False,73.0,0.0,0.0,0.8597560975609756,0.12962962962962962,0.07142857142857144
stqwiki,False,74.0,0.0,0.0,0.8719512195121951,0.11728395061728394,0.07142857142857144
stqwiki,False,75.0,0.0,0.0,0.8719512195121951,0.11728395061728394,0.07142857142857144
stqwiki,False,76.0,0.0,0.0,0.8719512195121951,0.11728395061728394,0.07142857142857144
stqwiki,False,77.0,0.0,0.0,0.8841463414634146,0.10493827160493827,0.07142857142857144
stqwiki,False,78.0,0.0,0.0,0.8841463414634146,0.10493827160493827,0.07142857142857144
stqwiki,False,79.0,0.0,0.0,0.8841463414634146,0.10493827160493827,0.07142857142857144
stqwiki,False,80.0,0.0,0.0,0.9024390243902439,0.08641975308641975,0.07142857142857144
stqwiki,False,81.0,0.0,0.0,0.9146341463414634,0.07407407407407407,0.07142857142857144
stqwiki,False,82.0,0.0,0.0,0.9207317073170732,0.06790123456790123,0.07142857142857144
stqwiki,False,83.0,0.0,0.0,0.926829268292683,0.06172839506172839,0.07142857142857144
stqwiki,False,84.0,0.0,0.0,0.9451219512195121,0.043209876543209874,0.07142857142857144
stqwiki,False,85.0,0.0,0.0,0.9451219512195121,0.043209876543209874,0.07142857142857144
stqwiki,False,86.0,0.0,0.0,0.9512195121951219,0.037037037037037035,0.07142857142857144
stqwiki,False,87.0,0.0,0.0,0.9512195121951219,0.037037037037037035,0.07142857142857144
stqwiki,False,88.0,0.0,0.0,0.9634146341463414,0.024691358024691357,0.07142857142857144
stqwiki,False,89.0,0.0,0.0,0.9695121951219512,0.018518518518518517,0.07142857142857144
stqwiki,False,90.0,0.0,0.0,0.9695121951219512,0.018518518518518517,0.07142857142857144
stqwiki,False,91.0,0.0,0.0,0.9878048780487805,0.0,0.07142857142857144
stqwiki,False,92.0,0.0,0.0,0.9878048780487805,0.0,0.07142857142857144
stqwiki,False,93.0,0.0,0.0,0.9878048780487805,0.0,0.07142857142857144
stqwiki,False,94.0,0.0,0.0,0.9878048780487805,0.0,0.07142857142857144
stqwiki,False,95.0,0.0,0.0,0.9878048780487805,0.0,0.07142857142857144
stqwiki,False,96.0,0.0,0.0,0.9878048780487805,0.0,0.07142857142857144
stqwiki,False,97.0,0.0,0.0,0.9878048780487805,0.0,0.07142857142857144
stqwiki,False,98.0,0.0,0.0,0.9878048780487805,0.0,0.07142857142857144
stqwiki,False,99.0,0.0,0.0,0.9878048780487805,0.0,0.07142857142857144
