wiki_db,threshold,precision,recall,accuracy,fpr,F1
adywiki,0.0,0.21052631578947367,1.0,0.21052631578947367,1.0,0.34782608695652173
adywiki,1.0,0.21052631578947367,1.0,0.21052631578947367,1.0,0.34782608695652173
adywiki,2.0,0.21052631578947367,1.0,0.21052631578947367,1.0,0.34782608695652173
adywiki,3.0,0.21052631578947367,1.0,0.21052631578947367,1.0,0.34782608695652173
adywiki,4.0,0.21052631578947367,1.0,0.21052631578947367,1.0,0.34782608695652173
adywiki,5.0,0.21052631578947367,1.0,0.21052631578947367,1.0,0.34782608695652173
adywiki,6.0,0.21052631578947367,1.0,0.21052631578947367,1.0,0.34782608695652173
adywiki,7.0,0.21052631578947367,1.0,0.21052631578947367,1.0,0.34782608695652173
adywiki,8.0,0.21052631578947367,1.0,0.21052631578947367,1.0,0.34782608695652173
adywiki,9.0,0.21052631578947367,1.0,0.21052631578947367,1.0,0.34782608695652173
adywiki,10.0,0.21052631578947367,1.0,0.21052631578947367,1.0,0.34782608695652173
adywiki,11.0,0.21052631578947367,1.0,0.21052631578947367,1.0,0.34782608695652173
adywiki,12.0,0.21052631578947367,1.0,0.21052631578947367,1.0,0.34782608695652173
adywiki,13.0,0.21052631578947367,1.0,0.21052631578947367,1.0,0.34782608695652173
adywiki,14.0,0.21052631578947367,1.0,0.21052631578947367,1.0,0.34782608695652173
adywiki,15.0,0.21052631578947367,1.0,0.21052631578947367,1.0,0.34782608695652173
adywiki,16.0,0.21052631578947367,1.0,0.21052631578947367,1.0,0.34782608695652173
adywiki,17.0,0.21052631578947367,1.0,0.21052631578947367,1.0,0.34782608695652173
adywiki,18.0,0.21052631578947367,1.0,0.21052631578947367,1.0,0.34782608695652173
adywiki,19.0,0.21052631578947367,1.0,0.21052631578947367,1.0,0.34782608695652173
adywiki,20.0,0.21052631578947367,1.0,0.21052631578947367,1.0,0.34782608695652173
adywiki,21.0,0.2127659574468085,1.0,0.22105263157894736,0.9866666666666667,0.3508771929824561
adywiki,22.0,0.2127659574468085,1.0,0.22105263157894736,0.9866666666666667,0.3508771929824561
adywiki,23.0,0.2127659574468085,1.0,0.22105263157894736,0.9866666666666667,0.3508771929824561
adywiki,24.0,0.21505376344086022,1.0,0.23157894736842105,0.9733333333333334,0.35398230088495575
adywiki,25.0,0.21505376344086022,1.0,0.23157894736842105,0.9733333333333334,0.35398230088495575
adywiki,26.0,0.21505376344086022,1.0,0.23157894736842105,0.9733333333333334,0.35398230088495575
adywiki,27.0,0.21505376344086022,1.0,0.23157894736842105,0.9733333333333334,0.35398230088495575
adywiki,28.0,0.21739130434782608,1.0,0.24210526315789474,0.96,0.3571428571428571
adywiki,29.0,0.2222222222222222,1.0,0.2631578947368421,0.9333333333333333,0.3636363636363636
adywiki,30.0,0.2222222222222222,1.0,0.2631578947368421,0.9333333333333333,0.3636363636363636
adywiki,31.0,0.2222222222222222,1.0,0.2631578947368421,0.9333333333333333,0.3636363636363636
adywiki,32.0,0.22727272727272727,1.0,0.28421052631578947,0.9066666666666666,0.37037037037037035
adywiki,33.0,0.22727272727272727,1.0,0.28421052631578947,0.9066666666666666,0.37037037037037035
adywiki,34.0,0.22727272727272727,1.0,0.28421052631578947,0.9066666666666666,0.37037037037037035
adywiki,35.0,0.22727272727272727,1.0,0.28421052631578947,0.9066666666666666,0.37037037037037035
adywiki,36.0,0.22727272727272727,1.0,0.28421052631578947,0.9066666666666666,0.37037037037037035
adywiki,37.0,0.23255813953488372,1.0,0.30526315789473685,0.88,0.37735849056603776
adywiki,38.0,0.23255813953488372,1.0,0.30526315789473685,0.88,0.37735849056603776
adywiki,39.0,0.23529411764705882,1.0,0.3157894736842105,0.8666666666666667,0.38095238095238093
adywiki,40.0,0.23809523809523808,1.0,0.3263157894736842,0.8533333333333334,0.3846153846153846
adywiki,41.0,0.23809523809523808,1.0,0.3263157894736842,0.8533333333333334,0.3846153846153846
adywiki,42.0,0.23809523809523808,1.0,0.3263157894736842,0.8533333333333334,0.3846153846153846
adywiki,43.0,0.24096385542168675,1.0,0.3368421052631579,0.84,0.38834951456310685
adywiki,44.0,0.24691358024691357,1.0,0.35789473684210527,0.8133333333333334,0.396039603960396
adywiki,45.0,0.24691358024691357,1.0,0.35789473684210527,0.8133333333333334,0.396039603960396
adywiki,46.0,0.25,1.0,0.3684210526315789,0.8,0.4
adywiki,47.0,0.25316455696202533,1.0,0.37894736842105264,0.7866666666666666,0.4040404040404041
adywiki,48.0,0.2564102564102564,1.0,0.3894736842105263,0.7733333333333333,0.4081632653061224
adywiki,49.0,0.2631578947368421,1.0,0.4105263157894737,0.7466666666666667,0.4166666666666667
adywiki,50.0,0.2631578947368421,1.0,0.4105263157894737,0.7466666666666667,0.4166666666666667
adywiki,51.0,0.26666666666666666,1.0,0.42105263157894735,0.7333333333333333,0.4210526315789474
adywiki,52.0,0.2702702702702703,1.0,0.43157894736842106,0.72,0.4255319148936171
adywiki,53.0,0.2777777777777778,1.0,0.45263157894736844,0.6933333333333334,0.4347826086956522
adywiki,54.0,0.2777777777777778,1.0,0.45263157894736844,0.6933333333333334,0.4347826086956522
adywiki,55.0,0.2777777777777778,1.0,0.45263157894736844,0.6933333333333334,0.4347826086956522
adywiki,56.0,0.28169014084507044,1.0,0.4631578947368421,0.68,0.43956043956043955
adywiki,57.0,0.2857142857142857,1.0,0.47368421052631576,0.6666666666666666,0.4444444444444445
adywiki,58.0,0.2898550724637681,1.0,0.4842105263157895,0.6533333333333333,0.44943820224719105
adywiki,59.0,0.27941176470588236,0.95,0.47368421052631576,0.6533333333333333,0.43181818181818177
adywiki,60.0,0.2878787878787879,0.95,0.49473684210526314,0.6266666666666667,0.44186046511627913
adywiki,61.0,0.2923076923076923,0.95,0.5052631578947369,0.6133333333333333,0.44705882352941173
adywiki,62.0,0.296875,0.95,0.5157894736842106,0.6,0.45238095238095244
adywiki,63.0,0.3064516129032258,0.95,0.5368421052631579,0.5733333333333334,0.4634146341463415
adywiki,64.0,0.3114754098360656,0.95,0.5473684210526316,0.56,0.46913580246913583
adywiki,65.0,0.3157894736842105,0.9,0.5684210526315789,0.52,0.4675324675324675
adywiki,66.0,0.3157894736842105,0.9,0.5684210526315789,0.52,0.4675324675324675
adywiki,67.0,0.32142857142857145,0.9,0.5789473684210527,0.5066666666666667,0.4736842105263158
adywiki,68.0,0.3333333333333333,0.9,0.6,0.48,0.48648648648648646
adywiki,69.0,0.34615384615384615,0.9,0.6210526315789474,0.4533333333333333,0.5
adywiki,70.0,0.35294117647058826,0.9,0.631578947368421,0.44,0.5070422535211269
adywiki,71.0,0.36,0.9,0.6421052631578947,0.4266666666666667,0.5142857142857143
adywiki,72.0,0.3673469387755102,0.9,0.6526315789473685,0.41333333333333333,0.5217391304347826
adywiki,73.0,0.375,0.9,0.6631578947368421,0.4,0.5294117647058825
adywiki,74.0,0.3829787234042553,0.9,0.6736842105263158,0.38666666666666666,0.5373134328358209
adywiki,75.0,0.3829787234042553,0.9,0.6736842105263158,0.38666666666666666,0.5373134328358209
adywiki,76.0,0.4,0.9,0.6947368421052632,0.36,0.5538461538461539
adywiki,77.0,0.40476190476190477,0.85,0.7052631578947368,0.3333333333333333,0.5483870967741935
adywiki,78.0,0.425,0.85,0.7263157894736842,0.30666666666666664,0.5666666666666667
adywiki,79.0,0.4594594594594595,0.85,0.7578947368421053,0.26666666666666666,0.5964912280701754
adywiki,80.0,0.4722222222222222,0.85,0.7684210526315789,0.25333333333333335,0.6071428571428571
adywiki,81.0,0.48484848484848486,0.8,0.7789473684210526,0.22666666666666666,0.6037735849056605
adywiki,82.0,0.5,0.75,0.7894736842105263,0.2,0.6
adywiki,83.0,0.5172413793103449,0.75,0.8,0.18666666666666668,0.6122448979591838
adywiki,84.0,0.5555555555555556,0.75,0.8210526315789474,0.16,0.6382978723404256
adywiki,85.0,0.5769230769230769,0.75,0.8315789473684211,0.14666666666666667,0.6521739130434783
adywiki,86.0,0.6,0.75,0.8421052631578947,0.13333333333333333,0.6666666666666665
adywiki,87.0,0.625,0.75,0.8526315789473684,0.12,0.6818181818181818
adywiki,88.0,0.6086956521739131,0.7,0.8421052631578947,0.12,0.6511627906976744
adywiki,89.0,0.6190476190476191,0.65,0.8421052631578947,0.10666666666666667,0.6341463414634146
adywiki,90.0,0.625,0.5,0.8315789473684211,0.08,0.5555555555555556
adywiki,91.0,0.7272727272727273,0.4,0.8421052631578947,0.04,0.5161290322580645
adywiki,92.0,0.7142857142857143,0.25,0.8210526315789474,0.02666666666666667,0.37037037037037035
adywiki,93.0,0.75,0.15,0.8105263157894737,0.013333333333333334,0.24999999999999997
adywiki,94.0,0.6666666666666666,0.1,0.8,0.013333333333333334,0.1739130434782609
adywiki,95.0,0.0,0.0,0.7789473684210526,0.013333333333333334,0.1739130434782609
adywiki,96.0,0.0,0.0,0.7789473684210526,0.013333333333333334,0.1739130434782609
adywiki,97.0,0.0,0.0,0.7894736842105263,0.0,0.1739130434782609
adywiki,98.0,0.0,0.0,0.7894736842105263,0.0,0.1739130434782609
adywiki,99.0,0.0,0.0,0.7894736842105263,0.0,0.1739130434782609
