wiki_db,threshold,precision,recall,accuracy,fpr,F1
anwiki,0.0,0.01555089383436702,1.0,0.01555089383436702,1.0,0.030625533252503483
anwiki,1.0,0.015551603046472386,1.0,0.0155964976286027,0.9999536758234122,0.0306269085683492
anwiki,2.0,0.015623568221387336,1.0,0.020202480846406422,0.9952749339880483,0.03076645463977985
anwiki,3.0,0.016569200779727095,0.9970674486803519,0.07966982852973367,0.93482188354102,0.03259671156703897
anwiki,4.0,0.017167381974248927,0.9970674486803519,0.11227654140824517,0.9017000972807708,0.03375359872927628
anwiki,5.0,0.017463854485153134,0.9882697947214076,0.13516964611455673,0.8783063881039515,0.034321213972909666
anwiki,6.0,0.017562590081674052,0.9648093841642229,0.1601605253557096,0.8525501459211563,0.03449722134843242
anwiki,7.0,0.0178502773658483,0.9530791788856305,0.18378329076979205,0.8283689257423449,0.035044209618287685
anwiki,8.0,0.017993118619211462,0.9354838709677419,0.20503465888361913,0.8065039143929217,0.0353071389042612
anwiki,9.0,0.01857042747021724,0.9325513196480938,0.2325337468077344,0.7785241117339139,0.03641568851989694
anwiki,10.0,0.019009805690910184,0.9266862170087976,0.25519883254286757,0.7554083476166211,0.03725536430087244
anwiki,11.0,0.019747978183186007,0.9237536656891495,0.28575337468077344,0.7243248251262334,0.038669285538914806
anwiki,12.0,0.02051651809124279,0.9178885630498533,0.3172655964976286,0.6922221707509149,0.04013592357504648
anwiki,13.0,0.02136429209315106,0.9120234604105572,0.34896023349142646,0.6599342196692454,0.04175057054638206
anwiki,14.0,0.022398271516024488,0.9120234604105572,0.3796059832178037,0.6288043730022699,0.04372276114157177
anwiki,15.0,0.023586700144563644,0.9090909090909091,0.4133527909522072,0.5944781581507389,0.045980421239988134
anwiki,16.0,0.024949698189134808,0.9090909090909091,0.44609631521342574,0.5612173993607263,0.0485665047783174
anwiki,17.0,0.02612161818336019,0.9032258064516129,0.47482670558190443,0.5319405197572613,0.050774810418727334
anwiki,18.0,0.027399697535806424,0.9032258064516129,0.49990879241152864,0.5064622226339927,0.053185978242099814
anwiki,19.0,0.02867015315651849,0.9002932551319648,0.524124407150675,0.48181776068930376,0.05557063987691194
anwiki,20.0,0.030273148604674095,0.9002932551319648,0.5499817584823057,0.4555519525640432,0.0585766075176493
anwiki,21.0,0.03153854134246291,0.8914956011730205,0.5726012404232033,0.43243618844675036,0.060921843687374744
anwiki,22.0,0.03306328005255091,0.8856304985337243,0.5954487413352791,0.4091351276231065,0.0637467018469657
anwiki,23.0,0.03462603878116344,0.8797653958944281,0.6167001094491061,0.3874554129800343,0.06662965019433649
anwiki,24.0,0.03610675039246468,0.8768328445747801,0.6340751550529004,0.3697595775235095,0.06935745766643471
anwiki,25.0,0.03746688532862369,0.8709677419354839,0.6500364830353885,0.3534534673646176,0.07184325108853411
anwiki,26.0,0.03848688546197443,0.8563049853372434,0.665085735133163,0.3379348682077176,0.07366296670030273
anwiki,27.0,0.04010510302862674,0.8504398826979472,0.6811382707041226,0.32153610969565016,0.07659799260433174
anwiki,28.0,0.04190835266821346,0.8475073313782991,0.6963243341846042,0.30606383471533793,0.0798673483487633
anwiki,29.0,0.04388095961129669,0.8475073313782991,0.710461510397665,0.29170333997313197,0.08344160531254512
anwiki,30.0,0.045889101338432124,0.844574780058651,0.7245074790222547,0.2773891694075138,0.08704851141000454
anwiki,31.0,0.047865243495663776,0.841642228739003,0.7371853338197738,0.26446472413952843,0.09057913839356162
anwiki,32.0,0.0499737899702953,0.8387096774193549,0.7495439620576432,0.2518645481076574,0.09432717678100264
anwiki,33.0,0.051758702387461275,0.8328445747800587,0.760124042320321,0.24102469078612127,0.09746053534660261
anwiki,34.0,0.05420881847680855,0.8328445747800587,0.7714337832907698,0.2295362949923565,0.1017921146953405
anwiki,35.0,0.057096903900281465,0.8328445747800587,0.7835187887632251,0.21726038819659982,0.10686735653809973
anwiki,36.0,0.059329140461215936,0.8299120234604106,0.7927307551988325,0.20785658034928428,0.1107415378595187
anwiki,37.0,0.06158229235152312,0.8240469208211144,0.8019883254286757,0.19836012414879325,0.11460032626427406
anwiki,38.0,0.0640528835194894,0.8240469208211144,0.8100145932141554,0.19020706906934728,0.11886632825719119
anwiki,39.0,0.06719273075083693,0.8240469208211144,0.8193633710324699,0.18071061286885626,0.12425381384037144
anwiki,40.0,0.06960614317562547,0.8240469208211144,0.8259759211966435,0.1739936072636309,0.12836911831886705
anwiki,41.0,0.07231404958677685,0.8211143695014663,0.8334093396570594,0.16639644230323805,0.13292190837882742
anwiki,42.0,0.0749665327978581,0.8211143695014663,0.8396570594673477,0.16005003011071478,0.13738959764474976
anwiki,43.0,0.07715792395226201,0.8152492668621701,0.8454943451295148,0.15402788715430582,0.140973630831643
anwiki,44.0,0.07939237603897965,0.8123167155425219,0.850601970083911,0.1487932551998888,0.14464751958224542
anwiki,45.0,0.08204976303317535,0.8123167155425219,0.8557551988325429,0.1435586232454718,0.14904492870594566
anwiki,46.0,0.08460598656078192,0.8123167155425219,0.8604067858445823,0.13883355723352017,0.15325034578146612
anwiki,47.0,0.08725893139424597,0.8093841642228738,0.8653775994162715,0.13373789780886644,0.15753424657534243
anwiki,48.0,0.08893216488153197,0.8035190615835777,0.8689346953666545,0.13003196368184555,0.1601402688486265
anwiki,49.0,0.09081869406695393,0.8035190615835777,0.871853338197738,0.12706721638022883,0.16319237641453246
anwiki,50.0,0.09303904923599321,0.8035190615835777,0.875136811382707,0.12373187566591004,0.16676810712111992
anwiki,51.0,0.09449636552440291,0.8005865102639296,0.8775994162714338,0.12118404595358317,0.16904024767801856
anwiki,52.0,0.09653465346534654,0.8005865102639296,0.8803812477198103,0.11835827118172974,0.17229409908488483
anwiki,53.0,0.09827213822894168,0.8005865102639296,0.8826614374315943,0.11604206235234168,0.17505610772683552
anwiki,54.0,0.09992679355783309,0.8005865102639296,0.8847592119664356,0.11391115022930468,0.17767653758542143
anwiki,55.0,0.10205607476635514,0.8005865102639296,0.8873586282378694,0.11127067216380229,0.1810344827586207
anwiki,56.0,0.10318664643399089,0.7976539589442815,0.8890459686245895,0.10951035345346737,0.18273429627141416
anwiki,57.0,0.10444874274661509,0.7917888563049853,0.8911893469536666,0.10724046880066707,0.18455228981544772
anwiki,58.0,0.10594722331626624,0.7888563049853372,0.8931959139000365,0.10515588085421781,0.18680555555555553
anwiki,59.0,0.10707151418298043,0.7859237536656891,0.8947464429040496,0.10353453467364618,0.18846694796061886
anwiki,60.0,0.10885458976441917,0.7859237536656891,0.8966161984677126,0.10163524343354798,0.19122368890474492
anwiki,61.0,0.11042183622828784,0.782991202346041,0.8985315578256111,0.09964330384027424,0.1935483870967742
anwiki,62.0,0.11265822784810127,0.782991202346041,0.9007205399489238,0.0974197433640617,0.1969752858723718
anwiki,63.0,0.11460577337354588,0.7800586510263929,0.9028639182780007,0.09519618288784917,0.19984973703981967
anwiki,64.0,0.1165644171779141,0.7800586510263929,0.9046424662531922,0.09338954000092649,0.2028211971025543
anwiki,65.0,0.1181697023545091,0.7800586510263929,0.9060561838744984,0.09195349052670589,0.2052469135802469
anwiki,66.0,0.12039981826442527,0.7771260997067448,0.908245165997811,0.08968360587390559,0.2084972462627852
anwiki,67.0,0.12255358807082944,0.7712609970674487,0.9105709595038307,0.08722842451475425,0.2114997989545637
anwiki,68.0,0.12398276687410244,0.7595307917888563,0.912805545421379,0.0847732431556029,0.21316872427983538
anwiki,69.0,0.12586037364798427,0.750733137829912,0.9150401313389274,0.08236438597303933,0.21557894736842106
anwiki,70.0,0.1284263959390863,0.7419354838709677,0.9176851514045968,0.0795386112011859,0.21895283427087842
anwiki,71.0,0.1328745367919534,0.7360703812316716,0.9211966435607443,0.07587900125075277,0.2251121076233184
anwiki,72.0,0.13579576317218903,0.7331378299120235,0.9232944180955855,0.073701764951128,0.22914757103574704
anwiki,73.0,0.13939051918735892,0.7243401759530792,0.9261674571324334,0.07064436929633576,0.2337908187411264
anwiki,74.0,0.14318975552968569,0.7214076246334311,0.9285388544326888,0.06818918793718441,0.2389509470616804
anwiki,75.0,0.14725407362703682,0.7155425219941349,0.9311382707041226,0.06545606151850651,0.24424424424424426
anwiki,76.0,0.15021998742928974,0.7008797653958945,0.9336920831813207,0.06263028674665308,0.24741200828157348
anwiki,77.0,0.15668202764976957,0.6979472140762464,0.9368843487778183,0.059341270208922034,0.25591397849462366
anwiki,78.0,0.1622191011235955,0.6774193548387096,0.9405782561109084,0.055264742669199056,0.26175637393767703
anwiki,79.0,0.17026022304832714,0.6715542521994134,0.9439985406785845,0.051697781071941444,0.27164887307236063
anwiki,80.0,0.1781789638932496,0.6656891495601173,0.9470539948923751,0.04850141288738593,0.28111455108359135
anwiki,81.0,0.189873417721519,0.6598240469208211,0.9509303174024079,0.0444712095242507,0.2948885976408912
anwiki,82.0,0.19688644688644688,0.6304985337243402,0.9542593943816126,0.04062630286746653,0.3000697836706211
anwiki,83.0,0.20530451866404714,0.6129032258064516,0.9570868296242248,0.03747625885949877,0.30757910228108903
anwiki,84.0,0.21199143468950749,0.5806451612903226,0.959914264866837,0.034094593968592206,0.31058823529411766
anwiki,85.0,0.2255017709563164,0.5601173020527859,0.9632433418460415,0.030388659841571315,0.32154882154882153
anwiki,86.0,0.23567708333333334,0.530791788856305,0.9659339657059467,0.027192291657015796,0.3264201983769161
anwiki,87.0,0.24,0.4750733137829912,0.9684421743889091,0.02376430258952147,0.3188976377952756
anwiki,88.0,0.263986013986014,0.44281524926686217,0.9721360817219993,0.019502478343447444,0.3307776560788609
anwiki,89.0,0.3057324840764331,0.4222873900293255,0.9761036118205034,0.015148005744197897,0.35467980295566504
anwiki,90.0,0.33506493506493507,0.3782991202346041,0.9786574242977015,0.011858989206466854,0.3553719008264463
anwiki,91.0,0.35691318327974275,0.3255131964809384,0.9803903684786575,0.00926483531755223,0.3404907975460123
anwiki,92.0,0.38362068965517243,0.26099706744868034,0.9819865012769062,0.0066243572520498445,0.31064572425828973
anwiki,93.0,0.46153846153846156,0.21114369501466276,0.9839018606348048,0.003891230833371937,0.289738430583501
anwiki,94.0,0.5446428571428571,0.17888563049853373,0.9849051441079898,0.002362533005975819,0.2693156732891832
anwiki,95.0,0.6049382716049383,0.1436950146627566,0.9852243706676396,0.0014823736508083568,0.23222748815165878
anwiki,96.0,0.7,0.12316715542521994,0.9855435972272893,0.0008338351785797007,0.20947630922693267
anwiki,97.0,0.782608695652174,0.10557184750733138,0.9856348048157607,0.0004632417658776115,0.18604651162790697
anwiki,98.0,0.96,0.07038123167155426,0.9854979934330537,4.632417658776115e-05,0.13114754098360656
anwiki,99.0,1.0,0.02932551319648094,0.9849051441079898,0.0,0.05698005698005699
