wiki_db,threshold,precision,recall,accuracy,fpr,F1
aywiki,0.0,0.17222222222222222,1.0,0.17222222222222222,1.0,0.2938388625592417
aywiki,1.0,0.17222222222222222,1.0,0.17222222222222222,1.0,0.2938388625592417
aywiki,2.0,0.17222222222222222,1.0,0.17222222222222222,1.0,0.2938388625592417
aywiki,3.0,0.17222222222222222,1.0,0.17222222222222222,1.0,0.2938388625592417
aywiki,4.0,0.17222222222222222,1.0,0.17222222222222222,1.0,0.2938388625592417
aywiki,5.0,0.17318435754189945,1.0,0.17777777777777778,0.9932885906040269,0.29523809523809524
aywiki,6.0,0.17415730337078653,1.0,0.18333333333333332,0.9865771812080537,0.2966507177033493
aywiki,7.0,0.17415730337078653,1.0,0.18333333333333332,0.9865771812080537,0.2966507177033493
aywiki,8.0,0.17613636363636365,1.0,0.19444444444444445,0.9731543624161074,0.2995169082125604
aywiki,9.0,0.17613636363636365,1.0,0.19444444444444445,0.9731543624161074,0.2995169082125604
aywiki,10.0,0.17613636363636365,1.0,0.19444444444444445,0.9731543624161074,0.2995169082125604
aywiki,11.0,0.17714285714285713,1.0,0.2,0.9664429530201343,0.30097087378640774
aywiki,12.0,0.1791907514450867,1.0,0.2111111111111111,0.9530201342281879,0.30392156862745096
aywiki,13.0,0.17857142857142858,0.967741935483871,0.22777777777777777,0.9261744966442953,0.3015075376884422
aywiki,14.0,0.17964071856287425,0.967741935483871,0.23333333333333334,0.9194630872483222,0.303030303030303
aywiki,15.0,0.17964071856287425,0.967741935483871,0.23333333333333334,0.9194630872483222,0.303030303030303
aywiki,16.0,0.18072289156626506,0.967741935483871,0.2388888888888889,0.912751677852349,0.3045685279187817
aywiki,17.0,0.18072289156626506,0.967741935483871,0.2388888888888889,0.912751677852349,0.3045685279187817
aywiki,18.0,0.18404907975460122,0.967741935483871,0.25555555555555554,0.8926174496644296,0.3092783505154639
aywiki,19.0,0.1875,0.967741935483871,0.2722222222222222,0.87248322147651,0.31413612565445026
aywiki,20.0,0.18867924528301888,0.967741935483871,0.2777777777777778,0.8657718120805369,0.31578947368421056
aywiki,21.0,0.189873417721519,0.967741935483871,0.2833333333333333,0.8590604026845637,0.31746031746031744
aywiki,22.0,0.19230769230769232,0.967741935483871,0.29444444444444445,0.8456375838926175,0.32085561497326204
aywiki,23.0,0.19607843137254902,0.967741935483871,0.3111111111111111,0.825503355704698,0.32608695652173914
aywiki,24.0,0.1986754966887417,0.967741935483871,0.32222222222222224,0.8120805369127517,0.3296703296703297
aywiki,25.0,0.2,0.967741935483871,0.3277777777777778,0.8053691275167785,0.33149171270718236
aywiki,26.0,0.20270270270270271,0.967741935483871,0.3388888888888889,0.7919463087248322,0.335195530726257
aywiki,27.0,0.20270270270270271,0.967741935483871,0.3388888888888889,0.7919463087248322,0.335195530726257
aywiki,28.0,0.20408163265306123,0.967741935483871,0.34444444444444444,0.785234899328859,0.33707865168539325
aywiki,29.0,0.20408163265306123,0.967741935483871,0.34444444444444444,0.785234899328859,0.33707865168539325
aywiki,30.0,0.20408163265306123,0.967741935483871,0.34444444444444444,0.785234899328859,0.33707865168539325
aywiki,31.0,0.20408163265306123,0.967741935483871,0.34444444444444444,0.785234899328859,0.33707865168539325
aywiki,32.0,0.20408163265306123,0.967741935483871,0.34444444444444444,0.785234899328859,0.33707865168539325
aywiki,33.0,0.20408163265306123,0.967741935483871,0.34444444444444444,0.785234899328859,0.33707865168539325
aywiki,34.0,0.20408163265306123,0.967741935483871,0.34444444444444444,0.785234899328859,0.33707865168539325
aywiki,35.0,0.20689655172413793,0.967741935483871,0.35555555555555557,0.7718120805369127,0.34090909090909094
aywiki,36.0,0.20689655172413793,0.967741935483871,0.35555555555555557,0.7718120805369127,0.34090909090909094
aywiki,37.0,0.20833333333333334,0.967741935483871,0.3611111111111111,0.7651006711409396,0.3428571428571429
aywiki,38.0,0.2097902097902098,0.967741935483871,0.36666666666666664,0.7583892617449665,0.3448275862068966
aywiki,39.0,0.2112676056338028,0.967741935483871,0.37222222222222223,0.7516778523489933,0.3468208092485549
aywiki,40.0,0.21428571428571427,0.967741935483871,0.38333333333333336,0.738255033557047,0.3508771929824561
aywiki,41.0,0.2158273381294964,0.967741935483871,0.3888888888888889,0.7315436241610739,0.3529411764705882
aywiki,42.0,0.22058823529411764,0.967741935483871,0.40555555555555556,0.7114093959731543,0.35928143712574845
aywiki,43.0,0.2222222222222222,0.967741935483871,0.4111111111111111,0.7046979865771812,0.36144578313253006
aywiki,44.0,0.22727272727272727,0.967741935483871,0.42777777777777776,0.6845637583892618,0.36809815950920244
aywiki,45.0,0.22727272727272727,0.967741935483871,0.42777777777777776,0.6845637583892618,0.36809815950920244
aywiki,46.0,0.23255813953488372,0.967741935483871,0.4444444444444444,0.6644295302013423,0.375
aywiki,47.0,0.234375,0.967741935483871,0.45,0.6577181208053692,0.3773584905660377
aywiki,48.0,0.234375,0.967741935483871,0.45,0.6577181208053692,0.3773584905660377
aywiki,49.0,0.2283464566929134,0.9354838709677419,0.4444444444444444,0.6577181208053692,0.3670886075949368
aywiki,50.0,0.2283464566929134,0.9354838709677419,0.4444444444444444,0.6577181208053692,0.3670886075949368
aywiki,51.0,0.232,0.9354838709677419,0.45555555555555555,0.6442953020134228,0.37179487179487175
aywiki,52.0,0.23770491803278687,0.9354838709677419,0.4722222222222222,0.6241610738255033,0.3790849673202614
aywiki,53.0,0.24166666666666667,0.9354838709677419,0.48333333333333334,0.610738255033557,0.3841059602649007
aywiki,54.0,0.24786324786324787,0.9354838709677419,0.5,0.5906040268456376,0.3918918918918919
aywiki,55.0,0.25,0.9354838709677419,0.5055555555555555,0.5838926174496645,0.39455782312925164
aywiki,56.0,0.25663716814159293,0.9354838709677419,0.5222222222222223,0.5637583892617449,0.40277777777777773
aywiki,57.0,0.2545454545454545,0.9032258064516129,0.5277777777777778,0.5503355704697986,0.39716312056737585
aywiki,58.0,0.25688073394495414,0.9032258064516129,0.5333333333333333,0.5436241610738255,0.4000000000000001
aywiki,59.0,0.25925925925925924,0.9032258064516129,0.5388888888888889,0.5369127516778524,0.4028776978417266
aywiki,60.0,0.2616822429906542,0.9032258064516129,0.5444444444444444,0.5302013422818792,0.40579710144927533
aywiki,61.0,0.24,0.7741935483870968,0.5388888888888889,0.5100671140939598,0.366412213740458
aywiki,62.0,0.24742268041237114,0.7741935483870968,0.5555555555555556,0.4899328859060403,0.375
aywiki,63.0,0.23076923076923078,0.6774193548387096,0.5555555555555556,0.4697986577181208,0.34426229508196726
aywiki,64.0,0.23333333333333334,0.6774193548387096,0.5611111111111111,0.46308724832214765,0.34710743801652894
aywiki,65.0,0.20238095238095238,0.5483870967741935,0.55,0.44966442953020136,0.2956521739130435
aywiki,66.0,0.20987654320987653,0.5483870967741935,0.5666666666666667,0.42953020134228187,0.30357142857142855
aywiki,67.0,0.19230769230769232,0.4838709677419355,0.5611111111111111,0.4228187919463087,0.27522935779816515
aywiki,68.0,0.1891891891891892,0.45161290322580644,0.5722222222222222,0.40268456375838924,0.26666666666666666
aywiki,69.0,0.18055555555555555,0.41935483870967744,0.5722222222222222,0.3959731543624161,0.25242718446601947
aywiki,70.0,0.19117647058823528,0.41935483870967744,0.5944444444444444,0.3691275167785235,0.2626262626262626
aywiki,71.0,0.2,0.41935483870967744,0.6111111111111112,0.348993288590604,0.2708333333333333
aywiki,72.0,0.1935483870967742,0.3870967741935484,0.6166666666666667,0.33557046979865773,0.25806451612903225
aywiki,73.0,0.2033898305084746,0.3870967741935484,0.6333333333333333,0.31543624161073824,0.2666666666666667
aywiki,74.0,0.21153846153846154,0.3548387096774194,0.6611111111111111,0.2751677852348993,0.2650602409638554
aywiki,75.0,0.21153846153846154,0.3548387096774194,0.6611111111111111,0.2751677852348993,0.2650602409638554
aywiki,76.0,0.22,0.3548387096774194,0.6722222222222223,0.26174496644295303,0.2716049382716049
aywiki,77.0,0.22916666666666666,0.3548387096774194,0.6833333333333333,0.2483221476510067,0.27848101265822783
aywiki,78.0,0.23404255319148937,0.3548387096774194,0.6888888888888889,0.24161073825503357,0.28205128205128205
aywiki,79.0,0.24444444444444444,0.3548387096774194,0.7,0.22818791946308725,0.2894736842105263
aywiki,80.0,0.25,0.3548387096774194,0.7055555555555556,0.2214765100671141,0.29333333333333333
aywiki,81.0,0.23809523809523808,0.3225806451612903,0.7055555555555556,0.21476510067114093,0.273972602739726
aywiki,82.0,0.23076923076923078,0.2903225806451613,0.7111111111111111,0.20134228187919462,0.2571428571428572
aywiki,83.0,0.25,0.2903225806451613,0.7277777777777777,0.18120805369127516,0.2686567164179105
aywiki,84.0,0.2727272727272727,0.2903225806451613,0.7444444444444445,0.1610738255033557,0.28125
aywiki,85.0,0.2903225806451613,0.2903225806451613,0.7555555555555555,0.1476510067114094,0.2903225806451613
aywiki,86.0,0.32142857142857145,0.2903225806451613,0.7722222222222223,0.12751677852348994,0.3050847457627119
aywiki,87.0,0.22727272727272727,0.16129032258064516,0.7611111111111111,0.11409395973154363,0.18867924528301885
aywiki,88.0,0.23809523809523808,0.16129032258064516,0.7666666666666667,0.10738255033557047,0.1923076923076923
aywiki,89.0,0.25,0.16129032258064516,0.7722222222222223,0.10067114093959731,0.19607843137254902
aywiki,90.0,0.29411764705882354,0.16129032258064516,0.7888888888888889,0.08053691275167785,0.20833333333333331
aywiki,91.0,0.3333333333333333,0.16129032258064516,0.8,0.06711409395973154,0.21739130434782605
aywiki,92.0,0.36363636363636365,0.12903225806451613,0.8111111111111111,0.04697986577181208,0.19047619047619047
aywiki,93.0,0.5,0.12903225806451613,0.8277777777777777,0.026845637583892617,0.20512820512820512
aywiki,94.0,0.5,0.06451612903225806,0.8277777777777777,0.013422818791946308,0.1142857142857143
aywiki,95.0,0.5,0.06451612903225806,0.8277777777777777,0.013422818791946308,0.1142857142857143
aywiki,96.0,0.6666666666666666,0.06451612903225806,0.8333333333333334,0.006711409395973154,0.1176470588235294
aywiki,97.0,0.6666666666666666,0.06451612903225806,0.8333333333333334,0.006711409395973154,0.1176470588235294
aywiki,98.0,0.6666666666666666,0.06451612903225806,0.8333333333333334,0.006711409395973154,0.1176470588235294
aywiki,99.0,1.0,0.06451612903225806,0.8388888888888889,0.0,0.12121212121212122
