wiki_db,threshold,precision,recall,accuracy,fpr,F1
bowiki,0.0,0.06578947368421052,1.0,0.06578947368421052,1.0,0.12345679012345677
bowiki,1.0,0.06578947368421052,1.0,0.06578947368421052,1.0,0.12345679012345677
bowiki,2.0,0.06578947368421052,1.0,0.06578947368421052,1.0,0.12345679012345677
bowiki,3.0,0.06578947368421052,1.0,0.06578947368421052,1.0,0.12345679012345677
bowiki,4.0,0.06578947368421052,1.0,0.06578947368421052,1.0,0.12345679012345677
bowiki,5.0,0.06578947368421052,1.0,0.06578947368421052,1.0,0.12345679012345677
bowiki,6.0,0.06578947368421052,1.0,0.06578947368421052,1.0,0.12345679012345677
bowiki,7.0,0.06622516556291391,1.0,0.07236842105263158,0.9929577464788732,0.12422360248447208
bowiki,8.0,0.06622516556291391,1.0,0.07236842105263158,0.9929577464788732,0.12422360248447208
bowiki,9.0,0.06622516556291391,1.0,0.07236842105263158,0.9929577464788732,0.12422360248447208
bowiki,10.0,0.06622516556291391,1.0,0.07236842105263158,0.9929577464788732,0.12422360248447208
bowiki,11.0,0.06622516556291391,1.0,0.07236842105263158,0.9929577464788732,0.12422360248447208
bowiki,12.0,0.06622516556291391,1.0,0.07236842105263158,0.9929577464788732,0.12422360248447208
bowiki,13.0,0.06622516556291391,1.0,0.07236842105263158,0.9929577464788732,0.12422360248447208
bowiki,14.0,0.06622516556291391,1.0,0.07236842105263158,0.9929577464788732,0.12422360248447208
bowiki,15.0,0.06711409395973154,1.0,0.08552631578947369,0.9788732394366197,0.12578616352201258
bowiki,16.0,0.06802721088435375,1.0,0.09868421052631579,0.9647887323943662,0.12738853503184713
bowiki,17.0,0.06896551724137931,1.0,0.1118421052631579,0.9507042253521126,0.12903225806451613
bowiki,18.0,0.06993006993006994,1.0,0.125,0.9366197183098591,0.13071895424836602
bowiki,19.0,0.07042253521126761,1.0,0.13157894736842105,0.9295774647887324,0.13157894736842107
bowiki,20.0,0.07092198581560284,1.0,0.13815789473684212,0.9225352112676056,0.13245033112582782
bowiki,21.0,0.07092198581560284,1.0,0.13815789473684212,0.9225352112676056,0.13245033112582782
bowiki,22.0,0.07142857142857142,1.0,0.14473684210526316,0.9154929577464789,0.13333333333333333
bowiki,23.0,0.07407407407407407,1.0,0.17763157894736842,0.8802816901408451,0.13793103448275862
bowiki,24.0,0.07407407407407407,1.0,0.17763157894736842,0.8802816901408451,0.13793103448275862
bowiki,25.0,0.07462686567164178,1.0,0.18421052631578946,0.8732394366197183,0.13888888888888887
bowiki,26.0,0.07462686567164178,1.0,0.18421052631578946,0.8732394366197183,0.13888888888888887
bowiki,27.0,0.07575757575757576,1.0,0.19736842105263158,0.8591549295774648,0.14084507042253522
bowiki,28.0,0.07751937984496124,1.0,0.21710526315789475,0.8380281690140845,0.14388489208633096
bowiki,29.0,0.078125,1.0,0.2236842105263158,0.8309859154929577,0.14492753623188406
bowiki,30.0,0.07874015748031496,1.0,0.23026315789473684,0.823943661971831,0.145985401459854
bowiki,31.0,0.08,1.0,0.24342105263157895,0.8098591549295775,0.14814814814814814
bowiki,32.0,0.08196721311475409,1.0,0.2631578947368421,0.7887323943661971,0.1515151515151515
bowiki,33.0,0.08196721311475409,1.0,0.2631578947368421,0.7887323943661971,0.1515151515151515
bowiki,34.0,0.08264462809917356,1.0,0.26973684210526316,0.7816901408450704,0.15267175572519084
bowiki,35.0,0.08333333333333333,1.0,0.27631578947368424,0.7746478873239436,0.15384615384615385
bowiki,36.0,0.08547008547008547,1.0,0.29605263157894735,0.7535211267605634,0.15748031496062995
bowiki,37.0,0.08547008547008547,1.0,0.29605263157894735,0.7535211267605634,0.15748031496062995
bowiki,38.0,0.08771929824561403,1.0,0.3157894736842105,0.7323943661971831,0.16129032258064516
bowiki,39.0,0.08849557522123894,1.0,0.3223684210526316,0.7253521126760564,0.1626016260162602
bowiki,40.0,0.09009009009009009,1.0,0.3355263157894737,0.7112676056338029,0.1652892561983471
bowiki,41.0,0.09090909090909091,1.0,0.34210526315789475,0.704225352112676,0.16666666666666669
bowiki,42.0,0.09090909090909091,1.0,0.34210526315789475,0.704225352112676,0.16666666666666669
bowiki,43.0,0.09174311926605505,1.0,0.34868421052631576,0.6971830985915493,0.16806722689075632
bowiki,44.0,0.09259259259259259,1.0,0.35526315789473684,0.6901408450704225,0.1694915254237288
bowiki,45.0,0.09433962264150944,1.0,0.3684210526315789,0.676056338028169,0.1724137931034483
bowiki,46.0,0.09433962264150944,1.0,0.3684210526315789,0.676056338028169,0.1724137931034483
bowiki,47.0,0.09615384615384616,1.0,0.3815789473684211,0.6619718309859155,0.17543859649122806
bowiki,48.0,0.09900990099009901,1.0,0.40131578947368424,0.6408450704225352,0.18018018018018017
bowiki,49.0,0.1,1.0,0.40789473684210525,0.6338028169014085,0.18181818181818182
bowiki,50.0,0.1,1.0,0.40789473684210525,0.6338028169014085,0.18181818181818182
bowiki,51.0,0.1,1.0,0.40789473684210525,0.6338028169014085,0.18181818181818182
bowiki,52.0,0.10204081632653061,1.0,0.42105263157894735,0.6197183098591549,0.1851851851851852
bowiki,53.0,0.10309278350515463,1.0,0.4276315789473684,0.6126760563380281,0.18691588785046725
bowiki,54.0,0.10416666666666667,1.0,0.4342105263157895,0.6056338028169014,0.18867924528301885
bowiki,55.0,0.10526315789473684,1.0,0.4407894736842105,0.5985915492957746,0.1904761904761905
bowiki,56.0,0.10526315789473684,1.0,0.4407894736842105,0.5985915492957746,0.1904761904761905
bowiki,57.0,0.10638297872340426,1.0,0.4473684210526316,0.5915492957746479,0.1923076923076923
bowiki,58.0,0.10752688172043011,1.0,0.45394736842105265,0.5845070422535211,0.19417475728155342
bowiki,59.0,0.10752688172043011,1.0,0.45394736842105265,0.5845070422535211,0.19417475728155342
bowiki,60.0,0.11235955056179775,1.0,0.48026315789473684,0.5563380281690141,0.20202020202020202
bowiki,61.0,0.11494252873563218,1.0,0.4934210526315789,0.5422535211267606,0.20618556701030927
bowiki,62.0,0.11764705882352941,1.0,0.506578947368421,0.528169014084507,0.21052631578947367
bowiki,63.0,0.11764705882352941,1.0,0.506578947368421,0.528169014084507,0.21052631578947367
bowiki,64.0,0.12048192771084337,1.0,0.5197368421052632,0.5140845070422535,0.21505376344086022
bowiki,65.0,0.11538461538461539,0.9,0.5394736842105263,0.4859154929577465,0.20454545454545456
bowiki,66.0,0.11842105263157894,0.9,0.5526315789473685,0.47183098591549294,0.20930232558139536
bowiki,67.0,0.125,0.9,0.5789473684210527,0.44366197183098594,0.21951219512195125
bowiki,68.0,0.13432835820895522,0.9,0.6118421052631579,0.4084507042253521,0.23376623376623376
bowiki,69.0,0.13432835820895522,0.9,0.6118421052631579,0.4084507042253521,0.23376623376623376
bowiki,70.0,0.13432835820895522,0.9,0.6118421052631579,0.4084507042253521,0.23376623376623376
bowiki,71.0,0.13432835820895522,0.9,0.6118421052631579,0.4084507042253521,0.23376623376623376
bowiki,72.0,0.14285714285714285,0.9,0.6381578947368421,0.38028169014084506,0.24657534246575338
bowiki,73.0,0.14285714285714285,0.9,0.6381578947368421,0.38028169014084506,0.24657534246575338
bowiki,74.0,0.14754098360655737,0.9,0.6513157894736842,0.36619718309859156,0.2535211267605634
bowiki,75.0,0.15,0.9,0.6578947368421053,0.3591549295774648,0.2571428571428572
bowiki,76.0,0.15,0.9,0.6578947368421053,0.3591549295774648,0.2571428571428572
bowiki,77.0,0.15,0.9,0.6578947368421053,0.3591549295774648,0.2571428571428572
bowiki,78.0,0.15,0.9,0.6578947368421053,0.3591549295774648,0.2571428571428572
bowiki,79.0,0.15517241379310345,0.9,0.6710526315789473,0.34507042253521125,0.2647058823529411
bowiki,80.0,0.15789473684210525,0.9,0.6776315789473685,0.3380281690140845,0.26865671641791045
bowiki,81.0,0.16071428571428573,0.9,0.6842105263157895,0.33098591549295775,0.27272727272727276
bowiki,82.0,0.17307692307692307,0.9,0.7105263157894737,0.3028169014084507,0.2903225806451613
bowiki,83.0,0.17647058823529413,0.9,0.7171052631578947,0.29577464788732394,0.2950819672131148
bowiki,84.0,0.1836734693877551,0.9,0.7302631578947368,0.28169014084507044,0.30508474576271183
bowiki,85.0,0.2,0.9,0.756578947368421,0.2535211267605634,0.32727272727272727
bowiki,86.0,0.18181818181818182,0.8,0.75,0.2535211267605634,0.2962962962962963
bowiki,87.0,0.18421052631578946,0.7,0.7763157894736842,0.21830985915492956,0.29166666666666663
bowiki,88.0,0.17142857142857143,0.6,0.7828947368421053,0.20422535211267606,0.26666666666666666
bowiki,89.0,0.15151515151515152,0.5,0.7828947368421053,0.19718309859154928,0.23255813953488375
bowiki,90.0,0.14285714285714285,0.4,0.8026315789473685,0.16901408450704225,0.21052631578947364
bowiki,91.0,0.125,0.3,0.8157894736842105,0.14788732394366197,0.17647058823529413
bowiki,92.0,0.15,0.3,0.8421052631578947,0.11971830985915492,0.2
bowiki,93.0,0.13333333333333333,0.2,0.8618421052631579,0.09154929577464789,0.16
bowiki,94.0,0.18181818181818182,0.2,0.8881578947368421,0.06338028169014084,0.1904761904761905
bowiki,95.0,0.14285714285714285,0.1,0.9013157894736842,0.04225352112676056,0.11764705882352941
bowiki,96.0,0.16666666666666666,0.1,0.9078947368421053,0.035211267605633804,0.125
bowiki,97.0,0.5,0.1,0.9342105263157895,0.007042253521126761,0.16666666666666669
bowiki,98.0,0.0,0.0,0.9276315789473685,0.007042253521126761,0.16666666666666669
bowiki,99.0,0.0,0.0,0.9342105263157895,0.0,0.16666666666666669
