wiki_db,threshold,precision,recall,accuracy,fpr,F1
bugwiki,0.0,0.00744047619047619,1.0,0.00744047619047619,1.0,0.014771048744460854
bugwiki,1.0,0.00744047619047619,1.0,0.00744047619047619,1.0,0.014771048744460854
bugwiki,2.0,0.00744047619047619,1.0,0.00744047619047619,1.0,0.014771048744460854
bugwiki,3.0,0.00744047619047619,1.0,0.00744047619047619,1.0,0.014771048744460854
bugwiki,4.0,0.00744047619047619,1.0,0.00744047619047619,1.0,0.014771048744460854
bugwiki,5.0,0.007451564828614009,1.0,0.008928571428571428,0.9985007496251874,0.014792899408284025
bugwiki,6.0,0.007535795026375283,1.0,0.020089285714285716,0.987256371814093,0.014958863126402395
bugwiki,7.0,0.007739938080495356,1.0,0.046130952380952384,0.9610194902548725,0.015360983102918585
bugwiki,8.0,0.009250693802035153,1.0,0.203125,0.802848575712144,0.01833180568285976
bugwiki,9.0,0.010976948408342482,1.0,0.32961309523809523,0.6754122938530734,0.02171552660152009
bugwiki,10.0,0.013774104683195593,1.0,0.46726190476190477,0.5367316341829086,0.02717391304347826
bugwiki,11.0,0.03322259136212625,1.0,0.7834821428571429,0.2181409295352324,0.06430868167202573
bugwiki,12.0,0.03496503496503497,1.0,0.7946428571428571,0.20689655172413793,0.06756756756756757
bugwiki,13.0,0.03558718861209965,1.0,0.7983630952380952,0.20314842578710646,0.06872852233676977
bugwiki,14.0,0.03663003663003663,1.0,0.8043154761904762,0.19715142428785606,0.0706713780918728
bugwiki,15.0,0.03676470588235294,1.0,0.8050595238095238,0.19640179910044978,0.07092198581560283
bugwiki,16.0,0.038910505836575876,1.0,0.8162202380952381,0.18515742128935533,0.07490636704119849
bugwiki,17.0,0.04219409282700422,1.0,0.8311011904761905,0.1701649175412294,0.08097165991902834
bugwiki,18.0,0.043859649122807015,1.0,0.8377976190476191,0.1634182908545727,0.08403361344537816
bugwiki,19.0,0.044642857142857144,1.0,0.8407738095238095,0.16041979010494753,0.08547008547008547
bugwiki,20.0,0.045454545454545456,1.0,0.84375,0.15742128935532235,0.08695652173913045
bugwiki,21.0,0.045662100456621,1.0,0.8444940476190477,0.15667166416791603,0.08733624454148473
bugwiki,22.0,0.04854368932038835,1.0,0.8541666666666666,0.1469265367316342,0.09259259259259259
bugwiki,23.0,0.04950495049504951,1.0,0.8571428571428571,0.14392803598200898,0.09433962264150944
bugwiki,24.0,0.05263157894736842,1.0,0.8660714285714286,0.13493253373313344,0.1
bugwiki,25.0,0.05291005291005291,1.0,0.8668154761904762,0.13418290854572715,0.10050251256281405
bugwiki,26.0,0.05434782608695652,1.0,0.8705357142857143,0.13043478260869565,0.10309278350515463
bugwiki,27.0,0.05434782608695652,1.0,0.8705357142857143,0.13043478260869565,0.10309278350515463
bugwiki,28.0,0.0546448087431694,1.0,0.8712797619047619,0.12968515742128936,0.10362694300518134
bugwiki,29.0,0.054945054945054944,1.0,0.8720238095238095,0.12893553223388307,0.10416666666666666
bugwiki,30.0,0.07407407407407407,1.0,0.9069940476190477,0.0937031484257871,0.13793103448275862
bugwiki,31.0,0.07575757575757576,1.0,0.9092261904761905,0.09145427286356822,0.14084507042253522
bugwiki,32.0,0.07692307692307693,1.0,0.9107142857142857,0.08995502248875563,0.14285714285714288
bugwiki,33.0,0.078125,1.0,0.9122023809523809,0.08845577211394302,0.14492753623188406
bugwiki,34.0,0.078125,1.0,0.9122023809523809,0.08845577211394302,0.14492753623188406
bugwiki,35.0,0.078125,1.0,0.9122023809523809,0.08845577211394302,0.14492753623188406
bugwiki,36.0,0.072,0.9,0.9129464285714286,0.08695652173913043,0.13333333333333333
bugwiki,37.0,0.07258064516129033,0.9,0.9136904761904762,0.08620689655172414,0.13432835820895522
bugwiki,38.0,0.07377049180327869,0.9,0.9151785714285714,0.08470764617691154,0.13636363636363638
bugwiki,39.0,0.0743801652892562,0.9,0.9159226190476191,0.08395802098950525,0.13740458015267176
bugwiki,40.0,0.06666666666666667,0.8,0.9151785714285714,0.08395802098950525,0.12307692307692308
bugwiki,41.0,0.06722689075630252,0.8,0.9159226190476191,0.08320839580209895,0.12403100775193798
bugwiki,42.0,0.06837606837606838,0.8,0.9174107142857143,0.08170914542728636,0.12598425196850396
bugwiki,43.0,0.06896551724137931,0.8,0.9181547619047619,0.08095952023988005,0.12698412698412698
bugwiki,44.0,0.06956521739130435,0.8,0.9188988095238095,0.08020989505247376,0.128
bugwiki,45.0,0.06956521739130435,0.8,0.9188988095238095,0.08020989505247376,0.128
bugwiki,46.0,0.07017543859649122,0.8,0.9196428571428571,0.07946026986506746,0.12903225806451613
bugwiki,47.0,0.07017543859649122,0.8,0.9196428571428571,0.07946026986506746,0.12903225806451613
bugwiki,48.0,0.07017543859649122,0.8,0.9196428571428571,0.07946026986506746,0.12903225806451613
bugwiki,49.0,0.07017543859649122,0.8,0.9196428571428571,0.07946026986506746,0.12903225806451613
bugwiki,50.0,0.07079646017699115,0.8,0.9203869047619048,0.07871064467766117,0.13008130081300812
bugwiki,51.0,0.07207207207207207,0.8,0.921875,0.07721139430284858,0.13223140495867766
bugwiki,52.0,0.07207207207207207,0.8,0.921875,0.07721139430284858,0.13223140495867766
bugwiki,53.0,0.07272727272727272,0.8,0.9226190476190477,0.07646176911544228,0.13333333333333333
bugwiki,54.0,0.07339449541284404,0.8,0.9233630952380952,0.07571214392803598,0.13445378151260504
bugwiki,55.0,0.07339449541284404,0.8,0.9233630952380952,0.07571214392803598,0.13445378151260504
bugwiki,56.0,0.06542056074766354,0.7,0.9233630952380952,0.07496251874062969,0.11965811965811965
bugwiki,57.0,0.0660377358490566,0.7,0.9241071428571429,0.07421289355322339,0.1206896551724138
bugwiki,58.0,0.06666666666666667,0.7,0.9248511904761905,0.0734632683658171,0.1217391304347826
bugwiki,59.0,0.07,0.7,0.9285714285714286,0.06971514242878561,0.1272727272727273
bugwiki,60.0,0.0625,0.6,0.9300595238095238,0.06746626686656672,0.11320754716981132
bugwiki,61.0,0.06382978723404255,0.6,0.9315476190476191,0.06596701649175413,0.11538461538461536
bugwiki,62.0,0.06593406593406594,0.6,0.9337797619047619,0.06371814092953523,0.1188118811881188
bugwiki,63.0,0.06896551724137931,0.6,0.9367559523809523,0.060719640179910044,0.12371134020618556
bugwiki,64.0,0.07142857142857142,0.6,0.9389880952380952,0.05847076461769116,0.1276595744680851
bugwiki,65.0,0.075,0.6,0.9419642857142857,0.05547226386806597,0.13333333333333333
bugwiki,66.0,0.08,0.6,0.9456845238095238,0.05172413793103448,0.14117647058823532
bugwiki,67.0,0.08333333333333333,0.6,0.9479166666666666,0.049475262368815595,0.14634146341463414
bugwiki,68.0,0.08823529411764706,0.6,0.9508928571428571,0.046476761619190406,0.15384615384615385
bugwiki,69.0,0.09230769230769231,0.6,0.953125,0.04422788605697151,0.16
bugwiki,70.0,0.09523809523809523,0.6,0.9546130952380952,0.04272863568215892,0.1643835616438356
bugwiki,71.0,0.09836065573770492,0.6,0.9561011904761905,0.04122938530734633,0.16901408450704225
bugwiki,72.0,0.1,0.6,0.9568452380952381,0.04047976011994003,0.17142857142857143
bugwiki,73.0,0.10344827586206896,0.6,0.9583333333333334,0.038980509745127435,0.17647058823529413
bugwiki,74.0,0.10909090909090909,0.6,0.9605654761904762,0.03673163418290855,0.1846153846153846
bugwiki,75.0,0.11764705882352941,0.6,0.9635416666666666,0.03373313343328336,0.19672131147540983
bugwiki,76.0,0.12,0.6,0.9642857142857143,0.03298350824587706,0.19999999999999998
bugwiki,77.0,0.125,0.6,0.9657738095238095,0.031484257871064465,0.20689655172413793
bugwiki,78.0,0.13333333333333333,0.6,0.9680059523809523,0.02923538230884558,0.2181818181818182
bugwiki,79.0,0.13636363636363635,0.6,0.96875,0.02848575712143928,0.22222222222222218
bugwiki,80.0,0.14634146341463414,0.6,0.9709821428571429,0.02623688155922039,0.23529411764705882
bugwiki,81.0,0.13513513513513514,0.5,0.9724702380952381,0.0239880059970015,0.21276595744680854
bugwiki,82.0,0.14285714285714285,0.5,0.9739583333333334,0.022488755622188907,0.22222222222222224
bugwiki,83.0,0.15151515151515152,0.5,0.9754464285714286,0.020989505247376312,0.23255813953488375
bugwiki,84.0,0.16666666666666666,0.5,0.9776785714285714,0.018740629685157422,0.25
bugwiki,85.0,0.18518518518518517,0.5,0.9799107142857143,0.01649175412293853,0.2702702702702703
bugwiki,86.0,0.16666666666666666,0.4,0.9806547619047619,0.014992503748125937,0.23529411764705882
bugwiki,87.0,0.19047619047619047,0.4,0.9828869047619048,0.012743628185907047,0.25806451612903225
bugwiki,88.0,0.25,0.4,0.9866071428571429,0.008995502248875561,0.3076923076923077
bugwiki,89.0,0.23076923076923078,0.3,0.9873511904761905,0.0074962518740629685,0.2608695652173913
bugwiki,90.0,0.2727272727272727,0.3,0.9888392857142857,0.005997001499250375,0.28571428571428564
bugwiki,91.0,0.3333333333333333,0.3,0.9903273809523809,0.004497751124437781,0.3157894736842105
bugwiki,92.0,0.3333333333333333,0.3,0.9903273809523809,0.004497751124437781,0.3157894736842105
bugwiki,93.0,0.3333333333333333,0.2,0.9910714285714286,0.0029985007496251873,0.25
bugwiki,94.0,0.3333333333333333,0.2,0.9910714285714286,0.0029985007496251873,0.25
bugwiki,95.0,0.4,0.2,0.9918154761904762,0.0022488755622188904,0.26666666666666666
bugwiki,96.0,0.5,0.2,0.9925595238095238,0.0014992503748125937,0.28571428571428575
bugwiki,97.0,0.3333333333333333,0.1,0.9918154761904762,0.0014992503748125937,0.15384615384615383
bugwiki,98.0,0.0,0.0,0.9918154761904762,0.0007496251874062968,0.15384615384615383
bugwiki,99.0,0.0,0.0,0.9925595238095238,0.0,0.15384615384615383
