wiki_db,threshold,precision,recall,accuracy,fpr,F1
chywiki,0.0,0.06666666666666667,1.0,0.06666666666666667,1.0,0.125
chywiki,1.0,0.06666666666666667,1.0,0.06666666666666667,1.0,0.125
chywiki,2.0,0.06666666666666667,1.0,0.06666666666666667,1.0,0.125
chywiki,3.0,0.06666666666666667,1.0,0.06666666666666667,1.0,0.125
chywiki,4.0,0.06666666666666667,1.0,0.06666666666666667,1.0,0.125
chywiki,5.0,0.06666666666666667,1.0,0.06666666666666667,1.0,0.125
chywiki,6.0,0.06666666666666667,1.0,0.06666666666666667,1.0,0.125
chywiki,7.0,0.06666666666666667,1.0,0.06666666666666667,1.0,0.125
chywiki,8.0,0.06666666666666667,1.0,0.06666666666666667,1.0,0.125
chywiki,9.0,0.06666666666666667,1.0,0.06666666666666667,1.0,0.125
chywiki,10.0,0.06666666666666667,1.0,0.06666666666666667,1.0,0.125
chywiki,11.0,0.06666666666666667,1.0,0.06666666666666667,1.0,0.125
chywiki,12.0,0.06666666666666667,1.0,0.06666666666666667,1.0,0.125
chywiki,13.0,0.06666666666666667,1.0,0.06666666666666667,1.0,0.125
chywiki,14.0,0.06666666666666667,1.0,0.06666666666666667,1.0,0.125
chywiki,15.0,0.06666666666666667,1.0,0.06666666666666667,1.0,0.125
chywiki,16.0,0.06796116504854369,1.0,0.08571428571428572,0.9795918367346939,0.12727272727272726
chywiki,17.0,0.06862745098039216,1.0,0.09523809523809523,0.9693877551020408,0.12844036697247707
chywiki,18.0,0.06930693069306931,1.0,0.10476190476190476,0.9591836734693877,0.12962962962962962
chywiki,19.0,0.07,1.0,0.11428571428571428,0.9489795918367347,0.13084112149532712
chywiki,20.0,0.07,1.0,0.11428571428571428,0.9489795918367347,0.13084112149532712
chywiki,21.0,0.07,1.0,0.11428571428571428,0.9489795918367347,0.13084112149532712
chywiki,22.0,0.0707070707070707,1.0,0.12380952380952381,0.9387755102040817,0.1320754716981132
chywiki,23.0,0.0707070707070707,1.0,0.12380952380952381,0.9387755102040817,0.1320754716981132
chywiki,24.0,0.0707070707070707,1.0,0.12380952380952381,0.9387755102040817,0.1320754716981132
chywiki,25.0,0.0707070707070707,1.0,0.12380952380952381,0.9387755102040817,0.1320754716981132
chywiki,26.0,0.0707070707070707,1.0,0.12380952380952381,0.9387755102040817,0.1320754716981132
chywiki,27.0,0.07142857142857142,1.0,0.13333333333333333,0.9285714285714286,0.13333333333333333
chywiki,28.0,0.07142857142857142,1.0,0.13333333333333333,0.9285714285714286,0.13333333333333333
chywiki,29.0,0.07291666666666667,1.0,0.1523809523809524,0.9081632653061225,0.13592233009708737
chywiki,30.0,0.07368421052631578,1.0,0.1619047619047619,0.8979591836734694,0.1372549019607843
chywiki,31.0,0.07446808510638298,1.0,0.17142857142857143,0.8877551020408163,0.1386138613861386
chywiki,32.0,0.07526881720430108,1.0,0.18095238095238095,0.8775510204081632,0.14
chywiki,33.0,0.07526881720430108,1.0,0.18095238095238095,0.8775510204081632,0.14
chywiki,34.0,0.07526881720430108,1.0,0.18095238095238095,0.8775510204081632,0.14
chywiki,35.0,0.07608695652173914,1.0,0.19047619047619047,0.8673469387755102,0.1414141414141414
chywiki,36.0,0.07777777777777778,1.0,0.20952380952380953,0.8469387755102041,0.1443298969072165
chywiki,37.0,0.07954545454545454,1.0,0.22857142857142856,0.826530612244898,0.14736842105263157
chywiki,38.0,0.08045977011494253,1.0,0.23809523809523808,0.8163265306122449,0.14893617021276595
chywiki,39.0,0.08045977011494253,1.0,0.23809523809523808,0.8163265306122449,0.14893617021276595
chywiki,40.0,0.08235294117647059,1.0,0.2571428571428571,0.7959183673469388,0.15217391304347827
chywiki,41.0,0.08235294117647059,1.0,0.2571428571428571,0.7959183673469388,0.15217391304347827
chywiki,42.0,0.08235294117647059,1.0,0.2571428571428571,0.7959183673469388,0.15217391304347827
chywiki,43.0,0.08235294117647059,1.0,0.2571428571428571,0.7959183673469388,0.15217391304347827
chywiki,44.0,0.08333333333333333,1.0,0.26666666666666666,0.7857142857142857,0.15384615384615385
chywiki,45.0,0.08641975308641975,1.0,0.29523809523809524,0.7551020408163265,0.1590909090909091
chywiki,46.0,0.0875,1.0,0.3047619047619048,0.7448979591836735,0.16091954022988506
chywiki,47.0,0.08860759493670886,1.0,0.3142857142857143,0.7346938775510204,0.1627906976744186
chywiki,48.0,0.08860759493670886,1.0,0.3142857142857143,0.7346938775510204,0.1627906976744186
chywiki,49.0,0.08860759493670886,1.0,0.3142857142857143,0.7346938775510204,0.1627906976744186
chywiki,50.0,0.08974358974358974,1.0,0.3238095238095238,0.7244897959183674,0.1647058823529412
chywiki,51.0,0.09333333333333334,1.0,0.3523809523809524,0.6938775510204082,0.17073170731707318
chywiki,52.0,0.09333333333333334,1.0,0.3523809523809524,0.6938775510204082,0.17073170731707318
chywiki,53.0,0.0945945945945946,1.0,0.3619047619047619,0.6836734693877551,0.17283950617283952
chywiki,54.0,0.0958904109589041,1.0,0.37142857142857144,0.673469387755102,0.175
chywiki,55.0,0.10144927536231885,1.0,0.4095238095238095,0.6326530612244898,0.1842105263157895
chywiki,56.0,0.10606060606060606,1.0,0.4380952380952381,0.6020408163265306,0.19178082191780824
chywiki,57.0,0.11475409836065574,1.0,0.4857142857142857,0.5510204081632653,0.2058823529411765
chywiki,58.0,0.11864406779661017,1.0,0.5047619047619047,0.5306122448979592,0.21212121212121215
chywiki,59.0,0.11864406779661017,1.0,0.5047619047619047,0.5306122448979592,0.21212121212121215
chywiki,60.0,0.11864406779661017,1.0,0.5047619047619047,0.5306122448979592,0.21212121212121215
chywiki,61.0,0.125,1.0,0.5333333333333333,0.5,0.2222222222222222
chywiki,62.0,0.1320754716981132,1.0,0.5619047619047619,0.46938775510204084,0.23333333333333334
chywiki,63.0,0.14583333333333334,1.0,0.6095238095238096,0.41836734693877553,0.2545454545454546
chywiki,64.0,0.15555555555555556,1.0,0.638095238095238,0.3877551020408163,0.2692307692307693
chywiki,65.0,0.16279069767441862,1.0,0.6571428571428571,0.3673469387755102,0.28
chywiki,66.0,0.17073170731707318,1.0,0.6761904761904762,0.3469387755102041,0.2916666666666667
chywiki,67.0,0.1794871794871795,1.0,0.6952380952380952,0.32653061224489793,0.30434782608695654
chywiki,68.0,0.16666666666666666,0.8571428571428571,0.7047619047619048,0.30612244897959184,0.27906976744186046
chywiki,69.0,0.16666666666666666,0.8571428571428571,0.7047619047619048,0.30612244897959184,0.27906976744186046
chywiki,70.0,0.16666666666666666,0.8571428571428571,0.7047619047619048,0.30612244897959184,0.27906976744186046
chywiki,71.0,0.17142857142857143,0.8571428571428571,0.7142857142857143,0.29591836734693877,0.2857142857142857
chywiki,72.0,0.1875,0.8571428571428571,0.7428571428571429,0.2653061224489796,0.30769230769230765
chywiki,73.0,0.1935483870967742,0.8571428571428571,0.7523809523809524,0.25510204081632654,0.3157894736842105
chywiki,74.0,0.1935483870967742,0.8571428571428571,0.7523809523809524,0.25510204081632654,0.3157894736842105
chywiki,75.0,0.2,0.8571428571428571,0.7619047619047619,0.24489795918367346,0.32432432432432434
chywiki,76.0,0.20689655172413793,0.8571428571428571,0.7714285714285715,0.23469387755102042,0.33333333333333326
chywiki,77.0,0.23076923076923078,0.8571428571428571,0.8,0.20408163265306123,0.36363636363636365
chywiki,78.0,0.25,0.8571428571428571,0.819047619047619,0.1836734693877551,0.3870967741935483
chywiki,79.0,0.2727272727272727,0.8571428571428571,0.8380952380952381,0.16326530612244897,0.41379310344827586
chywiki,80.0,0.2857142857142857,0.8571428571428571,0.8476190476190476,0.15306122448979592,0.42857142857142855
chywiki,81.0,0.35294117647058826,0.8571428571428571,0.8857142857142857,0.11224489795918367,0.5
chywiki,82.0,0.35294117647058826,0.8571428571428571,0.8857142857142857,0.11224489795918367,0.5
chywiki,83.0,0.35294117647058826,0.8571428571428571,0.8857142857142857,0.11224489795918367,0.5
chywiki,84.0,0.375,0.8571428571428571,0.8952380952380953,0.10204081632653061,0.5217391304347825
chywiki,85.0,0.375,0.8571428571428571,0.8952380952380953,0.10204081632653061,0.5217391304347825
chywiki,86.0,0.4,0.8571428571428571,0.9047619047619048,0.09183673469387756,0.5454545454545455
chywiki,87.0,0.4,0.8571428571428571,0.9047619047619048,0.09183673469387756,0.5454545454545455
chywiki,88.0,0.4,0.8571428571428571,0.9047619047619048,0.09183673469387756,0.5454545454545455
chywiki,89.0,0.35714285714285715,0.7142857142857143,0.8952380952380953,0.09183673469387756,0.4761904761904762
chywiki,90.0,0.38461538461538464,0.7142857142857143,0.9047619047619048,0.08163265306122448,0.5
chywiki,91.0,0.3333333333333333,0.5714285714285714,0.8952380952380953,0.08163265306122448,0.4210526315789474
chywiki,92.0,0.3,0.42857142857142855,0.8952380952380953,0.07142857142857142,0.3529411764705882
chywiki,93.0,0.375,0.42857142857142855,0.9142857142857143,0.05102040816326531,0.39999999999999997
chywiki,94.0,0.4,0.2857142857142857,0.9238095238095239,0.030612244897959183,0.3333333333333333
chywiki,95.0,0.5,0.2857142857142857,0.9333333333333333,0.02040816326530612,0.36363636363636365
chywiki,96.0,0.5,0.0,0.9333333333333333,0.0,0.0
chywiki,97.0,0.5,0.0,0.9333333333333333,0.0,0.0
chywiki,98.0,0.5,0.0,0.9333333333333333,0.0,0.0
chywiki,99.0,0.5,0.0,0.9333333333333333,0.0,0.0
