wiki_db,threshold,precision,recall,accuracy,fpr,F1
cowiki,0.0,0.03153611393692777,1.0,0.03153611393692777,1.0,0.0611439842209073
cowiki,1.0,0.03153611393692777,1.0,0.03153611393692777,1.0,0.0611439842209073
cowiki,2.0,0.03153611393692777,1.0,0.03153611393692777,1.0,0.0611439842209073
cowiki,3.0,0.031568228105906315,1.0,0.03255340793489318,0.9989495798319328,0.061204343534057265
cowiki,4.0,0.031762295081967214,1.0,0.038657171922685654,0.9926470588235294,0.06156901688182721
cowiki,5.0,0.03202479338842975,1.0,0.04679552390640895,0.9842436974789915,0.062062062062062065
cowiki,6.0,0.03230849400729546,1.0,0.055442522889114956,0.9753151260504201,0.06259464916708732
cowiki,7.0,0.03261441346659653,1.0,0.06459816887080366,0.9658613445378151,0.06316861946001019
cowiki,8.0,0.033084311632870865,1.0,0.07833163784333673,0.9516806722689075,0.0640495867768595
cowiki,9.0,0.03344120819848975,1.0,0.08850457782299084,0.9411764705882353,0.06471816283924843
cowiki,10.0,0.034009873834339004,1.0,0.10427263479145472,0.9248949579831933,0.06578249336870026
cowiki,11.0,0.03425042111173498,0.9838709677419355,0.12461851475076297,0.9033613445378151,0.06619641888225719
cowiki,12.0,0.034977064220183485,0.9838709677419355,0.14343845371312308,0.8839285714285714,0.06755260243632337
cowiki,13.0,0.035693387946167346,0.9838709677419355,0.1612410986775178,0.865546218487395,0.06888763410502541
cowiki,14.0,0.035992801439712056,0.967741935483871,0.18158697863682605,0.8440126050420168,0.06940427993059572
cowiki,15.0,0.037243947858473,0.967741935483871,0.2100712105798576,0.8146008403361344,0.07172743574417216
cowiki,16.0,0.03824091778202677,0.967741935483871,0.23143438453713122,0.7925420168067226,0.07357449417535254
cowiki,17.0,0.03903708523096942,0.967741935483871,0.24771108850457782,0.7757352941176471,0.075046904315197
cowiki,18.0,0.04008016032064128,0.967741935483871,0.26805696846388605,0.7547268907563025,0.07697241821680563
cowiki,19.0,0.04101161995898838,0.967741935483871,0.2853509664292981,0.7368697478991597,0.07868852459016394
cowiki,20.0,0.0422237860661506,0.967741935483871,0.30671414038657174,0.7148109243697479,0.08091706001348618
cowiki,21.0,0.043478260869565216,0.967741935483871,0.3275686673448627,0.6932773109243697,0.08321775312066573
cowiki,22.0,0.0450112528132033,0.967741935483871,0.3514750762970498,0.6685924369747899,0.08602150537634407
cowiki,23.0,0.046511627906976744,0.967741935483871,0.3733468972533062,0.6460084033613446,0.08875739644970414
cowiki,24.0,0.04656669297553275,0.9516129032258065,0.384028484231943,0.634453781512605,0.08878856282919488
cowiki,25.0,0.04872006606110652,0.9516129032258065,0.4125127161749746,0.6050420168067226,0.09269442262372349
cowiki,26.0,0.05042735042735043,0.9516129032258065,0.4333672431332655,0.5835084033613446,0.09577922077922078
cowiki,27.0,0.05179982440737489,0.9516129032258065,0.4491353001017294,0.5672268907563025,0.09825145711906744
cowiki,28.0,0.05339366515837104,0.9516129032258065,0.4664292980671414,0.5493697478991597,0.10111396743787489
cowiki,29.0,0.05498602050326188,0.9516129032258065,0.482706002034588,0.532563025210084,0.10396475770925108
cowiki,30.0,0.05534351145038168,0.9354838709677419,0.49440488301119023,0.5199579831932774,0.1045045045045045
cowiki,31.0,0.05714285714285714,0.9354838709677419,0.5111902339776195,0.5026260504201681,0.10770659238625811
cowiki,32.0,0.05829145728643216,0.9354838709677419,0.5213631739572736,0.49212184873949577,0.10974456007568589
cowiki,33.0,0.05973223480947477,0.9354838709677419,0.5335707019328586,0.4795168067226891,0.1122942884801549
cowiki,34.0,0.060988433228180865,0.9354838709677419,0.5437436419125127,0.4690126050420168,0.11451135241855874
cowiki,35.0,0.06168831168831169,0.9193548387096774,0.5564598168870803,0.45535714285714285,0.11561866125760649
cowiki,36.0,0.06340378197997776,0.9193548387096774,0.569175991861648,0.4422268907563025,0.11862643080124871
cowiki,37.0,0.06492027334851937,0.9193548387096774,0.5798575788402849,0.43119747899159666,0.12127659574468086
cowiki,38.0,0.06643356643356643,0.9193548387096774,0.590030518819939,0.4206932773109244,0.12391304347826086
cowiki,39.0,0.06777645659928656,0.9193548387096774,0.598677517802645,0.4117647058823529,0.12624584717607973
cowiki,40.0,0.06888068880688807,0.9032258064516129,0.6119023397761953,0.39758403361344535,0.128
cowiki,41.0,0.06918238993710692,0.8870967741935484,0.6200406917599186,0.38865546218487396,0.12835472578763127
cowiki,42.0,0.07115135834411385,0.8870967741935484,0.6312309257375381,0.37710084033613445,0.1317365269461078
cowiki,43.0,0.07255936675461741,0.8870967741935484,0.6388606307222787,0.3692226890756303,0.13414634146341461
cowiki,44.0,0.07372654155495978,0.8870967741935484,0.6449643947100712,0.3629201680672269,0.13613861386138612
cowiki,45.0,0.07544581618655692,0.8870967741935484,0.6536113936927772,0.3539915966386555,0.1390644753476612
cowiki,46.0,0.07746478873239436,0.8870967741935484,0.6632756866734486,0.3440126050420168,0.14248704663212433
cowiki,47.0,0.07971014492753623,0.8870967741935484,0.6734486266531028,0.3335084033613445,0.14627659574468085
cowiki,48.0,0.0787518573551263,0.8548387096774194,0.6800610376398779,0.32563025210084034,0.14421768707482993
cowiki,49.0,0.08054711246200608,0.8548387096774194,0.6876907426246185,0.3177521008403361,0.14722222222222223
cowiki,50.0,0.08062015503875969,0.8387096774193549,0.6932858596134283,0.3114495798319328,0.1471004243281471
cowiki,51.0,0.08133971291866028,0.8225806451612904,0.7014242115971516,0.3025210084033613,0.14804063860667632
cowiki,52.0,0.08346972176759411,0.8225806451612904,0.7095625635808749,0.29411764705882354,0.1515601783060921
cowiki,53.0,0.08514190317195326,0.8225806451612904,0.7156663275686673,0.28781512605042014,0.15431164901664146
cowiki,54.0,0.08703071672354949,0.8225806451612904,0.7222787385554426,0.2809873949579832,0.1574074074074074
cowiki,55.0,0.08994708994708994,0.8225806451612904,0.731943031536114,0.2710084033613445,0.16216216216216217
cowiki,56.0,0.09272727272727273,0.8225806451612904,0.7405900305188199,0.2620798319327731,0.16666666666666666
cowiki,57.0,0.09487666034155598,0.8064516129032258,0.7512716174974567,0.2505252100840336,0.16977928692699493
cowiki,58.0,0.09746588693957114,0.8064516129032258,0.7583926754832147,0.24317226890756302,0.17391304347826086
cowiki,59.0,0.1006036217303823,0.8064516129032258,0.7665310274669379,0.2347689075630252,0.1788908765652952
cowiki,60.0,0.102880658436214,0.8064516129032258,0.7721261444557477,0.22899159663865545,0.18248175182481755
cowiki,61.0,0.10638297872340426,0.8064516129032258,0.780264496439471,0.22058823529411764,0.1879699248120301
cowiki,62.0,0.10869565217391304,0.8064516129032258,0.785350966429298,0.21533613445378152,0.19157088122605365
cowiki,63.0,0.11085972850678733,0.7903225806451613,0.7934893184130214,0.20640756302521007,0.19444444444444442
cowiki,64.0,0.11212814645308924,0.7903225806451613,0.7960325534079349,0.20378151260504201,0.19639278557114231
cowiki,65.0,0.11583924349881797,0.7903225806451613,0.8031536113936928,0.19642857142857142,0.20206185567010307
cowiki,66.0,0.12009803921568628,0.7903225806451613,0.8107833163784334,0.18855042016806722,0.20851063829787234
cowiki,67.0,0.12151898734177215,0.7741935483870968,0.8163784333672431,0.18224789915966386,0.2100656455142232
cowiki,68.0,0.125,0.7741935483870968,0.8219735503560529,0.17647058823529413,0.21524663677130046
cowiki,69.0,0.13114754098360656,0.7741935483870968,0.8311291963377416,0.16701680672268907,0.22429906542056074
cowiki,70.0,0.13559322033898305,0.7741935483870968,0.8372329603255341,0.16071428571428573,0.23076923076923078
cowiki,71.0,0.13823529411764707,0.7580645161290323,0.8433367243133265,0.15388655462184875,0.2338308457711443
cowiki,72.0,0.14114114114114115,0.7580645161290323,0.8468972533062055,0.15021008403361344,0.2379746835443038
cowiki,73.0,0.14641744548286603,0.7580645161290323,0.853001017293998,0.14390756302521007,0.24543080939947778
cowiki,74.0,0.15181518151815182,0.7419354838709677,0.8611393692777213,0.13497899159663865,0.2520547945205479
cowiki,75.0,0.1618705035971223,0.7258064516129032,0.8728382502543235,0.12237394957983193,0.2647058823529412
cowiki,76.0,0.16791044776119404,0.7258064516129032,0.8779247202441506,0.1171218487394958,0.27272727272727276
cowiki,77.0,0.1685823754789272,0.7096774193548387,0.8804679552390641,0.11397058823529412,0.27244582043343657
cowiki,78.0,0.17959183673469387,0.7096774193548387,0.8886063072227874,0.1055672268907563,0.28664495114006516
cowiki,79.0,0.19457013574660634,0.6935483870967742,0.8997965412004069,0.0934873949579832,0.303886925795053
cowiki,80.0,0.2,0.6935483870967742,0.9028484231943031,0.09033613445378151,0.3104693140794224
cowiki,81.0,0.21212121212121213,0.6774193548387096,0.9104781281790437,0.0819327731092437,0.32307692307692304
cowiki,82.0,0.22043010752688172,0.6612903225806451,0.9155645981688708,0.07615546218487394,0.33064516129032256
cowiki,83.0,0.22727272727272727,0.6451612903225806,0.9196337741607324,0.07142857142857142,0.3361344537815126
cowiki,84.0,0.23684210526315788,0.5806451612903226,0.9277721261444557,0.06092436974789916,0.3364485981308411
cowiki,85.0,0.24087591240875914,0.532258064516129,0.9323499491353001,0.0546218487394958,0.3316582914572864
cowiki,86.0,0.25203252032520324,0.5,0.9374364191251272,0.04831932773109244,0.33513513513513515
cowiki,87.0,0.2702702702702703,0.4838709677419355,0.9425228891149542,0.04254201680672269,0.34682080924855496
cowiki,88.0,0.2857142857142857,0.45161290322580644,0.9471007121057986,0.03676470588235294,0.35000000000000003
cowiki,89.0,0.29411764705882354,0.4032258064516129,0.9506612410986776,0.031512605042016806,0.34013605442176875
cowiki,90.0,0.3484848484848485,0.3709677419354839,0.9582909460834181,0.022584033613445378,0.359375
cowiki,91.0,0.3877551020408163,0.3064516129032258,0.9628687690742624,0.015756302521008403,0.3423423423423424
cowiki,92.0,0.425,0.27419354838709675,0.965412004069176,0.01207983193277311,0.33333333333333326
cowiki,93.0,0.46875,0.24193548387096775,0.9674465920651069,0.008928571428571428,0.3191489361702127
cowiki,94.0,0.5,0.1774193548387097,0.9684638860630722,0.005777310924369748,0.2619047619047619
cowiki,95.0,0.5,0.0967741935483871,0.9684638860630722,0.0031512605042016808,0.16216216216216214
cowiki,96.0,0.5,0.08064516129032258,0.9684638860630722,0.0026260504201680674,0.13888888888888887
cowiki,97.0,0.625,0.08064516129032258,0.9694811800610377,0.0015756302521008404,0.14285714285714285
cowiki,98.0,0.625,0.08064516129032258,0.9694811800610377,0.0015756302521008404,0.14285714285714285
cowiki,99.0,0.5,0.016129032258064516,0.9684638860630722,0.0005252100840336134,0.03125
