wiki_db,threshold,precision,recall,accuracy,fpr,F1
fowiki,0.0,0.059269469331495524,1.0,0.059269469331495524,1.0,0.11190631099544568
fowiki,1.0,0.059269469331495524,1.0,0.059269469331495524,1.0,0.11190631099544568
fowiki,2.0,0.059269469331495524,1.0,0.059269469331495524,1.0,0.11190631099544568
fowiki,3.0,0.059269469331495524,1.0,0.059269469331495524,1.0,0.11190631099544568
fowiki,4.0,0.05931034482758621,1.0,0.05995864920744314,0.9992673992673993,0.11197916666666667
fowiki,5.0,0.05939226519337017,1.0,0.061337008959338385,0.9978021978021978,0.1121251629726206
fowiki,6.0,0.059474412171507604,1.0,0.06271536871123363,0.9963369963369964,0.11227154046997388
fowiki,7.0,0.059805285118219746,1.0,0.06822880771881461,0.9904761904761905,0.11286089238845143
fowiki,8.0,0.06013986013986014,1.0,0.0737422467263956,0.9846153846153847,0.11345646437994723
fowiki,9.0,0.060350877192982454,1.0,0.0771881461061337,0.9809523809523809,0.11383189940436797
fowiki,10.0,0.06056338028169014,1.0,0.08063404548587182,0.9772893772893773,0.11420982735723773
fowiki,11.0,0.06094968107725018,1.0,0.08683666436940041,0.9706959706959707,0.11489645958583836
fowiki,12.0,0.06116642958748222,1.0,0.09028256374913853,0.967032967032967,0.11528150134048255
fowiki,13.0,0.06138472519628837,1.0,0.09372846312887664,0.9633699633699634,0.11566913248150638
fowiki,14.0,0.06173725771715721,1.0,0.09924190213645762,0.9575091575091575,0.11629479377958078
fowiki,15.0,0.06209386281588448,1.0,0.10475534114403859,0.9516483516483516,0.11692726036709722
fowiki,16.0,0.06254545454545454,1.0,0.11164713990351481,0.9443223443223443,0.11772758384668036
fowiki,17.0,0.06309611151870873,1.0,0.11991729841488628,0.9355311355311355,0.11870255348516216
fowiki,18.0,0.06365655070318282,1.0,0.12818745692625774,0.9267399267399268,0.11969380654140571
fowiki,19.0,0.06413124533929904,1.0,0.13507925568573398,0.9194139194139194,0.12053258584442889
fowiki,20.0,0.06466165413533835,1.0,0.14266023432115782,0.9113553113553113,0.12146892655367232
fowiki,21.0,0.06510219530658592,1.0,0.14886285320468642,0.9047619047619048,0.12224591329068941
fowiki,22.0,0.06529992406985573,1.0,0.15161957270847692,0.9018315018315018,0.12259444048467569
fowiki,23.0,0.06590038314176246,1.0,0.15988973121984837,0.8930402930402931,0.12365204888569375
fowiki,24.0,0.06646058732612056,1.0,0.16747070985527224,0.884981684981685,0.1246376811594203
fowiki,25.0,0.06724003127443315,1.0,0.17780840799448655,0.873992673992674,0.126007326007326
fowiki,26.0,0.06761006289308176,1.0,0.18263266712611992,0.8688644688644689,0.12665684830633284
fowiki,27.0,0.06687898089171974,0.9767441860465116,0.1909028256374914,0.8586080586080586,0.12518628912071533
fowiki,28.0,0.06655974338412189,0.9651162790697675,0.19572708476912473,0.8527472527472527,0.12453113278319579
fowiki,29.0,0.06704361873990307,0.9651162790697675,0.20192970365265334,0.8461538461538461,0.1253776435045317
fowiki,30.0,0.06775510204081632,0.9651162790697675,0.21088904203997244,0.8366300366300367,0.12662090007627763
fowiki,31.0,0.06831275720164609,0.9651162790697675,0.21778084079944865,0.8293040293040294,0.12759415833973867
fowiki,32.0,0.06899418121363259,0.9651162790697675,0.22605099931082012,0.8205128205128205,0.1287820015515904
fowiki,33.0,0.07021996615905245,0.9651162790697675,0.2405237767057202,0.8051282051282052,0.13091482649842268
fowiki,34.0,0.07008547008547009,0.9534883720930233,0.2474155754651964,0.7970695970695971,0.1305732484076433
fowiki,35.0,0.07105719237435008,0.9534883720930233,0.2584424534803584,0.7853479853479853,0.13225806451612904
fowiki,36.0,0.07192982456140351,0.9534883720930233,0.26809097174362506,0.7750915750915751,0.133768352365416
fowiki,37.0,0.0726950354609929,0.9534883720930233,0.27636113025499653,0.7663003663003664,0.13509060955518945
fowiki,38.0,0.07321428571428572,0.9534883720930233,0.28187456926257753,0.7604395604395604,0.1359867330016584
fowiki,39.0,0.0739404869251578,0.9534883720930233,0.2894555478980014,0.7523809523809524,0.13723849372384936
fowiki,40.0,0.07474931631722881,0.9534883720930233,0.29772570640937285,0.7435897435897436,0.1386306001690617
fowiki,41.0,0.07543698252069918,0.9534883720930233,0.30461750516884906,0.7362637362637363,0.13981244671781756
fowiki,42.0,0.07591377694470477,0.9418604651162791,0.31702274293590627,0.7223443223443223,0.1405030355594102
fowiki,43.0,0.07677725118483412,0.9418604651162791,0.32529290144727774,0.7135531135531136,0.14198071866783524
fowiki,44.0,0.07758620689655173,0.9418604651162791,0.3328738800827016,0.7054945054945055,0.14336283185840706
fowiki,45.0,0.07833655705996131,0.9418604651162791,0.3397656788421778,0.6981684981684981,0.14464285714285713
fowiki,46.0,0.07820136852394917,0.9302325581395349,0.3459682977257064,0.6908424908424908,0.1442741208295762
fowiki,47.0,0.0791295746785361,0.9302325581395349,0.3542384562370779,0.6820512820512821,0.14585232452142205
fowiki,48.0,0.0796812749003984,0.9302325581395349,0.35906271536871126,0.676923076923077,0.14678899082568805
fowiki,49.0,0.08016032064128256,0.9302325581395349,0.36319779462439694,0.6725274725274726,0.14760147601476015
fowiki,50.0,0.08130081300813008,0.9302325581395349,0.3728463128876637,0.6622710622710622,0.14953271028037382
fowiki,51.0,0.08119218910585817,0.9186046511627907,0.37904893177119225,0.654945054945055,0.14919735599622283
fowiki,52.0,0.08127572016460906,0.9186046511627907,0.3797381116471399,0.6542124542124542,0.14933837429111532
fowiki,53.0,0.08169596690796277,0.9186046511627907,0.383184011026878,0.6505494505494506,0.15004748338081672
fowiki,54.0,0.08150470219435736,0.9069767441860465,0.388697450034459,0.643956043956044,0.14956855225311602
fowiki,55.0,0.0819327731092437,0.9069767441860465,0.3921433494141971,0.6402930402930402,0.15028901734104044
fowiki,56.0,0.0821917808219178,0.9069767441860465,0.39421088904204,0.638095238095238,0.1507246376811594
fowiki,57.0,0.0835117773019272,0.9069767441860465,0.4045485871812543,0.6271062271062271,0.15294117647058825
fowiki,58.0,0.08414239482200647,0.9069767441860465,0.4093728463128877,0.621978021978022,0.1539980256663376
fowiki,59.0,0.08533916849015317,0.9069767441860465,0.4183321847002068,0.6124542124542125,0.156
fowiki,60.0,0.08536585365853659,0.8953488372093024,0.425223983459683,0.6043956043956044,0.15587044534412958
fowiki,61.0,0.08710407239819004,0.8953488372093024,0.4376292212267402,0.5912087912087912,0.15876288659793814
fowiki,62.0,0.08830275229357798,0.8953488372093024,0.44589937973811167,0.5824175824175825,0.16075156576200417
fowiki,63.0,0.08941176470588236,0.8837209302325582,0.4596829772570641,0.567032967032967,0.1623931623931624
fowiki,64.0,0.09069212410501193,0.8837209302325582,0.46795313576843556,0.5582417582417583,0.1645021645021645
fowiki,65.0,0.09405940594059406,0.8837209302325582,0.48862853204686424,0.5362637362637362,0.17002237136465326
fowiki,66.0,0.09535759096612297,0.8837209302325582,0.4962095106822881,0.5282051282051282,0.17214043035107587
fowiki,67.0,0.09743589743589744,0.8837209302325582,0.5079255685733977,0.5157509157509158,0.17551963048498848
fowiki,68.0,0.09816753926701571,0.872093023255814,0.5175740868366644,0.5047619047619047,0.1764705882352941
fowiki,69.0,0.09986504723346828,0.8604651162790697,0.5320468642315644,0.48864468864468863,0.17896009673518742
fowiki,70.0,0.1008174386920981,0.8604651162790697,0.5368711233631978,0.4835164835164835,0.18048780487804877
fowiki,71.0,0.10335195530726257,0.8604651162790697,0.549276361130255,0.4703296703296703,0.18453865336658354
fowiki,72.0,0.10473457675753228,0.8488372093023255,0.5609924190213645,0.45714285714285713,0.18646232439335889
fowiki,73.0,0.10682492581602374,0.8372093023255814,0.5754651964162646,0.441025641025641,0.1894736842105263
fowiki,74.0,0.1085972850678733,0.8372093023255814,0.5830461750516885,0.432967032967033,0.1922563417890521
fowiki,75.0,0.1130298273155416,0.8372093023255814,0.6009648518263266,0.4139194139194139,0.19917012448132781
fowiki,76.0,0.11488673139158576,0.8255813953488372,0.6126809097174363,0.40073260073260075,0.20170454545454544
fowiki,77.0,0.11655405405405406,0.8023255813953488,0.627842866988284,0.3831501831501832,0.20353982300884957
fowiki,78.0,0.11524822695035461,0.7558139534883721,0.6416264645072364,0.36556776556776555,0.19999999999999998
fowiki,79.0,0.1200750469043152,0.7441860465116279,0.6616126809097175,0.3435897435897436,0.20678513731825524
fowiki,80.0,0.12673267326732673,0.7441860465116279,0.6809097174362508,0.3230769230769231,0.21658206429780036
fowiki,81.0,0.12836438923395446,0.7209302325581395,0.6933149552033081,0.30842490842490844,0.21792618629173993
fowiki,82.0,0.12938596491228072,0.686046511627907,0.7077877325982082,0.29084249084249086,0.21771217712177124
fowiki,83.0,0.13701923076923078,0.6627906976744186,0.7325982081323226,0.263003663003663,0.22709163346613548
fowiki,84.0,0.13917525773195877,0.627906976744186,0.7477601654031703,0.24468864468864468,0.2278481012658228
fowiki,85.0,0.12464589235127478,0.5116279069767442,0.7580978635423845,0.22637362637362637,0.20045558086560364
fowiki,86.0,0.1345565749235474,0.5116279069767442,0.7760165403170227,0.20732600732600734,0.21307506053268768
fowiki,87.0,0.1357142857142857,0.4418604651162791,0.8001378359751895,0.1772893772893773,0.20765027322404372
fowiki,88.0,0.14644351464435146,0.4069767441860465,0.8242591316333563,0.14945054945054945,0.21538461538461537
fowiki,89.0,0.14210526315789473,0.313953488372093,0.8470020675396278,0.11941391941391942,0.19565217391304346
fowiki,90.0,0.14814814814814814,0.27906976744186046,0.8621640248104755,0.1010989010989011,0.1935483870967742
fowiki,91.0,0.15833333333333333,0.22093023255813954,0.8842177808407995,0.073992673992674,0.1844660194174757
fowiki,92.0,0.14457831325301204,0.13953488372093023,0.9000689179875948,0.05201465201465202,0.14201183431952663
fowiki,93.0,0.08888888888888889,0.046511627906976744,0.9152308752584425,0.030036630036630037,0.06106870229007635
fowiki,94.0,0.04,0.011627906976744186,0.9248793935217091,0.017582417582417582,0.018018018018018018
fowiki,95.0,0.0,0.0,0.9303928325292902,0.01098901098901099,0.018018018018018018
fowiki,96.0,0.0,0.0,0.9359062715368711,0.005128205128205128,0.018018018018018018
fowiki,97.0,0.0,0.0,0.9372846312887664,0.003663003663003663,0.018018018018018018
fowiki,98.0,0.0,0.0,0.9393521709166093,0.0014652014652014652,0.018018018018018018
fowiki,99.0,0.0,0.0,0.9407305306685044,0.0,0.018018018018018018
