wiki_db,threshold,precision,recall,accuracy,fpr,F1
furwiki,0.0,0.06150341685649203,1.0,0.06150341685649203,1.0,0.11587982832618025
furwiki,1.0,0.06150341685649203,1.0,0.06150341685649203,1.0,0.11587982832618025
furwiki,2.0,0.06150341685649203,1.0,0.06150341685649203,1.0,0.11587982832618025
furwiki,3.0,0.06150341685649203,1.0,0.06150341685649203,1.0,0.11587982832618025
furwiki,4.0,0.06150341685649203,1.0,0.06150341685649203,1.0,0.11587982832618025
furwiki,5.0,0.06150341685649203,1.0,0.06150341685649203,1.0,0.11587982832618025
furwiki,6.0,0.06150341685649203,1.0,0.06150341685649203,1.0,0.11587982832618025
furwiki,7.0,0.06221198156682028,1.0,0.07289293849658314,0.9878640776699029,0.11713665943600868
furwiki,8.0,0.06235565819861432,1.0,0.07517084282460136,0.9854368932038835,0.1173913043478261
furwiki,9.0,0.06264501160092807,1.0,0.07972665148063782,0.9805825242718447,0.11790393013100436
furwiki,10.0,0.06293706293706294,1.0,0.08428246013667426,0.9757281553398058,0.11842105263157895
furwiki,11.0,0.06367924528301887,1.0,0.09567198177676538,0.9635922330097088,0.1197339246119734
furwiki,12.0,0.0645933014354067,1.0,0.10933940774487472,0.9490291262135923,0.12134831460674157
furwiki,13.0,0.06474820143884892,1.0,0.11161731207289294,0.9466019417475728,0.12162162162162161
furwiki,14.0,0.06521739130434782,1.0,0.11845102505694761,0.9393203883495146,0.12244897959183672
furwiki,15.0,0.06521739130434782,1.0,0.11845102505694761,0.9393203883495146,0.12244897959183672
furwiki,16.0,0.06553398058252427,1.0,0.12300683371298406,0.9344660194174758,0.12300683371298404
furwiki,17.0,0.0661764705882353,1.0,0.13211845102505695,0.9247572815533981,0.12413793103448276
furwiki,18.0,0.06451612903225806,0.9629629629629629,0.13895216400911162,0.9150485436893204,0.12093023255813952
furwiki,19.0,0.06516290726817042,0.9629629629629629,0.1480637813211845,0.9053398058252428,0.12206572769953052
furwiki,20.0,0.06582278481012659,0.9629629629629629,0.1571753986332574,0.8956310679611651,0.12322274881516589
furwiki,21.0,0.06666666666666667,0.9629629629629629,0.16856492027334852,0.883495145631068,0.12470023980815345
furwiki,22.0,0.06753246753246753,0.9629629629629629,0.17995444191343962,0.8713592233009708,0.1262135922330097
furwiki,23.0,0.06824146981627296,0.9629629629629629,0.18906605922551253,0.8616504854368932,0.12745098039215688
furwiki,24.0,0.06842105263157895,0.9629629629629629,0.19134396355353075,0.8592233009708737,0.12776412776412777
furwiki,25.0,0.06933333333333333,0.9629629629629629,0.20273348519362186,0.8470873786407767,0.12935323383084577
furwiki,26.0,0.06989247311827956,0.9629629629629629,0.20956719817767655,0.8398058252427184,0.13032581453634082
furwiki,27.0,0.07123287671232877,0.9629629629629629,0.2255125284738041,0.8228155339805825,0.13265306122448978
furwiki,28.0,0.07262569832402235,0.9629629629629629,0.24145785876993167,0.8058252427184466,0.13506493506493508
furwiki,29.0,0.07282913165266107,0.9629629629629629,0.2437357630979499,0.8033980582524272,0.13541666666666666
furwiki,30.0,0.07407407407407407,0.9629629629629629,0.25740318906605925,0.7888349514563107,0.13756613756613756
furwiki,31.0,0.07514450867052024,0.9629629629629629,0.26879271070615035,0.7766990291262136,0.13941018766756036
furwiki,32.0,0.07624633431085044,0.9629629629629629,0.28018223234624146,0.7645631067961165,0.14130434782608697
furwiki,33.0,0.07854984894259819,0.9629629629629629,0.30296127562642367,0.7402912621359223,0.1452513966480447
furwiki,34.0,0.08125,0.9629629629629629,0.32801822323462415,0.7135922330097088,0.14985590778097985
furwiki,35.0,0.08387096774193549,0.9629629629629629,0.35079726651480636,0.6893203883495146,0.1543026706231454
furwiki,36.0,0.08637873754152824,0.9629629629629629,0.3712984054669704,0.6674757281553398,0.15853658536585366
furwiki,37.0,0.08873720136518772,0.9629629629629629,0.3895216400911162,0.6480582524271845,0.16249999999999998
furwiki,38.0,0.09219858156028368,0.9629629629629629,0.4145785876993166,0.6213592233009708,0.16828478964401294
furwiki,39.0,0.09386281588447654,0.9629629629629629,0.42596810933940776,0.6092233009708737,0.17105263157894737
furwiki,40.0,0.09420289855072464,0.9629629629629629,0.428246013667426,0.6067961165048543,0.1716171617161716
furwiki,41.0,0.09558823529411764,0.9629629629629629,0.43735763097949887,0.5970873786407767,0.17391304347826086
furwiki,42.0,0.09811320754716982,0.9629629629629629,0.4533029612756264,0.5800970873786407,0.1780821917808219
furwiki,43.0,0.09885931558935361,0.9629629629629629,0.45785876993166286,0.5752427184466019,0.1793103448275862
furwiki,44.0,0.10196078431372549,0.9629629629629629,0.4760820045558087,0.5558252427184466,0.1843971631205674
furwiki,45.0,0.10358565737051793,0.9629629629629629,0.48519362186788156,0.5461165048543689,0.18705035971223022
furwiki,46.0,0.10655737704918032,0.9629629629629629,0.5011389521640092,0.529126213592233,0.1918819188191882
furwiki,47.0,0.11063829787234042,0.9629629629629629,0.5216400911161732,0.5072815533980582,0.19847328244274806
furwiki,48.0,0.11304347826086956,0.9629629629629629,0.5330296127562643,0.49514563106796117,0.20233463035019456
furwiki,49.0,0.11607142857142858,0.9629629629629629,0.5466970387243736,0.48058252427184467,0.2071713147410359
furwiki,50.0,0.11818181818181818,0.9629629629629629,0.5558086560364465,0.470873786407767,0.21052631578947367
furwiki,51.0,0.1179245283018868,0.9259259259259259,0.5694760820045558,0.4538834951456311,0.2092050209205021
furwiki,52.0,0.12254901960784313,0.9259259259259259,0.5876993166287016,0.4344660194174757,0.21645021645021648
furwiki,53.0,0.12690355329949238,0.9259259259259259,0.6036446469248291,0.4174757281553398,0.2232142857142857
furwiki,54.0,0.1276595744680851,0.8888888888888888,0.6195899772209568,0.39805825242718446,0.22325581395348837
furwiki,55.0,0.1270718232044199,0.8518518518518519,0.6309794988610479,0.38349514563106796,0.22115384615384617
furwiki,56.0,0.13372093023255813,0.8518518518518519,0.6514806378132119,0.3616504854368932,0.23115577889447234
furwiki,57.0,0.1377245508982036,0.8518518518518519,0.662870159453303,0.34951456310679613,0.2371134020618557
furwiki,58.0,0.1419753086419753,0.8518518518518519,0.6742596810933941,0.33737864077669905,0.24338624338624337
furwiki,59.0,0.14743589743589744,0.8518518518518519,0.6879271070615034,0.32281553398058255,0.25136612021857924
furwiki,60.0,0.152317880794702,0.8518518518518519,0.6993166287015945,0.3106796116504854,0.25842696629213485
furwiki,61.0,0.1564625850340136,0.8518518518518519,0.7084282460136674,0.30097087378640774,0.2643678160919541
furwiki,62.0,0.1619718309859155,0.8518518518518519,0.7198177676537585,0.28883495145631066,0.27218934911242604
furwiki,63.0,0.17164179104477612,0.8518518518518519,0.7380410022779044,0.26941747572815533,0.28571428571428575
furwiki,64.0,0.17557251908396945,0.8518518518518519,0.744874715261959,0.2621359223300971,0.29113924050632906
furwiki,65.0,0.18253968253968253,0.8518518518518519,0.7562642369020501,0.25,0.30065359477124176
furwiki,66.0,0.19008264462809918,0.8518518518518519,0.7676537585421412,0.23786407766990292,0.31081081081081086
furwiki,67.0,0.19166666666666668,0.8518518518518519,0.7699316628701595,0.2354368932038835,0.3129251700680272
furwiki,68.0,0.19130434782608696,0.8148148148148148,0.7767653758542141,0.22572815533980584,0.3098591549295775
furwiki,69.0,0.17272727272727273,0.7037037037037037,0.7744874715261959,0.220873786407767,0.2773722627737226
furwiki,70.0,0.18095238095238095,0.7037037037037037,0.785876993166287,0.2087378640776699,0.2878787878787879
furwiki,71.0,0.18446601941747573,0.7037037037037037,0.7904328018223234,0.20388349514563106,0.29230769230769227
furwiki,72.0,0.18,0.6666666666666666,0.7927107061503417,0.19902912621359223,0.28346456692913385
furwiki,73.0,0.17346938775510204,0.6296296296296297,0.7927107061503417,0.1966019417475728,0.272
furwiki,74.0,0.1827956989247312,0.6296296296296297,0.8041002277904328,0.18446601941747573,0.2833333333333333
furwiki,75.0,0.18478260869565216,0.6296296296296297,0.806378132118451,0.1820388349514563,0.28571428571428564
furwiki,76.0,0.1797752808988764,0.5925925925925926,0.8086560364464692,0.17718446601941748,0.27586206896551724
furwiki,77.0,0.18181818181818182,0.5925925925925926,0.8109339407744874,0.17475728155339806,0.2782608695652174
furwiki,78.0,0.18823529411764706,0.5925925925925926,0.8177676537585421,0.16747572815533981,0.2857142857142857
furwiki,79.0,0.19230769230769232,0.5555555555555556,0.8291571753986332,0.1529126213592233,0.28571428571428575
furwiki,80.0,0.20270270270270271,0.5555555555555556,0.8382687927107062,0.14320388349514562,0.29702970297029707
furwiki,81.0,0.2028985507246377,0.5185185185185185,0.8451025056947609,0.13349514563106796,0.2916666666666667
furwiki,82.0,0.19696969696969696,0.48148148148148145,0.8473804100227791,0.12864077669902912,0.27956989247311825
furwiki,83.0,0.19696969696969696,0.48148148148148145,0.8473804100227791,0.12864077669902912,0.27956989247311825
furwiki,84.0,0.19672131147540983,0.4444444444444444,0.8542141230068337,0.11893203883495146,0.27272727272727276
furwiki,85.0,0.17857142857142858,0.37037037037037035,0.856492027334852,0.11165048543689321,0.24096385542168672
furwiki,86.0,0.18867924528301888,0.37037037037037035,0.8633257403189066,0.10436893203883495,0.25
furwiki,87.0,0.19230769230769232,0.37037037037037035,0.8656036446469249,0.10194174757281553,0.25316455696202533
furwiki,88.0,0.17777777777777778,0.2962962962962963,0.8724373576309795,0.08980582524271845,0.2222222222222222
furwiki,89.0,0.19047619047619047,0.2962962962962963,0.8792710706150342,0.0825242718446602,0.2318840579710145
furwiki,90.0,0.17142857142857143,0.2222222222222222,0.8861047835990888,0.0703883495145631,0.1935483870967742
furwiki,91.0,0.1935483870967742,0.2222222222222222,0.8952164009111617,0.06067961165048544,0.20689655172413793
furwiki,92.0,0.20689655172413793,0.2222222222222222,0.8997722095671982,0.055825242718446605,0.2142857142857143
furwiki,93.0,0.23076923076923078,0.2222222222222222,0.9066059225512528,0.04854368932038835,0.22641509433962265
furwiki,94.0,0.2727272727272727,0.2222222222222222,0.9157175398633257,0.038834951456310676,0.24489795918367346
furwiki,95.0,0.35714285714285715,0.18518518518518517,0.929384965831435,0.021844660194174758,0.24390243902439024
furwiki,96.0,0.45454545454545453,0.18518518518518517,0.9362186788154897,0.014563106796116505,0.2631578947368421
furwiki,97.0,0.5714285714285714,0.14814814814814814,0.9407744874715261,0.007281553398058253,0.23529411764705882
furwiki,98.0,0.6,0.1111111111111111,0.9407744874715261,0.0048543689320388345,0.18750000000000003
furwiki,99.0,1.0,0.037037037037037035,0.9407744874715261,0.0,0.07142857142857142
