wiki_db,threshold,precision,recall,accuracy,fpr,F1
gdwiki,0.0,0.014216867469879518,1.0,0.014216867469879518,1.0,0.028035162746495607
gdwiki,1.0,0.01425465088185552,1.0,0.016867469879518072,0.9973111708628697,0.0281086231538828
gdwiki,2.0,0.014698555057299452,1.0,0.046987951807228916,0.966756294304571,0.028971274245028232
gdwiki,3.0,0.015316718587746626,1.0,0.08602409638554216,0.9271571742850159,0.030171311684991056
gdwiki,4.0,0.015806988352745424,0.9661016949152542,0.14433734939759035,0.8675140552432168,0.031105047748976808
gdwiki,5.0,0.016642335766423356,0.9661016949152542,0.18795180722891566,0.8232705939868002,0.03272101033295063
gdwiki,6.0,0.017423771001866834,0.9491525423728814,0.2383132530120482,0.7719384013688585,0.03421937060800489
gdwiki,7.0,0.018456375838926176,0.9322033898305084,0.2942168674698795,0.7149841114641897,0.0361961171437973
gdwiki,8.0,0.019700839109813937,0.9152542372881356,0.35132530120481925,0.6568076264971889,0.038571428571428576
gdwiki,9.0,0.02066772655007949,0.8813559322033898,0.404578313253012,0.6022977267171841,0.0403883495145631
gdwiki,10.0,0.02148272957034541,0.864406779661017,0.4383132530120482,0.5678318259594232,0.04192355117139335
gdwiki,11.0,0.022586359610274578,0.864406779661017,0.46626506024096387,0.539476900513322,0.0440224428139836
gdwiki,12.0,0.023665893271461718,0.864406779661017,0.4910843373493976,0.5142996822292838,0.04607046070460705
gdwiki,13.0,0.02484169508037019,0.864406779661017,0.5156626506024097,0.48936690295771207,0.04829545454545455
gdwiki,14.0,0.026007139214686385,0.864406779661017,0.5378313253012048,0.4668785138108042,0.0504950495049505
gdwiki,15.0,0.02682403433476395,0.847457627118644,0.5607228915662651,0.44341236861403077,0.052002080083203325
gdwiki,16.0,0.028042624789680313,0.847457627118644,0.5802409638554217,0.42361280860425327,0.054288816503800214
gdwiki,17.0,0.028901734104046242,0.847457627118644,0.5930120481927711,0.41065754094353457,0.05589714924538848
gdwiki,18.0,0.03003003003003003,0.847457627118644,0.6086746987951808,0.3947690051332193,0.0580046403712297
gdwiki,19.0,0.030472636815920398,0.8305084745762712,0.6219277108433735,0.38108042043510143,0.05878824235152969
gdwiki,20.0,0.03157216494845361,0.8305084745762712,0.635421686746988,0.36739183573698364,0.06083178150217256
gdwiki,21.0,0.03268845897264843,0.8305084745762712,0.6481927710843374,0.35443656807626495,0.06290115532734275
gdwiki,22.0,0.0338865836791148,0.8305084745762712,0.6609638554216868,0.3414813004155463,0.06511627906976744
gdwiki,23.0,0.03512544802867384,0.8305084745762712,0.6732530120481928,0.32901491077976047,0.0674002751031637
gdwiki,24.0,0.0362962962962963,0.8305084745762712,0.6840963855421687,0.31801515521877294,0.0695528743789922
gdwiki,25.0,0.03798449612403101,0.8305084745762712,0.6985542168674699,0.30334881447078954,0.072646404744255
gdwiki,26.0,0.03899268887083672,0.8135593220338984,0.712289156626506,0.28917135174773895,0.07441860465116279
gdwiki,27.0,0.0410958904109589,0.8135593220338984,0.7274698795180723,0.2737716939623564,0.07823960880195599
gdwiki,28.0,0.043478260869565216,0.8135593220338984,0.7428915662650603,0.25812759716450745,0.0825451418744626
gdwiki,29.0,0.046511627906976744,0.8135593220338984,0.7602409638554217,0.2405279882669274,0.08799266727772687
gdwiki,30.0,0.05005213764337852,0.8135593220338984,0.7778313253012048,0.22268394035688097,0.09430255402750491
gdwiki,31.0,0.05436013590033975,0.8135593220338984,0.796144578313253,0.20410657540943536,0.10191082802547771
gdwiki,32.0,0.059332509270704575,0.8135593220338984,0.8139759036144578,0.1860180884869225,0.11059907834101383
gdwiki,33.0,0.06357615894039735,0.8135593220338984,0.826987951807229,0.17281838181373746,0.11793611793611793
gdwiki,34.0,0.06876790830945559,0.8135593220338984,0.840722891566265,0.15888535810315327,0.12681638044914137
gdwiki,35.0,0.07465007776049767,0.8135593220338984,0.8539759036144579,0.14544121241750183,0.13675213675213677
gdwiki,36.0,0.07939189189189189,0.7966101694915254,0.8657831325301205,0.13321926179418236,0.1443932411674347
gdwiki,37.0,0.08768656716417911,0.7966101694915254,0.879277108433735,0.11953067709606453,0.15798319327731095
gdwiki,38.0,0.09437751004016064,0.7966101694915254,0.8884337349397591,0.11024199462234173,0.1687612208258528
gdwiki,39.0,0.10042735042735043,0.7966101694915254,0.8956626506024097,0.10290882424835003,0.17836812144212527
gdwiki,40.0,0.1087962962962963,0.7966101694915254,0.9043373493975904,0.09410901979956,0.1914460285132383
gdwiki,41.0,0.11519607843137254,0.7966101694915254,0.9101204819277109,0.08824248350036666,0.20128479657387577
gdwiki,42.0,0.12051282051282051,0.7966101694915254,0.9144578313253012,0.08384258127597165,0.20935412026726058
gdwiki,43.0,0.12668463611859837,0.7966101694915254,0.9190361445783133,0.07919824003911025,0.21860465116279068
gdwiki,44.0,0.13202247191011235,0.7966101694915254,0.9226506024096386,0.0755316548521144,0.22650602409638554
gdwiki,45.0,0.1390532544378698,0.7966101694915254,0.9269879518072289,0.07113175262771938,0.23677581863979846
gdwiki,46.0,0.1437308868501529,0.7966101694915254,0.9296385542168675,0.0684429234905891,0.24352331606217614
gdwiki,47.0,0.1492063492063492,0.7966101694915254,0.9325301204819277,0.06550965534099243,0.25133689839572193
gdwiki,48.0,0.1540983606557377,0.7966101694915254,0.9349397590361446,0.06306526521632852,0.2582417582417582
gdwiki,49.0,0.16151202749140894,0.7966101694915254,0.9383132530120482,0.05964311904179907,0.26857142857142857
gdwiki,50.0,0.16607773851590105,0.7966101694915254,0.9402409638554217,0.057687606942067954,0.27485380116959063
gdwiki,51.0,0.17028985507246377,0.7966101694915254,0.9419277108433735,0.05597653385480322,0.28059701492537314
gdwiki,52.0,0.1760299625468165,0.7966101694915254,0.9440963855421687,0.05377658274260572,0.2883435582822086
gdwiki,53.0,0.1828793774319066,0.7966101694915254,0.9465060240963855,0.05133219261794182,0.2974683544303797
gdwiki,54.0,0.1934156378600823,0.7966101694915254,0.9498795180722892,0.04791004644341237,0.3112582781456954
gdwiki,55.0,0.2,0.7966101694915254,0.9518072289156626,0.04595453434368125,0.3197278911564626
gdwiki,56.0,0.20346320346320346,0.7966101694915254,0.9527710843373494,0.044976778293815696,0.32413793103448274
gdwiki,57.0,0.20614035087719298,0.7966101694915254,0.9534939759036145,0.044243461256416525,0.3275261324041812
gdwiki,58.0,0.21171171171171171,0.7966101694915254,0.9549397590361446,0.04277682718161819,0.3345195729537367
gdwiki,59.0,0.21559633027522937,0.7966101694915254,0.9559036144578313,0.04179907113175263,0.3393501805054152
gdwiki,60.0,0.21962616822429906,0.7966101694915254,0.9568674698795181,0.04082131508188707,0.3443223443223443
gdwiki,61.0,0.22705314009661837,0.7966101694915254,0.9585542168674699,0.03911024199462234,0.3533834586466166
gdwiki,62.0,0.2315270935960591,0.7966101694915254,0.9595180722891566,0.03813248594475678,0.3587786259541985
gdwiki,63.0,0.23737373737373738,0.7966101694915254,0.9607228915662651,0.03691029088242483,0.3657587548638132
gdwiki,64.0,0.24102564102564103,0.7966101694915254,0.9614457831325302,0.03617697384502567,0.3700787401574803
gdwiki,65.0,0.24607329842931938,0.7966101694915254,0.9624096385542169,0.03519921779516011,0.37600000000000006
gdwiki,66.0,0.25,0.7966101694915254,0.9631325301204819,0.03446590075776094,0.3805668016194332
gdwiki,67.0,0.2596685082872928,0.7966101694915254,0.9648192771084337,0.032754827670496214,0.39166666666666666
gdwiki,68.0,0.2598870056497175,0.7796610169491526,0.9653012048192771,0.03202151063309704,0.3898305084745763
gdwiki,69.0,0.26900584795321636,0.7796610169491526,0.9667469879518072,0.030554876558298704,0.4
gdwiki,70.0,0.27380952380952384,0.7796610169491526,0.9674698795180723,0.029821559520899536,0.40528634361233484
gdwiki,71.0,0.2857142857142857,0.7796610169491526,0.9691566265060241,0.02811048643363481,0.41818181818181815
gdwiki,72.0,0.2922077922077922,0.7627118644067796,0.9703614457831325,0.02664385235883647,0.4225352112676057
gdwiki,73.0,0.3125,0.7627118644067796,0.9727710843373494,0.024199462234172575,0.44334975369458124
gdwiki,74.0,0.3191489361702128,0.7627118644067796,0.9734939759036144,0.023466145196773404,0.44999999999999996
gdwiki,75.0,0.32142857142857145,0.7627118644067796,0.9737349397590361,0.023221706184307016,0.45226130653266333
gdwiki,76.0,0.32116788321167883,0.7457627118644068,0.9739759036144578,0.022732828159374236,0.44897959183673464
gdwiki,77.0,0.3233082706766917,0.7288135593220338,0.9744578313253012,0.02199951112197507,0.44791666666666663
gdwiki,78.0,0.3359375,0.7288135593220338,0.9756626506024096,0.020777316059643117,0.4598930481283423
gdwiki,79.0,0.3474576271186441,0.6949152542372882,0.9771084337349397,0.018821803959912002,0.4632768361581921
gdwiki,80.0,0.34782608695652173,0.6779661016949152,0.9773493975903614,0.018332925934979222,0.45977011494252873
gdwiki,81.0,0.34234234234234234,0.6440677966101694,0.9773493975903614,0.017844047910046443,0.4470588235294118
gdwiki,82.0,0.3364485981308411,0.6101694915254238,0.9773493975903614,0.017355169885113663,0.43373493975903615
gdwiki,83.0,0.3333333333333333,0.559322033898305,0.9778313253012049,0.016132974822781716,0.4177215189873417
gdwiki,84.0,0.336734693877551,0.559322033898305,0.9780722891566265,0.015888535810315327,0.42038216560509556
gdwiki,85.0,0.3473684210526316,0.559322033898305,0.9787951807228915,0.015155218772916158,0.42857142857142855
gdwiki,86.0,0.37209302325581395,0.5423728813559322,0.9804819277108434,0.013199706673185041,0.4413793103448276
gdwiki,87.0,0.37349397590361444,0.5254237288135594,0.980722891566265,0.012710828648252261,0.43661971830985913
gdwiki,88.0,0.379746835443038,0.5084745762711864,0.9812048192771085,0.011977511610853092,0.4347826086956522
gdwiki,89.0,0.39473684210526316,0.5084745762711864,0.9819277108433735,0.011244194573453924,0.4444444444444444
gdwiki,90.0,0.42028985507246375,0.4915254237288136,0.983132530120482,0.009777560498655585,0.45312499999999994
gdwiki,91.0,0.45,0.4576271186440678,0.9843373493975903,0.008066487411390858,0.45378151260504196
gdwiki,92.0,0.43859649122807015,0.423728813559322,0.9840963855421687,0.007822048398924468,0.43103448275862066
gdwiki,93.0,0.5,0.423728813559322,0.9857831325301205,0.006110975311659741,0.4587155963302752
gdwiki,94.0,0.5952380952380952,0.423728813559322,0.987710843373494,0.004155463211928624,0.49504950495049505
gdwiki,95.0,0.6060606060606061,0.3389830508474576,0.9874698795180723,0.0031777071620630653,0.43478260869565216
gdwiki,96.0,0.6666666666666666,0.2711864406779661,0.987710843373494,0.001955512099731117,0.38554216867469876
gdwiki,97.0,0.7777777777777778,0.23728813559322035,0.9881927710843373,0.0009777560498655585,0.3636363636363637
gdwiki,98.0,0.7272727272727273,0.13559322033898305,0.9869879518072289,0.0007333170373991689,0.2285714285714286
gdwiki,99.0,1.0,0.11864406779661017,0.9874698795180723,0.0,0.21212121212121215
