wiki_db,threshold,precision,recall,accuracy,fpr,F1
hewiki,0.0,0.09162802856960497,1.0,0.09162802856960497,1.0,0.16787408562542702
hewiki,1.0,0.09167405131668382,0.9999809156663295,0.09214563189135926,0.999428260670783,0.16795105514309638
hewiki,2.0,0.09309579808021483,0.999026698982805,0.10817384826703436,0.9816870160308393,0.17032006591817328
hewiki,3.0,0.09516747532328794,0.9962690127674192,0.13172829672659617,0.9554784466785698,0.17373875204366476
hewiki,4.0,0.09795541856053996,0.9909921945075287,0.16299783253609015,0.9205224580941059,0.17828783320386432
hewiki,5.0,0.10134057346209319,0.9869367736025497,0.19688598650209446,0.8828069128482533,0.18380744371364643
hewiki,6.0,0.10507149545770762,0.9829004370312411,0.23135207255539536,0.8444570642051716,0.18984831450319775
hewiki,7.0,0.10895290099488482,0.9786350884558865,0.2646928959818419,0.8073228835297684,0.19607633209796646
hewiki,8.0,0.11283162865103617,0.9745414988835664,0.29555936569111846,0.7729299715574122,0.20224723551218274
hewiki,9.0,0.11668076228814969,0.970237981640871,0.32425749716061353,0.740902943880031,0.2083101573711852
hewiki,10.0,0.1205123383918201,0.9663066089047501,0.3507505685330405,0.7113409404823209,0.21429856248320286
hewiki,11.0,0.12460793369325227,0.9628905131777324,0.3767846166893847,0.6823362385519787,0.22066017209521
hewiki,12.0,0.12907889195879255,0.9593503692818566,0.4031736427994995,0.6529282390139903,0.22754236233232167
hewiki,13.0,0.13382289451489202,0.9553617435447241,0.4293152335378974,0.6237473951690914,0.23476143412693107
hewiki,14.0,0.1387500434737245,0.9517070936468254,0.4542878451526711,0.5958871344213065,0.24219090530497572
hewiki,15.0,0.14366904496577276,0.9472604439016011,0.4778274300033312,0.5695245612093153,0.2494973409335384
hewiki,16.0,0.14852452755864076,0.9426229508196722,0.4995886277653963,0.5451005115815715,0.2566154093936021
hewiki,17.0,0.15332652090142515,0.9378041565678734,0.5197978898921339,0.5223666543142738,0.2635619208268357
hewiki,18.0,0.15805123661199358,0.9327372659783584,0.5385601359757916,0.5012007488437679,0.27030038907062726
hewiki,19.0,0.16284923358269318,0.9278993873928891,0.5563273945929688,0.4811532964044911,0.2770715473261465
hewiki,20.0,0.16758161779995842,0.9228038703028684,0.5729230510967157,0.46236963813905585,0.28365191427205455
hewiki,21.0,0.17237182440171575,0.9176129315444951,0.588752794577056,0.44441952576436444,0.2902253710284675
hewiki,22.0,0.1770717157307742,0.9120212217790415,0.6035683153323372,0.4275455153594787,0.2965645207332663
hewiki,23.0,0.18187803220960164,0.9068302830206684,0.6177036073978804,0.41146077473566683,0.3029875038457676
hewiki,24.0,0.1867159327794189,0.9016965972633065,0.631119325926593,0.3961739666100382,0.3093700533481314
hewiki,25.0,0.19167469034058457,0.8966010801732858,0.6440690265997396,0.38140403393860056,0.31583122413926396
hewiki,26.0,0.19660126205149692,0.8909902860741618,0.6563962043588845,0.36726744214026863,0.3221242662646467
hewiki,27.0,0.2015044063200709,0.8849596366342869,0.6681375810613142,0.353733390443098,0.32826353960562504
hewiki,28.0,0.2064794380902237,0.8793965533693391,0.6792826647478039,0.340902943880031,0.3344347008798239
hewiki,29.0,0.21159353348729792,0.8742533254451421,0.6899993267659498,0.3285864851987853,0.34072272488927074
hewiki,30.0,0.21663491307454155,0.8680032061680566,0.7003076767042657,0.31660787248480415,0.34673278724142265
hewiki,31.0,0.22188185741005287,0.8625737132388023,0.71023656745062,0.30512977231491867,0.35296873901804743
hewiki,32.0,0.22704924455948858,0.8570774251417012,0.7195543015721326,0.2943177388383296,0.35899639284964874
hewiki,33.0,0.2324235378659078,0.8518196912154812,0.7286613221792149,0.283761736778528,0.3652002446423129
hewiki,34.0,0.23760824366613795,0.8462279814500276,0.7371204643041689,0.27388527674974855,0.3710352906721336
hewiki,35.0,0.2428593480382158,0.840712609019256,0.7452464867237371,0.2643832386049175,0.3768552974891997
hewiki,36.0,0.24819229297467368,0.8355216702608829,0.7530271488188239,0.25529412330896545,0.38270253259993053
hewiki,37.0,0.2532791013879224,0.8300921773316284,0.7601914083094569,0.2468595244168307,0.38813102188234083
hewiki,38.0,0.2585202041798864,0.8249394072405962,0.7671615665544318,0.23866651907963443,0.39367135008617765
hewiki,39.0,0.26375468621906173,0.8196912154812115,0.7738257093220183,0.23080077194434687,0.3990921909372408
hewiki,40.0,0.26883877041463716,0.8147483730605546,0.7799897353665585,0.22351638937950882,0.40427934592957876
hewiki,41.0,0.2738977470789491,0.809738735472051,0.7858765988215781,0.21653038929288165,0.4093358223714359
hewiki,42.0,0.27884303859403203,0.8048340617187351,0.7913936207139254,0.20996212467574968,0.41418680023571003
hewiki,43.0,0.2837067816224191,0.8000629783011126,0.7965941351696594,0.2037557691289638,0.4188773318145939
hewiki,44.0,0.2884467665478703,0.7954731960533598,0.8014571582703306,0.19793923585209855,0.42337382683947505
hewiki,45.0,0.29322029102381814,0.7910551728086413,0.8061418180641811,0.1923363829305972,0.42784962995840264
hewiki,46.0,0.29790602600388216,0.7864272218935476,0.8106052723843764,0.1869558730815691,0.43212067668285936
hewiki,47.0,0.30254337393872277,0.7820664516498407,0.8148344062818857,0.1818602703730262,0.43630256216429153
hewiki,48.0,0.30715570454108393,0.7772858260653829,0.8189411339884396,0.1768570699803164,0.44031470355325286
hewiki,49.0,0.31149804609372594,0.7727914654859825,0.8226718998227733,0.17229663068430653,0.4440198470352806
hewiki,50.0,0.31576491256965605,0.7683448157407584,0.8262190563706739,0.16794313407479775,0.44758630465173804
hewiki,51.0,0.32003165859878724,0.763964961163381,0.8296429323976837,0.16373209103553157,0.451095453943606
hewiki,52.0,0.32445534390327363,0.7599954197599191,0.8330187202782467,0.15961537536034498,0.45476398476621155
hewiki,53.0,0.32869765686872077,0.7564361915303727,0.8361287118584495,0.15583265555592987,0.45826384292325073
hewiki,54.0,0.33289585293906643,0.7527242886314625,0.8391294121967278,0.1521548508809502,0.4616325443804296
hewiki,55.0,0.33690817605742646,0.748812000229012,0.8419438802587667,0.1486618508376366,0.46472542505374237
hewiki,56.0,0.34080319987424074,0.7447374949903625,0.8446202041910131,0.14530456669570282,0.4676175155104597
hewiki,57.0,0.345052835521112,0.7409492547567702,0.8473979503957655,0.14186450547916857,0.47084005384494115
hewiki,58.0,0.34923412181712965,0.737084677188496,0.8500594107191102,0.13854475977804193,0.4739218729868522
hewiki,59.0,0.3535208999516897,0.7331819309528808,0.8527007614539407,0.13524330203525725,0.4770303871262141
hewiki,60.0,0.35764568219049847,0.7291265100479016,0.8551882301201417,0.1320958481521943,0.4798962467969652
hewiki,61.0,0.3618911939317127,0.7247561976373595,0.857685316415632,0.1289060432077079,0.48273780014999557
hewiki,62.0,0.36610023139277104,0.720137788889101,0.860104587346872,0.1257768772829869,0.4854232796575556
hewiki,63.0,0.37051206010280746,0.7152999103036317,0.8625605801353987,0.12258514729025397,0.4881641584016566
hewiki,64.0,0.37486272178617847,0.7100421763774117,0.8649352602399336,0.1194405809795608,0.4906758984503792
hewiki,65.0,0.3794076091144964,0.7046508521154984,0.8673283012731118,0.11626232632455351,0.4932388881652991
hewiki,66.0,0.3843275749879306,0.6988587568465047,0.8698262618985375,0.11292814276157796,0.4959270319133809
hewiki,67.0,0.3893549165170316,0.693142998912193,0.872275260047581,0.10965556074249111,0.4986219938701895
hewiki,68.0,0.39444633245266886,0.6866734097978969,0.8746980282985627,0.10633581504136447,0.5010653260733334
hewiki,69.0,0.3994906659486627,0.6795740376724747,0.8770394838655525,0.10304205749156588,0.503182958278871
hewiki,70.0,0.4051453045502889,0.6724651233802171,0.8795199578922703,0.09959429608204555,0.50564857234083
hewiki,71.0,0.41109162725614184,0.6643924502376,0.8820397767660809,0.09600600615052915,0.507913002564112
hewiki,72.0,0.4171697987269495,0.6560239699230901,0.8845018898641553,0.09245140456332687,0.5100167285486964
hewiki,73.0,0.4239364591723957,0.6478463329452853,0.8870706712143481,0.08879862551555198,0.5125025005000999
hewiki,74.0,0.430421545215214,0.6380751541059944,0.8894698325570741,0.08517183461910514,0.5140704579961946
hewiki,75.0,0.4372390778312548,0.627616939254566,0.8918628735902523,0.08148247965464635,0.5154098720349808
hewiki,76.0,0.4445584014207146,0.6162808450542949,0.8942873905011047,0.07766992160241017,0.5165209115592397
hewiki,77.0,0.4528033711877723,0.6049447508540239,0.8968168270042046,0.07374186065538267,0.5179324205091337
hewiki,78.0,0.460513803453092,0.5914902956163286,0.8990778442171381,0.06989561425883237,0.517848639526821
hewiki,79.0,0.4692789385578771,0.5777972862077521,0.9014402837025774,0.06591365196090226,0.5179147243724074
hewiki,80.0,0.47821723683039147,0.5638370961277887,0.9036654533881596,0.062055855274872826,0.517509710587277
hewiki,81.0,0.48783235500893624,0.5495620145422623,0.905860021526003,0.058199983637089905,0.516860587731146
hewiki,82.0,0.4976930667543805,0.5342086681043532,0.9079181941939246,0.0543855005366072,0.5153047840393952
hewiki,83.0,0.5081230394681399,0.5178056833145671,0.9098889338683067,0.050561392194891884,0.5129186693321613
hewiki,84.0,0.5189166757240112,0.5011355178533942,0.9117197807530254,0.046864337037447,0.5098711196330186
hewiki,85.0,0.5305119139766951,0.48395961754995326,0.9134728122734939,0.04320193274843951,0.5061676646706588
hewiki,86.0,0.5430775729817462,0.46615393423538615,0.9151480284297122,0.03956166651426701,0.5016841932303647
hewiki,87.0,0.555303048330676,0.44534246836771696,0.916499742509834,0.035974339106873865,0.49428099383618224
hewiki,88.0,0.5690997473289982,0.42339548464665355,0.9177928764842843,0.03233696044507115,0.48555248543211227
hewiki,89.0,0.5850414426523297,0.39872898337754537,0.9189933314855827,0.028527289965204754,0.47424271657341305
hewiki,90.0,0.6032260063838358,0.3714860970629211,0.9200215434896082,0.02464735522434031,0.45980771956347144
hewiki,91.0,0.6243132589145116,0.3404835970152102,0.9207961998123688,0.02066731797465674,0.4406490812092472
hewiki,92.0,0.6514104429356612,0.30761083226779135,0.9214746798422359,0.016604503650372738,0.4178862631735867
hewiki,93.0,0.680026704179681,0.27215214030802115,0.9215752277848064,0.012917073734160463,0.3887310122053442
hewiki,94.0,0.7166632602411749,0.23421248497108724,0.9213479020016035,0.009340334092123185,0.35304609232849327
hewiki,95.0,0.7583709731606256,0.19385866142483635,0.9204753207260785,0.006230418649867412,0.3087843024006931
hewiki,96.0,0.80510214557027,0.149668886810817,0.9187660057023799,0.0036547040960214065,0.25241390408754427
hewiki,97.0,0.8521038636008134,0.1039619076699937,0.9162444381686985,0.001820133117086247,0.18531432848006532
hewiki,98.0,0.9034239414532148,0.06596499933204832,0.9137700844515284,0.0007113053270897602,0.12295242329924409
hewiki,99.0,0.947246525990736,0.03512471612053665,0.9114111422858306,0.00019731744526847204,0.06773766147731036
