wiki_db,threshold,precision,recall,accuracy,fpr,F1
jamwiki,0.0,0.05319148936170213,1.0,0.05319148936170213,1.0,0.10101010101010102
jamwiki,1.0,0.05319148936170213,1.0,0.05319148936170213,1.0,0.10101010101010102
jamwiki,2.0,0.05319148936170213,1.0,0.05319148936170213,1.0,0.10101010101010102
jamwiki,3.0,0.05319148936170213,1.0,0.05319148936170213,1.0,0.10101010101010102
jamwiki,4.0,0.05319148936170213,1.0,0.05319148936170213,1.0,0.10101010101010102
jamwiki,5.0,0.05319148936170213,1.0,0.05319148936170213,1.0,0.10101010101010102
jamwiki,6.0,0.05319148936170213,1.0,0.05319148936170213,1.0,0.10101010101010102
jamwiki,7.0,0.05319148936170213,1.0,0.05319148936170213,1.0,0.10101010101010102
jamwiki,8.0,0.05319148936170213,1.0,0.05319148936170213,1.0,0.10101010101010102
jamwiki,9.0,0.05319148936170213,1.0,0.05319148936170213,1.0,0.10101010101010102
jamwiki,10.0,0.05319148936170213,1.0,0.05319148936170213,1.0,0.10101010101010102
jamwiki,11.0,0.05319148936170213,1.0,0.05319148936170213,1.0,0.10101010101010102
jamwiki,12.0,0.05319148936170213,1.0,0.05319148936170213,1.0,0.10101010101010102
jamwiki,13.0,0.05319148936170213,1.0,0.05319148936170213,1.0,0.10101010101010102
jamwiki,14.0,0.05319148936170213,1.0,0.05319148936170213,1.0,0.10101010101010102
jamwiki,15.0,0.05319148936170213,1.0,0.05319148936170213,1.0,0.10101010101010102
jamwiki,16.0,0.05319148936170213,1.0,0.05319148936170213,1.0,0.10101010101010102
jamwiki,17.0,0.05319148936170213,1.0,0.05319148936170213,1.0,0.10101010101010102
jamwiki,18.0,0.05319148936170213,1.0,0.05319148936170213,1.0,0.10101010101010102
jamwiki,19.0,0.053763440860215055,1.0,0.06382978723404255,0.9887640449438202,0.10204081632653061
jamwiki,20.0,0.05434782608695652,1.0,0.07446808510638298,0.9775280898876404,0.10309278350515463
jamwiki,21.0,0.054945054945054944,1.0,0.0851063829787234,0.9662921348314607,0.10416666666666666
jamwiki,22.0,0.05555555555555555,1.0,0.09574468085106383,0.9550561797752809,0.10526315789473684
jamwiki,23.0,0.05555555555555555,1.0,0.09574468085106383,0.9550561797752809,0.10526315789473684
jamwiki,24.0,0.05747126436781609,1.0,0.1276595744680851,0.9213483146067416,0.10869565217391304
jamwiki,25.0,0.05813953488372093,1.0,0.13829787234042554,0.9101123595505618,0.10989010989010987
jamwiki,26.0,0.05952380952380952,1.0,0.1595744680851064,0.8876404494382022,0.11235955056179775
jamwiki,27.0,0.06172839506172839,1.0,0.19148936170212766,0.8539325842696629,0.11627906976744184
jamwiki,28.0,0.0641025641025641,1.0,0.22340425531914893,0.8202247191011236,0.12048192771084336
jamwiki,29.0,0.0641025641025641,1.0,0.22340425531914893,0.8202247191011236,0.12048192771084336
jamwiki,30.0,0.0641025641025641,1.0,0.22340425531914893,0.8202247191011236,0.12048192771084336
jamwiki,31.0,0.0641025641025641,1.0,0.22340425531914893,0.8202247191011236,0.12048192771084336
jamwiki,32.0,0.06666666666666667,1.0,0.2553191489361702,0.7865168539325843,0.125
jamwiki,33.0,0.06944444444444445,1.0,0.2872340425531915,0.7528089887640449,0.12987012987012989
jamwiki,34.0,0.06944444444444445,1.0,0.2872340425531915,0.7528089887640449,0.12987012987012989
jamwiki,35.0,0.07352941176470588,1.0,0.32978723404255317,0.7078651685393258,0.13698630136986303
jamwiki,36.0,0.07352941176470588,1.0,0.32978723404255317,0.7078651685393258,0.13698630136986303
jamwiki,37.0,0.07575757575757576,1.0,0.35106382978723405,0.6853932584269663,0.14084507042253522
jamwiki,38.0,0.078125,1.0,0.3723404255319149,0.6629213483146067,0.14492753623188406
jamwiki,39.0,0.078125,1.0,0.3723404255319149,0.6629213483146067,0.14492753623188406
jamwiki,40.0,0.07936507936507936,1.0,0.3829787234042553,0.651685393258427,0.14705882352941177
jamwiki,41.0,0.08064516129032258,1.0,0.39361702127659576,0.6404494382022472,0.1492537313432836
jamwiki,42.0,0.08196721311475409,1.0,0.40425531914893614,0.6292134831460674,0.1515151515151515
jamwiki,43.0,0.08333333333333333,1.0,0.4148936170212766,0.6179775280898876,0.15384615384615385
jamwiki,44.0,0.08333333333333333,1.0,0.4148936170212766,0.6179775280898876,0.15384615384615385
jamwiki,45.0,0.08333333333333333,1.0,0.4148936170212766,0.6179775280898876,0.15384615384615385
jamwiki,46.0,0.08333333333333333,1.0,0.4148936170212766,0.6179775280898876,0.15384615384615385
jamwiki,47.0,0.0847457627118644,1.0,0.425531914893617,0.6067415730337079,0.15625
jamwiki,48.0,0.08620689655172414,1.0,0.43617021276595747,0.5955056179775281,0.15873015873015872
jamwiki,49.0,0.08771929824561403,1.0,0.44680851063829785,0.5842696629213483,0.16129032258064516
jamwiki,50.0,0.09090909090909091,1.0,0.46808510638297873,0.5617977528089888,0.16666666666666669
jamwiki,51.0,0.09090909090909091,1.0,0.46808510638297873,0.5617977528089888,0.16666666666666669
jamwiki,52.0,0.09433962264150944,1.0,0.48936170212765956,0.5393258426966292,0.1724137931034483
jamwiki,53.0,0.09615384615384616,1.0,0.5,0.5280898876404494,0.17543859649122806
jamwiki,54.0,0.10204081632653061,1.0,0.5319148936170213,0.4943820224719101,0.1851851851851852
jamwiki,55.0,0.10416666666666667,1.0,0.5425531914893617,0.48314606741573035,0.18867924528301885
jamwiki,56.0,0.10416666666666667,1.0,0.5425531914893617,0.48314606741573035,0.18867924528301885
jamwiki,57.0,0.10416666666666667,1.0,0.5425531914893617,0.48314606741573035,0.18867924528301885
jamwiki,58.0,0.10638297872340426,1.0,0.5531914893617021,0.47191011235955055,0.1923076923076923
jamwiki,59.0,0.10638297872340426,1.0,0.5531914893617021,0.47191011235955055,0.1923076923076923
jamwiki,60.0,0.1111111111111111,1.0,0.574468085106383,0.449438202247191,0.19999999999999998
jamwiki,61.0,0.11904761904761904,1.0,0.6063829787234043,0.4157303370786517,0.21276595744680848
jamwiki,62.0,0.11904761904761904,1.0,0.6063829787234043,0.4157303370786517,0.21276595744680848
jamwiki,63.0,0.125,1.0,0.6276595744680851,0.39325842696629215,0.2222222222222222
jamwiki,64.0,0.125,1.0,0.6276595744680851,0.39325842696629215,0.2222222222222222
jamwiki,65.0,0.1282051282051282,1.0,0.6382978723404256,0.38202247191011235,0.22727272727272727
jamwiki,66.0,0.10526315789473684,0.8,0.6276595744680851,0.38202247191011235,0.18604651162790697
jamwiki,67.0,0.08333333333333333,0.6,0.6276595744680851,0.3707865168539326,0.14634146341463414
jamwiki,68.0,0.08333333333333333,0.6,0.6276595744680851,0.3707865168539326,0.14634146341463414
jamwiki,69.0,0.08823529411764706,0.6,0.648936170212766,0.34831460674157305,0.15384615384615385
jamwiki,70.0,0.09090909090909091,0.6,0.6595744680851063,0.33707865168539325,0.15789473684210525
jamwiki,71.0,0.1,0.6,0.6914893617021277,0.30337078651685395,0.17142857142857143
jamwiki,72.0,0.10714285714285714,0.6,0.7127659574468085,0.2808988764044944,0.18181818181818182
jamwiki,73.0,0.125,0.6,0.7553191489361702,0.23595505617977527,0.20689655172413793
jamwiki,74.0,0.14285714285714285,0.6,0.7872340425531915,0.20224719101123595,0.23076923076923073
jamwiki,75.0,0.14285714285714285,0.6,0.7872340425531915,0.20224719101123595,0.23076923076923073
jamwiki,76.0,0.14285714285714285,0.6,0.7872340425531915,0.20224719101123595,0.23076923076923073
jamwiki,77.0,0.15789473684210525,0.6,0.8085106382978723,0.1797752808988764,0.25
jamwiki,78.0,0.17647058823529413,0.6,0.8297872340425532,0.15730337078651685,0.2727272727272727
jamwiki,79.0,0.2,0.6,0.851063829787234,0.1348314606741573,0.3
jamwiki,80.0,0.2,0.6,0.851063829787234,0.1348314606741573,0.3
jamwiki,81.0,0.21428571428571427,0.6,0.8617021276595744,0.12359550561797752,0.3157894736842105
jamwiki,82.0,0.23076923076923078,0.6,0.8723404255319149,0.11235955056179775,0.33333333333333337
jamwiki,83.0,0.25,0.6,0.8829787234042553,0.10112359550561797,0.35294117647058826
jamwiki,84.0,0.2727272727272727,0.6,0.8936170212765957,0.0898876404494382,0.37499999999999994
jamwiki,85.0,0.3,0.6,0.9042553191489362,0.07865168539325842,0.4
jamwiki,86.0,0.375,0.6,0.925531914893617,0.056179775280898875,0.4615384615384615
jamwiki,87.0,0.5,0.6,0.9468085106382979,0.033707865168539325,0.5454545454545454
jamwiki,88.0,0.6,0.6,0.9574468085106383,0.02247191011235955,0.6
jamwiki,89.0,0.75,0.6,0.9680851063829787,0.011235955056179775,0.6666666666666665
jamwiki,90.0,0.75,0.6,0.9680851063829787,0.011235955056179775,0.6666666666666665
jamwiki,91.0,0.75,0.6,0.9680851063829787,0.011235955056179775,0.6666666666666665
jamwiki,92.0,0.75,0.6,0.9680851063829787,0.011235955056179775,0.6666666666666665
jamwiki,93.0,0.75,0.6,0.9680851063829787,0.011235955056179775,0.6666666666666665
jamwiki,94.0,1.0,0.4,0.9680851063829787,0.0,0.5714285714285715
jamwiki,95.0,1.0,0.4,0.9680851063829787,0.0,0.5714285714285715
jamwiki,96.0,1.0,0.4,0.9680851063829787,0.0,0.5714285714285715
jamwiki,97.0,1.0,0.4,0.9680851063829787,0.0,0.5714285714285715
jamwiki,98.0,1.0,0.4,0.9680851063829787,0.0,0.5714285714285715
jamwiki,99.0,1.0,0.2,0.9574468085106383,0.0,0.33333333333333337
