wiki_db,threshold,precision,recall,accuracy,fpr,F1
kbdwiki,0.0,0.05714285714285714,1.0,0.05714285714285714,1.0,0.1081081081081081
kbdwiki,1.0,0.05714285714285714,1.0,0.05714285714285714,1.0,0.1081081081081081
kbdwiki,2.0,0.05714285714285714,1.0,0.05714285714285714,1.0,0.1081081081081081
kbdwiki,3.0,0.05714285714285714,1.0,0.05714285714285714,1.0,0.1081081081081081
kbdwiki,4.0,0.05714285714285714,1.0,0.05714285714285714,1.0,0.1081081081081081
kbdwiki,5.0,0.05714285714285714,1.0,0.05714285714285714,1.0,0.1081081081081081
kbdwiki,6.0,0.05714285714285714,1.0,0.05714285714285714,1.0,0.1081081081081081
kbdwiki,7.0,0.05714285714285714,1.0,0.05714285714285714,1.0,0.1081081081081081
kbdwiki,8.0,0.05714285714285714,1.0,0.05714285714285714,1.0,0.1081081081081081
kbdwiki,9.0,0.05714285714285714,1.0,0.05714285714285714,1.0,0.1081081081081081
kbdwiki,10.0,0.05714285714285714,1.0,0.05714285714285714,1.0,0.1081081081081081
kbdwiki,11.0,0.05714285714285714,1.0,0.05714285714285714,1.0,0.1081081081081081
kbdwiki,12.0,0.05714285714285714,1.0,0.05714285714285714,1.0,0.1081081081081081
kbdwiki,13.0,0.05714285714285714,1.0,0.05714285714285714,1.0,0.1081081081081081
kbdwiki,14.0,0.05714285714285714,1.0,0.05714285714285714,1.0,0.1081081081081081
kbdwiki,15.0,0.05714285714285714,1.0,0.05714285714285714,1.0,0.1081081081081081
kbdwiki,16.0,0.05714285714285714,1.0,0.05714285714285714,1.0,0.1081081081081081
kbdwiki,17.0,0.05714285714285714,1.0,0.05714285714285714,1.0,0.1081081081081081
kbdwiki,18.0,0.05714285714285714,1.0,0.05714285714285714,1.0,0.1081081081081081
kbdwiki,19.0,0.05714285714285714,1.0,0.05714285714285714,1.0,0.1081081081081081
kbdwiki,20.0,0.05714285714285714,1.0,0.05714285714285714,1.0,0.1081081081081081
kbdwiki,21.0,0.057971014492753624,1.0,0.07142857142857142,0.9848484848484849,0.1095890410958904
kbdwiki,22.0,0.057971014492753624,1.0,0.07142857142857142,0.9848484848484849,0.1095890410958904
kbdwiki,23.0,0.058823529411764705,1.0,0.08571428571428572,0.9696969696969697,0.1111111111111111
kbdwiki,24.0,0.058823529411764705,1.0,0.08571428571428572,0.9696969696969697,0.1111111111111111
kbdwiki,25.0,0.058823529411764705,1.0,0.08571428571428572,0.9696969696969697,0.1111111111111111
kbdwiki,26.0,0.05925925925925926,1.0,0.09285714285714286,0.9621212121212122,0.11188811188811189
kbdwiki,27.0,0.05970149253731343,1.0,0.1,0.9545454545454546,0.11267605633802817
kbdwiki,28.0,0.06015037593984962,1.0,0.10714285714285714,0.946969696969697,0.11347517730496454
kbdwiki,29.0,0.06060606060606061,1.0,0.11428571428571428,0.9393939393939394,0.1142857142857143
kbdwiki,30.0,0.06153846153846154,1.0,0.12857142857142856,0.9242424242424242,0.11594202898550725
kbdwiki,31.0,0.06201550387596899,1.0,0.1357142857142857,0.9166666666666666,0.1167883211678832
kbdwiki,32.0,0.06299212598425197,1.0,0.15,0.9015151515151515,0.11851851851851852
kbdwiki,33.0,0.06299212598425197,1.0,0.15,0.9015151515151515,0.11851851851851852
kbdwiki,34.0,0.064,1.0,0.16428571428571428,0.8863636363636364,0.12030075187969924
kbdwiki,35.0,0.064,1.0,0.16428571428571428,0.8863636363636364,0.12030075187969924
kbdwiki,36.0,0.064,1.0,0.16428571428571428,0.8863636363636364,0.12030075187969924
kbdwiki,37.0,0.06451612903225806,1.0,0.17142857142857143,0.8787878787878788,0.12121212121212122
kbdwiki,38.0,0.06504065040650407,1.0,0.17857142857142858,0.8712121212121212,0.1221374045801527
kbdwiki,39.0,0.06611570247933884,1.0,0.19285714285714287,0.8560606060606061,0.12403100775193798
kbdwiki,40.0,0.06666666666666667,1.0,0.2,0.8484848484848485,0.125
kbdwiki,41.0,0.06722689075630252,1.0,0.20714285714285716,0.8409090909090909,0.12598425196850394
kbdwiki,42.0,0.06956521739130435,1.0,0.2357142857142857,0.8106060606060606,0.13008130081300812
kbdwiki,43.0,0.07142857142857142,1.0,0.2571428571428571,0.7878787878787878,0.13333333333333333
kbdwiki,44.0,0.07272727272727272,1.0,0.2714285714285714,0.7727272727272727,0.13559322033898305
kbdwiki,45.0,0.07407407407407407,1.0,0.2857142857142857,0.7575757575757576,0.13793103448275862
kbdwiki,46.0,0.07476635514018691,1.0,0.29285714285714287,0.75,0.1391304347826087
kbdwiki,47.0,0.07920792079207921,1.0,0.3357142857142857,0.7045454545454546,0.14678899082568805
kbdwiki,48.0,0.08163265306122448,1.0,0.35714285714285715,0.6818181818181818,0.15094339622641506
kbdwiki,49.0,0.08695652173913043,1.0,0.4,0.6363636363636364,0.16
kbdwiki,50.0,0.09090909090909091,1.0,0.42857142857142855,0.6060606060606061,0.16666666666666669
kbdwiki,51.0,0.09876543209876543,1.0,0.4785714285714286,0.553030303030303,0.1797752808988764
kbdwiki,52.0,0.1038961038961039,1.0,0.5071428571428571,0.5227272727272727,0.18823529411764706
kbdwiki,53.0,0.10666666666666667,1.0,0.5214285714285715,0.5075757575757576,0.1927710843373494
kbdwiki,54.0,0.1095890410958904,1.0,0.5357142857142857,0.49242424242424243,0.19753086419753085
kbdwiki,55.0,0.11267605633802817,1.0,0.55,0.4772727272727273,0.20253164556962025
kbdwiki,56.0,0.11428571428571428,1.0,0.5571428571428572,0.4696969696969697,0.20512820512820512
kbdwiki,57.0,0.12121212121212122,1.0,0.5857142857142857,0.4393939393939394,0.21621621621621626
kbdwiki,58.0,0.12307692307692308,1.0,0.5928571428571429,0.4318181818181818,0.21917808219178084
kbdwiki,59.0,0.12307692307692308,1.0,0.5928571428571429,0.4318181818181818,0.21917808219178084
kbdwiki,60.0,0.12903225806451613,1.0,0.6142857142857143,0.4090909090909091,0.2285714285714286
kbdwiki,61.0,0.13333333333333333,1.0,0.6285714285714286,0.3939393939393939,0.23529411764705882
kbdwiki,62.0,0.13793103448275862,1.0,0.6428571428571429,0.3787878787878788,0.2424242424242424
kbdwiki,63.0,0.13793103448275862,1.0,0.6428571428571429,0.3787878787878788,0.2424242424242424
kbdwiki,64.0,0.14545454545454545,1.0,0.6642857142857143,0.3560606060606061,0.25396825396825395
kbdwiki,65.0,0.1509433962264151,1.0,0.6785714285714286,0.3409090909090909,0.26229508196721313
kbdwiki,66.0,0.16,1.0,0.7,0.3181818181818182,0.2758620689655173
kbdwiki,67.0,0.14583333333333334,0.875,0.7,0.3106060606060606,0.25000000000000006
kbdwiki,68.0,0.15555555555555556,0.875,0.7214285714285714,0.2878787878787879,0.26415094339622647
kbdwiki,69.0,0.1590909090909091,0.875,0.7285714285714285,0.2803030303030303,0.26923076923076916
kbdwiki,70.0,0.16666666666666666,0.875,0.7428571428571429,0.26515151515151514,0.27999999999999997
kbdwiki,71.0,0.18421052631578946,0.875,0.7714285714285715,0.23484848484848486,0.30434782608695654
kbdwiki,72.0,0.18421052631578946,0.875,0.7714285714285715,0.23484848484848486,0.30434782608695654
kbdwiki,73.0,0.1891891891891892,0.875,0.7785714285714286,0.22727272727272727,0.3111111111111111
kbdwiki,74.0,0.17647058823529413,0.75,0.7857142857142857,0.21212121212121213,0.2857142857142857
kbdwiki,75.0,0.18181818181818182,0.75,0.7928571428571428,0.20454545454545456,0.2926829268292683
kbdwiki,76.0,0.1875,0.75,0.8,0.19696969696969696,0.3
kbdwiki,77.0,0.2,0.75,0.8142857142857143,0.18181818181818182,0.31578947368421056
kbdwiki,78.0,0.20689655172413793,0.75,0.8214285714285714,0.17424242424242425,0.32432432432432434
kbdwiki,79.0,0.24,0.75,0.85,0.14393939393939395,0.36363636363636365
kbdwiki,80.0,0.25,0.75,0.8571428571428571,0.13636363636363635,0.375
kbdwiki,81.0,0.2727272727272727,0.75,0.8714285714285714,0.12121212121212122,0.39999999999999997
kbdwiki,82.0,0.23809523809523808,0.625,0.8642857142857143,0.12121212121212122,0.3448275862068965
kbdwiki,83.0,0.2631578947368421,0.625,0.8785714285714286,0.10606060606060606,0.37037037037037035
kbdwiki,84.0,0.2631578947368421,0.625,0.8785714285714286,0.10606060606060606,0.37037037037037035
kbdwiki,85.0,0.2631578947368421,0.625,0.8785714285714286,0.10606060606060606,0.37037037037037035
kbdwiki,86.0,0.2631578947368421,0.625,0.8785714285714286,0.10606060606060606,0.37037037037037035
kbdwiki,87.0,0.29411764705882354,0.625,0.8928571428571429,0.09090909090909091,0.4
kbdwiki,88.0,0.38461538461538464,0.625,0.9214285714285714,0.06060606060606061,0.4761904761904762
kbdwiki,89.0,0.38461538461538464,0.625,0.9214285714285714,0.06060606060606061,0.4761904761904762
kbdwiki,90.0,0.38461538461538464,0.625,0.9214285714285714,0.06060606060606061,0.4761904761904762
kbdwiki,91.0,0.36363636363636365,0.5,0.9214285714285714,0.05303030303030303,0.4210526315789474
kbdwiki,92.0,0.36363636363636365,0.5,0.9214285714285714,0.05303030303030303,0.4210526315789474
kbdwiki,93.0,0.375,0.375,0.9285714285714286,0.03787878787878788,0.375
kbdwiki,94.0,0.42857142857142855,0.375,0.9357142857142857,0.030303030303030304,0.39999999999999997
kbdwiki,95.0,0.5,0.25,0.9428571428571428,0.015151515151515152,0.3333333333333333
kbdwiki,96.0,0.5,0.125,0.9428571428571428,0.007575757575757576,0.2
kbdwiki,97.0,0.5,0.125,0.9428571428571428,0.007575757575757576,0.2
kbdwiki,98.0,0.5,0.0,0.9428571428571428,0.0,0.0
kbdwiki,99.0,0.5,0.0,0.9428571428571428,0.0,0.0
