wiki_db,threshold,precision,recall,accuracy,fpr,F1
krcwiki,0.0,0.0830945558739255,1.0,0.0830945558739255,1.0,0.15343915343915343
krcwiki,1.0,0.0830945558739255,1.0,0.0830945558739255,1.0,0.15343915343915343
krcwiki,2.0,0.0830945558739255,1.0,0.0830945558739255,1.0,0.15343915343915343
krcwiki,3.0,0.0830945558739255,1.0,0.0830945558739255,1.0,0.15343915343915343
krcwiki,4.0,0.08430232558139535,1.0,0.09742120343839542,0.984375,0.1554959785522788
krcwiki,5.0,0.08682634730538923,1.0,0.12607449856733524,0.953125,0.15977961432506887
krcwiki,6.0,0.08787878787878788,1.0,0.13753581661891118,0.940625,0.1615598885793872
krcwiki,7.0,0.09006211180124224,1.0,0.16045845272206305,0.915625,0.16524216524216526
krcwiki,8.0,0.0914826498422713,1.0,0.17478510028653296,0.9,0.16763005780346818
krcwiki,9.0,0.09333333333333334,0.9655172413793104,0.2177650429799427,0.85,0.1702127659574468
krcwiki,10.0,0.09523809523809523,0.9655172413793104,0.2349570200573066,0.83125,0.17337461300309598
krcwiki,11.0,0.09375,0.9310344827586207,0.24641833810888253,0.815625,0.17034700315457416
krcwiki,12.0,0.09747292418772563,0.9310344827586207,0.27793696275071633,0.78125,0.1764705882352941
krcwiki,13.0,0.09541984732824428,0.8620689655172413,0.30945558739255014,0.740625,0.17182130584192443
krcwiki,14.0,0.1,0.8620689655172413,0.3438395415472779,0.703125,0.1792114695340502
krcwiki,15.0,0.102880658436214,0.8620689655172413,0.3638968481375358,0.68125,0.18382352941176472
krcwiki,16.0,0.10460251046025104,0.8620689655172413,0.3753581661891118,0.66875,0.18656716417910446
krcwiki,17.0,0.10548523206751055,0.8620689655172413,0.38108882521489973,0.6625,0.18796992481203006
krcwiki,18.0,0.1072961373390558,0.8620689655172413,0.39255014326647564,0.65,0.19083969465648856
krcwiki,19.0,0.1111111111111111,0.8620689655172413,0.4154727793696275,0.625,0.19685039370078738
krcwiki,20.0,0.1152073732718894,0.8620689655172413,0.4383954154727794,0.6,0.2032520325203252
krcwiki,21.0,0.11737089201877934,0.8620689655172413,0.4498567335243553,0.5875,0.20661157024793386
krcwiki,22.0,0.11848341232227488,0.8620689655172413,0.45558739255014324,0.58125,0.20833333333333334
krcwiki,23.0,0.11848341232227488,0.8620689655172413,0.45558739255014324,0.58125,0.20833333333333334
krcwiki,24.0,0.1201923076923077,0.8620689655172413,0.46418338108882523,0.571875,0.2109704641350211
krcwiki,25.0,0.12077294685990338,0.8620689655172413,0.4670487106017192,0.56875,0.211864406779661
krcwiki,26.0,0.12135922330097088,0.8620689655172413,0.4699140401146132,0.565625,0.2127659574468085
krcwiki,27.0,0.12135922330097088,0.8620689655172413,0.4699140401146132,0.565625,0.2127659574468085
krcwiki,28.0,0.12195121951219512,0.8620689655172413,0.47277936962750716,0.5625,0.2136752136752137
krcwiki,29.0,0.12195121951219512,0.8620689655172413,0.47277936962750716,0.5625,0.2136752136752137
krcwiki,30.0,0.12376237623762376,0.8620689655172413,0.4813753581661891,0.553125,0.21645021645021645
krcwiki,31.0,0.12437810945273632,0.8620689655172413,0.48424068767908307,0.55,0.21739130434782608
krcwiki,32.0,0.12690355329949238,0.8620689655172413,0.49570200573065903,0.5375,0.22123893805309733
krcwiki,33.0,0.12755102040816327,0.8620689655172413,0.498567335243553,0.534375,0.22222222222222224
krcwiki,34.0,0.12886597938144329,0.8620689655172413,0.504297994269341,0.528125,0.22421524663677128
krcwiki,35.0,0.125,0.8275862068965517,0.504297994269341,0.525,0.2171945701357466
krcwiki,36.0,0.12041884816753927,0.7931034482758621,0.501432664756447,0.525,0.2090909090909091
krcwiki,37.0,0.12105263157894737,0.7931034482758621,0.504297994269341,0.521875,0.2100456621004566
krcwiki,38.0,0.12299465240641712,0.7931034482758621,0.5128939828080229,0.5125,0.21296296296296297
krcwiki,39.0,0.125,0.7931034482758621,0.5214899713467048,0.503125,0.215962441314554
krcwiki,40.0,0.12568306010928962,0.7931034482758621,0.5243553008595988,0.5,0.2169811320754717
krcwiki,41.0,0.12849162011173185,0.7931034482758621,0.5358166189111748,0.4875,0.22115384615384617
krcwiki,42.0,0.12921348314606743,0.7931034482758621,0.5386819484240688,0.484375,0.22222222222222227
krcwiki,43.0,0.13218390804597702,0.7931034482758621,0.5501432664756447,0.471875,0.2266009852216749
krcwiki,44.0,0.13855421686746988,0.7931034482758621,0.5730659025787965,0.446875,0.23589743589743592
krcwiki,45.0,0.1419753086419753,0.7931034482758621,0.5845272206303725,0.434375,0.24083769633507854
krcwiki,46.0,0.14556962025316456,0.7931034482758621,0.5959885386819485,0.421875,0.2459893048128342
krcwiki,47.0,0.152317880794702,0.7931034482758621,0.6160458452722063,0.4,0.25555555555555554
krcwiki,48.0,0.1597222222222222,0.7931034482758621,0.6361031518624641,0.378125,0.2658959537572254
krcwiki,49.0,0.16428571428571428,0.7931034482758621,0.6475644699140402,0.365625,0.27218934911242604
krcwiki,50.0,0.17164179104477612,0.7931034482758621,0.664756446991404,0.346875,0.2822085889570552
krcwiki,51.0,0.18253968253968253,0.7931034482758621,0.6876790830945558,0.321875,0.2967741935483871
krcwiki,52.0,0.19130434782608696,0.7586206896551724,0.7134670487106017,0.290625,0.3055555555555555
krcwiki,53.0,0.2018348623853211,0.7586206896551724,0.7306590257879656,0.271875,0.31884057971014496
krcwiki,54.0,0.20952380952380953,0.7586206896551724,0.7421203438395415,0.259375,0.3283582089552239
krcwiki,55.0,0.21359223300970873,0.7586206896551724,0.7478510028653295,0.253125,0.3333333333333333
krcwiki,56.0,0.21568627450980393,0.7586206896551724,0.7507163323782235,0.25,0.33587786259541985
krcwiki,57.0,0.2222222222222222,0.7586206896551724,0.7593123209169055,0.240625,0.34375
krcwiki,58.0,0.22448979591836735,0.7586206896551724,0.7621776504297995,0.2375,0.3464566929133858
krcwiki,59.0,0.2268041237113402,0.7586206896551724,0.7650429799426934,0.234375,0.34920634920634924
krcwiki,60.0,0.22916666666666666,0.7586206896551724,0.7679083094555874,0.23125,0.35200000000000004
krcwiki,61.0,0.23404255319148937,0.7586206896551724,0.7736389684813754,0.225,0.35772357723577236
krcwiki,62.0,0.23333333333333334,0.7241379310344828,0.7793696275071633,0.215625,0.35294117647058826
krcwiki,63.0,0.23333333333333334,0.7241379310344828,0.7793696275071633,0.215625,0.35294117647058826
krcwiki,64.0,0.22988505747126436,0.6896551724137931,0.7822349570200573,0.209375,0.3448275862068966
krcwiki,65.0,0.22988505747126436,0.6896551724137931,0.7822349570200573,0.209375,0.3448275862068966
krcwiki,66.0,0.23529411764705882,0.6896551724137931,0.7879656160458453,0.203125,0.3508771929824561
krcwiki,67.0,0.25316455696202533,0.6896551724137931,0.8051575931232091,0.184375,0.37037037037037035
krcwiki,68.0,0.2597402597402597,0.6896551724137931,0.8108882521489972,0.178125,0.3773584905660377
krcwiki,69.0,0.2631578947368421,0.6896551724137931,0.8137535816618912,0.175,0.380952380952381
krcwiki,70.0,0.26666666666666666,0.6896551724137931,0.8166189111747851,0.171875,0.38461538461538464
krcwiki,71.0,0.26666666666666666,0.6896551724137931,0.8166189111747851,0.171875,0.38461538461538464
krcwiki,72.0,0.26666666666666666,0.6896551724137931,0.8166189111747851,0.171875,0.38461538461538464
krcwiki,73.0,0.28169014084507044,0.6896551724137931,0.828080229226361,0.159375,0.4
krcwiki,74.0,0.27941176470588236,0.6551724137931034,0.830945558739255,0.153125,0.3917525773195876
krcwiki,75.0,0.2835820895522388,0.6551724137931034,0.833810888252149,0.15,0.39583333333333337
krcwiki,76.0,0.2835820895522388,0.6551724137931034,0.833810888252149,0.15,0.39583333333333337
krcwiki,77.0,0.296875,0.6551724137931034,0.8424068767908309,0.140625,0.4086021505376344
krcwiki,78.0,0.3220338983050847,0.6551724137931034,0.8567335243553008,0.125,0.43181818181818177
krcwiki,79.0,0.3220338983050847,0.6551724137931034,0.8567335243553008,0.125,0.43181818181818177
krcwiki,80.0,0.35185185185185186,0.6551724137931034,0.8710601719197708,0.109375,0.4578313253012048
krcwiki,81.0,0.3584905660377358,0.6551724137931034,0.8739255014326648,0.10625,0.46341463414634143
krcwiki,82.0,0.3584905660377358,0.6551724137931034,0.8739255014326648,0.10625,0.46341463414634143
krcwiki,83.0,0.3958333333333333,0.6551724137931034,0.8882521489971347,0.090625,0.49350649350649356
krcwiki,84.0,0.4,0.6206896551724138,0.8911174785100286,0.084375,0.4864864864864865
krcwiki,85.0,0.40540540540540543,0.5172413793103449,0.8968481375358166,0.06875,0.4545454545454546
krcwiki,86.0,0.46875,0.5172413793103449,0.9111747851002865,0.053125,0.4918032786885246
krcwiki,87.0,0.4827586206896552,0.4827586206896552,0.9140401146131805,0.046875,0.4827586206896552
krcwiki,88.0,0.56,0.4827586206896552,0.9255014326647565,0.034375,0.5185185185185185
krcwiki,89.0,0.4444444444444444,0.27586206896551724,0.9111747851002865,0.03125,0.3404255319148936
krcwiki,90.0,0.46153846153846156,0.20689655172413793,0.9140401146131805,0.021875,0.28571428571428575
krcwiki,91.0,0.4,0.13793103448275862,0.9111747851002865,0.01875,0.20512820512820515
krcwiki,92.0,0.25,0.06896551724137931,0.9054441260744985,0.01875,0.1081081081081081
krcwiki,93.0,0.5,0.06896551724137931,0.9169054441260746,0.00625,0.1212121212121212
krcwiki,94.0,0.0,0.0,0.9111747851002865,0.00625,0.1212121212121212
krcwiki,95.0,0.0,0.0,0.9111747851002865,0.00625,0.1212121212121212
krcwiki,96.0,0.0,0.0,0.9111747851002865,0.00625,0.1212121212121212
krcwiki,97.0,0.0,0.0,0.9111747851002865,0.00625,0.1212121212121212
krcwiki,98.0,0.0,0.0,0.9140401146131805,0.003125,0.1212121212121212
krcwiki,99.0,0.0,0.0,0.9169054441260746,0.0,0.1212121212121212
