wiki_db,threshold,precision,recall,accuracy,fpr,F1
lbewiki,0.0,0.0406015037593985,1.0,0.0406015037593985,1.0,0.07803468208092486
lbewiki,1.0,0.0406015037593985,1.0,0.0406015037593985,1.0,0.07803468208092486
lbewiki,2.0,0.0406015037593985,1.0,0.0406015037593985,1.0,0.07803468208092486
lbewiki,3.0,0.0406015037593985,1.0,0.0406015037593985,1.0,0.07803468208092486
lbewiki,4.0,0.0406015037593985,1.0,0.0406015037593985,1.0,0.07803468208092486
lbewiki,5.0,0.04066265060240964,1.0,0.042105263157894736,0.9984326018808778,0.07814761215629522
lbewiki,6.0,0.04066265060240964,1.0,0.042105263157894736,0.9984326018808778,0.07814761215629522
lbewiki,7.0,0.04066265060240964,1.0,0.042105263157894736,0.9984326018808778,0.07814761215629522
lbewiki,8.0,0.04066265060240964,1.0,0.042105263157894736,0.9984326018808778,0.07814761215629522
lbewiki,9.0,0.04078549848942598,1.0,0.045112781954887216,0.9952978056426333,0.0783744557329463
lbewiki,10.0,0.04078549848942598,1.0,0.045112781954887216,0.9952978056426333,0.0783744557329463
lbewiki,11.0,0.04090909090909091,1.0,0.0481203007518797,0.9921630094043887,0.07860262008733623
lbewiki,12.0,0.0409711684370258,1.0,0.04962406015037594,0.9905956112852664,0.07871720116618076
lbewiki,13.0,0.0410958904109589,1.0,0.05263157894736842,0.987460815047022,0.07894736842105263
lbewiki,14.0,0.041158536585365856,1.0,0.05413533834586466,0.9858934169278997,0.07906295754026355
lbewiki,15.0,0.04128440366972477,1.0,0.05714285714285714,0.9827586206896551,0.07929515418502202
lbewiki,16.0,0.04141104294478527,1.0,0.06015037593984962,0.9796238244514106,0.07952871870397642
lbewiki,17.0,0.04186046511627907,1.0,0.07067669172932331,0.9686520376175548,0.08035714285714286
lbewiki,18.0,0.041990668740279936,1.0,0.07368421052631578,0.9655172413793104,0.08059701492537312
lbewiki,19.0,0.0423861852433281,1.0,0.08270676691729323,0.9561128526645768,0.08132530120481928
lbewiki,20.0,0.04251968503937008,1.0,0.08571428571428572,0.9529780564263323,0.08157099697885196
lbewiki,21.0,0.04265402843601896,1.0,0.0887218045112782,0.9498432601880877,0.08181818181818182
lbewiki,22.0,0.042993630573248405,1.0,0.0962406015037594,0.9420062695924765,0.08244274809160305
lbewiki,23.0,0.04333868378812199,1.0,0.1037593984962406,0.9341692789968652,0.08307692307692308
lbewiki,24.0,0.044189852700491,1.0,0.12180451127819548,0.9153605015673981,0.08463949843260189
lbewiki,25.0,0.04462809917355372,1.0,0.13082706766917293,0.9059561128526645,0.08544303797468354
lbewiki,26.0,0.04492512479201331,1.0,0.1368421052631579,0.8996865203761756,0.08598726114649682
lbewiki,27.0,0.04576271186440678,1.0,0.15338345864661654,0.8824451410658307,0.08752025931928686
lbewiki,28.0,0.046632124352331605,1.0,0.1699248120300752,0.8652037617554859,0.08910891089108912
lbewiki,29.0,0.04745166959578207,1.0,0.1849624060150376,0.8495297805642633,0.09060402684563758
lbewiki,30.0,0.04804270462633452,1.0,0.19548872180451127,0.8385579937304075,0.09168081494057724
lbewiki,31.0,0.04847396768402154,1.0,0.20300751879699247,0.8307210031347962,0.09246575342465753
lbewiki,32.0,0.047619047619047616,0.9629629629629629,0.21654135338345865,0.8150470219435737,0.09075043630017453
lbewiki,33.0,0.048507462686567165,0.9629629629629629,0.23157894736842105,0.799373040752351,0.09236234458259324
lbewiki,34.0,0.04896421845574388,0.9629629629629629,0.23909774436090225,0.7915360501567398,0.09318996415770608
lbewiki,35.0,0.05029013539651837,0.9629629629629629,0.26015037593984963,0.7695924764890282,0.09558823529411764
lbewiki,36.0,0.050880626223091974,0.9629629629629629,0.26917293233082706,0.7601880877742947,0.09665427509293681
lbewiki,37.0,0.05179282868525897,0.9629629629629629,0.28270676691729324,0.7460815047021944,0.09829867674858224
lbewiki,38.0,0.052845528455284556,0.9629629629629629,0.29774436090225564,0.7304075235109718,0.10019267822736032
lbewiki,39.0,0.05186721991701245,0.9259259259259259,0.3097744360902256,0.7163009404388715,0.09823182711198429
lbewiki,40.0,0.05219206680584551,0.9259259259259259,0.3142857142857143,0.7115987460815048,0.09881422924901186
lbewiki,41.0,0.052742616033755275,0.9259259259259259,0.3218045112781955,0.7037617554858934,0.0998003992015968
lbewiki,42.0,0.05139186295503212,0.8888888888888888,0.3293233082706767,0.6943573667711599,0.09716599190283402
lbewiki,43.0,0.0525164113785558,0.8888888888888888,0.3443609022556391,0.6786833855799373,0.09917355371900825
lbewiki,44.0,0.05333333333333334,0.8888888888888888,0.3548872180451128,0.6677115987460815,0.10062893081761007
lbewiki,45.0,0.0547945205479452,0.8888888888888888,0.37293233082706767,0.6489028213166145,0.1032258064516129
lbewiki,46.0,0.056338028169014086,0.8888888888888888,0.39097744360902253,0.6300940438871473,0.10596026490066225
lbewiki,47.0,0.05755395683453238,0.8888888888888888,0.4045112781954887,0.6159874608150471,0.10810810810810811
lbewiki,48.0,0.05665024630541872,0.8518518518518519,0.4180451127819549,0.6003134796238244,0.10623556581986143
lbewiki,49.0,0.05764411027568922,0.8518518518518519,0.42857142857142855,0.5893416927899686,0.10798122065727699
lbewiki,50.0,0.058823529411764705,0.8518518518518519,0.4406015037593985,0.5768025078369906,0.11004784688995214
lbewiki,51.0,0.06036745406824147,0.8518518518518519,0.4556390977443609,0.5611285266457681,0.11274509803921567
lbewiki,52.0,0.05929919137466307,0.8148148148148148,0.46766917293233085,0.5470219435736677,0.11055276381909547
lbewiki,53.0,0.061452513966480445,0.8148148148148148,0.48721804511278194,0.5266457680250783,0.11428571428571428
lbewiki,54.0,0.059490084985835696,0.7777777777777778,0.4917293233082707,0.5203761755485894,0.11052631578947368
lbewiki,55.0,0.06158357771260997,0.7777777777777778,0.5097744360902255,0.5015673981191222,0.11413043478260869
lbewiki,56.0,0.06287425149700598,0.7777777777777778,0.5203007518796993,0.49059561128526646,0.11634349030470913
lbewiki,57.0,0.06501547987616099,0.7777777777777778,0.5368421052631579,0.47335423197492166,0.12000000000000001
lbewiki,58.0,0.0660377358490566,0.7777777777777778,0.544360902255639,0.46551724137931033,0.12173913043478261
lbewiki,59.0,0.0695364238410596,0.7777777777777778,0.5684210526315789,0.44043887147335425,0.1276595744680851
lbewiki,60.0,0.07142857142857142,0.7777777777777778,0.5804511278195489,0.4278996865203762,0.1308411214953271
lbewiki,61.0,0.07446808510638298,0.7777777777777778,0.5984962406015037,0.4090909090909091,0.13592233009708737
lbewiki,62.0,0.07806691449814127,0.7777777777777778,0.6180451127819548,0.3887147335423197,0.14189189189189189
lbewiki,63.0,0.08139534883720931,0.7777777777777778,0.6345864661654136,0.3714733542319749,0.1473684210526316
lbewiki,64.0,0.08235294117647059,0.7777777777777778,0.6390977443609023,0.3667711598746082,0.14893617021276592
lbewiki,65.0,0.0860655737704918,0.7777777777777778,0.6556390977443609,0.3495297805642633,0.15498154981549817
lbewiki,66.0,0.09051724137931035,0.7777777777777778,0.6736842105263158,0.33072100313479624,0.16216216216216214
lbewiki,67.0,0.09417040358744394,0.7777777777777778,0.687218045112782,0.3166144200626959,0.16799999999999998
lbewiki,68.0,0.10144927536231885,0.7777777777777778,0.7112781954887218,0.29153605015673983,0.1794871794871795
lbewiki,69.0,0.1065989847715736,0.7777777777777778,0.7263157894736842,0.27586206896551724,0.1875
lbewiki,70.0,0.1092896174863388,0.7407407407407407,0.7443609022556391,0.2554858934169279,0.19047619047619047
lbewiki,71.0,0.11904761904761904,0.7407407407407407,0.7669172932330827,0.23197492163009403,0.20512820512820512
lbewiki,72.0,0.11538461538461539,0.6666666666666666,0.7789473684210526,0.21630094043887146,0.19672131147540986
lbewiki,73.0,0.125,0.6666666666666666,0.7969924812030075,0.1974921630094044,0.21052631578947367
lbewiki,74.0,0.13846153846153847,0.6666666666666666,0.8180451127819549,0.1755485893416928,0.22929936305732485
lbewiki,75.0,0.15254237288135594,0.6666666666666666,0.8360902255639098,0.15673981191222572,0.24827586206896554
lbewiki,76.0,0.16666666666666666,0.6666666666666666,0.8511278195488722,0.14106583072100312,0.26666666666666666
lbewiki,77.0,0.1782178217821782,0.6666666666666666,0.8616541353383459,0.13009404388714735,0.28125
lbewiki,78.0,0.19148936170212766,0.6666666666666666,0.8721804511278195,0.11912225705329153,0.29752066115702475
lbewiki,79.0,0.21951219512195122,0.6666666666666666,0.8902255639097745,0.10031347962382445,0.3302752293577982
lbewiki,80.0,0.2361111111111111,0.6296296296296297,0.9022556390977443,0.08620689655172414,0.3434343434343435
lbewiki,81.0,0.26229508196721313,0.5925925925925926,0.9157894736842105,0.07053291536050156,0.36363636363636365
lbewiki,82.0,0.26666666666666666,0.5925925925925926,0.9172932330827067,0.06896551724137931,0.36781609195402304
lbewiki,83.0,0.2807017543859649,0.5925925925925926,0.9218045112781955,0.06426332288401254,0.38095238095238093
lbewiki,84.0,0.3404255319148936,0.5925925925925926,0.9368421052631579,0.048589341692789965,0.4324324324324324
lbewiki,85.0,0.35714285714285715,0.5555555555555556,0.9413533834586466,0.04231974921630094,0.43478260869565216
lbewiki,86.0,0.4166666666666667,0.5555555555555556,0.9503759398496241,0.032915360501567396,0.4761904761904762
lbewiki,87.0,0.42857142857142855,0.5555555555555556,0.9518796992481203,0.03134796238244514,0.48387096774193544
lbewiki,88.0,0.4838709677419355,0.5555555555555556,0.9578947368421052,0.025078369905956112,0.5172413793103449
lbewiki,89.0,0.4827586206896552,0.5185185185185185,0.9578947368421052,0.023510971786833857,0.5
lbewiki,90.0,0.46153846153846156,0.4444444444444444,0.956390977443609,0.0219435736677116,0.4528301886792453
lbewiki,91.0,0.5714285714285714,0.4444444444444444,0.9639097744360903,0.014106583072100314,0.5
lbewiki,92.0,0.5555555555555556,0.37037037037037035,0.9624060150375939,0.012539184952978056,0.4444444444444445
lbewiki,93.0,0.6666666666666666,0.2962962962962963,0.9654135338345865,0.006269592476489028,0.41025641025641024
lbewiki,94.0,0.7272727272727273,0.2962962962962963,0.9669172932330827,0.004702194357366771,0.42105263157894735
lbewiki,95.0,0.8571428571428571,0.2222222222222222,0.9669172932330827,0.001567398119122257,0.35294117647058826
lbewiki,96.0,0.8333333333333334,0.18518518518518517,0.9654135338345865,0.001567398119122257,0.303030303030303
lbewiki,97.0,0.8333333333333334,0.18518518518518517,0.9654135338345865,0.001567398119122257,0.303030303030303
lbewiki,98.0,0.8333333333333334,0.18518518518518517,0.9654135338345865,0.001567398119122257,0.303030303030303
lbewiki,99.0,0.8,0.14814814814814814,0.9639097744360903,0.001567398119122257,0.25
