wiki_db,threshold,precision,recall,accuracy,fpr,F1
lfnwiki,0.0,0.0472972972972973,1.0,0.0472972972972973,1.0,0.09032258064516129
lfnwiki,1.0,0.0472972972972973,1.0,0.0472972972972973,1.0,0.09032258064516129
lfnwiki,2.0,0.0472972972972973,1.0,0.0472972972972973,1.0,0.09032258064516129
lfnwiki,3.0,0.0472972972972973,1.0,0.0472972972972973,1.0,0.09032258064516129
lfnwiki,4.0,0.0472972972972973,1.0,0.0472972972972973,1.0,0.09032258064516129
lfnwiki,5.0,0.04751131221719457,1.0,0.0518018018018018,0.9952718676122931,0.09071274298056155
lfnwiki,6.0,0.047619047619047616,1.0,0.05405405405405406,0.9929078014184397,0.0909090909090909
lfnwiki,7.0,0.047619047619047616,1.0,0.05405405405405406,0.9929078014184397,0.0909090909090909
lfnwiki,8.0,0.04783599088838269,1.0,0.05855855855855856,0.9881796690307328,0.09130434782608696
lfnwiki,9.0,0.04861111111111111,1.0,0.07432432432432433,0.9716312056737588,0.09271523178807947
lfnwiki,10.0,0.04929577464788732,1.0,0.08783783783783784,0.9574468085106383,0.09395973154362416
lfnwiki,11.0,0.0498812351543943,1.0,0.0990990990990991,0.9456264775413712,0.09502262443438915
lfnwiki,12.0,0.050239234449760764,1.0,0.10585585585585586,0.9385342789598109,0.09567198177676536
lfnwiki,13.0,0.050724637681159424,1.0,0.11486486486486487,0.9290780141843972,0.09655172413793105
lfnwiki,14.0,0.05121951219512195,1.0,0.12387387387387387,0.9196217494089834,0.09744779582366589
lfnwiki,15.0,0.051470588235294115,1.0,0.12837837837837837,0.9148936170212766,0.09790209790209789
lfnwiki,16.0,0.05198019801980198,1.0,0.1373873873873874,0.9054373522458629,0.0988235294117647
lfnwiki,17.0,0.05263157894736842,1.0,0.14864864864864866,0.8936170212765957,0.1
lfnwiki,18.0,0.05303030303030303,1.0,0.1554054054054054,0.8865248226950354,0.10071942446043167
lfnwiki,19.0,0.0532994923857868,1.0,0.15990990990990991,0.8817966903073287,0.10120481927710843
lfnwiki,20.0,0.05426356589147287,1.0,0.17567567567567569,0.8652482269503546,0.10294117647058823
lfnwiki,21.0,0.05526315789473684,1.0,0.19144144144144143,0.8486997635933806,0.10473815461346632
lfnwiki,22.0,0.05570291777188329,1.0,0.1981981981981982,0.8416075650118203,0.10552763819095477
lfnwiki,23.0,0.057534246575342465,1.0,0.22522522522522523,0.8132387706855791,0.1088082901554404
lfnwiki,24.0,0.059322033898305086,1.0,0.25,0.7872340425531915,0.112
lfnwiki,25.0,0.061046511627906974,1.0,0.2725225225225225,0.7635933806146572,0.11506849315068494
lfnwiki,26.0,0.06231454005934718,1.0,0.2882882882882883,0.7470449172576832,0.11731843575418995
lfnwiki,27.0,0.06060606060606061,0.9523809523809523,0.29954954954954954,0.7328605200945626,0.11396011396011398
lfnwiki,28.0,0.06172839506172839,0.9523809523809523,0.3130630630630631,0.7186761229314421,0.11594202898550723
lfnwiki,29.0,0.06230529595015576,0.9523809523809523,0.31981981981981983,0.7115839243498818,0.11695906432748539
lfnwiki,30.0,0.06309148264984227,0.9523809523809523,0.32882882882882886,0.7021276595744681,0.11834319526627218
lfnwiki,31.0,0.06430868167202572,0.9523809523809523,0.34234234234234234,0.6879432624113475,0.12048192771084336
lfnwiki,32.0,0.06493506493506493,0.9523809523809523,0.3490990990990991,0.6808510638297872,0.121580547112462
lfnwiki,33.0,0.06578947368421052,0.9523809523809523,0.3581081081081081,0.6713947990543735,0.12307692307692307
lfnwiki,34.0,0.06688963210702341,0.9523809523809523,0.36936936936936937,0.6595744680851063,0.125
lfnwiki,35.0,0.06756756756756757,0.9523809523809523,0.3761261261261261,0.6524822695035462,0.12618296529968456
lfnwiki,36.0,0.06920415224913495,0.9523809523809523,0.3918918918918919,0.6359338061465721,0.12903225806451613
lfnwiki,37.0,0.07092198581560284,0.9523809523809523,0.40765765765765766,0.6193853427895981,0.13201320132013203
lfnwiki,38.0,0.07272727272727272,0.9523809523809523,0.42342342342342343,0.6028368794326241,0.13513513513513511
lfnwiki,39.0,0.07352941176470588,0.9523809523809523,0.43018018018018017,0.5957446808510638,0.13651877133105803
lfnwiki,40.0,0.07462686567164178,0.9523809523809523,0.4391891891891892,0.5862884160756501,0.13840830449826988
lfnwiki,41.0,0.07692307692307693,0.9523809523809523,0.4572072072072072,0.5673758865248227,0.1423487544483986
lfnwiki,42.0,0.0784313725490196,0.9523809523809523,0.46846846846846846,0.5555555555555556,0.14492753623188406
lfnwiki,43.0,0.08032128514056225,0.9523809523809523,0.481981981981982,0.541371158392435,0.14814814814814817
lfnwiki,44.0,0.08264462809917356,0.9523809523809523,0.49774774774774777,0.524822695035461,0.1520912547528517
lfnwiki,45.0,0.08547008547008547,0.9523809523809523,0.5157657657657657,0.5059101654846335,0.15686274509803924
lfnwiki,46.0,0.08620689655172414,0.9523809523809523,0.5202702702702703,0.5011820330969267,0.15810276679841898
lfnwiki,47.0,0.08888888888888889,0.9523809523809523,0.536036036036036,0.4846335697399527,0.1626016260162602
lfnwiki,48.0,0.09174311926605505,0.9523809523809523,0.5518018018018018,0.46808510638297873,0.16736401673640167
lfnwiki,49.0,0.09433962264150944,0.9523809523809523,0.5653153153153153,0.45390070921985815,0.17167381974248927
lfnwiki,50.0,0.0947867298578199,0.9523809523809523,0.5675675675675675,0.4515366430260047,0.17241379310344826
lfnwiki,51.0,0.0975609756097561,0.9523809523809523,0.581081081081081,0.4373522458628842,0.17699115044247787
lfnwiki,52.0,0.10152284263959391,0.9523809523809523,0.5990990990990991,0.41843971631205673,0.18348623853211007
lfnwiki,53.0,0.10471204188481675,0.9523809523809523,0.6126126126126126,0.40425531914893614,0.18867924528301885
lfnwiki,54.0,0.1111111111111111,0.9523809523809523,0.6373873873873874,0.37825059101654845,0.1990049751243781
lfnwiki,55.0,0.11764705882352941,0.9523809523809523,0.6599099099099099,0.3546099290780142,0.2094240837696335
lfnwiki,56.0,0.12121212121212122,0.9523809523809523,0.6711711711711712,0.34278959810874704,0.2150537634408602
lfnwiki,57.0,0.13245033112582782,0.9523809523809523,0.7027027027027027,0.30969267139479906,0.23255813953488375
lfnwiki,58.0,0.1360544217687075,0.9523809523809523,0.7117117117117117,0.30023640661938533,0.23809523809523814
lfnwiki,59.0,0.14184397163120568,0.9523809523809523,0.7252252252252253,0.2860520094562648,0.24691358024691362
lfnwiki,60.0,0.14705882352941177,0.9523809523809523,0.7364864864864865,0.27423167848699764,0.2547770700636943
lfnwiki,61.0,0.15037593984962405,0.9523809523809523,0.7432432432432432,0.26713947990543735,0.2597402597402597
lfnwiki,62.0,0.16,0.9523809523809523,0.7612612612612613,0.24822695035460993,0.273972602739726
lfnwiki,63.0,0.16393442622950818,0.9523809523809523,0.7680180180180181,0.24113475177304963,0.2797202797202797
lfnwiki,64.0,0.1724137931034483,0.9523809523809523,0.7815315315315315,0.22695035460992907,0.29197080291970806
lfnwiki,65.0,0.1834862385321101,0.9523809523809523,0.7972972972972973,0.21040189125295508,0.3076923076923077
lfnwiki,66.0,0.19047619047619047,0.9523809523809523,0.8063063063063063,0.20094562647754138,0.31746031746031744
lfnwiki,67.0,0.1941747572815534,0.9523809523809523,0.8108108108108109,0.19621749408983452,0.32258064516129037
lfnwiki,68.0,0.1919191919191919,0.9047619047619048,0.8153153153153153,0.18912529550827423,0.31666666666666665
lfnwiki,69.0,0.20430107526881722,0.9047619047619048,0.8288288288288288,0.17494089834515367,0.33333333333333337
lfnwiki,70.0,0.20454545454545456,0.8571428571428571,0.8355855855855856,0.16548463356973994,0.3302752293577982
lfnwiki,71.0,0.21686746987951808,0.8571428571428571,0.8468468468468469,0.1536643026004728,0.3461538461538462
lfnwiki,72.0,0.2222222222222222,0.8571428571428571,0.8513513513513513,0.14893617021276595,0.35294117647058826
lfnwiki,73.0,0.24324324324324326,0.8571428571428571,0.8671171171171171,0.13238770685579196,0.37894736842105264
lfnwiki,74.0,0.2535211267605634,0.8571428571428571,0.8738738738738738,0.12529550827423167,0.3913043478260869
lfnwiki,75.0,0.2727272727272727,0.8571428571428571,0.8851351351351351,0.11347517730496454,0.41379310344827586
lfnwiki,76.0,0.27419354838709675,0.8095238095238095,0.8896396396396397,0.10638297872340426,0.4096385542168674
lfnwiki,77.0,0.27419354838709675,0.8095238095238095,0.8896396396396397,0.10638297872340426,0.4096385542168674
lfnwiki,78.0,0.26666666666666666,0.7619047619047619,0.8896396396396397,0.10401891252955082,0.3950617283950617
lfnwiki,79.0,0.2711864406779661,0.7619047619047619,0.8918918918918919,0.1016548463356974,0.4
lfnwiki,80.0,0.2857142857142857,0.7619047619047619,0.8986486486486487,0.09456264775413711,0.41558441558441556
lfnwiki,81.0,0.3137254901960784,0.7619047619047619,0.9099099099099099,0.08274231678486997,0.4444444444444444
lfnwiki,82.0,0.32,0.7619047619047619,0.9121621621621622,0.08037825059101655,0.4507042253521127
lfnwiki,83.0,0.32608695652173914,0.7142857142857143,0.9166666666666666,0.07328605200945626,0.4477611940298507
lfnwiki,84.0,0.32558139534883723,0.6666666666666666,0.918918918918919,0.06855791962174941,0.4375
lfnwiki,85.0,0.3333333333333333,0.6666666666666666,0.9211711711711712,0.06619385342789598,0.4444444444444444
lfnwiki,86.0,0.3333333333333333,0.6190476190476191,0.9234234234234234,0.061465721040189124,0.43333333333333335
lfnwiki,87.0,0.2857142857142857,0.47619047619047616,0.918918918918919,0.0591016548463357,0.3571428571428571
lfnwiki,88.0,0.3103448275862069,0.42857142857142855,0.9279279279279279,0.04728132387706856,0.36000000000000004
lfnwiki,89.0,0.3103448275862069,0.42857142857142855,0.9279279279279279,0.04728132387706856,0.36000000000000004
lfnwiki,90.0,0.3333333333333333,0.38095238095238093,0.9346846846846847,0.037825059101654845,0.35555555555555557
lfnwiki,91.0,0.38095238095238093,0.38095238095238093,0.9414414414414415,0.030732860520094562,0.38095238095238093
lfnwiki,92.0,0.4117647058823529,0.3333333333333333,0.9459459459459459,0.02364066193853428,0.36842105263157887
lfnwiki,93.0,0.3333333333333333,0.23809523809523808,0.9414414414414415,0.02364066193853428,0.2777777777777778
lfnwiki,94.0,0.38461538461538464,0.23809523809523808,0.9459459459459459,0.018912529550827423,0.2941176470588235
lfnwiki,95.0,0.45454545454545453,0.23809523809523808,0.9504504504504504,0.014184397163120567,0.31249999999999994
lfnwiki,96.0,0.4444444444444444,0.19047619047619047,0.9504504504504504,0.01182033096926714,0.26666666666666666
lfnwiki,97.0,0.8,0.19047619047619047,0.9594594594594594,0.002364066193853428,0.3076923076923077
lfnwiki,98.0,1.0,0.19047619047619047,0.9617117117117117,0.0,0.32
lfnwiki,99.0,1.0,0.09523809523809523,0.9572072072072072,0.0,0.17391304347826084
