wiki_db,threshold,precision,recall,accuracy,fpr,F1
lmowiki,0.0,0.007187529170167087,1.0,0.007187529170167087,1.0,0.014272474513438368
lmowiki,1.0,0.00718954248366013,1.0,0.00746756277419957,0.9997179390748402,0.01427644386761843
lmowiki,2.0,0.007194921232071479,0.9935064935064936,0.01460841967702791,0.9924783753290711,0.014286381250291797
lmowiki,3.0,0.00738025179682601,0.9935064935064936,0.03953141043591898,0.9673749529898458,0.014651663873593488
lmowiki,4.0,0.007545494895694629,0.9935064935064936,0.060720619807710256,0.946032342986085,0.014977240467916401
lmowiki,5.0,0.007862611214566521,0.987012987012987,0.10473256790814897,0.9016547574276044,0.015600944267679358
lmowiki,6.0,0.008482723519764746,0.974025974025974,0.18150844768038832,0.8242290334712298,0.016818971800190617
lmowiki,7.0,0.010948105977665865,0.974025974025974,0.3673574162232801,0.6370345994734863,0.021652832912306026
lmowiki,8.0,0.015398925175692435,0.9675324675324676,0.5551199477270605,0.4478657389996239,0.03031536113936928
lmowiki,9.0,0.020815870354847724,0.9675324675324676,0.6726407168860263,0.32949417074088005,0.04075492341356674
lmowiki,10.0,0.023024268823895456,0.961038961038961,0.7066181275086344,0.29522376833396013,0.044971133394105134
lmowiki,11.0,0.025824463444425058,0.961038961038961,0.7391486978437413,0.262457690861226,0.05029736618521666
lmowiki,12.0,0.02853837254145777,0.961038961038961,0.7645850835433585,0.2368371568258744,0.05543071161048689
lmowiki,13.0,0.029911075181891674,0.961038961038961,0.7756930831699804,0.22564874012786762,0.05801646413171306
lmowiki,14.0,0.031827956989247314,0.961038961038961,0.7896014188369271,0.2116397141782625,0.061615320566194835
lmowiki,15.0,0.033863165169315826,0.9545454545454546,0.8039298049099225,0.19716058668672434,0.0654060066740823
lmowiki,16.0,0.037262357414448666,0.9545454545454546,0.8224120227760665,0.17854456562617527,0.071724810929495
lmowiki,17.0,0.04169030062393647,0.9545454545454546,0.8419677027910016,0.15884731101918015,0.0798913043478261
lmowiki,18.0,0.04373876572798083,0.948051948051948,0.8506487445160086,0.15005641218503196,0.08361970217640322
lmowiki,19.0,0.04594767070835992,0.935064935064935,0.859983197983758,0.1405603610379842,0.08759124087591241
lmowiki,20.0,0.04866508955728287,0.935064935064935,0.8681508447680388,0.13233358405415568,0.09251525859299711
lmowiki,21.0,0.05021216407355021,0.922077922077922,0.8740782227200597,0.12626927416321926,0.09523809523809523
lmowiki,22.0,0.051159366948840636,0.9025974025974026,0.8789788107906282,0.12119217751034224,0.09683037269244166
lmowiki,23.0,0.053224553224553224,0.8896103896103896,0.885466255950714,0.11456374576908612,0.10043988269794721
lmowiki,24.0,0.057724957555178265,0.8831168831168831,0.8955474656958835,0.10436254230913877,0.10836653386454183
lmowiki,25.0,0.06052514463729417,0.8831168831168831,0.9006347428358069,0.09923843550206844,0.11328613077884214
lmowiki,26.0,0.06226937269372694,0.8766233766233766,0.9042285074208906,0.0955716434749906,0.11627906976744187
lmowiki,27.0,0.06716791979949875,0.8701298701298701,0.9122094651358162,0.08748589695374201,0.12470916705444393
lmowiki,28.0,0.07604994324631101,0.8701298701298701,0.9230841034257444,0.07653253102670177,0.139874739039666
lmowiki,29.0,0.08024316109422493,0.8571428571428571,0.9283580696350229,0.07112636329447161,0.14674819344080045
lmowiki,30.0,0.08248730964467005,0.8441558441558441,0.9313917670120414,0.06797668296352012,0.15028901734104044
lmowiki,31.0,0.08597883597883597,0.8441558441558441,0.9343787921217213,0.06496803309514855,0.156062424969988
lmowiki,32.0,0.0884167237834133,0.8376623376623377,0.9367590777559974,0.06252350507709666,0.15995040297582144
lmowiki,33.0,0.09148936170212765,0.8376623376623377,0.939046018855596,0.06022000752162467,0.1649616368286445
lmowiki,34.0,0.09492273730684327,0.8376623376623377,0.9414263044898721,0.057822489657766075,0.17052214144084601
lmowiki,35.0,0.09689629068887207,0.8311688311688312,0.943106506114067,0.05608311395261376,0.1735593220338983
lmowiki,36.0,0.10094637223974763,0.8311688311688312,0.9455801362830206,0.05359157578036856,0.18002812939521798
lmowiki,37.0,0.1055234954657873,0.8311688311688312,0.9481471109866517,0.05100601729973674,0.18727139722019018
lmowiki,38.0,0.1095890410958904,0.8311688311688312,0.9502473630168954,0.048890560361037984,0.19364599092284418
lmowiki,39.0,0.1152115211521152,0.8311688311688312,0.952907682255204,0.046210981572019555,0.20237154150197628
lmowiki,40.0,0.12118320610687022,0.8246753246753247,0.9557546905628675,0.0432963520120346,0.21131447587354407
lmowiki,41.0,0.12841253791708795,0.8246753246753247,0.9585083543358537,0.04052275291462956,0.2222222222222222
lmowiki,42.0,0.1320754716981132,0.8181818181818182,0.9600485391580323,0.03892440767205716,0.22743682310469315
lmowiki,43.0,0.1341330425299891,0.7987012987012987,0.9614953794455334,0.03732606242948477,0.22969187675070024
lmowiki,44.0,0.13961407491486946,0.7987012987012987,0.9631755810697283,0.03563369687852576,0.23768115942028983
lmowiki,45.0,0.14470588235294118,0.7987012987012987,0.9646224213572295,0.034176382098533284,0.2450199203187251
lmowiki,46.0,0.15166461159062886,0.7987012987012987,0.9664426397834407,0.032342986084994356,0.2549222797927461
lmowiki,47.0,0.15404040404040403,0.7922077922077922,0.9672360683281994,0.031496803309514855,0.25792811839323465
lmowiki,48.0,0.15879265091863518,0.7857142857142857,0.9685428918136844,0.03013350883790899,0.26419213973799127
lmowiki,49.0,0.16219839142091153,0.7857142857142857,0.9692896480911043,0.029381346370816096,0.26888888888888884
lmowiki,50.0,0.16575342465753426,0.7857142857142857,0.9700364043685242,0.028629183903723203,0.2737556561085973
lmowiki,51.0,0.17069701280227595,0.7792207792207793,0.9712032110519929,0.027406919894697256,0.2800466744457409
lmowiki,52.0,0.17595307917888564,0.7792207792207793,0.9721833286661066,0.026419706656637832,0.28708133971291866
lmowiki,53.0,0.17841079460269865,0.7727272727272727,0.9727900681415104,0.025761564497931554,0.28989037758830694
lmowiki,54.0,0.18322981366459629,0.7662337662337663,0.973770185755624,0.024727341105678827,0.2957393483709273
lmowiki,55.0,0.18660287081339713,0.7597402597402597,0.9744702697657052,0.023975178638585934,0.29961587708066584
lmowiki,56.0,0.19078947368421054,0.7532467532467533,0.9752636983104639,0.02312899586310643,0.30446194225721784
lmowiki,57.0,0.1936026936026936,0.7467532467532467,0.9758237655185289,0.022517863858593456,0.3074866310160428
lmowiki,58.0,0.19930675909878684,0.7467532467532467,0.9766171940632876,0.02171869123730726,0.3146374829001368
lmowiki,59.0,0.20353982300884957,0.7467532467532467,0.9771772612713525,0.02115456938698759,0.3198887343532684
lmowiki,60.0,0.20909090909090908,0.7467532467532467,0.9778773452814338,0.020449417074088004,0.3267045454545454
lmowiki,61.0,0.21415270018621974,0.7467532467532467,0.9784840847568375,0.019838285069575027,0.33285094066570187
lmowiki,62.0,0.21739130434782608,0.7467532467532467,0.9788574628955474,0.01946220383602858,0.3367496339677892
lmowiki,63.0,0.222007722007722,0.7467532467532467,0.9793708578362736,0.01894509213990222,0.34226190476190477
lmowiki,64.0,0.22593320235756384,0.7467532467532467,0.9797909082423224,0.018522000752162468,0.3469079939668175
lmowiki,65.0,0.2289156626506024,0.7402597402597403,0.9802109586483712,0.01805189921022941,0.3496932515337423
lmowiki,66.0,0.2331288343558282,0.7402597402597403,0.9806310090544199,0.017628807822489656,0.35458786936236386
lmowiki,67.0,0.23640167364016737,0.7337662337662337,0.9810510594604686,0.0171587062805566,0.3575949367088607
lmowiki,68.0,0.2445414847161572,0.7272727272727273,0.9818911602725661,0.01626551335088379,0.3660130718954248
lmowiki,69.0,0.2505592841163311,0.7272727272727273,0.9824045552132923,0.015748401654757428,0.37271214642262895
lmowiki,70.0,0.25227272727272726,0.7207792207792207,0.982637916549986,0.015466340729597593,0.3737373737373737
lmowiki,71.0,0.25586854460093894,0.7077922077922078,0.9831046392233734,0.014902218879277925,0.37586206896551727
lmowiki,72.0,0.2616136919315403,0.6948051948051948,0.9837113786987772,0.014197066566378338,0.3801065719360568
lmowiki,73.0,0.26616915422885573,0.6948051948051948,0.9840380845701484,0.013867995487025197,0.3848920863309352
lmowiki,74.0,0.28157894736842104,0.6948051948051948,0.9850648744516008,0.012833772094772471,0.40074906367041196
lmowiki,75.0,0.2907608695652174,0.6948051948051948,0.9856249416596659,0.012269650244452802,0.4099616858237548
lmowiki,76.0,0.29329608938547486,0.6818181818181818,0.9859049752636984,0.011893569010906355,0.41015624999999994
lmowiki,77.0,0.2976878612716763,0.6688311688311688,0.9862783534024083,0.011423467468973299,0.41200000000000003
lmowiki,78.0,0.3048780487804878,0.6493506493506493,0.9868384206104732,0.010718315156073712,0.41493775933609955
lmowiki,79.0,0.3022508038585209,0.6103896103896104,0.987071781947167,0.010201203459947348,0.4043010752688172
lmowiki,80.0,0.29310344827586204,0.551948051948052,0.9872117987491832,0.00963708160962768,0.38288288288288286
lmowiki,81.0,0.3038461538461538,0.512987012987013,0.9880518995612807,0.008508837908988341,0.38164251207729466
lmowiki,82.0,0.3031674208144796,0.43506493506493504,0.9887519835713618,0.007239563745769086,0.3573333333333333
lmowiki,83.0,0.30319148936170215,0.37012987012987014,0.9893587230467656,0.006158330199323054,0.3333333333333333
lmowiki,84.0,0.2847682119205298,0.2792207792207792,0.9897787734528143,0.005077096652877021,0.28196721311475414
lmowiki,85.0,0.30327868852459017,0.24025974025974026,0.990572201997573,0.003995863106430989,0.2681159420289855
lmowiki,86.0,0.2894736842105263,0.21428571428571427,0.990572201997573,0.003807822489657766,0.24626865671641787
lmowiki,87.0,0.2803738317757009,0.19480519480519481,0.9906188742649118,0.003619781872884543,0.22988505747126436
lmowiki,88.0,0.3103448275862069,0.17532467532467533,0.9912722860076543,0.0028206092515983454,0.22406639004149378
lmowiki,89.0,0.32894736842105265,0.16233766233766234,0.9915989918790254,0.0023975178638585937,0.21739130434782608
lmowiki,90.0,0.34375,0.14285714285714285,0.991879025483058,0.001974426476118842,0.2018348623853211
lmowiki,91.0,0.32727272727272727,0.11688311688311688,0.9919256977503967,0.0017393757051523129,0.17224880382775118
lmowiki,92.0,0.3333333333333333,0.09090909090909091,0.9921590590870905,0.0013162843174125611,0.14285714285714288
lmowiki,93.0,0.46153846153846156,0.07792207792207792,0.9927191262951555,0.0006581421587062806,0.13333333333333333
lmowiki,94.0,0.4,0.03896103896103896,0.9926724540278167,0.00042309138773975177,0.0710059171597633
lmowiki,95.0,0.3333333333333333,0.01948051948051948,0.9926724540278167,0.00028206092515983453,0.03680981595092024
lmowiki,96.0,0.42857142857142855,0.01948051948051948,0.9927657985624941,0.000188040616773223,0.037267080745341616
lmowiki,97.0,0.75,0.01948051948051948,0.9929058153645104,4.701015419330575e-05,0.0379746835443038
lmowiki,98.0,1.0,0.006493506493506494,0.9928591430971717,0.0,0.012903225806451613
lmowiki,99.0,1.0,0.006493506493506494,0.9928591430971717,0.0,0.012903225806451613
