wiki_db,threshold,precision,recall,accuracy,fpr,F1
lvwiki,0.0,0.06640612622128333,1.0,0.06640612622128333,1.0,0.12454190685604484
lvwiki,1.0,0.06642366613840466,1.0,0.06667018748349617,0.9997171561750464,0.12457275330156437
lvwiki,2.0,0.06667939376584259,1.0,0.07050435701082651,0.9956102638367199,0.12502237158709012
lvwiki,3.0,0.06712728127035657,0.9998409416255766,0.07728545022445207,0.988335520658913,0.12580806564595215
lvwiki,4.0,0.06810370065165298,0.9990456497534596,0.09213625561130183,0.972371815178531,0.12751487098280448
lvwiki,5.0,0.06972917685774002,0.9976141243836488,0.11601795616583047,0.9466895958727429,0.13034758663687845
lvwiki,6.0,0.07254084115397984,0.9958644822649912,0.1542117771322947,0.9056546137484727,0.13523116299664137
lvwiki,7.0,0.07615813432654155,0.9952282487672977,0.19798257195669394,0.8587251663121691,0.14148906099836056
lvwiki,8.0,0.08015399422521656,0.9934786066486401,0.24246105096382362,0.8109585011540028,0.1483399040516791
lvwiki,9.0,0.08447154471544716,0.9915699061555591,0.2857776604172168,0.7644250350726343,0.1556806972417496
lvwiki,10.0,0.08895017361359188,0.9901383807857483,0.32590440982307894,0.7213422636556999,0.16323587255801758
lvwiki,11.0,0.09338913897713072,0.9866390965484333,0.36306311064166885,0.6812915780422681,0.17062771634483137
lvwiki,12.0,0.09779638259221231,0.9847303960553523,0.3957222075521521,0.6461736887360275,0.17792274974134958
lvwiki,13.0,0.10221273356172318,0.9823445204390011,0.4258463163453921,0.6137371588903471,0.18515964622995051
lvwiki,14.0,0.10646276136167271,0.9799586448226499,0.45249537892791125,0.5850228537810562,0.19206010256090525
lvwiki,15.0,0.11060264841005314,0.9764593605853348,0.47701082651175075,0.5585147305064035,0.19869886069394094
lvwiki,16.0,0.11475933617757061,0.9712104342293622,0.5005862160021125,0.5328890799656062,0.20526439640972197
lvwiki,17.0,0.11925202869575444,0.9677111499920471,0.5232426722999736,0.5083721772186269,0.21233749236541313
lvwiki,18.0,0.12384375063810671,0.9646890408780022,0.5444415104304199,0.48545051364438613,0.2195077813970322
lvwiki,19.0,0.12880382775119617,0.9634165738826149,0.5648481647742276,0.4635018328279857,0.22722839135654263
lvwiki,20.0,0.13370405653898132,0.9599172896452999,0.5843253234750462,0.442390369733448,0.23471530802738022
lvwiki,21.0,0.13872418964125044,0.9564180054079847,0.6027884869289675,0.4223650269267321,0.24230335267569314
lvwiki,22.0,0.1436251920122888,0.9518053125497058,0.6199313440718247,0.40367470697379737,0.24958812120706558
lvwiki,23.0,0.14888411802885815,0.9486241450612375,0.6364721415368365,0.3857310947187401,0.2573740425072823
lvwiki,24.0,0.15389216884704413,0.941148401463337,0.6524742540269343,0.36805901253563833,0.26452968526466375
lvwiki,25.0,0.159302357121545,0.9341498329887069,0.6682545550567732,0.350658460424492,0.2721879779394726
lvwiki,26.0,0.16503069220106928,0.9279465563861937,0.6834433588592553,0.3339480472462325,0.2802247946587252
lvwiki,27.0,0.17131273674242425,0.9207889295371401,0.6989595986268814,0.3168190252070417,0.2888794630604556
lvwiki,28.0,0.17735477114519804,0.9158581199300143,0.7123105360443623,0.3021677150744445,0.2971640905220241
lvwiki,29.0,0.18416993380037278,0.9115635438205821,0.7259783469764985,0.28722224736389557,0.30642962170832777
lvwiki,30.0,0.1907388833166165,0.9074280260855734,0.73818853974122,0.2738493913200887,0.31521949332817634
lvwiki,31.0,0.1974657177573338,0.9047240337203754,0.7495009242144177,0.26154002805810744,0.32417645047304233
lvwiki,32.0,0.20422357562434681,0.9013838078574837,0.7602112490097702,0.24983029370502782,0.3330003525678693
lvwiki,33.0,0.21095706117567922,0.8978845236201686,0.7702033271719039,0.23887858080282393,0.34164497972523156
lvwiki,34.0,0.21762520318910133,0.8943852393828535,0.7794665962503301,0.22870751685749197,0.35007003891050587
lvwiki,35.0,0.22430917100520625,0.8908859551455384,0.7881700554528651,0.21913608182106167,0.3583837220462616
lvwiki,36.0,0.23153568314858639,0.8870685541593765,0.7969897016107736,0.20941756799565553,0.3672219661552644
lvwiki,37.0,0.23835863133521995,0.884205503419755,0.8046897280169,0.20096619450604156,0.3754939376540917
lvwiki,38.0,0.24598740799858118,0.8824558613010975,0.8125693160813309,0.19240168348644612,0.3847300717728234
lvwiki,39.0,0.2529029898509646,0.8799109273103229,0.8194137839978876,0.18488935149567814,0.392883775434111
lvwiki,40.0,0.2605414583529856,0.8786384603149355,0.8263427515183522,0.17737701950491017,0.4019062170322675
lvwiki,41.0,0.26764191290824263,0.8759344679497375,0.8325957222075522,0.17048694392904015,0.4100063284071027
lvwiki,42.0,0.27527442233472005,0.8735485923333863,0.8388803802482175,0.16358555460017196,0.4186294687095053
lvwiki,43.0,0.28309203722854187,0.8708445999681883,0.8449749141800897,0.1568651853192741,0.42728372419713584
lvwiki,44.0,0.2904579747104452,0.869572132972801,0.8502772643253235,0.1510951712902204,0.4354613883468079
lvwiki,45.0,0.29728109845801776,0.8678224908541434,0.8549986796936889,0.1459134724170702,0.44285714285714284
lvwiki,46.0,0.3046713286713287,0.8662319071099094,0.859836282017428,0.14061863601393854,0.4507904974753746
lvwiki,47.0,0.3127842053761584,0.8643232066168284,0.8648851333509374,0.1350748970448477,0.4593406593406594
lvwiki,48.0,0.3198631349182939,0.8624145061237474,0.8690889886453658,0.13043625831560846,0.46664945348136666
lvwiki,49.0,0.32755695588948136,0.8598695721329728,0.8734724055980988,0.12556003077340816,0.47439778860076354
lvwiki,50.0,0.33571962151394424,0.8578018132654684,0.8778452601003432,0.12072905824320043,0.4825734866448929
lvwiki,51.0,0.3438118970033864,0.8558931127723874,0.881954053340375,0.11619224329094448,0.4905643176223904
lvwiki,52.0,0.3514592330846748,0.8543025290281533,0.8856403485608662,0.11213060596461058,0.49802957948908155
lvwiki,53.0,0.35988457925110723,0.853030062032766,0.889485080538685,0.1079218898493008,0.5062060503091226
lvwiki,54.0,0.3679258241758242,0.8520757117862255,0.8929706891998944,0.10412046884192425,0.5139348587326714
lvwiki,55.0,0.3752808988764045,0.8500079529187212,0.8960760496435173,0.10064714667149387,0.5206800798947727
lvwiki,56.0,0.3833500933773883,0.8488945442977572,0.8992870345920253,0.09712856948907092,0.5281805136325399
lvwiki,57.0,0.3908037547667938,0.8476220773023699,0.902138896223924,0.09398334615558673,0.5349595944385885
lvwiki,58.0,0.39824863408427513,0.8463496103069826,0.9048745709004489,0.09096257410508214,0.5416327361563518
lvwiki,59.0,0.4059277366129402,0.8452362016860188,0.9075785582255084,0.08798705706657012,0.5484570131076478
lvwiki,60.0,0.41462079749804537,0.8434865595673612,0.9105254819118035,0.0847060686971082,0.5559574356555015
lvwiki,61.0,0.42151787847415784,0.8418959758231271,0.9127752838658568,0.08218310177852198,0.5617703247718107
lvwiki,62.0,0.4292797919037555,0.8399872753300461,0.9152152099287034,0.07943385979997285,0.5681854860401313
lvwiki,63.0,0.4364750703992049,0.8382376332113886,0.9173910747293372,0.07697877539937548,0.5740428081259191
lvwiki,64.0,0.444322406218317,0.8364879910927311,0.9196725640348561,0.07441055346879667,0.5803674888263533
lvwiki,65.0,0.4528594841714828,0.8350564657229204,0.9220491153947716,0.07176313526723084,0.5872483221476511
lvwiki,66.0,0.4624338624338624,0.8341021154763798,0.9245946659625033,0.06896863827668914,0.5949963124751801
lvwiki,67.0,0.4718817591925018,0.8328296484809925,0.9270029046738844,0.06629859256912703,0.6024276592072715
lvwiki,68.0,0.4797539252593885,0.8310800063623349,0.9289358331132823,0.064103724487487,0.6083362440330655
lvwiki,69.0,0.4893078221722003,0.8298075393669476,0.9311856350673356,0.061603385074897044,0.6156115405038645
lvwiki,70.0,0.4980373384394447,0.8274216637505964,0.9331608133086876,0.05931800696927185,0.6218025340664595
lvwiki,71.0,0.5065480844409695,0.8243995546365516,0.9350092421441775,0.057123138887631805,0.627519825655306
lvwiki,72.0,0.5134678461385548,0.8216955622713535,0.9364562978611037,0.05538082092591755,0.6320039148519697
lvwiki,73.0,0.5214568327077204,0.8175600445363448,0.9380617903353577,0.053366972892247816,0.6367690782953419
lvwiki,74.0,0.5303454715219421,0.8131064100524893,0.9397729073144969,0.05121735982260035,0.641969107120432
lvwiki,75.0,0.5371211321153236,0.8089708923174805,0.9410192764721416,0.049588179390867536,0.6455953287636456
lvwiki,76.0,0.5451703320396722,0.8043581994592015,0.9424452072880909,0.04773272389917183,0.649874702820793
lvwiki,77.0,0.5551994695546469,0.7991092731032289,0.9441457618167415,0.045537855817531794,0.655190401669275
lvwiki,78.0,0.5634362233318202,0.7897248290122475,0.9454026934248746,0.04352400778386206,0.6576594476455394
lvwiki,79.0,0.5747838279971956,0.7824081437887704,0.9471138104040138,0.041170747160247996,0.6627147187605253
lvwiki,80.0,0.5841346153846154,0.7730236996977891,0.9483813044626354,0.03914558537358012,0.6654343807763401
lvwiki,81.0,0.5936685288640596,0.7606171464927628,0.9495326115658833,0.03702991356292709,0.6668526007530331
lvwiki,82.0,0.6049510056730273,0.7463018927946556,0.9507895431740164,0.034665339186314884,0.6682332834864344
lvwiki,83.0,0.6159721291705749,0.7311913472244314,0.9518774755743332,0.032425216092682264,0.6686545454545454
lvwiki,84.0,0.6275910364145658,0.7127405757913154,0.9528386585687879,0.030083269222066344,0.667461085871751
lvwiki,85.0,0.6411384976525821,0.6950850962303166,0.9539160285186163,0.027673439833461554,0.6670228192017095
lvwiki,86.0,0.6539475725143478,0.6705901065691109,0.9545603379984157,0.025240982938860478,0.6621642845924297
lvwiki,87.0,0.6664484451718494,0.6476857006521394,0.9550778980723528,0.023057428610218582,0.6569331289828184
lvwiki,88.0,0.6821759664159525,0.6203276602513123,0.95559545814629,0.020557089197628636,0.6497834055314896
lvwiki,89.0,0.6941683855240952,0.5888341021154764,0.9554687087404278,0.01845273113997375,0.6371772805507745
lvwiki,90.0,0.7049714751426243,0.5503419755050103,0.9548455241616055,0.0163823143413133,0.6181330951317553
lvwiki,91.0,0.7189732142857143,0.5123270240178145,0.9543174016371798,0.014244015024663981,0.5983096498560416
lvwiki,92.0,0.7359620663838283,0.4690631461746461,0.9535674676524953,0.011969950672036928,0.5729551194870799
lvwiki,93.0,0.7528735632183908,0.4167329409893431,0.9521837866385001,0.009729827578404309,0.5365004607351285
lvwiki,94.0,0.7799227799227799,0.35342770796882456,0.9504409823078954,0.007093723129836629,0.48642732049036774
lvwiki,95.0,0.816414686825054,0.3006203276602513,0.9490678637443887,0.004808345024211432,0.43943269007207625
lvwiki,96.0,0.8604780433574208,0.24622236360744393,0.9472933720623185,0.0028397520025342806,0.38288399703190706
lvwiki,97.0,0.9115179252479023,0.190074757435979,0.9449907578558225,0.0013123953477847672,0.3145564622269018
lvwiki,98.0,0.9592298980747452,0.13472244313663115,0.9421600211249009,0.0004072951079332036,0.23626220362622039
lvwiki,99.0,0.987037037037037,0.08477811356767934,0.9391497227356747,7.919627098701181e-05,0.15614471949611836
