wiki_db,threshold,precision,recall,accuracy,fpr,F1
mhrwiki,0.0,0.04843304843304843,1.0,0.04843304843304843,1.0,0.09239130434782608
mhrwiki,1.0,0.04843304843304843,1.0,0.04843304843304843,1.0,0.09239130434782608
mhrwiki,2.0,0.04843304843304843,1.0,0.04843304843304843,1.0,0.09239130434782608
mhrwiki,3.0,0.04843304843304843,1.0,0.04843304843304843,1.0,0.09239130434782608
mhrwiki,4.0,0.04843304843304843,1.0,0.04843304843304843,1.0,0.09239130434782608
mhrwiki,5.0,0.04843304843304843,1.0,0.04843304843304843,1.0,0.09239130434782608
mhrwiki,6.0,0.04843304843304843,1.0,0.04843304843304843,1.0,0.09239130434782608
mhrwiki,7.0,0.04857142857142857,1.0,0.05128205128205128,0.9970059880239521,0.09264305177111717
mhrwiki,8.0,0.04864091559370529,1.0,0.05270655270655271,0.9955089820359282,0.0927694406548431
mhrwiki,9.0,0.04871060171919771,1.0,0.05413105413105413,0.9940119760479041,0.09289617486338798
mhrwiki,10.0,0.04878048780487805,1.0,0.05555555555555555,0.9925149700598802,0.09302325581395349
mhrwiki,11.0,0.04899135446685879,1.0,0.05982905982905983,0.9880239520958084,0.09340659340659341
mhrwiki,12.0,0.04927536231884058,1.0,0.06552706552706553,0.9820359281437125,0.09392265193370165
mhrwiki,13.0,0.04941860465116279,1.0,0.06837606837606838,0.9790419161676647,0.09418282548476453
mhrwiki,14.0,0.050073637702503684,1.0,0.0811965811965812,0.9655688622754491,0.09537166900420757
mhrwiki,15.0,0.05052005943536404,1.0,0.08974358974358974,0.9565868263473054,0.09618104667609619
mhrwiki,16.0,0.05214723926380368,1.0,0.11965811965811966,0.9251497005988024,0.09912536443148688
mhrwiki,17.0,0.05345911949685535,1.0,0.14245014245014245,0.9011976047904192,0.10149253731343283
mhrwiki,18.0,0.054838709677419356,1.0,0.16524216524216523,0.8772455089820359,0.10397553516819572
mhrwiki,19.0,0.05601317957166392,1.0,0.18376068376068377,0.8577844311377245,0.1060842433697348
mhrwiki,20.0,0.056856187290969896,1.0,0.19658119658119658,0.844311377245509,0.10759493670886076
mhrwiki,21.0,0.05821917808219178,1.0,0.21652421652421652,0.8233532934131736,0.11003236245954692
mhrwiki,22.0,0.05975395430579965,1.0,0.2378917378917379,0.8008982035928144,0.11276948590381426
mhrwiki,23.0,0.06017699115044248,1.0,0.24358974358974358,0.7949101796407185,0.11352253756260434
mhrwiki,24.0,0.06104129263913824,1.0,0.254985754985755,0.7829341317365269,0.11505922165820644
mhrwiki,25.0,0.06181818181818182,1.0,0.26495726495726496,0.7724550898203593,0.11643835616438357
mhrwiki,26.0,0.0625,1.0,0.27350427350427353,0.7634730538922155,0.11764705882352941
mhrwiki,27.0,0.06307977736549165,1.0,0.28062678062678065,0.7559880239520959,0.11867364746945899
mhrwiki,28.0,0.06451612903225806,1.0,0.29772079772079774,0.7380239520958084,0.12121212121212122
mhrwiki,29.0,0.06513409961685823,1.0,0.30484330484330485,0.7305389221556886,0.12230215827338127
mhrwiki,30.0,0.06358381502890173,0.9705882352941176,0.30626780626780625,0.7275449101796407,0.11934900542495479
mhrwiki,31.0,0.06534653465346535,0.9705882352941176,0.3262108262108262,0.7065868263473054,0.12244897959183675
mhrwiki,32.0,0.07006369426751592,0.9705882352941176,0.37464387464387466,0.655688622754491,0.1306930693069307
mhrwiki,33.0,0.07674418604651163,0.9705882352941176,0.43304843304843305,0.594311377245509,0.14224137931034486
mhrwiki,34.0,0.08148148148148149,0.9705882352941176,0.4686609686609687,0.5568862275449101,0.15034168564920275
mhrwiki,35.0,0.08461538461538462,0.9705882352941176,0.49002849002849,0.5344311377245509,0.15566037735849056
mhrwiki,36.0,0.0873015873015873,0.9705882352941176,0.5071225071225072,0.5164670658682635,0.16019417475728154
mhrwiki,37.0,0.09090909090909091,0.9705882352941176,0.5284900284900285,0.4940119760479042,0.16624685138539044
mhrwiki,38.0,0.09593023255813954,0.9705882352941176,0.5555555555555556,0.4655688622754491,0.1746031746031746
mhrwiki,39.0,0.0990990990990991,0.9705882352941176,0.5712250712250713,0.4491017964071856,0.17983651226158037
mhrwiki,40.0,0.10256410256410256,0.9411764705882353,0.5982905982905983,0.41916167664670656,0.18497109826589592
mhrwiki,41.0,0.10526315789473684,0.9411764705882353,0.6096866096866097,0.40718562874251496,0.18934911242603547
mhrwiki,42.0,0.10847457627118644,0.9411764705882353,0.6225071225071225,0.3937125748502994,0.19452887537993918
mhrwiki,43.0,0.11149825783972125,0.9411764705882353,0.6339031339031339,0.38173652694610777,0.19937694704049846
mhrwiki,44.0,0.11387900355871886,0.9411764705882353,0.6424501424501424,0.3727544910179641,0.20317460317460315
mhrwiki,45.0,0.11636363636363636,0.9411764705882353,0.6509971509971509,0.36377245508982037,0.2071197411003236
mhrwiki,46.0,0.1198501872659176,0.9411764705882353,0.6623931623931624,0.35179640718562877,0.21262458471760795
mhrwiki,47.0,0.12260536398467432,0.9411764705882353,0.6709401709401709,0.34281437125748504,0.21694915254237288
mhrwiki,48.0,0.12549019607843137,0.9411764705882353,0.6794871794871795,0.3338323353293413,0.22145328719723184
mhrwiki,49.0,0.12749003984063745,0.9411764705882353,0.6851851851851852,0.3278443113772455,0.2245614035087719
mhrwiki,50.0,0.1306122448979592,0.9411764705882353,0.6937321937321937,0.3188622754491018,0.22939068100358423
mhrwiki,51.0,0.1350210970464135,0.9411764705882353,0.7051282051282052,0.3068862275449102,0.23616236162361623
mhrwiki,52.0,0.14096916299559473,0.9411764705882353,0.7193732193732194,0.29191616766467066,0.24521072796934867
mhrwiki,53.0,0.14285714285714285,0.9411764705882353,0.7236467236467237,0.2874251497005988,0.24806201550387597
mhrwiki,54.0,0.14814814814814814,0.9411764705882353,0.7350427350427351,0.2754491017964072,0.256
mhrwiki,55.0,0.1523809523809524,0.9411764705882353,0.7435897435897436,0.26646706586826346,0.26229508196721313
mhrwiki,56.0,0.1568627450980392,0.9411764705882353,0.7521367521367521,0.25748502994011974,0.2689075630252101
mhrwiki,57.0,0.15920398009950248,0.9411764705882353,0.7564102564102564,0.25299401197604793,0.2723404255319149
mhrwiki,58.0,0.1641025641025641,0.9411764705882353,0.7649572649572649,0.2440119760479042,0.2794759825327511
mhrwiki,59.0,0.16753926701570682,0.9411764705882353,0.7706552706552706,0.23802395209580837,0.28444444444444444
mhrwiki,60.0,0.17679558011049723,0.9411764705882353,0.7849002849002849,0.22305389221556887,0.29767441860465116
mhrwiki,61.0,0.1807909604519774,0.9411764705882353,0.7905982905982906,0.21706586826347304,0.3033175355450237
mhrwiki,62.0,0.18604651162790697,0.9411764705882353,0.7977207977207977,0.20958083832335328,0.3106796116504854
mhrwiki,63.0,0.19631901840490798,0.9411764705882353,0.8105413105413105,0.19610778443113772,0.32487309644670054
mhrwiki,64.0,0.20382165605095542,0.9411764705882353,0.8190883190883191,0.18712574850299402,0.33507853403141363
mhrwiki,65.0,0.2119205298013245,0.9411764705882353,0.8276353276353277,0.1781437125748503,0.34594594594594597
mhrwiki,66.0,0.21476510067114093,0.9411764705882353,0.8304843304843305,0.1751497005988024,0.34972677595628415
mhrwiki,67.0,0.22535211267605634,0.9411764705882353,0.8404558404558404,0.16467065868263472,0.36363636363636365
mhrwiki,68.0,0.22302158273381295,0.9117647058823529,0.8418803418803419,0.16167664670658682,0.3583815028901734
mhrwiki,69.0,0.22794117647058823,0.9117647058823529,0.8461538461538461,0.15718562874251496,0.36470588235294116
mhrwiki,70.0,0.23846153846153847,0.9117647058823529,0.8547008547008547,0.14820359281437126,0.37804878048780494
mhrwiki,71.0,0.24,0.8823529411764706,0.8589743589743589,0.14221556886227546,0.37735849056603776
mhrwiki,72.0,0.2459016393442623,0.8823529411764706,0.8632478632478633,0.1377245508982036,0.3846153846153846
mhrwiki,73.0,0.2564102564102564,0.8823529411764706,0.8703703703703703,0.13023952095808383,0.3973509933774834
mhrwiki,74.0,0.26548672566371684,0.8823529411764706,0.8760683760683761,0.12425149700598802,0.4081632653061225
mhrwiki,75.0,0.2727272727272727,0.8823529411764706,0.8803418803418803,0.11976047904191617,0.41666666666666663
mhrwiki,76.0,0.2857142857142857,0.8823529411764706,0.8874643874643875,0.1122754491017964,0.43165467625899284
mhrwiki,77.0,0.297029702970297,0.8823529411764706,0.8931623931623932,0.1062874251497006,0.4444444444444444
mhrwiki,78.0,0.3125,0.8823529411764706,0.9002849002849003,0.09880239520958084,0.46153846153846156
mhrwiki,79.0,0.32608695652173914,0.8823529411764706,0.905982905982906,0.09281437125748503,0.47619047619047616
mhrwiki,80.0,0.35365853658536583,0.8529411764705882,0.9173789173789174,0.07934131736526946,0.5
mhrwiki,81.0,0.3717948717948718,0.8529411764705882,0.9230769230769231,0.07335329341317365,0.5178571428571428
mhrwiki,82.0,0.3918918918918919,0.8529411764705882,0.9287749287749287,0.06736526946107785,0.537037037037037
mhrwiki,83.0,0.4057971014492754,0.8235294117647058,0.9330484330484331,0.061377245508982034,0.5436893203883495
mhrwiki,84.0,0.42857142857142855,0.7941176470588235,0.9387464387464387,0.05389221556886228,0.5567010309278351
mhrwiki,85.0,0.43333333333333335,0.7647058823529411,0.9401709401709402,0.05089820359281437,0.5531914893617021
mhrwiki,86.0,0.4528301886792453,0.7058823529411765,0.9444444444444444,0.04341317365269461,0.5517241379310345
mhrwiki,87.0,0.46808510638297873,0.6470588235294118,0.9472934472934473,0.0374251497005988,0.54320987654321
mhrwiki,88.0,0.4772727272727273,0.6176470588235294,0.9487179487179487,0.0344311377245509,0.5384615384615384
mhrwiki,89.0,0.46153846153846156,0.5294117647058824,0.9472934472934473,0.03143712574850299,0.4931506849315069
mhrwiki,90.0,0.4411764705882353,0.4411764705882353,0.9458689458689459,0.02844311377245509,0.4411764705882353
mhrwiki,91.0,0.35,0.20588235294117646,0.9430199430199431,0.019461077844311378,0.25925925925925924
mhrwiki,92.0,0.3333333333333333,0.14705882352941177,0.9444444444444444,0.014970059880239521,0.20408163265306123
mhrwiki,93.0,0.2,0.058823529411764705,0.9430199430199431,0.011976047904191617,0.0909090909090909
mhrwiki,94.0,0.14285714285714285,0.029411764705882353,0.9444444444444444,0.008982035928143712,0.04878048780487805
mhrwiki,95.0,0.2,0.029411764705882353,0.9472934472934473,0.005988023952095809,0.05128205128205128
mhrwiki,96.0,0.3333333333333333,0.029411764705882353,0.9501424501424501,0.0029940119760479044,0.05405405405405406
mhrwiki,97.0,0.0,0.0,0.9501424501424501,0.0014970059880239522,0.05405405405405406
mhrwiki,98.0,0.0,0.0,0.9501424501424501,0.0014970059880239522,0.05405405405405406
mhrwiki,99.0,0.0,0.0,0.9515669515669516,0.0,0.05405405405405406
