wiki_db,threshold,precision,recall,accuracy,fpr,F1
mrwiki,0.0,0.13682664868908323,1.0,0.13682664868908323,1.0,0.24071682142015774
mrwiki,1.0,0.13682791230306052,1.0,0.13683588374906494,0.9999893010367296,0.24071877690945426
mrwiki,2.0,0.13735035839801188,0.9997300215982722,0.14083466472114736,0.9953138540875389,0.2415190327498634
mrwiki,3.0,0.1386719115856514,0.9993250539956804,0.1506145932417831,0.9839194582045,0.24354777688220683
mrwiki,4.0,0.13993954351527674,0.9873785097192225,0.1679580358874431,0.9619330886837065,0.24513631717412065
mrwiki,5.0,0.13709060185875455,0.9308855291576674,0.18882003638613634,0.9288090983983652,0.23898597308981903
mrwiki,6.0,0.1329743637627481,0.865078293736501,0.209765152424665,0.8941123605122664,0.23051536379414225
mrwiki,7.0,0.1314030697906173,0.8187769978401728,0.23466287413536752,0.8579284667315737,0.22646194054230642
mrwiki,8.0,0.13073917658483705,0.781452483801296,0.25918195838681973,0.8236061925599409,0.22400216688915975
mrwiki,9.0,0.1305579389052785,0.7497300215982722,0.2826113055604296,0.7914344100056705,0.22238906073255452
mrwiki,10.0,0.12978316714757052,0.7194924406047516,0.30152470840298107,0.7647297976826045,0.2199003640939424
mrwiki,11.0,0.12479184279968232,0.6575323974082073,0.32216506746211315,0.7309959664908471,0.20977153808057533
mrwiki,12.0,0.12349774920499443,0.605494060475162,0.35802480537111087,0.6812029914301304,0.20515224624672698
mrwiki,13.0,0.11583393640431848,0.5293601511879049,0.3827378258821791,0.640504135149304,0.19007573462587093
mrwiki,14.0,0.11413491409370444,0.48602861771058314,0.4135182808012338,0.5979757561492292,0.1848590645376598
mrwiki,15.0,0.11204806937284491,0.4430345572354212,0.4434029349020622,0.556538671402741,0.17886045941306303
mrwiki,16.0,0.11097505254500593,0.40982721382289417,0.47002761282934535,0.5204296703649416,0.17465590887517798
mrwiki,17.0,0.10969746716697937,0.37884719222462204,0.49430658552127293,0.48739127178576397,0.17013215324927258
mrwiki,18.0,0.10678661817563113,0.3388903887688985,0.5216885383670566,0.449335059432741,0.16239993531171668
mrwiki,19.0,0.104575608869502,0.31067764578833695,0.5417009133474322,0.4216782393786042,0.1564794669567582
mrwiki,20.0,0.10510786495114637,0.2933315334773218,0.5615932325480454,0.39588303893352733,0.15476105690477884
mrwiki,21.0,0.10498166259168704,0.27821274298056153,0.5767017906781304,0.3759829672504734,0.15244082840236683
mrwiki,22.0,0.10542104135418899,0.265658747300216,0.5910715440096783,0.3573453732333337,0.1509433962264151
mrwiki,23.0,0.10633573195412638,0.2553320734341253,0.6044993212230914,0.34015213925770593,0.15014287982219401
mrwiki,24.0,0.10608675304922636,0.24480291576673865,0.6144270107034345,0.3269817154717708,0.1480257116620753
mrwiki,25.0,0.10896380301382631,0.2367035637149028,0.6307176565111791,0.30682486867022585,0.1492308674283526
mrwiki,26.0,0.10998892291653092,0.22786177105831534,0.6420675452287062,0.29227427862240146,0.14836299714348497
mrwiki,27.0,0.11114859166807219,0.22239470842332612,0.6502590434324871,0.2819176821765971,0.14821978812892198
mrwiki,28.0,0.11087792934592515,0.21395788336933044,0.6576932667177673,0.27196764633507015,0.1460627563009722
mrwiki,29.0,0.11183617550564229,0.2093682505399568,0.6643148047246566,0.26356896016775977,0.14579465607595235
mrwiki,30.0,0.11253349211074724,0.2041036717062635,0.6708624622516923,0.25514887607390846,0.1450777202072539
mrwiki,31.0,0.11041978722587088,0.19404697624190065,0.675821689461873,0.2478093872703735,0.14074853743911098
mrwiki,32.0,0.11031592266023486,0.18830993520518358,0.6811410840113407,0.24073737254860003,0.13912783304660034
mrwiki,33.0,0.11063621931859811,0.18345032397408206,0.6864974188007351,0.23376164849626072,0.1380290988497575
mrwiki,34.0,0.1085362770708688,0.17386609071274298,0.6915674667306965,0.22636866487637347,0.13364461738002595
mrwiki,35.0,0.10721434165868941,0.16630669546436286,0.6964435784010418,0.21952132838327967,0.1303772686385523
mrwiki,36.0,0.1079773640014604,0.15969222462203023,0.7045150208250602,0.20912193608439342,0.12883903289043783
mrwiki,37.0,0.1080915020323282,0.15436015118790497,0.7100191165741622,0.20190013587683353,0.12714738422193808
mrwiki,38.0,0.1069790382244143,0.14639578833693304,0.7159942003823315,0.19371542897493232,0.12362144139522953
mrwiki,39.0,0.10755324038608856,0.14214362850971923,0.7212397144519453,0.18696438315127265,0.12245253946565109
mrwiki,40.0,0.10824578159821713,0.1376889848812095,0.7268084556209192,0.1798067767233355,0.12120491949379121
mrwiki,41.0,0.1093655256049832,0.13390928725701945,0.732284846190076,0.17286314956080756,0.120399308189459
mrwiki,42.0,0.11042559268780348,0.1304670626349892,0.7372163682203116,0.166604256047589,0.1196126357476563
mrwiki,43.0,0.11192357589338366,0.12810475161987042,0.7416214918315894,0.16112638685311392,0.11946874803298294
mrwiki,44.0,0.11328314715881496,0.12594492440604751,0.745518687143873,0.1562690575283255,0.11927895678854512
mrwiki,45.0,0.11382164415956189,0.12344762419006479,0.7485570218778571,0.15235323697133749,0.11843937186336408
mrwiki,46.0,0.11559586154042661,0.12216522678185746,0.7520016992510367,0.14815924336931752,0.11878978801601366
mrwiki,47.0,0.11710182767624021,0.121085313174946,0.7548276276054413,0.1447141771962297,0.11906026015396867
mrwiki,48.0,0.11834752527940394,0.12007289416846652,0.7572102730807236,0.14179336022339437,0.11920396676494237
mrwiki,49.0,0.11954163276376457,0.11899298056155508,0.7595375081961158,0.1389260380669113,0.11926667568664591
mrwiki,50.0,0.12062659581809398,0.1179805615550756,0.761633866811965,0.13633688895546023,0.11928890708704405
mrwiki,51.0,0.1219632768361582,0.11656317494600432,0.7643027991466804,0.1330202103416179,0.11920209828823854
mrwiki,52.0,0.12353875018040121,0.11555075593952484,0.7668147354617069,0.12994960788299614,0.11941131338494804
mrwiki,53.0,0.12513777647145272,0.11494330453563716,0.7689480343174829,0.12738185669808597,0.1198240985048373
mrwiki,54.0,0.12643247696801738,0.11393088552915767,0.7710536279933138,0.1247820086233644,0.11985656974473674
mrwiki,55.0,0.1278235653235653,0.11305345572354211,0.7730945762492727,0.12227845121807697,0.11998567335243553
mrwiki,56.0,0.12978408293709565,0.11237850971922246,0.7754495165446099,0.11944322595140532,0.12045577862181225
mrwiki,57.0,0.13178417953207067,0.11177105831533478,0.77771210624013,0.1167256892807087,0.12095537214228325
mrwiki,58.0,0.13358716785482827,0.11129859611231102,0.7796329987163266,0.11442541217756,0.12142857142857144
mrwiki,59.0,0.13530672823218998,0.1107586393088553,0.7814800107126696,0.11220002781730451,0.1218081947743468
mrwiki,60.0,0.13705541074581687,0.11001619870410367,0.7834470784887748,0.10980346004472166,0.12205623572578532
mrwiki,61.0,0.13887698242606086,0.10934125269978402,0.7853679709649715,0.10747108605176159,0.12235187492919451
mrwiki,62.0,0.14118366990121514,0.10900377969762419,0.7873627439210218,0.10510661516899013,0.12302418586935823
mrwiki,63.0,0.14313760485454222,0.10826133909287257,0.7893113415771635,0.1027314453229482,0.12328030128352932
mrwiki,64.0,0.1449986372308531,0.10772138228941684,0.7910013575538173,0.10068794333829052,0.1236107346164272
mrwiki,65.0,0.1474376795477713,0.10738390928725702,0.7929037799100506,0.09843046208822365,0.12426289686413872
mrwiki,66.0,0.149735149451381,0.1068439524838013,0.7947784970863386,0.09617298083815679,0.12470458484323302
mrwiki,67.0,0.15184360785831802,0.10589902807775378,0.7967270947424804,0.09376571410230349,0.12477633305499224
mrwiki,68.0,0.1542947514085203,0.10535907127429806,0.7985741067388232,0.091540329742048,0.12521557774836564
mrwiki,69.0,0.15772357723577235,0.10475161987041037,0.8009659872740873,0.08867300758556496,0.12589227774172615
mrwiki,70.0,0.16098425607340214,0.10421166306695465,0.8031177562498268,0.08609455743738431,0.12652108001802762
mrwiki,71.0,0.16368888413394672,0.10326673866090713,0.8051125292058772,0.08363379588517873,0.12663990398543226
mrwiki,72.0,0.16663005272407733,0.10238930885529157,0.8071165372219092,0.08117303433297314,0.12683946488294312
mrwiki,73.0,0.1686433977182876,0.1007694384449244,0.8089912543981973,0.07874436967057892,0.12615657611221429
mrwiki,74.0,0.17172069245962587,0.09975701943844492,0.8109860273542476,0.07627290915510287,0.12620074285958244
mrwiki,75.0,0.17410554026564556,0.09820464362850972,0.8128699795905174,0.07384424449270865,0.12557718033918783
mrwiki,76.0,0.17824474660074166,0.09732721382289417,0.8150956290461107,0.07112670782201205,0.12590587618964463
mrwiki,77.0,0.1813995138800051,0.095707343412527,0.8171735175419964,0.06846266596766773,0.12530375999646534
mrwiki,78.0,0.18604961323019473,0.09415496760259179,0.8196946889170045,0.06529577283961184,0.1250336111858026
mrwiki,79.0,0.18963355162324091,0.09186015118790497,0.8220311590923783,0.06222517038099008,0.1237666530259628
mrwiki,80.0,0.19423302107728338,0.08956533477321814,0.8245892707073132,0.0588977928038773,0.1225979305247598
mrwiki,81.0,0.19668100799016594,0.08639308855291576,0.8267133345031076,0.05593417997796014,0.12005252297880321
mrwiki,82.0,0.20123537061118335,0.08355831533477322,0.829225270818134,0.052574705511035984,0.1180847004959939
mrwiki,83.0,0.20513704533701085,0.08031857451403887,0.8315802111134711,0.049332919640086875,0.11543871562302954
mrwiki,84.0,0.20846423951210497,0.07613390928725702,0.8340367370686073,0.04582365968737629,0.11153408810006428
mrwiki,85.0,0.21109337589784516,0.07140928725701944,0.8364286176038713,0.04230370077139525,0.10671777284647972
mrwiki,86.0,0.21524469467301863,0.06708963282937365,0.8388851435590075,0.03877304289214375,0.10229494700010291
mrwiki,87.0,0.22126847877920838,0.06263498920086392,0.8415817810736681,0.034942814041319395,0.09763282482903735
mrwiki,88.0,0.22822020309994656,0.05764038876889849,0.8443892393081093,0.030898605925085858,0.09203577971764199
mrwiki,89.0,0.23787740164684354,0.05264578833693304,0.8472982832023493,0.026736709212877272,0.08621166067974578
mrwiki,90.0,0.249208025343189,0.04778617710583153,0.8500133908369735,0.022820888655889243,0.08019482358271507
mrwiki,91.0,0.26680584551148223,0.04312904967602592,0.8528577893113416,0.018787379502926166,0.07425483702283422
mrwiki,92.0,0.282064128256513,0.03799946004319654,0.855138849126825,0.015331614366567879,0.06697596954556269
mrwiki,93.0,0.30500951173113505,0.03246490280777538,0.8574937894221623,0.011726063744423166,0.05868358445678033
mrwiki,94.0,0.3207236842105263,0.02632289416846652,0.8591468651588892,0.00883734366139921,0.048652694610778445
mrwiki,95.0,0.3583138173302108,0.020653347732181426,0.8609384667953418,0.005863031872211583,0.03905552010210594
mrwiki,96.0,0.40977443609022557,0.014713822894168466,0.8622867855526721,0.003359474466924155,0.02840761011206672
mrwiki,97.0,0.49635036496350365,0.0091792656587473,0.8631548811909533,0.0014764569313233547,0.018025182239893967
mrwiki,98.0,0.5851851851851851,0.00533207343412527,0.8633857576904962,0.0005991419431457092,0.01056785499297706
mrwiki,99.0,0.7872340425531915,0.0024973002159827213,0.863422697930423,0.00010698963270459092,0.004978806432079661
