wiki_db,threshold,precision,recall,accuracy,fpr,F1
napwiki,0.0,0.1383399209486166,1.0,0.1383399209486166,1.0,0.24305555555555555
napwiki,1.0,0.1383399209486166,1.0,0.1383399209486166,1.0,0.24305555555555555
napwiki,2.0,0.1383399209486166,1.0,0.1383399209486166,1.0,0.24305555555555555
napwiki,3.0,0.13861386138613863,1.0,0.14031620553359683,0.9977064220183486,0.2434782608695652
napwiki,4.0,0.13916500994035785,1.0,0.1442687747035573,0.9931192660550459,0.2443280977312391
napwiki,5.0,0.13916500994035785,1.0,0.1442687747035573,0.9931192660550459,0.2443280977312391
napwiki,6.0,0.14,1.0,0.15019762845849802,0.9862385321100917,0.24561403508771928
napwiki,7.0,0.1417004048582996,1.0,0.16205533596837945,0.9724770642201835,0.24822695035460995
napwiki,8.0,0.14227642276422764,1.0,0.16600790513833993,0.9678899082568807,0.24911032028469748
napwiki,9.0,0.14256198347107438,0.9857142857142858,0.17786561264822134,0.9518348623853211,0.2490974729241877
napwiki,10.0,0.1440501043841336,0.9857142857142858,0.18774703557312253,0.9403669724770642,0.25136612021857924
napwiki,11.0,0.1461864406779661,0.9857142857142858,0.2015810276679842,0.9243119266055045,0.25461254612546125
napwiki,12.0,0.14623655913978495,0.9714285714285714,0.21146245059288538,0.9105504587155964,0.2542056074766355
napwiki,13.0,0.1487964989059081,0.9714285714285714,0.22727272727272727,0.8922018348623854,0.25806451612903225
napwiki,14.0,0.1504424778761062,0.9714285714285714,0.23715415019762845,0.8807339449541285,0.26053639846743293
napwiki,15.0,0.15178571428571427,0.9714285714285714,0.2450592885375494,0.8715596330275229,0.2625482625482625
napwiki,16.0,0.15192743764172337,0.9571428571428572,0.2549407114624506,0.8577981651376146,0.2622309197651664
napwiki,17.0,0.15207373271889402,0.9428571428571428,0.2648221343873518,0.8440366972477065,0.261904761904762
napwiki,18.0,0.15384615384615385,0.9428571428571428,0.274703557312253,0.8325688073394495,0.26452905811623245
napwiki,19.0,0.1575178997613365,0.9428571428571428,0.29446640316205536,0.8096330275229358,0.26993865030674846
napwiki,20.0,0.15903614457831325,0.9428571428571428,0.30237154150197626,0.8004587155963303,0.2721649484536082
napwiki,21.0,0.16058394160583941,0.9428571428571428,0.3102766798418972,0.7912844036697247,0.27442827442827444
napwiki,22.0,0.16296296296296298,0.9428571428571428,0.3221343873517787,0.7775229357798165,0.27789473684210525
napwiki,23.0,0.16541353383458646,0.9428571428571428,0.3339920948616601,0.7637614678899083,0.2814498933901919
napwiki,24.0,0.1649746192893401,0.9285714285714286,0.33992094861660077,0.7545871559633027,0.2801724137931035
napwiki,25.0,0.16883116883116883,0.9285714285714286,0.3577075098814229,0.7339449541284404,0.28571428571428575
napwiki,26.0,0.17379679144385027,0.9285714285714286,0.3794466403162055,0.7087155963302753,0.2927927927927928
napwiki,27.0,0.1752021563342318,0.9285714285714286,0.38537549407114624,0.7018348623853211,0.2947845804988662
napwiki,28.0,0.1766304347826087,0.9285714285714286,0.391304347826087,0.694954128440367,0.29680365296803657
napwiki,29.0,0.18005540166204986,0.9285714285714286,0.4051383399209486,0.6788990825688074,0.3016241299303944
napwiki,30.0,0.18028169014084508,0.9142857142857143,0.41304347826086957,0.6674311926605505,0.3011764705882353
napwiki,31.0,0.17847025495750707,0.9,0.41304347826086957,0.6651376146788991,0.2978723404255319
napwiki,32.0,0.17478510028653296,0.8714285714285714,0.41304347826086957,0.6605504587155964,0.2911694510739857
napwiki,33.0,0.1783625730994152,0.8714285714285714,0.4268774703557312,0.6444954128440367,0.2961165048543689
napwiki,34.0,0.17964071856287425,0.8571428571428571,0.43873517786561267,0.6284403669724771,0.29702970297029707
napwiki,35.0,0.18181818181818182,0.8571428571428571,0.44664031620553357,0.6192660550458715,0.30000000000000004
napwiki,36.0,0.1875,0.8571428571428571,0.466403162055336,0.5963302752293578,0.30769230769230765
napwiki,37.0,0.189873417721519,0.8571428571428571,0.4743083003952569,0.5871559633027523,0.31088082901554404
napwiki,38.0,0.1891025641025641,0.8428571428571429,0.4782608695652174,0.5802752293577982,0.3089005235602094
napwiki,39.0,0.19093851132686085,0.8428571428571429,0.4841897233201581,0.573394495412844,0.3113456464379948
napwiki,40.0,0.19407894736842105,0.8428571428571429,0.49407114624505927,0.5619266055045872,0.31550802139037426
napwiki,41.0,0.19798657718120805,0.8428571428571429,0.5059288537549407,0.5481651376146789,0.32065217391304346
napwiki,42.0,0.2027491408934708,0.8428571428571429,0.5197628458498024,0.5321100917431193,0.3268698060941828
napwiki,43.0,0.2062937062937063,0.8428571428571429,0.5296442687747036,0.5206422018348624,0.33146067415730335
napwiki,44.0,0.20714285714285716,0.8285714285714286,0.5375494071146245,0.5091743119266054,0.33142857142857146
napwiki,45.0,0.21481481481481482,0.8285714285714286,0.5573122529644269,0.48623853211009177,0.34117647058823525
napwiki,46.0,0.21561338289962825,0.8285714285714286,0.5592885375494071,0.48394495412844035,0.3421828908554573
napwiki,47.0,0.21673003802281368,0.8142857142857143,0.567193675889328,0.4724770642201835,0.34234234234234234
napwiki,48.0,0.21839080459770116,0.8142857142857143,0.5711462450592886,0.46788990825688076,0.34441087613293053
napwiki,49.0,0.22265625,0.8142857142857143,0.5810276679841897,0.45642201834862384,0.3496932515337423
napwiki,50.0,0.22310756972111553,0.8,0.5869565217391305,0.44724770642201833,0.34890965732087226
napwiki,51.0,0.2248995983935743,0.8,0.5909090909090909,0.4426605504587156,0.35109717868338564
napwiki,52.0,0.22950819672131148,0.8,0.6007905138339921,0.43119266055045874,0.356687898089172
napwiki,53.0,0.22916666666666666,0.7857142857142857,0.6047430830039525,0.4243119266055046,0.3548387096774194
napwiki,54.0,0.23404255319148937,0.7857142857142857,0.6146245059288538,0.41284403669724773,0.36065573770491804
napwiki,55.0,0.24017467248908297,0.7857142857142857,0.6264822134387352,0.39908256880733944,0.3678929765886287
napwiki,56.0,0.2422907488986784,0.7857142857142857,0.6304347826086957,0.3944954128440367,0.3703703703703704
napwiki,57.0,0.24774774774774774,0.7857142857142857,0.6403162055335968,0.3830275229357798,0.37671232876712324
napwiki,58.0,0.2488479262672811,0.7714285714285715,0.6462450592885376,0.3738532110091743,0.37630662020905925
napwiki,59.0,0.2523364485981308,0.7714285714285715,0.6521739130434783,0.3669724770642202,0.380281690140845
napwiki,60.0,0.2559241706161137,0.7714285714285715,0.658102766798419,0.36009174311926606,0.3843416370106761
napwiki,61.0,0.2560386473429952,0.7571428571428571,0.6620553359683794,0.3532110091743119,0.38267148014440433
napwiki,62.0,0.25742574257425743,0.7428571428571429,0.6679841897233202,0.3440366972477064,0.3823529411764706
napwiki,63.0,0.26,0.7428571428571429,0.6719367588932806,0.3394495412844037,0.3851851851851852
napwiki,64.0,0.2562814070351759,0.7285714285714285,0.6699604743083004,0.3394495412844037,0.37918215613382894
napwiki,65.0,0.2602040816326531,0.7285714285714285,0.6758893280632411,0.33256880733944955,0.3834586466165414
napwiki,66.0,0.26424870466321243,0.7285714285714285,0.6818181818181818,0.3256880733944954,0.38783269961977185
napwiki,67.0,0.27419354838709675,0.7285714285714285,0.6956521739130435,0.30963302752293576,0.3984375
napwiki,68.0,0.2808988764044944,0.7142857142857143,0.7075098814229249,0.29357798165137616,0.4032258064516129
napwiki,69.0,0.28823529411764703,0.7,0.7193675889328063,0.2775229357798165,0.40833333333333327
napwiki,70.0,0.2893081761006289,0.6571428571428571,0.7292490118577075,0.2591743119266055,0.4017467248908297
napwiki,71.0,0.3006535947712418,0.6571428571428571,0.741106719367589,0.24541284403669725,0.4125560538116592
napwiki,72.0,0.3103448275862069,0.6428571428571429,0.7529644268774703,0.22935779816513763,0.4186046511627907
napwiki,73.0,0.3191489361702128,0.6428571428571429,0.7608695652173914,0.22018348623853212,0.4265402843601896
napwiki,74.0,0.3161764705882353,0.6142857142857143,0.7628458498023716,0.21330275229357798,0.4174757281553398
napwiki,75.0,0.3157894736842105,0.6,0.7648221343873518,0.20871559633027523,0.41379310344827586
napwiki,76.0,0.328125,0.6,0.7747035573122529,0.19724770642201836,0.42424242424242425
napwiki,77.0,0.3445378151260504,0.5857142857142857,0.7885375494071146,0.17889908256880735,0.43386243386243384
napwiki,78.0,0.35964912280701755,0.5857142857142857,0.7984189723320159,0.16743119266055045,0.4456521739130435
napwiki,79.0,0.3761467889908257,0.5857142857142857,0.808300395256917,0.1559633027522936,0.4581005586592179
napwiki,80.0,0.39215686274509803,0.5714285714285714,0.8181818181818182,0.14220183486238533,0.46511627906976744
napwiki,81.0,0.41237113402061853,0.5714285714285714,0.8280632411067194,0.13073394495412843,0.4790419161676646
napwiki,82.0,0.43478260869565216,0.5714285714285714,0.8379446640316206,0.11926605504587157,0.49382716049382713
napwiki,83.0,0.43529411764705883,0.5285714285714286,0.8399209486166008,0.11009174311926606,0.47741935483870973
napwiki,84.0,0.43209876543209874,0.5,0.8399209486166008,0.10550458715596331,0.4635761589403974
napwiki,85.0,0.44871794871794873,0.5,0.8458498023715415,0.09862385321100918,0.472972972972973
napwiki,86.0,0.4520547945205479,0.4714285714285714,0.8478260869565217,0.09174311926605505,0.4615384615384615
napwiki,87.0,0.4307692307692308,0.4,0.8438735177865613,0.08486238532110092,0.41481481481481486
napwiki,88.0,0.4482758620689655,0.37142857142857144,0.849802371541502,0.07339449541284404,0.40625
napwiki,89.0,0.45098039215686275,0.32857142857142857,0.8517786561264822,0.06422018348623854,0.38016528925619836
napwiki,90.0,0.46511627906976744,0.2857142857142857,0.8557312252964426,0.052752293577981654,0.3539823008849557
napwiki,91.0,0.5428571428571428,0.2714285714285714,0.8675889328063241,0.03669724770642202,0.3619047619047619
napwiki,92.0,0.5666666666666667,0.24285714285714285,0.8695652173913043,0.02981651376146789,0.33999999999999997
napwiki,93.0,0.6818181818181818,0.21428571428571427,0.8774703557312253,0.016055045871559634,0.32608695652173914
napwiki,94.0,0.6842105263157895,0.18571428571428572,0.8754940711462451,0.013761467889908258,0.29213483146067415
napwiki,95.0,0.7857142857142857,0.15714285714285714,0.8774703557312253,0.006880733944954129,0.2619047619047619
napwiki,96.0,0.8333333333333334,0.14285714285714285,0.8774703557312253,0.0045871559633027525,0.2439024390243902
napwiki,97.0,0.8181818181818182,0.12857142857142856,0.8754940711462451,0.0045871559633027525,0.2222222222222222
napwiki,98.0,0.875,0.1,0.8735177865612648,0.0022935779816513763,0.17948717948717952
napwiki,99.0,1.0,0.04285714285714286,0.8675889328063241,0.0,0.0821917808219178
