wiki_db,threshold,precision,recall,accuracy,fpr,F1
nsowiki,0.0,0.023094688221709007,1.0,0.023094688221709007,1.0,0.04514672686230249
nsowiki,1.0,0.023148148148148147,1.0,0.025404157043879907,0.9976359338061466,0.04524886877828054
nsowiki,2.0,0.023148148148148147,1.0,0.025404157043879907,0.9976359338061466,0.04524886877828054
nsowiki,3.0,0.02320185614849188,1.0,0.02771362586605081,0.9952718676122931,0.045351473922902494
nsowiki,4.0,0.023255813953488372,1.0,0.03002309468822171,0.9929078014184397,0.04545454545454545
nsowiki,5.0,0.0234192037470726,1.0,0.03695150115473441,0.9858156028368794,0.045766590389016024
nsowiki,6.0,0.023529411764705882,1.0,0.04157043879907621,0.9810874704491725,0.04597701149425288
nsowiki,7.0,0.02358490566037736,1.0,0.04387990762124711,0.9787234042553191,0.04608294930875576
nsowiki,8.0,0.023696682464454975,1.0,0.04849884526558892,0.9739952718676123,0.046296296296296294
nsowiki,9.0,0.024390243902439025,1.0,0.07621247113163972,0.9456264775413712,0.047619047619047616
nsowiki,10.0,0.024630541871921183,1.0,0.08545034642032333,0.9361702127659575,0.04807692307692307
nsowiki,11.0,0.02481389578163772,1.0,0.09237875288683603,0.9290780141843972,0.04842615012106538
nsowiki,12.0,0.02518891687657431,1.0,0.10623556581986143,0.9148936170212766,0.049140049140049144
nsowiki,13.0,0.02544529262086514,1.0,0.11547344110854503,0.9054373522458629,0.04962779156327544
nsowiki,14.0,0.025906735751295335,1.0,0.13163972286374134,0.8888888888888888,0.0505050505050505
nsowiki,15.0,0.02631578947368421,1.0,0.14549653579676675,0.8747044917257684,0.05128205128205127
nsowiki,16.0,0.02680965147453083,1.0,0.16166281755196305,0.8581560283687943,0.05221932114882506
nsowiki,17.0,0.02710027100271003,1.0,0.17090069284064666,0.8486997635933806,0.05277044854881267
nsowiki,18.0,0.0273224043715847,1.0,0.17782909930715934,0.8416075650118203,0.05319148936170212
nsowiki,19.0,0.028089887640449437,1.0,0.20092378752886836,0.817966903073286,0.0546448087431694
nsowiki,20.0,0.028409090909090908,1.0,0.21016166281755197,0.8085106382978723,0.05524861878453039
nsowiki,21.0,0.02881844380403458,1.0,0.22170900692840648,0.7966903073286052,0.05602240896358543
nsowiki,22.0,0.029069767441860465,1.0,0.22863741339491916,0.789598108747045,0.05649717514124294
nsowiki,23.0,0.029069767441860465,1.0,0.22863741339491916,0.789598108747045,0.05649717514124294
nsowiki,24.0,0.029239766081871343,1.0,0.23325635103926096,0.7848699763593381,0.056818181818181816
nsowiki,25.0,0.02967359050445104,1.0,0.24480369515011546,0.7730496453900709,0.05763688760806917
nsowiki,26.0,0.030120481927710843,1.0,0.25635103926096997,0.7612293144208038,0.058479532163742694
nsowiki,27.0,0.03067484662576687,1.0,0.2702078521939954,0.7470449172576832,0.05952380952380952
nsowiki,28.0,0.03125,1.0,0.2840646651270208,0.7328605200945626,0.06060606060606061
nsowiki,29.0,0.03184713375796178,1.0,0.2979214780600462,0.7186761229314421,0.0617283950617284
nsowiki,30.0,0.03184713375796178,1.0,0.2979214780600462,0.7186761229314421,0.0617283950617284
nsowiki,31.0,0.032362459546925564,1.0,0.3094688221709007,0.706855791962175,0.06269592476489028
nsowiki,32.0,0.03278688524590164,1.0,0.3187066974595843,0.6973995271867612,0.06349206349206349
nsowiki,33.0,0.03355704697986577,1.0,0.3348729792147806,0.6808510638297872,0.06493506493506493
nsowiki,34.0,0.034013605442176874,1.0,0.3441108545034642,0.6713947990543735,0.06578947368421054
nsowiki,35.0,0.034129692832764506,1.0,0.3464203233256351,0.6690307328605201,0.066006600660066
nsowiki,36.0,0.034722222222222224,1.0,0.3579676674364896,0.6572104018912529,0.06711409395973154
nsowiki,37.0,0.03508771929824561,1.0,0.3648960739030023,0.6501182033096927,0.06779661016949151
nsowiki,38.0,0.0353356890459364,1.0,0.3695150115473441,0.6453900709219859,0.06825938566552901
nsowiki,39.0,0.036101083032490974,1.0,0.3833718244803695,0.6312056737588653,0.06968641114982578
nsowiki,40.0,0.03663003663003663,1.0,0.39260969976905313,0.6217494089834515,0.0706713780918728
nsowiki,41.0,0.03690036900369004,1.0,0.3972286374133949,0.6170212765957447,0.0711743772241993
nsowiki,42.0,0.03731343283582089,1.0,0.40415704387990764,0.6099290780141844,0.07194244604316546
nsowiki,43.0,0.03759398496240601,1.0,0.40877598152424943,0.6052009456264775,0.07246376811594202
nsowiki,44.0,0.03861003861003861,1.0,0.42494226327944573,0.5886524822695035,0.07434944237918216
nsowiki,45.0,0.03937007874015748,1.0,0.43648960739030024,0.5768321513002365,0.07575757575757576
nsowiki,46.0,0.04048582995951417,1.0,0.45265588914549654,0.5602836879432624,0.07782101167315175
nsowiki,47.0,0.040983606557377046,1.0,0.45958429561200925,0.5531914893617021,0.07874015748031496
nsowiki,48.0,0.04184100418410042,1.0,0.47113163972286376,0.541371158392435,0.08032128514056225
nsowiki,49.0,0.0423728813559322,1.0,0.4780600461893764,0.5342789598108747,0.0813008130081301
nsowiki,50.0,0.03879310344827586,0.9,0.48267898383371827,0.5271867612293144,0.07438016528925619
nsowiki,51.0,0.039473684210526314,0.9,0.49191685912240185,0.5177304964539007,0.07563025210084033
nsowiki,52.0,0.03571428571428571,0.8,0.49653579676674364,0.5106382978723404,0.06837606837606837
nsowiki,53.0,0.03619909502262444,0.8,0.5034642032332564,0.5035460992907801,0.06926406926406928
nsowiki,54.0,0.0365296803652968,0.8,0.5080831408775982,0.4988179669030733,0.06986899563318777
nsowiki,55.0,0.037037037037037035,0.8,0.5150115473441108,0.491725768321513,0.07079646017699115
nsowiki,56.0,0.037383177570093455,0.8,0.5196304849884527,0.48699763593380613,0.07142857142857142
nsowiki,57.0,0.03773584905660377,0.8,0.5242494226327945,0.48226950354609927,0.07207207207207207
nsowiki,58.0,0.03773584905660377,0.8,0.5242494226327945,0.48226950354609927,0.07207207207207207
nsowiki,59.0,0.0380952380952381,0.8,0.5288683602771362,0.47754137115839246,0.07272727272727274
nsowiki,60.0,0.038461538461538464,0.8,0.5334872979214781,0.4728132387706856,0.07339449541284404
nsowiki,61.0,0.03940886699507389,0.8,0.5450346420323325,0.46099290780141844,0.0751173708920188
nsowiki,62.0,0.042328042328042326,0.8,0.5773672055427251,0.42789598108747046,0.08040201005025126
nsowiki,63.0,0.047337278106508875,0.8,0.6235565819861432,0.3806146572104019,0.08938547486033518
nsowiki,64.0,0.058394160583941604,0.8,0.6974595842956121,0.3049645390070922,0.10884353741496598
nsowiki,65.0,0.0625,0.7,0.7505773672055427,0.24822695035460993,0.11475409836065574
nsowiki,66.0,0.04950495049504951,0.5,0.766743648960739,0.22695035460992907,0.09009009009009009
nsowiki,67.0,0.05263157894736842,0.5,0.7806004618937644,0.2127659574468085,0.09523809523809525
nsowiki,68.0,0.054945054945054944,0.5,0.789838337182448,0.2033096926713948,0.099009900990099
nsowiki,69.0,0.056179775280898875,0.5,0.7944572748267898,0.19858156028368795,0.10101010101010101
nsowiki,70.0,0.05952380952380952,0.5,0.8060046189376443,0.1867612293144208,0.10638297872340424
nsowiki,71.0,0.060240963855421686,0.5,0.8083140877598153,0.18439716312056736,0.10752688172043011
nsowiki,72.0,0.06172839506172839,0.5,0.812933025404157,0.17966903073286053,0.10989010989010987
nsowiki,73.0,0.06172839506172839,0.5,0.812933025404157,0.17966903073286053,0.10989010989010987
nsowiki,74.0,0.06329113924050633,0.5,0.8175519630484989,0.17494089834515367,0.11235955056179776
nsowiki,75.0,0.06329113924050633,0.5,0.8175519630484989,0.17494089834515367,0.11235955056179776
nsowiki,76.0,0.06493506493506493,0.5,0.8221709006928406,0.1702127659574468,0.11494252873563217
nsowiki,77.0,0.06578947368421052,0.5,0.8244803695150116,0.16784869976359337,0.11627906976744186
nsowiki,78.0,0.0684931506849315,0.5,0.8314087759815243,0.1607565011820331,0.12048192771084336
nsowiki,79.0,0.06944444444444445,0.5,0.8337182448036952,0.15839243498817968,0.12195121951219513
nsowiki,80.0,0.07042253521126761,0.5,0.836027713625866,0.15602836879432624,0.1234567901234568
nsowiki,81.0,0.07352941176470588,0.5,0.8429561200923787,0.14893617021276595,0.12820512820512822
nsowiki,82.0,0.07575757575757576,0.5,0.8475750577367206,0.14420803782505912,0.13157894736842105
nsowiki,83.0,0.06349206349206349,0.4,0.8498845265588915,0.13947990543735225,0.1095890410958904
nsowiki,84.0,0.07272727272727272,0.4,0.8683602771362586,0.12056737588652482,0.12307692307692307
nsowiki,85.0,0.058823529411764705,0.3,0.8729792147806005,0.11347517730496454,0.09836065573770492
nsowiki,86.0,0.06666666666666667,0.3,0.8868360277136259,0.09929078014184398,0.1090909090909091
nsowiki,87.0,0.07317073170731707,0.3,0.8960739030023095,0.08983451536643026,0.11764705882352941
nsowiki,88.0,0.075,0.3,0.8983833718244804,0.08747044917257683,0.12
nsowiki,89.0,0.07894736842105263,0.3,0.9030023094688222,0.08274231678486997,0.125
nsowiki,90.0,0.08333333333333333,0.3,0.9076212471131639,0.07801418439716312,0.13043478260869565
nsowiki,91.0,0.06666666666666667,0.2,0.9168591224018475,0.06619385342789598,0.1
nsowiki,92.0,0.06896551724137931,0.2,0.9191685912240185,0.06382978723404255,0.10256410256410257
nsowiki,93.0,0.06666666666666667,0.1,0.9468822170900693,0.03309692671394799,0.08
nsowiki,94.0,0.1,0.1,0.9584295612009238,0.02127659574468085,0.10000000000000002
nsowiki,95.0,0.0,0.0,0.9722863741339491,0.004728132387706856,0.10000000000000002
nsowiki,96.0,0.0,0.0,0.9745958429561201,0.002364066193853428,0.10000000000000002
nsowiki,97.0,0.0,0.0,0.9745958429561201,0.002364066193853428,0.10000000000000002
nsowiki,98.0,0.0,0.0,0.9745958429561201,0.002364066193853428,0.10000000000000002
nsowiki,99.0,0.0,0.0,0.9745958429561201,0.002364066193853428,0.10000000000000002
