wiki_db,threshold,precision,recall,accuracy,fpr,F1
pswiki,0.0,0.018387986515476556,1.0,0.018387986515476556,1.0,0.03611194703581101
pswiki,1.0,0.018387986515476556,1.0,0.018387986515476556,1.0,0.03611194703581101
pswiki,2.0,0.018387986515476556,1.0,0.018387986515476556,1.0,0.03611194703581101
pswiki,3.0,0.01839926402943882,1.0,0.019000919399325775,0.9993755853886981,0.036133694670280034
pswiki,4.0,0.01816502463054187,0.9833333333333333,0.022372050260496476,0.9956290977208867,0.035671100362756954
pswiki,5.0,0.01807416640698037,0.9666666666666667,0.03371130861170702,0.9837652201061505,0.03548485775466504
pswiki,6.0,0.018524433088470137,0.9666666666666667,0.05761569108182654,0.9594130502653762,0.03635224067690379
pswiki,7.0,0.01942397856664434,0.9666666666666667,0.10205332516089488,0.9141429909459882,0.03808273145108339
pswiki,8.0,0.020429728777738642,0.9666666666666667,0.14710389212381245,0.8682485170152981,0.040013797861331496
pswiki,9.0,0.021755725190839695,0.95,0.21360711002145266,0.8001873243833906,0.04253731343283582
pswiki,10.0,0.023236514522821577,0.9333333333333333,0.2773521299417714,0.7349359975023415,0.045344129554655874
pswiki,11.0,0.024864376130198915,0.9166666666666666,0.3374195525589948,0.6734311582891039,0.048415492957746484
pswiki,12.0,0.025974025974025976,0.9,0.3775666564511186,0.6322197939431783,0.05049088359046283
pswiki,13.0,0.025809716599190284,0.85,0.4072939013178057,0.6009990633780831,0.05009823182711199
pswiki,14.0,0.02663825253063399,0.8333333333333334,0.4370211461844928,0.5704027474242898,0.05162622612287042
pswiki,15.0,0.02689075630252101,0.8,0.4639901930738584,0.542304089915704,0.05203252032520326
pswiki,16.0,0.02702702702702703,0.7666666666666667,0.48820104198590253,0.5170152981579769,0.05221339387060159
pswiki,17.0,0.028065893837705917,0.7666666666666667,0.5075084278271529,0.4973462379019669,0.05414949970570923
pswiki,18.0,0.027848101265822784,0.7333333333333333,0.5243640821330064,0.47955042147986265,0.05365853658536585
pswiki,19.0,0.028814669286182055,0.7333333333333333,0.5406068035550107,0.46300343428036217,0.055450535601764335
pswiki,20.0,0.03015764222069911,0.7333333333333333,0.5614465216058842,0.44177333749609743,0.05793285055957867
pswiki,21.0,0.03151862464183381,0.7333333333333333,0.5807539074471345,0.4221042772400874,0.06043956043956043
pswiki,22.0,0.03271375464684015,0.7333333333333333,0.5963836959852896,0.40618170465188885,0.06263345195729537
pswiki,23.0,0.03376822716807368,0.7333333333333333,0.6092552865461232,0.39306899781454885,0.06456346294937637
pswiki,24.0,0.03343949044585987,0.7,0.6224333435488814,0.379019669060256,0.06382978723404255
pswiki,25.0,0.03349673202614379,0.6833333333333333,0.6316273368066196,0.3693412425850765,0.06386292834890966
pswiki,26.0,0.03462837837837838,0.6833333333333333,0.6438859944836041,0.3568529503590384,0.06591639871382636
pswiki,27.0,0.03555941023417172,0.6833333333333333,0.6533864541832669,0.3471745238838589,0.06760098928276999
pswiki,28.0,0.036444444444444446,0.6833333333333333,0.661967514557156,0.33843271932563224,0.06919831223628692
pswiki,29.0,0.03713768115942029,0.6833333333333333,0.6684033098375728,0.33187636590696223,0.070446735395189
pswiki,30.0,0.037753222836095765,0.6833333333333333,0.6739197057922157,0.3262566344052451,0.07155322862129146
pswiki,31.0,0.0389363722697056,0.6833333333333333,0.6840330983757279,0.31595379331876366,0.07367475292003595
pswiki,32.0,0.03984450923226433,0.6833333333333333,0.6913882929819185,0.3084608179831408,0.07529843893480256
pswiki,33.0,0.04,0.6666666666666666,0.6996628869138829,0.29971901342491414,0.07547169811320754
pswiki,34.0,0.03971486761710794,0.65,0.7045663499846767,0.29441148922884797,0.07485604606525911
pswiki,35.0,0.04054054054054054,0.65,0.7106956788231689,0.2881673431158289,0.07632093933463796
pswiki,36.0,0.041401273885350316,0.65,0.716825007661661,0.2819231970028099,0.07784431137724551
pswiki,37.0,0.04220779220779221,0.65,0.7223414036163041,0.27630346550109275,0.07926829268292683
pswiki,38.0,0.0430939226519337,0.65,0.7281642660128715,0.2703715266937246,0.08082901554404145
pswiki,39.0,0.04288939051918736,0.6333333333333333,0.7333741955255899,0.2647517951920075,0.08033826638477802
pswiki,40.0,0.04262672811059908,0.6166666666666667,0.7382776585963837,0.2594442709959413,0.07974137931034483
pswiki,41.0,0.04332552693208431,0.6166666666666667,0.7425681887833282,0.25507336871682795,0.08096280087527352
pswiki,42.0,0.04425837320574163,0.6166666666666667,0.7480845847379712,0.24945363721511082,0.08258928571428571
pswiki,43.0,0.045012165450121655,0.6166666666666667,0.7523751149249157,0.2450827349359975,0.08390022675736962
pswiki,44.0,0.044444444444444446,0.6,0.7554397793441618,0.24164845457383702,0.08275862068965519
pswiki,45.0,0.04314720812182741,0.5666666666666667,0.7609561752988048,0.23540430846081797,0.08018867924528301
pswiki,46.0,0.04387096774193548,0.5666666666666667,0.7649402390438247,0.2313456134873556,0.081437125748503
pswiki,47.0,0.04456094364351245,0.5666666666666667,0.76861783634692,0.22759912581954417,0.08262454434993924
pswiki,48.0,0.04533333333333334,0.5666666666666667,0.77260190009194,0.2235404308460818,0.08395061728395062
pswiki,49.0,0.04689655172413793,0.5666666666666667,0.7802635611400551,0.215735248204808,0.08662420382165605
pswiki,50.0,0.047954866008462625,0.5666666666666667,0.7851670242108489,0.21073993131439275,0.08842652795838751
pswiki,51.0,0.04899135446685879,0.5666666666666667,0.7897640208397181,0.20605682172962847,0.09018567639257295
pswiki,52.0,0.050221565731166914,0.5666666666666667,0.7949739503524365,0.2007492975335623,0.09226594301221168
pswiki,53.0,0.05198776758409786,0.5666666666666667,0.8020226785167024,0.19356852950359038,0.09523809523809525
pswiki,54.0,0.05354330708661417,0.5666666666666667,0.80784554091327,0.1876365906962223,0.09784172661870504
pswiki,55.0,0.052715654952076675,0.55,0.8099908060067422,0.1851389322510147,0.09620991253644315
pswiki,56.0,0.054276315789473686,0.55,0.8155072019613853,0.17951920074929753,0.09880239520958084
pswiki,57.0,0.05546218487394958,0.55,0.8194912657064052,0.17546050577583516,0.10076335877862595
pswiki,58.0,0.05719237435008666,0.55,0.8250076616610481,0.169840774274118,0.10361067503924648
pswiki,59.0,0.05935251798561151,0.55,0.8314434569414649,0.163284420855448,0.10714285714285715
pswiki,60.0,0.061452513966480445,0.55,0.8372663193380325,0.15735248204807992,0.11055276381909547
pswiki,61.0,0.05927342256214149,0.5166666666666667,0.8403309837572785,0.1536059943802685,0.10634648370497427
pswiki,62.0,0.06187624750499002,0.5166666666666667,0.8470732454796199,0.14673743365594755,0.11051693404634583
pswiki,63.0,0.06391752577319587,0.5166666666666667,0.8519767085504137,0.1417421167655323,0.11376146788990826
pswiki,64.0,0.06638115631691649,0.5166666666666667,0.8574931045050567,0.13612238526381518,0.11764705882352944
pswiki,65.0,0.06813186813186813,0.5166666666666667,0.861170701808152,0.13237589759600374,0.12038834951456309
pswiki,66.0,0.06888888888888889,0.5166666666666667,0.862703034017775,0.13081486106774898,0.1215686274509804
pswiki,67.0,0.07093821510297482,0.5166666666666667,0.866687097762795,0.1267561660942866,0.12474849094567403
pswiki,68.0,0.0702576112412178,0.5,0.8691388292981919,0.12394630034342803,0.12320328542094455
pswiki,69.0,0.07194244604316546,0.5,0.872203493717438,0.12082422728691851,0.12578616352201258
pswiki,70.0,0.06965174129353234,0.4666666666666667,0.8755746245786087,0.11676553231345614,0.12121212121212122
pswiki,71.0,0.0703125,0.45,0.8804780876494024,0.11145800811738994,0.12162162162162163
pswiki,72.0,0.07336956521739131,0.45,0.8853815507201961,0.10646269122697471,0.12616822429906543
pswiki,73.0,0.07670454545454546,0.45,0.8902850137909899,0.10146737433655947,0.13106796116504854
pswiki,74.0,0.07964601769911504,0.45,0.8942690775360098,0.09740867936309709,0.13533834586466167
pswiki,75.0,0.0778816199376947,0.4166666666666667,0.8985596077229543,0.09241336247268186,0.13123359580052493
pswiki,76.0,0.08250825082508251,0.4166666666666667,0.9040760036775973,0.08679363097096472,0.13774104683195593
pswiki,77.0,0.08710801393728224,0.4166666666666667,0.908979466748391,0.08179831408054948,0.14409221902017294
pswiki,78.0,0.08992805755395683,0.4166666666666667,0.9117376647257125,0.07898844832969092,0.14792899408284027
pswiki,79.0,0.09398496240601503,0.4166666666666667,0.9154152620288079,0.07524196066187949,0.15337423312883436
pswiki,80.0,0.08949416342412451,0.38333333333333336,0.9169475942384309,0.07305650952232282,0.14511041009463724
pswiki,81.0,0.09829059829059829,0.38333333333333336,0.9239963224026969,0.06587574149235093,0.1564625850340136
pswiki,82.0,0.1004566210045662,0.36666666666666664,0.9279803861477168,0.06150483921323759,0.15770609318996415
pswiki,83.0,0.10576923076923077,0.36666666666666664,0.9313515170088875,0.05807055885107711,0.16417910447761191
pswiki,84.0,0.10582010582010581,0.3333333333333333,0.9359485136377567,0.05276303465501093,0.1606425702811245
pswiki,85.0,0.11363636363636363,0.3333333333333333,0.9399325773827766,0.048704339681548546,0.16949152542372878
pswiki,86.0,0.12101910828025478,0.31666666666666665,0.945142506895495,0.04308460817983141,0.1751152073732719
pswiki,87.0,0.1386861313868613,0.31666666666666665,0.9512718357339871,0.036840462066812366,0.19289340101522842
pswiki,88.0,0.11607142857142858,0.21666666666666667,0.955255899479007,0.030908523259444272,0.1511627906976744
pswiki,89.0,0.0851063829787234,0.13333333333333333,0.9577076310144039,0.026849828285981894,0.10389610389610389
pswiki,90.0,0.08536585365853659,0.11666666666666667,0.9607722954336501,0.023415547923821417,0.09859154929577466
pswiki,91.0,0.06060606060606061,0.06666666666666667,0.9638369598528961,0.01935685295035904,0.0634920634920635
pswiki,92.0,0.08163265306122448,0.06666666666666667,0.9690468893656145,0.01404932875429285,0.07339449541284404
pswiki,93.0,0.07894736842105263,0.05,0.9718050873429359,0.010927255697783328,0.061224489795918366
pswiki,94.0,0.1,0.05,0.9742568188783328,0.00842959725257571,0.06666666666666667
pswiki,95.0,0.15,0.05,0.977321483297579,0.005307524196066188,0.075
pswiki,96.0,0.2,0.05,0.978853815507202,0.003746487667811427,0.08000000000000002
pswiki,97.0,0.375,0.05,0.9809990806006742,0.0015610365282547611,0.08823529411764708
pswiki,98.0,0.3333333333333333,0.016666666666666666,0.9813055470425989,0.0006244146113019045,0.031746031746031744
pswiki,99.0,1.0,0.016666666666666666,0.9819184799264481,0.0,0.03278688524590164
