wiki_db,threshold,precision,recall,accuracy,fpr,F1
ruewiki,0.0,0.10919220055710306,1.0,0.10919220055710306,1.0,0.19688598694123555
ruewiki,1.0,0.10925306577480491,1.0,0.10974930362116991,0.9993746091307066,0.19698492462311556
ruewiki,2.0,0.12083847102342787,1.0,0.20557103064066853,0.8918073796122576,0.21562156215621564
ruewiki,3.0,0.1279373368146214,1.0,0.25571030640668524,0.8355222013758599,0.22685185185185183
ruewiki,4.0,0.1331521739130435,1.0,0.2891364902506964,0.7979987492182614,0.23501199040767387
ruewiki,5.0,0.1397006414825374,1.0,0.3275766016713092,0.7548467792370231,0.24515322076297683
ruewiki,6.0,0.14714714714714713,1.0,0.3671309192200557,0.7104440275171983,0.25654450261780104
ruewiki,7.0,0.1532447224394058,1.0,0.3966573816155989,0.6772983114446529,0.2657627118644068
ruewiki,8.0,0.15883306320907617,1.0,0.42172701949860725,0.649155722326454,0.27412587412587414
ruewiki,9.0,0.16319733555370525,1.0,0.4401114206128134,0.6285178236397748,0.2806012884753042
ruewiki,10.0,0.1680960548885077,1.0,0.4596100278551532,0.6066291432145091,0.28781204111600583
ruewiki,11.0,0.17329796640141468,1.0,0.479108635097493,0.5847404627892433,0.29540316503391106
ruewiki,12.0,0.17883211678832117,1.0,0.4986072423398329,0.5628517823639775,0.30340557275541796
ruewiki,13.0,0.18190298507462688,0.9948979591836735,0.5108635097493036,0.5484677923702314,0.30757097791798105
ruewiki,14.0,0.1871401151631478,0.9948979591836735,0.5275766016713092,0.5297060662914321,0.3150242326332795
ruewiki,15.0,0.1906158357771261,0.9948979591836735,0.5381615598885794,0.5178236397748592,0.31993437243642325
ruewiki,16.0,0.19595959595959597,0.9897959183673469,0.5554317548746518,0.4978111319574734,0.3271500843170321
ruewiki,17.0,0.2012448132780083,0.9897959183673469,0.56991643454039,0.4815509693558474,0.33448275862068966
ruewiki,18.0,0.2066027689030884,0.9897959183673469,0.5838440111420613,0.4659161976235147,0.3418502202643172
ruewiki,19.0,0.21389195148842338,0.9897959183673469,0.6016713091922006,0.4459036898061288,0.3517679057116954
ruewiki,20.0,0.21758737316798196,0.9846938775510204,0.611699164345404,0.434021263289556,0.35641735918744233
ruewiki,21.0,0.22441860465116278,0.9846938775510204,0.6267409470752089,0.4171357098186366,0.36553030303030304
ruewiki,22.0,0.23281061519903498,0.9846938775510204,0.6440111420612813,0.3977485928705441,0.37658536585365854
ruewiki,23.0,0.23886138613861385,0.9846938775510204,0.6557103064066853,0.38461538461538464,0.3844621513944223
ruewiki,24.0,0.24337957124842372,0.9846938775510204,0.664066852367688,0.37523452157598497,0.3902932254802831
ruewiki,25.0,0.24581724581724582,0.9744897959183674,0.6707520891364902,0.36647904940587867,0.3926002055498458
ruewiki,26.0,0.24934725848563968,0.9744897959183674,0.6768802228412256,0.3595997498436523,0.39708939708939706
ruewiki,27.0,0.2543507362784471,0.9693877551020408,0.6863509749303621,0.34834271419637275,0.4029692470837752
ruewiki,28.0,0.25718194254445964,0.9591836734693877,0.6930362116991643,0.3395872420262664,0.40560949298813376
ruewiki,29.0,0.2608089260808926,0.9540816326530612,0.6997214484679666,0.3314571607254534,0.4096385542168675
ruewiki,30.0,0.26487252124645894,0.9540816326530612,0.705849582172702,0.324577861163227,0.41463414634146345
ruewiki,31.0,0.26618705035971224,0.9438775510204082,0.70974930362117,0.31894934333958724,0.4152637485970819
ruewiki,32.0,0.27111111111111114,0.9336734693877551,0.7186629526462396,0.3076923076923077,0.4202066590126292
ruewiki,33.0,0.2719033232628399,0.9183673469387755,0.7225626740947075,0.30143839899937463,0.4195804195804196
ruewiki,34.0,0.27613104524180965,0.9030612244897959,0.7309192200557103,0.29018136335209505,0.4229390681003584
ruewiki,35.0,0.27229299363057324,0.8724489795918368,0.7314763231197772,0.2858036272670419,0.41504854368932037
ruewiki,36.0,0.2739059967585089,0.8622448979591837,0.7353760445682451,0.2801751094434021,0.41574415744157445
ruewiki,37.0,0.27603305785123966,0.8520408163265306,0.7398328690807799,0.27392120075046905,0.41697877652933835
ruewiki,38.0,0.2755102040816326,0.826530612244898,0.7437325905292479,0.26641651031894936,0.413265306122449
ruewiki,39.0,0.27652173913043476,0.8112244897959183,0.7476323119777158,0.2601626016260163,0.41245136186770426
ruewiki,40.0,0.2771929824561403,0.8061224489795918,0.7493036211699164,0.257661038148843,0.41253263707571797
ruewiki,41.0,0.274822695035461,0.7908163265306123,0.7493036211699164,0.2557848655409631,0.4078947368421052
ruewiki,42.0,0.27617328519855594,0.7806122448979592,0.7526462395543175,0.2507817385866166,0.4079999999999999
ruewiki,43.0,0.2796296296296296,0.7704081632653061,0.7582172701949861,0.24327704815509693,0.4103260869565217
ruewiki,44.0,0.2808349146110057,0.7551020408163265,0.762116991643454,0.23702313946216386,0.4094052558782849
ruewiki,45.0,0.28239845261121854,0.7448979591836735,0.7654596100278551,0.2320200125078174,0.4095371669004207
ruewiki,46.0,0.27634194831013914,0.7091836734693877,0.7654596100278551,0.22764227642276422,0.3977110157367668
ruewiki,47.0,0.2751004016064257,0.6989795918367347,0.766016713091922,0.2257661038148843,0.39481268011527376
ruewiki,48.0,0.27607361963190186,0.6887755102040817,0.7688022284122563,0.22138836772983114,0.39416058394160586
ruewiki,49.0,0.27291666666666664,0.6683673469387755,0.7693593314763231,0.2182614133833646,0.3875739644970414
ruewiki,50.0,0.274468085106383,0.6581632653061225,0.7727019498607243,0.21325828642901815,0.3873873873873874
ruewiki,51.0,0.26956521739130435,0.6326530612244898,0.7727019498607243,0.2101313320825516,0.3780487804878049
ruewiki,52.0,0.27111111111111114,0.6224489795918368,0.7760445682451254,0.20512820512820512,0.37770897832817335
ruewiki,53.0,0.2766439909297052,0.6224489795918368,0.781058495821727,0.19949968730456535,0.3830455259026687
ruewiki,54.0,0.28045977011494255,0.6224489795918368,0.7844011142061281,0.1957473420888055,0.3866877971473851
ruewiki,55.0,0.2823529411764706,0.6122448979591837,0.7877437325905292,0.19074421513445905,0.38647342995169087
ruewiki,56.0,0.2840095465393795,0.6071428571428571,0.7899721448467967,0.18761726078799248,0.3869918699186992
ruewiki,57.0,0.28780487804878047,0.6020408163265306,0.7938718662952646,0.18261413383364603,0.38943894389438943
ruewiki,58.0,0.295,0.6020408163265306,0.7994428969359332,0.17636022514071295,0.3959731543624161
ruewiki,59.0,0.3010204081632653,0.6020408163265306,0.803899721448468,0.1713570981863665,0.4013605442176871
ruewiki,60.0,0.30971128608923887,0.6020408163265306,0.8100278551532033,0.16447779862414008,0.4090121317157712
ruewiki,61.0,0.3136729222520107,0.5969387755102041,0.8133704735376045,0.16010006253908693,0.4112478031634446
ruewiki,62.0,0.3185595567867036,0.5867346938775511,0.8178272980501393,0.15384615384615385,0.4129263913824057
ruewiki,63.0,0.32763532763532766,0.5867346938775511,0.8233983286908078,0.14759224515322075,0.42047531992687387
ruewiki,64.0,0.3392330383480826,0.5867346938775511,0.83008356545961,0.14008755472170106,0.42990654205607476
ruewiki,65.0,0.3516819571865443,0.5867346938775511,0.8367688022284122,0.13258286429018137,0.4397705544933078
ruewiki,66.0,0.3627760252365931,0.5867346938775511,0.8423398328690808,0.12632895559724827,0.4483430799220273
ruewiki,67.0,0.37337662337662336,0.5867346938775511,0.8473537604456824,0.1207004377736085,0.45634920634920634
ruewiki,68.0,0.38205980066445183,0.5867346938775511,0.8512534818941504,0.11632270168855535,0.4627766599597586
ruewiki,69.0,0.3898305084745763,0.5867346938775511,0.8545961002785515,0.1125703564727955,0.4684317718940937
ruewiki,70.0,0.40350877192982454,0.5867346938775511,0.86016713091922,0.10631644777986242,0.4781704781704782
ruewiki,71.0,0.41155234657039713,0.5816326530612245,0.8635097493036211,0.10193871169480925,0.4820295983086681
ruewiki,72.0,0.42379182156133827,0.5816326530612245,0.8679665738161559,0.0969355847404628,0.49032258064516127
ruewiki,73.0,0.42578125,0.5561224489795918,0.8696378830083565,0.09193245778611632,0.48230088495575224
ruewiki,74.0,0.43775100401606426,0.5561224489795918,0.8735376044568245,0.08755472170106317,0.4898876404494382
ruewiki,75.0,0.4462809917355372,0.5510204081632653,0.8763231197771588,0.08380237648530331,0.4931506849315068
ruewiki,76.0,0.4553191489361702,0.5459183673469388,0.879108635097493,0.08005003126954346,0.4965197215777263
ruewiki,77.0,0.4692982456140351,0.5459183673469388,0.883008356545961,0.07567229518449031,0.5047169811320754
ruewiki,78.0,0.48623853211009177,0.5408163265306123,0.8874651810584958,0.07004377736085053,0.5120772946859904
ruewiki,79.0,0.51,0.5204081632653061,0.8930362116991644,0.06128830519074421,0.5151515151515151
ruewiki,80.0,0.5052631578947369,0.4897959183673469,0.8919220055710306,0.058786741713570984,0.49740932642487046
ruewiki,81.0,0.5,0.45408163265306123,0.8908077994428969,0.05565978736710444,0.47593582887700536
ruewiki,82.0,0.5207100591715976,0.4489795918367347,0.8947075208913648,0.05065666041275797,0.48219178082191777
ruewiki,83.0,0.5506329113924051,0.44387755102040816,0.8997214484679665,0.04440275171982489,0.4915254237288136
ruewiki,84.0,0.5448275862068965,0.4030612244897959,0.898050139275766,0.04127579737335835,0.46334310850439875
ruewiki,85.0,0.5539568345323741,0.39285714285714285,0.8991643454038997,0.03877423389618512,0.4597014925373134
ruewiki,86.0,0.5447154471544715,0.34183673469387754,0.8969359331476323,0.035021888680425266,0.4200626959247649
ruewiki,87.0,0.5344827586206896,0.3163265306122449,0.8952646239554317,0.03377110694183865,0.3974358974358974
ruewiki,88.0,0.5480769230769231,0.29081632653061223,0.8963788300835654,0.029393370856785492,0.38
ruewiki,89.0,0.5714285714285714,0.2653061224489796,0.898050139275766,0.024390243902439025,0.3623693379790941
ruewiki,90.0,0.575,0.23469387755102042,0.8974930362116992,0.021263289555972485,0.33333333333333337
ruewiki,91.0,0.5633802816901409,0.20408163265306123,0.8958217270194986,0.01938711694809256,0.299625468164794
ruewiki,92.0,0.5806451612903226,0.1836734693877551,0.8963788300835654,0.016260162601626018,0.27906976744186046
ruewiki,93.0,0.5925925925925926,0.16326530612244897,0.8963788300835654,0.013758599124452783,0.256
ruewiki,94.0,0.6,0.1377551020408163,0.8958217270194986,0.01125703564727955,0.22406639004149376
ruewiki,95.0,0.5806451612903226,0.09183673469387756,0.8935933147632312,0.008130081300813009,0.15859030837004406
ruewiki,96.0,0.75,0.07653061224489796,0.8963788300835654,0.0031269543464665416,0.1388888888888889
ruewiki,97.0,0.7777777777777778,0.07142857142857142,0.8963788300835654,0.0025015634771732333,0.1308411214953271
ruewiki,98.0,0.8666666666666667,0.0663265306122449,0.8969359331476323,0.0012507817385866166,0.12322274881516589
ruewiki,99.0,0.8181818181818182,0.04591836734693878,0.8947075208913648,0.0012507817385866166,0.08695652173913043
