wiki_db,threshold,precision,recall,accuracy,fpr,F1
szlwiki,0.0,0.032342986084994356,1.0,0.032342986084994356,1.0,0.06265938069216757
szlwiki,1.0,0.032342986084994356,1.0,0.032342986084994356,1.0,0.06265938069216757
szlwiki,2.0,0.032342986084994356,1.0,0.032342986084994356,1.0,0.06265938069216757
szlwiki,3.0,0.032465081162702907,1.0,0.03610379842045882,0.996113486202876,0.06288848263254113
szlwiki,4.0,0.03261281759575275,1.0,0.04061677322301617,0.9914496696463272,0.06316562614763128
szlwiki,5.0,0.03302611367127496,1.0,0.05302745393004889,0.9786241741158181,0.06394052044609665
szlwiki,6.0,0.03313840155945419,0.9883720930232558,0.06694245957126739,0.963855421686747,0.06412674462466994
szlwiki,7.0,0.03381066030230708,0.9883720930232558,0.08612260248213614,0.9440342013214147,0.06538461538461539
szlwiki,8.0,0.03798033958891868,0.9883720930232558,0.18992102294095525,0.8367664205207929,0.07314974182444062
szlwiki,9.0,0.0404569252736792,0.9883720930232558,0.24144415193681834,0.7835211815001943,0.07773205304069501
szlwiki,10.0,0.04144319843978547,0.9883720930232558,0.26024821361414063,0.7640886125145744,0.0795507721104352
szlwiki,11.0,0.041913214990138066,0.9883720930232558,0.2688980819857089,0.7551496307811892,0.0804162724692526
szlwiki,12.0,0.04404145077720207,0.9883720930232558,0.30575404287326063,0.7170617955693742,0.08432539682539683
szlwiki,13.0,0.044525929806181246,0.9883720930232558,0.313651748777736,0.708900116595414,0.08521303258145363
szlwiki,14.0,0.04511677282377919,0.9883720930232558,0.32305377961639714,0.6991838321026039,0.08629441624365482
szlwiki,15.0,0.04597079502433748,0.9883720930232558,0.3362166227905228,0.68558103381267,0.08785529715762273
szlwiki,16.0,0.046357615894039736,0.9767441860465116,0.34937946596464836,0.6715895841430237,0.08851422550052687
szlwiki,17.0,0.04732394366197183,0.9767441860465116,0.36329447160586686,0.657209483093665,0.09027404621171413
szlwiki,18.0,0.04814385150812065,0.9651162790697675,0.3817224520496427,0.637776914108045,0.09171270718232044
szlwiki,19.0,0.055444221776887105,0.9651162790697675,0.46709289206468596,0.5495530509133307,0.10486418193303854
szlwiki,20.0,0.05832147937411095,0.9534883720930233,0.5005641218503196,0.5145744267392149,0.1099195710455764
szlwiki,21.0,0.060167555217060166,0.9186046511627907,0.5332831891688605,0.4795958025650991,0.11293781272337383
szlwiki,22.0,0.062058130400628436,0.9186046511627907,0.5483264385107183,0.4640497473766032,0.11626195732155996
szlwiki,23.0,0.06655433866891322,0.9186046511627907,0.5806694245957127,0.430625728721337,0.12411626080125686
szlwiki,24.0,0.07117117117117117,0.9186046511627907,0.609627679578789,0.4006995724834823,0.1321070234113712
szlwiki,25.0,0.07386363636363637,0.9069767441860465,0.6291839037232042,0.38010104935872524,0.13660245183887915
szlwiki,26.0,0.07776669990029911,0.9069767441860465,0.6491162091011659,0.3595025262339681,0.14325068870523416
szlwiki,27.0,0.08054393305439331,0.8953488372093024,0.6660398646107559,0.3416245627671978,0.14779270633397312
szlwiki,28.0,0.08480176211453745,0.8953488372093024,0.6840917638209854,0.3229692965410027,0.15492957746478875
szlwiki,29.0,0.08786127167630058,0.8837209302325582,0.6995110943963896,0.306645938593082,0.1598317560462671
szlwiki,30.0,0.09079903147699758,0.872093023255814,0.7134261000376081,0.29187718616401087,0.16447368421052636
szlwiki,31.0,0.09319899244332494,0.8604651162790697,0.7247085370440015,0.27982899339292655,0.16818181818181818
szlwiki,32.0,0.09772423025435073,0.8488372093023255,0.7416321925535916,0.26195102992615626,0.17527010804321727
szlwiki,33.0,0.10126582278481013,0.8372093023255814,0.7544189544941707,0.2483482316362223,0.18067754077791717
szlwiki,34.0,0.10572687224669604,0.8372093023255814,0.7657013915005642,0.23668869024485037,0.1877444589308996
szlwiki,35.0,0.1094224924012158,0.8372093023255814,0.7743512598721324,0.22774970851146523,0.1935483870967742
szlwiki,36.0,0.1109350237717908,0.813953488372093,0.7830011282437006,0.21803342401865528,0.19525801952580196
szlwiki,37.0,0.11608623548922056,0.813953488372093,0.7935314027830012,0.20715118538670813,0.20319303338171263
szlwiki,38.0,0.12131715771230503,0.813953488372093,0.8033095148552087,0.19704624951418578,0.2111613876319759
szlwiki,39.0,0.12637362637362637,0.8023255813953488,0.8142158706280557,0.18538670812281383,0.21835443037974683
szlwiki,40.0,0.1329479768786127,0.8023255813953488,0.8243700639338097,0.1748931208705791,0.228099173553719
szlwiki,41.0,0.1349206349206349,0.7906976744186046,0.8292591199699135,0.16945200155460552,0.2305084745762712
szlwiki,42.0,0.13387423935091278,0.7674418604651163,0.8318916886047386,0.16595413913719392,0.22797927461139894
szlwiki,43.0,0.13800424628450106,0.7558139534883721,0.8394133132756676,0.1577924601632336,0.2333931777378815
szlwiki,44.0,0.1415929203539823,0.7441860465116279,0.8458066942459571,0.15079673532841043,0.2379182156133829
szlwiki,45.0,0.1415525114155251,0.7209302325581395,0.8495675065814215,0.14613291877186163,0.23664122137404578
szlwiki,46.0,0.14553990610328638,0.7209302325581395,0.854080481383979,0.14146910221531286,0.2421875
szlwiki,47.0,0.1517412935323383,0.7093023255813954,0.8623542685220007,0.13253012048192772,0.25
szlwiki,48.0,0.15789473684210525,0.6976744186046512,0.8698758931929297,0.12436844150796736,0.25751072961373395
szlwiki,49.0,0.16120218579234974,0.686046511627907,0.874388867995487,0.11931597357170617,0.2610619469026549
szlwiki,50.0,0.16619718309859155,0.686046511627907,0.8785257615644979,0.1150408083948698,0.2675736961451247
szlwiki,51.0,0.17507418397626112,0.686046511627907,0.8852952237683339,0.10804508356004663,0.2789598108747045
szlwiki,52.0,0.17901234567901234,0.6744186046511628,0.8894321173373448,0.10338126700349787,0.28292682926829266
szlwiki,53.0,0.19333333333333333,0.6744186046511628,0.8984580669424596,0.0940536338904003,0.3005181347150259
szlwiki,54.0,0.20279720279720279,0.6744186046511628,0.9037232042121098,0.08861251457442675,0.31182795698924726
szlwiki,55.0,0.20938628158844766,0.6744186046511628,0.9071079353140278,0.08511465215701516,0.31955922865013775
szlwiki,56.0,0.21804511278195488,0.6744186046511628,0.9112448288830387,0.08083948698017877,0.3295454545454546
szlwiki,57.0,0.2265625,0.6744186046511628,0.9150056412185033,0.0769529731830548,0.33918128654970764
szlwiki,58.0,0.23577235772357724,0.6744186046511628,0.9187664535539677,0.07306645938593082,0.34939759036144585
szlwiki,59.0,0.24472573839662448,0.6744186046511628,0.9221511846558856,0.06956859696851923,0.3591331269349845
szlwiki,60.0,0.25327510917030566,0.6744186046511628,0.9251598345242572,0.06645938593082006,0.3682539682539682
szlwiki,61.0,0.26244343891402716,0.6744186046511628,0.9281684843926288,0.06335017489312086,0.3778501628664495
szlwiki,62.0,0.2761904761904762,0.6744186046511628,0.9323053779616397,0.059075009716284495,0.39189189189189194
szlwiki,63.0,0.2857142857142857,0.6744186046511628,0.9349379465964648,0.05635445005829771,0.4013840830449827
szlwiki,64.0,0.29591836734693877,0.6744186046511628,0.93757051523129,0.05363389040031092,0.4113475177304965
szlwiki,65.0,0.3005181347150259,0.6744186046511628,0.9386987589319293,0.05246793626117373,0.4157706093189964
szlwiki,66.0,0.30687830687830686,0.6744186046511628,0.9402030838661151,0.05091333074232413,0.4218181818181818
szlwiki,67.0,0.31016042780748665,0.6744186046511628,0.9409552463332079,0.05013602798289934,0.4249084249084249
szlwiki,68.0,0.32222222222222224,0.6744186046511628,0.9435878149680331,0.04741546832491255,0.43609022556390975
szlwiki,69.0,0.3372093023255814,0.6744186046511628,0.9465964648364047,0.04430625728721337,0.44961240310077516
szlwiki,70.0,0.3391812865497076,0.6744186046511628,0.9469725460699511,0.04391760590750097,0.4513618677042801
szlwiki,71.0,0.34523809523809523,0.6744186046511628,0.9481007897705904,0.04275165176836378,0.45669291338582674
szlwiki,72.0,0.3558282208588957,0.6744186046511628,0.9499811959383226,0.04080839486980179,0.465863453815261
szlwiki,73.0,0.36538461538461536,0.6627906976744186,0.9518616021060549,0.0384764865915274,0.47107438016528924
szlwiki,74.0,0.35947712418300654,0.6395348837209303,0.9514855208725085,0.038087835211815003,0.4602510460251046
szlwiki,75.0,0.3724137931034483,0.627906976744186,0.9537420082737872,0.035367275553828216,0.4675324675324675
szlwiki,76.0,0.36879432624113473,0.6046511627906976,0.9537420082737872,0.03458997279440342,0.45814977973568277
szlwiki,77.0,0.3787878787878788,0.5813953488372093,0.9556224144415194,0.031869413136416634,0.4587155963302752
szlwiki,78.0,0.3870967741935484,0.5581395348837209,0.9571267393757051,0.029537504858142247,0.45714285714285713
szlwiki,79.0,0.3865546218487395,0.5348837209302325,0.9575028206092516,0.028371550719005052,0.448780487804878
szlwiki,80.0,0.39285714285714285,0.5116279069767442,0.958631064309891,0.026428293820443063,0.4444444444444445
szlwiki,81.0,0.3925233644859813,0.4883720930232558,0.9590071455434374,0.025262339681305868,0.4352331606217616
szlwiki,82.0,0.37,0.43023255813953487,0.957878901842798,0.024485036921881073,0.3978494623655914
szlwiki,83.0,0.36666666666666664,0.38372093023255816,0.958631064309891,0.022153128643606686,0.37499999999999994
szlwiki,84.0,0.37349397590361444,0.36046511627906974,0.9597593080105302,0.020209871745044693,0.3668639053254438
szlwiki,85.0,0.4,0.3488372093023256,0.9620157954118089,0.01748931208705791,0.3726708074534161
szlwiki,86.0,0.42028985507246375,0.3372093023255814,0.9635201203459948,0.01554605518849592,0.37419354838709673
szlwiki,87.0,0.4098360655737705,0.29069767441860467,0.9635201203459948,0.013991449669646328,0.3401360544217687
szlwiki,88.0,0.34615384615384615,0.20930232558139536,0.9616397141782626,0.013214146910221531,0.2608695652173913
szlwiki,89.0,0.3617021276595745,0.19767441860465115,0.9627679578789018,0.011659541391371939,0.2556390977443609
szlwiki,90.0,0.375,0.1744186046511628,0.9638962015795411,0.00971628449280995,0.23809523809523814
szlwiki,91.0,0.36363636363636365,0.13953488372093023,0.9642722828130876,0.008161678973960357,0.20168067226890754
szlwiki,92.0,0.4166666666666667,0.11627906976744186,0.9661526889808199,0.005441119315973571,0.1818181818181818
szlwiki,93.0,0.47058823529411764,0.09302325581395349,0.9672809326814592,0.003497862417411582,0.1553398058252427
szlwiki,94.0,0.4666666666666667,0.08139534883720931,0.9672809326814592,0.003109211037699184,0.13861386138613863
szlwiki,95.0,0.6,0.06976744186046512,0.9684091763820986,0.001554605518849592,0.125
szlwiki,96.0,0.6666666666666666,0.06976744186046512,0.9687852576156449,0.001165954139137194,0.12631578947368421
szlwiki,97.0,0.6666666666666666,0.06976744186046512,0.9687852576156449,0.001165954139137194,0.12631578947368421
szlwiki,98.0,0.75,0.06976744186046512,0.9691613388491914,0.000777302759424796,0.1276595744680851
szlwiki,99.0,0.8571428571428571,0.06976744186046512,0.9695374200827379,0.000388651379712398,0.12903225806451613
