wiki_db,threshold,precision,recall,accuracy,fpr,F1
tcywiki,0.0,0.015341344924571721,1.0,0.015341344924571721,1.0,0.030219088390833548
tcywiki,1.0,0.015341344924571721,1.0,0.015341344924571721,1.0,0.030219088390833548
tcywiki,2.0,0.015360983102918587,1.0,0.016619790334952696,0.9987016359387172,0.0302571860816944
tcywiki,3.0,0.01530479896238651,0.9833333333333333,0.02914855535668627,0.9857179953258893,0.030140485312899108
tcywiki,4.0,0.015409139213602551,0.9666666666666667,0.05190488366146766,0.9623474422227992,0.030334728033472806
tcywiki,5.0,0.015047879616963064,0.9166666666666666,0.07824085911531578,0.9348221241236042,0.029609690444145357
tcywiki,6.0,0.015065378055713473,0.8833333333333333,0.11224750703144976,0.899766294468969,0.029625489100055896
tcywiki,7.0,0.014961101137043686,0.8333333333333334,0.15571465098440296,0.8548428979485848,0.029394473838918283
tcywiki,8.0,0.01544766708701135,0.8166666666666667,0.1986704167732038,0.8109581926772267,0.03032178217821782
tcywiki,9.0,0.01547779273216689,0.7666666666666667,0.24827409869598568,0.759802648662685,0.03034300791556728
tcywiki,10.0,0.015362629510539478,0.7166666666666667,0.2909741754027103,0.7156582705790704,0.030080447708989155
tcywiki,11.0,0.015601217656012176,0.6833333333333333,0.3336742521094349,0.6717735653077123,0.030505952380952377
tcywiki,12.0,0.014901329037454692,0.6166666666666667,0.3687036563538737,0.6351596987795378,0.02909948879276445
tcywiki,13.0,0.015358361774744027,0.6,0.40373306059831243,0.5993248506881329,0.02995008319467554
tcywiki,14.0,0.01569506726457399,0.5833333333333334,0.4323702377908463,0.569981822903142,0.03056768558951965
tcywiki,15.0,0.01544943820224719,0.55,0.4553822551777039,0.5460919241755389,0.03005464480874317
tcywiki,16.0,0.015469061876247504,0.5166666666666667,0.4881104576834569,0.5123344585821864,0.030038759689922482
tcywiki,17.0,0.016463090812533193,0.5166666666666667,0.5190488366146766,0.4809140482991431,0.031909418425115806
tcywiki,18.0,0.01639344262295082,0.48333333333333334,0.547174635643058,0.45183069332640874,0.03171131765992345
tcywiki,19.0,0.016756433273488927,0.4666666666666667,0.5717207875223728,0.4266424305375227,0.032351242056614674
tcywiki,20.0,0.017110266159695818,0.45,0.5949884939913066,0.4027525318099195,0.03296703296703297
tcywiki,21.0,0.018072289156626505,0.45,0.6164663768857069,0.3809400155803687,0.03474903474903475
tcywiki,22.0,0.01771793054571226,0.4166666666666667,0.6366658143697264,0.35990651778758764,0.03399048266485384
tcywiki,23.0,0.01812688821752266,0.4,0.658399386346203,0.33757465593352376,0.034682080924855495
tcywiki,24.0,0.0186084142394822,0.38333333333333336,0.6803886474047558,0.31498312126720335,0.03549382716049383
tcywiki,25.0,0.01972555746140652,0.38333333333333336,0.6982868831500895,0.29680602440924436,0.037520391517128875
tcywiki,26.0,0.02040816326530612,0.36666666666666664,0.7202761442086423,0.2742144897429239,0.03866432337434094
tcywiki,27.0,0.021611001964636542,0.36666666666666664,0.735617489133214,0.2586341210075305,0.04081632653061224
tcywiki,28.0,0.022940563086548488,0.36666666666666664,0.7507031449757096,0.24331342508439366,0.04317958783120706
tcywiki,29.0,0.021834061135371178,0.3333333333333333,0.7606750191766811,0.23266683978187483,0.040983606557377046
tcywiki,30.0,0.021889400921658985,0.31666666666666665,0.7724367169521862,0.22046221760581666,0.040948275862068964
tcywiki,31.0,0.023142509135200974,0.31666666666666665,0.7844541038097673,0.2082575954297585,0.043132803632236094
tcywiki,32.0,0.0241423125794155,0.31666666666666665,0.793147532600358,0.1994287198130356,0.04486422668240849
tcywiki,33.0,0.02526595744680851,0.31666666666666665,0.8020966504730248,0.1903401713840561,0.04679802955665025
tcywiki,34.0,0.026573426573426574,0.31666666666666665,0.811557146509844,0.1807322773305635,0.049032258064516124
tcywiki,35.0,0.027576197387518143,0.31666666666666665,0.8182050626438251,0.173980784211893,0.05073431241655541
tcywiki,36.0,0.027777777777777776,0.3,0.8281769368447968,0.16359387172163076,0.05084745762711864
tcywiki,37.0,0.02875399361022364,0.3,0.833802096650473,0.1578810698519865,0.05247813411078717
tcywiki,38.0,0.029850746268656716,0.3,0.8396829455382255,0.1519085951700857,0.05429864253393665
tcywiki,39.0,0.02982456140350877,0.2833333333333333,0.8476093070825875,0.14359906517787588,0.05396825396825398
tcywiki,40.0,0.03102189781021898,0.2833333333333333,0.8532344668882639,0.13788626330823162,0.05592105263157895
tcywiki,41.0,0.03262955854126679,0.2833333333333333,0.8601380721043211,0.1308750973773046,0.058519793459552494
tcywiki,42.0,0.03339882121807466,0.2833333333333333,0.8632063410892354,0.12775902363022593,0.05975395430579966
tcywiki,43.0,0.03490759753593429,0.2833333333333333,0.8688315008949118,0.12204622176058166,0.06215722120658135
tcywiki,44.0,0.0367965367965368,0.2833333333333333,0.8752237279468167,0.11555440145416775,0.06513409961685823
tcywiki,45.0,0.03854875283446712,0.2833333333333333,0.8805931986704167,0.11010127239678005,0.06786427145708583
tcywiki,46.0,0.0405727923627685,0.2833333333333333,0.8862183584760931,0.1043884705271358,0.0709812108559499
tcywiki,47.0,0.042821158690176324,0.2833333333333333,0.8918435182817693,0.09867566865749156,0.07439824945295405
tcywiki,48.0,0.04473684210526316,0.2833333333333333,0.8961902326770647,0.0942612308491301,0.07727272727272727
tcywiki,49.0,0.04419889502762431,0.26666666666666666,0.9002812579902838,0.08984679304076863,0.07582938388625593
tcywiki,50.0,0.047337278106508875,0.26666666666666666,0.9064177959601125,0.08361464554661127,0.08040201005025124
tcywiki,51.0,0.049079754601226995,0.26666666666666666,0.9094860649450268,0.08049857179953258,0.08290155440414508
tcywiki,52.0,0.048859934853420196,0.25,0.9138327793403221,0.07582446117891457,0.08174386920980926
tcywiki,53.0,0.05084745762711865,0.25,0.9169010483252366,0.07270838743183589,0.08450704225352114
tcywiki,54.0,0.05357142857142857,0.25,0.9207363845563794,0.06881329524798753,0.08823529411764706
tcywiki,55.0,0.047619047619047616,0.21666666666666667,0.9215034518026081,0.06751493118670475,0.07807807807807808
tcywiki,56.0,0.04905660377358491,0.21666666666666667,0.9235489644592176,0.0654375486886523,0.08000000000000002
tcywiki,57.0,0.05019305019305019,0.21666666666666667,0.9250830989516747,0.06387951181511296,0.08150470219435736
tcywiki,58.0,0.050980392156862744,0.21666666666666667,0.9261058552799796,0.06284082056608672,0.08253968253968254
tcywiki,59.0,0.052845528455284556,0.21666666666666667,0.9284070570186653,0.06050376525577772,0.08496732026143791
tcywiki,60.0,0.055793991416309016,0.21666666666666667,0.9317310150856558,0.05712801869644248,0.08873720136518772
tcywiki,61.0,0.05855855855855856,0.21666666666666667,0.934543594988494,0.05427161776162036,0.09219858156028368
tcywiki,62.0,0.06046511627906977,0.21666666666666667,0.9363334185630273,0.05245390807582446,0.09454545454545454
tcywiki,63.0,0.061611374407582936,0.21666666666666667,0.9373561748913322,0.051415216826798234,0.0959409594095941
tcywiki,64.0,0.06280193236714976,0.21666666666666667,0.9383789312196369,0.05037652557777201,0.09737827715355805
tcywiki,65.0,0.06372549019607843,0.21666666666666667,0.9391459984658656,0.049597507141002334,0.09848484848484848
tcywiki,66.0,0.06532663316582915,0.21666666666666667,0.9404244438762465,0.04829914307971955,0.1003861003861004
tcywiki,67.0,0.0663265306122449,0.21666666666666667,0.9411915111224751,0.047520124642949885,0.1015625
tcywiki,68.0,0.06806282722513089,0.21666666666666667,0.942469956532856,0.0462217605816671,0.10358565737051792
tcywiki,69.0,0.07103825136612021,0.21666666666666667,0.9445154691894656,0.04414437808361465,0.10699588477366256
tcywiki,70.0,0.0718232044198895,0.21666666666666667,0.945026847353618,0.04362503245910153,0.1078838174273859
tcywiki,71.0,0.07262569832402235,0.21666666666666667,0.9455382255177703,0.043105686834588416,0.1087866108786611
tcywiki,72.0,0.07514450867052024,0.21666666666666667,0.9470723600102275,0.04154764996104908,0.11158798283261802
tcywiki,73.0,0.07647058823529412,0.21666666666666667,0.9478394272564562,0.04076863152427941,0.11304347826086958
tcywiki,74.0,0.07926829268292683,0.21666666666666667,0.9493735617489133,0.03921059465074007,0.11607142857142858
tcywiki,75.0,0.07926829268292683,0.21666666666666667,0.9493735617489133,0.03921059465074007,0.11607142857142858
tcywiki,76.0,0.08024691358024691,0.21666666666666667,0.9498849399130657,0.038691249026226955,0.1171171171171171
tcywiki,77.0,0.08496732026143791,0.21666666666666667,0.9521861416517514,0.03635419371591794,0.12206572769953052
tcywiki,78.0,0.08783783783783784,0.21666666666666667,0.9534645870621324,0.03505582965463516,0.12500000000000003
tcywiki,79.0,0.09027777777777778,0.21666666666666667,0.9544873433904373,0.03401713840560893,0.12745098039215685
tcywiki,80.0,0.08955223880597014,0.2,0.9565328560470467,0.031680083095299925,0.12371134020618557
tcywiki,81.0,0.09302325581395349,0.2,0.9578113014574278,0.030381719034017138,0.12698412698412698
tcywiki,82.0,0.09322033898305085,0.18333333333333332,0.9601125031961135,0.02778499091145157,0.12359550561797754
tcywiki,83.0,0.09345794392523364,0.16666666666666666,0.9624137049347993,0.025188262788886005,0.11976047904191617
tcywiki,84.0,0.10638297872340426,0.16666666666666666,0.9657376630017899,0.021812516229550764,0.12987012987012986
tcywiki,85.0,0.12195121951219512,0.16666666666666666,0.9688059319867042,0.018696442482472084,0.14084507042253522
tcywiki,86.0,0.12162162162162163,0.15,0.9703400664791614,0.016878732796676187,0.13432835820895522
tcywiki,87.0,0.13636363636363635,0.15,0.972385579135771,0.014801350298623735,0.14285714285714282
tcywiki,88.0,0.16666666666666666,0.15,0.9754538481206853,0.011685276551545054,0.15789473684210525
tcywiki,89.0,0.16279069767441862,0.11666666666666667,0.9772436716952186,0.009348221241236042,0.1359223300970874
tcywiki,90.0,0.19444444444444445,0.11666666666666667,0.979033495269752,0.007530511555440145,0.14583333333333334
tcywiki,91.0,0.23333333333333334,0.11666666666666667,0.9805676297622091,0.005972474681900805,0.15555555555555559
tcywiki,92.0,0.2692307692307692,0.11666666666666667,0.981590386090514,0.004933783432874578,0.16279069767441862
tcywiki,93.0,0.2608695652173913,0.1,0.9818460751725901,0.004414437808361465,0.14457831325301204
tcywiki,94.0,0.2,0.05,0.9823574533367425,0.003116073747078681,0.08000000000000002
tcywiki,95.0,0.2222222222222222,0.03333333333333333,0.9833802096650474,0.001817709685795897,0.057971014492753624
tcywiki,96.0,0.4,0.03333333333333333,0.9844029659933521,0.0007790184367696703,0.06153846153846154
tcywiki,97.0,0.4,0.03333333333333333,0.9844029659933521,0.0007790184367696703,0.06153846153846154
tcywiki,98.0,0.0,0.0,0.9841472769112759,0.0005193456245131135,0.06153846153846154
tcywiki,99.0,0.0,0.0,0.9846586550754283,0.0,0.06153846153846154
