wiki_db,user_is_anonymous_or_bot,threshold,precision,recall,accuracy,fpr,F1
arywiki,True,0.0,0.12505892335250307,1.0,0.12505892335250307,1.0,0.22231533079146942
arywiki,True,1.0,0.12505892335250307,1.0,0.12505892335250307,1.0,0.22231533079146942
arywiki,True,2.0,0.12505892335250307,1.0,0.12505892335250307,1.0,0.22231533079146942
arywiki,True,3.0,0.12505892335250307,1.0,0.12505892335250307,1.0,0.22231533079146942
arywiki,True,4.0,0.12513570922822753,0.9992461364493027,0.12623739040256435,0.998545336996929,0.22241798808624885
arywiki,True,5.0,0.1260176148536063,0.997738409347908,0.13434524370698595,0.9890630892732073,0.22377208555245587
arywiki,True,6.0,0.13352935212410016,0.9928382962683754,0.19341001225605733,0.9208555573514358,0.235399258233165
arywiki,True,7.0,0.13982234589041095,0.9849227289860535,0.24036013953049873,0.8660632509024299,0.24488074598191273
arywiki,True,8.0,0.14680306905370843,0.9736147757255936,0.2890543980390308,0.8087926297074511,0.2551363097589885
arywiki,True,9.0,0.14699667974645336,0.9178288729739917,0.32365419062883,0.7612736382737999,0.25340826308668957
arywiki,True,10.0,0.1370930462920161,0.782510365623822,0.3568398227585557,0.7040030170788212,0.23331085637221846
arywiki,True,11.0,0.12118768328445748,0.6230682246513382,0.3878099368341661,0.645816496955983,0.20290922482047502
arywiki,True,12.0,0.10131788802148912,0.4549566528458349,0.4271707363062129,0.5768008189213943,0.16572840862282026
arywiki,True,13.0,0.10902566933480541,0.4466641537881643,0.4743094183086641,0.5217391304347826,0.17526993048365624
arywiki,True,14.0,0.09685563461097085,0.31813041839427064,0.5437446968982748,0.42400732719142287,0.14850004398697986
arywiki,True,15.0,0.1050515204825333,0.31511496419148133,0.5786273215800887,0.3837077743656053,0.15757233060032041
arywiki,True,16.0,0.11300522408578499,0.3098379193366001,0.6095502969736967,0.34761058132643713,0.1656089453006951
arywiki,True,17.0,0.12246850582044332,0.28948360346777235,0.6517394173658905,0.29648187058886916,0.17212012550425818
arywiki,True,18.0,0.13693560325684678,0.2789295137580098,0.6899688884698784,0.2512795646786272,0.1836912001985851
arywiki,True,19.0,0.14756418031129978,0.2751601960045232,0.7105684925049496,0.22719681051667476,0.19210526315789475
arywiki,True,20.0,0.1596265006669631,0.27063701470033924,0.7306024323559913,0.20365282042993374,0.20081107537407356
arywiki,True,21.0,0.21293233082706767,0.26686769694685264,0.7849533327048176,0.14099455848284037,0.23686851789896288
arywiki,True,22.0,0.2933054393305439,0.26422917451941197,0.8283680588290752,0.09099725230321642,0.27800912155463015
arywiki,True,23.0,0.3359073359073359,0.2623445156426687,0.8428867728858301,0.07413393674909757,0.29460317460317464
arywiki,True,24.0,0.39373219373219376,0.26045985676592537,0.8573583482605827,0.057324497602499865,0.3135208711433757
arywiki,True,25.0,0.43236409608091025,0.25782133433848475,0.8648533986989724,0.04838101395398955,0.3230224321133412
arywiki,True,26.0,0.4703856749311295,0.25744440256313605,0.8708871499952862,0.04143095738376165,0.3327649208282582
arywiki,True,27.0,0.3541666666666667,0.14097248398039955,0.860422362590742,0.03674370992942191,0.20167160959827446
arywiki,True,28.0,0.3853305785123967,0.14059555220505088,0.8644762892429527,0.03205646247508216,0.20602043634355147
arywiki,True,29.0,0.40573318632855565,0.13871089332830758,0.8668803620250778,0.02903938365389796,0.20674157303370785
arywiki,True,30.0,0.4209905660377358,0.1345646437994723,0.8686244932591685,0.026453316092882928,0.20394173093401888
arywiki,True,31.0,0.42618741976893454,0.12514134941575575,0.869520128217215,0.02408275416195248,0.19347319347319347
arywiki,True,32.0,0.503793626707132,0.12514134941575575,0.8751767700575092,0.0176175852594149,0.20048309178743962
arywiki,True,33.0,0.5172413793103449,0.09611760271390878,0.8757424342415386,0.012822584990032864,0.16211061665607118
arywiki,True,34.0,0.5889145496535797,0.09611760271390878,0.8785707551616857,0.009590000538764075,0.16526247569669472
arywiki,True,35.0,0.6146341463414634,0.09498680738786279,0.8793721127557274,0.008512472388341146,0.16454456415279137
arywiki,True,36.0,0.6469072164948454,0.09460987561251413,0.8803148863957764,0.0073810678303970695,0.1650772772114436
arywiki,True,37.0,0.6702412868632708,0.09423294383716548,0.8809276892618082,0.006626798125101019,0.16523463317911433
arywiki,True,38.0,0.6974789915966386,0.0938560120618168,0.8815876308098426,0.005818652012283821,0.1654485049833887
arywiki,True,39.0,0.7085714285714285,0.09347908028646815,0.8818233242198548,0.005495393567156942,0.16516816516816518
arywiki,True,40.0,0.7188405797101449,0.09347908028646815,0.882059017629867,0.005226011529551209,0.16544362908605736
arywiki,True,41.0,0.7307692307692307,0.09310214851111949,0.8822947110398793,0.0049027530844243305,0.1651621531260448
arywiki,True,42.0,0.7371601208459214,0.0919713531850735,0.8823418497218818,0.004687247454339745,0.16353887399463807
arywiki,True,43.0,0.7371601208459214,0.0919713531850735,0.8823418497218818,0.004687247454339745,0.16353887399463807
arywiki,True,44.0,0.7416413373860182,0.0919713531850735,0.8824361270858867,0.004579494639297452,0.16364855801475517
arywiki,True,45.0,0.7507692307692307,0.0919713531850735,0.8826246818138965,0.004363989009212865,0.1638683680322364
arywiki,True,46.0,0.7554179566563467,0.0919713531850735,0.8827189591779014,0.004256236194170573,0.1639784946236559
arywiki,True,47.0,0.7601246105919003,0.0919713531850735,0.8828132365419062,0.00414848337912828,0.16408876933423
arywiki,True,48.0,0.7625,0.0919713531850735,0.8828603752239087,0.004094606971607133,0.1641439623276152
arywiki,True,49.0,0.7625,0.0919713531850735,0.8828603752239087,0.004094606971607133,0.1641439623276152
arywiki,True,50.0,0.7625,0.0919713531850735,0.8828603752239087,0.004094606971607133,0.1641439623276152
arywiki,True,51.0,0.7672955974842768,0.0919713531850735,0.8829546525879136,0.00398685415656484,0.16425445977785255
arywiki,True,52.0,0.7697160883280757,0.0919713531850735,0.8830017912699161,0.003932977749043694,0.16430976430976432
arywiki,True,53.0,0.7721518987341772,0.0919713531850735,0.8830489299519185,0.0038791013415225475,0.16436510609632873
arywiki,True,54.0,0.7721518987341772,0.0919713531850735,0.8830489299519185,0.0038791013415225475,0.16436510609632873
arywiki,True,55.0,0.7721518987341772,0.0919713531850735,0.8830489299519185,0.0038791013415225475,0.16436510609632873
arywiki,True,56.0,0.7714285714285715,0.09159442140972485,0.8830017912699161,0.0038791013415225475,0.16374663072776283
arywiki,True,57.0,0.7731629392971247,0.09121748963437618,0.8830017912699161,0.003825224934001401,0.1631827376938638
arywiki,True,58.0,0.7756410256410257,0.09121748963437618,0.8830489299519185,0.0037713485264802542,0.16323777403035414
arywiki,True,59.0,0.7756410256410257,0.09121748963437618,0.8830489299519185,0.0037713485264802542,0.16323777403035414
arywiki,True,60.0,0.7781350482315113,0.09121748963437618,0.883096068633921,0.0037174721189591076,0.1632928475033738
arywiki,True,61.0,0.7781350482315113,0.09121748963437618,0.883096068633921,0.0037174721189591076,0.1632928475033738
arywiki,True,62.0,0.7781350482315113,0.09121748963437618,0.883096068633921,0.0037174721189591076,0.1632928475033738
arywiki,True,63.0,0.7766990291262136,0.09046362608367886,0.8830017912699161,0.0037174721189591076,0.162052667116813
arywiki,True,64.0,0.7752442996742671,0.08970976253298153,0.8829075139059112,0.0037174721189591076,0.1608108108108108
arywiki,True,65.0,0.7777777777777778,0.08970976253298153,0.8829546525879136,0.0036635957114379615,0.16086515714768504
arywiki,True,66.0,0.7796052631578947,0.08933283075763288,0.8829546525879136,0.003609719303916815,0.16029759891782214
arywiki,True,67.0,0.7796052631578947,0.08933283075763288,0.8829546525879136,0.003609719303916815,0.16029759891782214
arywiki,True,68.0,0.7891156462585034,0.08744817188088956,0.8829546525879136,0.003340337266311082,0.15744825246012892
arywiki,True,69.0,0.7889273356401384,0.08594044477949492,0.8828132365419062,0.003286460858789936,0.15499660095173354
arywiki,True,70.0,0.7992957746478874,0.08556351300414625,0.8829546525879136,0.00307095522870535,0.15457950289410963
arywiki,True,71.0,0.7978723404255319,0.08480964945344893,0.8828603752239087,0.00307095522870535,0.15332197614991483
arywiki,True,72.0,0.7985611510791367,0.08367885412740295,0.8827660978599038,0.0030170788211842034,0.15148413510747186
arywiki,True,73.0,0.8014440433212996,0.08367885412740295,0.8828132365419062,0.002963202413663057,0.1515358361774744
arywiki,True,74.0,0.8044280442804428,0.08217112702600829,0.8827189591779014,0.002855449598620764,0.14911080711354308
arywiki,True,75.0,0.8115384615384615,0.07953260459856766,0.8825775431318941,0.002639943968536178,0.1448678338482664
arywiki,True,76.0,0.8125,0.07840180927252167,0.8824832657678892,0.0025860675610150314,0.1430044688896528
arywiki,True,77.0,0.8112449799196787,0.0761402186204297,0.8822475723578769,0.002532191153493885,0.13921433494141972
arywiki,True,78.0,0.8127659574468085,0.07199396909159442,0.8818704629018572,0.0023705619309304458,0.13227146814404434
arywiki,True,79.0,0.8149779735682819,0.06973237843950245,0.8816819081738475,0.0022628091158881525,0.1284722222222222
arywiki,True,80.0,0.8202764976958525,0.06709385601206182,0.8814933534458377,0.002101179893324713,0.12404181184668989
arywiki,True,81.0,0.8357487922705314,0.0652091971353185,0.8814933534458377,0.0018317978557189807,0.12097902097902098
arywiki,True,82.0,0.8564102564102564,0.06294760648322653,0.8814933534458377,0.0015085394105921017,0.1172752808988764
arywiki,True,83.0,0.8548387096774194,0.05993215228043724,0.8811633826718205,0.0014546630030709553,0.11201127157449806
arywiki,True,84.0,0.847953216374269,0.054655107425555974,0.8805505798057887,0.0014007865955498087,0.10269121813031161
arywiki,True,85.0,0.8414634146341463,0.05201658499811534,0.8802206090317715,0.0014007865955498087,0.09797657082002129
arywiki,True,86.0,0.8376623376623377,0.04862419901997738,0.8798434995757518,0.0013469101880286623,0.09191307445671536
arywiki,True,87.0,0.8551724137931035,0.04673954014323407,0.8797963608937495,0.0011314045579440763,0.08863473909935668
arywiki,True,88.0,0.849624060150376,0.042593290614398795,0.8793249740737249,0.0010775281504229299,0.08111988513998565
arywiki,True,89.0,0.8938053097345132,0.03807010931021485,0.8791364193457151,0.0006465168902537578,0.0730296456977585
arywiki,True,90.0,0.9285714285714286,0.03430079155672823,0.8789007259357028,0.0003771348526480254,0.06615776081424936
arywiki,True,91.0,0.9285714285714286,0.029400678477195626,0.8783350617516734,0.0003232584451268789,0.05699671172816952
arywiki,True,92.0,0.9583333333333334,0.02600829249905767,0.8780522296596587,0.00016162922256343946,0.050642201834862385
arywiki,True,93.0,0.953125,0.022992838296268376,0.8776751202036391,0.00016162922256343946,0.04490246595509753
arywiki,True,94.0,0.9642857142857143,0.020354315868827744,0.8773922881116244,0.00010775281504229298,0.03986710963455149
arywiki,True,95.0,0.9807692307692307,0.019223520542781758,0.8772980107476195,5.387640752114649e-05,0.03770794824399261
arywiki,True,96.0,0.9803921568627451,0.018846588767433094,0.877250872065617,5.387640752114649e-05,0.03698224852071006
arywiki,True,97.0,0.9782608695652174,0.016961929890689786,0.8770151786556047,5.387640752114649e-05,0.033345683586513526
arywiki,True,98.0,0.9736842105263158,0.01394647568790049,0.8766380691995852,5.387640752114649e-05,0.027499070977331844
arywiki,True,99.0,1.0,0.00603090840557859,0.8756952955595362,0.0,0.011989509179467967
arywiki,False,0.0,0.099472286413962,1.0,0.099472286413962,1.0,0.1809455093013772
arywiki,False,1.0,0.099472286413962,1.0,0.099472286413962,1.0,0.1809455093013772
arywiki,False,2.0,0.09969235023678662,1.0,0.10167971579346739,0.997548737983071,0.18130952755162985
arywiki,False,3.0,0.10056839976287617,1.0,0.11037146897526989,0.9878968937914129,0.18275720034219448
arywiki,False,4.0,0.10109797593573508,0.9993065187239945,0.11609698892836202,0.9814623309969742,0.18361950877640087
arywiki,False,5.0,0.10214729370008874,0.9979195561719834,0.1272721001621081,0.968899613160213,0.1853247045944815
arywiki,False,6.0,0.10725788330462138,0.9930651872399445,0.1771117166212534,0.913018499368034,0.19360508348543232
arywiki,False,7.0,0.11170484460335547,0.9857836338418863,0.21881143724347257,0.8659083074801792,0.2006705487912476
arywiki,False,8.0,0.11662037228970606,0.9753814147018031,0.2626151139930328,0.8161170477613083,0.2083317904091835
arywiki,False,9.0,0.11680399719495091,0.9240638002773925,0.29741661780429757,0.7718028266115132,0.2073929961089494
arywiki,False,10.0,0.10908057949057855,0.7988904299583911,0.3309419515055358,0.7207476349151634,0.19195201199700074
arywiki,False,11.0,0.0971662012617644,0.6515256588072122,0.3631566240126927,0.668696618024436,0.16911169111691116
arywiki,False,12.0,0.08259263534572318,0.4961858529819695,0.4016486738178181,0.6087939024857328,0.14161306284017813
arywiki,False,13.0,0.08802552552552552,0.4878640776699029,0.44628013658469284,0.5583132253246007,0.14914140343438625
arywiki,False,14.0,0.07852091926929876,0.369625520110957,0.505811747663229,0.479145122371596,0.12952612393681653
arywiki,False,15.0,0.08404966571155682,0.36615811373092927,0.5400269030455627,0.4407675514190509,0.1367167270844122
arywiki,False,16.0,0.08924897119341564,0.36095700416088766,0.5700341461732142,0.4068711938412042,0.14311245532031897
arywiki,False,17.0,0.09417169107091587,0.34119278779472956,0.608008829717518,0.3625186717223946,0.1476036900922523
arywiki,False,18.0,0.10179959535725695,0.3314840499306519,0.6425688959403995,0.323068673637443,0.15576374745417515
arywiki,False,19.0,0.10815136618269121,0.32801664355062415,0.664091332390577,0.29878585928223983,0.16266873011778868
arywiki,False,20.0,0.11483076923076924,0.3235090152565881,0.684648018487221,0.2754605691523996,0.16949768371332546
arywiki,False,21.0,0.1358079245838857,0.3196948682385576,0.7299693029351912,0.22471178520816576,0.19063372273338158
arywiki,False,22.0,0.16062631949331457,0.3165742024965326,0.7674611113027282,0.18273392316825615,0.21311858076563958
arywiki,False,23.0,0.17290347342160814,0.3124133148404993,0.7829476080433208,0.16507717645256426,0.22260654725138973
arywiki,False,24.0,0.18906942392909898,0.3106796116504854,0.7988824888766254,0.14719062392278526,0.23507805325987144
arywiki,False,25.0,0.2002709415217882,0.30755894590846045,0.8089538854206187,0.13566203224941592,0.2425817038151237
arywiki,False,26.0,0.21193168150108252,0.3054785020804438,0.8179215672748594,0.12547397449155465,0.25024854424087484
arywiki,False,27.0,0.15526243473481727,0.19590846047156726,0.8139895836926154,0.1177371787506224,0.17323317491951554
arywiki,False,28.0,0.1633720930232558,0.19486823855755894,0.8206463629151864,0.11023018882377725,0.17773561037318153
arywiki,False,29.0,0.16984029484029484,0.19174757281553398,0.8263718828682786,0.10352751924623693,0.1801302931596091
arywiki,False,30.0,0.17546131434121076,0.18793342579750347,0.8313730900562205,0.09755256807997242,0.1814833417043362
arywiki,False,31.0,0.17671232876712328,0.17891816920943135,0.8354085468906288,0.09207552951089662,0.17780840799448655
arywiki,False,32.0,0.18912881608339538,0.17614424410540916,0.842927603214569,0.083419510513616,0.1824057450628366
arywiki,False,33.0,0.17491749174917492,0.14701803051317613,0.8461697651157176,0.07660193802903213,0.15975885455915598
arywiki,False,34.0,0.1851363236587511,0.1459778085991678,0.8511364812196047,0.07097169558389828,0.16324156649864288
arywiki,False,35.0,0.19209302325581395,0.14320388349514562,0.8548615182975201,0.06652878317821441,0.16408422725466826
arywiki,False,36.0,0.20138203356367226,0.14147018030513175,0.8587935018797641,0.061970967865486996,0.1661914460285132
arywiki,False,37.0,0.20628272251308902,0.13661581137309292,0.861828717276584,0.05806426902600636,0.16437213183145596
arywiki,False,38.0,0.21205479452054796,0.1341886269070735,0.8642775842444728,0.055076793442874104,0.16436610745381186
arywiki,False,39.0,0.21934369602763384,0.13210818307905686,0.8668989066326355,0.051936113983683786,0.16489937243020988
arywiki,False,40.0,0.22867513611615245,0.13106796116504854,0.8695892111889076,0.04883373549350799,0.1666299316729116
arywiki,False,41.0,0.23692501575299307,0.130374479889043,0.8717276584003035,0.04638247347657896,0.16819503466785954
arywiki,False,42.0,0.247498332221481,0.12864077669902912,0.8744179629565757,0.04320349304837413,0.16929044033766824
arywiki,False,43.0,0.25985915492957745,0.12794729542302358,0.8770047942606836,0.040254318434256385,0.17146840148698883
arywiki,False,44.0,0.26997041420118345,0.12656033287101248,0.8790742593039699,0.03780305641732736,0.17233238904627007
arywiki,False,45.0,0.2835703001579779,0.12447988904299584,0.881626599524023,0.034738978896166076,0.17301204819277108
arywiki,False,46.0,0.298744769874477,0.12378640776699029,0.8839375021556928,0.03209621203416446,0.17504290267222358
arywiki,False,47.0,0.3083623693379791,0.12274618585298197,0.8853516366019384,0.03041096939752576,0.1755952380952381
arywiki,False,48.0,0.3217866909753874,0.1223994452149792,0.8870416997206222,0.028495920946799955,0.177342376287365
arywiki,False,49.0,0.33238636363636365,0.12170596393897365,0.8883178698306488,0.02700218315523383,0.17817258883248732
arywiki,False,50.0,0.34285714285714286,0.12066574202496533,0.8895250577725657,0.025546746332682217,0.17850730956655553
arywiki,False,51.0,0.35699588477366256,0.12031900138696255,0.8909391922188115,0.023938105634072542,0.1799792531120332
arywiki,False,52.0,0.37124463519313305,0.11997226074895978,0.8922498534128928,0.022444367842506415,0.18134171907756813
arywiki,False,53.0,0.38826185101580135,0.11927877947295423,0.8936984789431932,0.020759125205867708,0.18249336870026528
arywiki,False,54.0,0.40328253223915594,0.11927877947295423,0.8948366847170006,0.019495193228388677,0.18410489697618412
arywiki,False,55.0,0.41346153846153844,0.11927877947295423,0.8955609974821509,0.01869087287908384,0.1851453175457481
arywiki,False,56.0,0.42131350681536556,0.11789181692094314,0.896147345911082,0.017886552529779002,0.18423191547006232
arywiki,False,57.0,0.4300254452926209,0.11719833564493759,0.8967336943400132,0.017158834118503198,0.18419618528610357
arywiki,False,58.0,0.4429882044560944,0.11719833564493759,0.8975269892732729,0.016277911831169327,0.1853578283520702
arywiki,False,59.0,0.44712182061579653,0.1158113730929265,0.897802917945711,0.015818300202995135,0.18397135775268525
arywiki,False,60.0,0.4625,0.11546463245492372,0.8986651950470803,0.014822475008617718,0.18479467258601556
arywiki,False,61.0,0.47285714285714286,0.11477115117891817,0.8992170523919567,0.014133057566356428,0.18470982142857142
arywiki,False,62.0,0.48372781065088755,0.11338418862690708,0.899768909736833,0.013367038186066108,0.1837078651685393
arywiki,False,63.0,0.49846153846153846,0.11234396671289876,0.9004587314179284,0.012486115898732239,0.1833616298811545
arywiki,False,64.0,0.5063492063492063,0.11061026352288489,0.9008036422584762,0.011911601363514497,0.18155947638019349
arywiki,False,65.0,0.5171288743882545,0.10991678224687934,0.9012520263511882,0.011337086828296756,0.18129825564769803
arywiki,False,66.0,0.5284280936454849,0.10957004160887657,0.9017004104439003,0.010800873262093532,0.18150488225157954
arywiki,False,67.0,0.5362068965517242,0.10783633841886268,0.9019763391163385,0.010302960664904822,0.17956120092378755
arywiki,False,68.0,0.5469314079422383,0.1050624133148405,0.9023212499568861,0.009613543222643533,0.1762652705061082
arywiki,False,69.0,0.5568181818181818,0.10194174757281553,0.9025971786293243,0.008962426749396759,0.17233294255568582
arywiki,False,70.0,0.5708661417322834,0.10055478502080444,0.9030110716379816,0.008349611245164503,0.17099056603773585
arywiki,False,71.0,0.5809716599190283,0.09951456310679611,0.9032870003104198,0.007928300586004825,0.1699230313795145
arywiki,False,72.0,0.592436974789916,0.09778085991678225,0.903562928982858,0.007430387988816117,0.16785714285714287
arywiki,False,73.0,0.6056034482758621,0.09743411927877947,0.9039078398234056,0.00700907732965644,0.16786140979689368
arywiki,False,74.0,0.6193693693693694,0.09535367545076283,0.9041837684958438,0.006472863763453215,0.1652644230769231
arywiki,False,75.0,0.6312056737588653,0.09257975034674064,0.9043562239161177,0.0059749511662645065,0.1614756576957968
arywiki,False,76.0,0.6446078431372549,0.09119278779472954,0.904597661504501,0.00555364050710483,0.1597812879708384
arywiki,False,77.0,0.6538461538461539,0.08841886269070735,0.9046666436726106,0.005170630816959669,0.15577275503970678
arywiki,False,78.0,0.6648351648351648,0.0839112343966713,0.9046666436726106,0.00467271821977096,0.14901477832512317
arywiki,False,79.0,0.6743515850144092,0.0811373092926491,0.9047011347566654,0.0043280094986403155,0.14484679665738162
arywiki,False,80.0,0.6884735202492211,0.07662968099861303,0.9047011347566654,0.003830096901451607,0.1379095163806552
arywiki,False,81.0,0.7095709570957096,0.07454923717059639,0.904908081260994,0.003370485273277414,0.1349231251961092
arywiki,False,82.0,0.7419354838709677,0.0717753120665742,0.9051840099334322,0.002757669769045157,0.13088839709136896
arywiki,False,83.0,0.7388059701492538,0.06865464632454923,0.9049425723450488,0.002681067831016125,0.12563451776649748
arywiki,False,84.0,0.7439024390243902,0.06345353675450763,0.9046666436726106,0.002412961047914512,0.11693290734824283
arywiki,False,85.0,0.75,0.060332871012482664,0.9045286793363916,0.0022214562028419317,0.1116816431322208
arywiki,False,86.0,0.7534883720930232,0.05617198335644938,0.9042872417480081,0.0020299513577693514,0.10454985479186836
arywiki,False,87.0,0.7715736040609137,0.052704576976421634,0.9042182595798985,0.001723543605653223,0.09866926322622525
arywiki,False,88.0,0.776536312849162,0.048196948682385575,0.9039423309074605,0.0015320387605806426,0.09076069213189684
arywiki,False,89.0,0.8157894736842105,0.04299583911234397,0.9038388576552961,0.0010724271324064499,0.08168642951251648
arywiki,False,90.0,0.8409090909090909,0.0384882108183079,0.9036319111509675,0.0008043203493048374,0.07360742705570292
arywiki,False,91.0,0.8303571428571429,0.032246879334257975,0.9030800538060911,0.0007277184112758053,0.062082777036048066
arywiki,False,92.0,0.8913043478260869,0.028432732316227463,0.9030110716379816,0.00038300969014516066,0.05510752688172043
arywiki,False,93.0,0.8795180722891566,0.025312066574202496,0.9027006518814886,0.00038300969014516066,0.04920795416245365
arywiki,False,94.0,0.9142857142857143,0.022191400832177532,0.9025281964612147,0.0002298058140870964,0.043331076506431955
arywiki,False,95.0,0.9666666666666667,0.02011095700416089,0.9024592142931053,7.660193802903213e-05,0.03940217391304348
arywiki,False,96.0,0.9818181818181818,0.01872399445214979,0.902355741040941,3.8300969014516064e-05,0.036747192922762836
arywiki,False,97.0,0.9795918367346939,0.016643550624133148,0.9021487945366122,3.8300969014516064e-05,0.032730992158199794
arywiki,False,98.0,0.975609756097561,0.013869625520110958,0.9018728658641741,3.8300969014516064e-05,0.027350427350427354
arywiki,False,99.0,1.0,0.005547850208044383,0.9010795709309144,0.0,0.01103448275862069
