wiki_db,user_is_anonymous_or_bot,threshold,precision,recall,accuracy,fpr,F1
azbwiki,True,0.0,0.11469194312796209,1.0,0.11469194312796209,1.0,0.20578231292517007
azbwiki,True,1.0,0.11469194312796209,1.0,0.11469194312796209,1.0,0.20578231292517007
azbwiki,True,2.0,0.11469194312796209,1.0,0.11469194312796209,1.0,0.20578231292517007
azbwiki,True,3.0,0.11469194312796209,1.0,0.11469194312796209,1.0,0.20578231292517007
azbwiki,True,4.0,0.11469194312796209,1.0,0.11469194312796209,1.0,0.20578231292517007
azbwiki,True,5.0,0.11534795042897998,1.0,0.12037914691943127,0.9935760171306209,0.20683760683760682
azbwiki,True,6.0,0.11668273866923819,1.0,0.13175355450236967,0.9807280513918629,0.20898100172711573
azbwiki,True,7.0,0.12075848303393213,1.0,0.16492890995260664,0.943254817987152,0.21549421193232413
azbwiki,True,8.0,0.12670157068062826,1.0,0.209478672985782,0.892933618843683,0.224907063197026
azbwiki,True,9.0,0.1423529411764706,1.0,0.3090047393364929,0.7805139186295503,0.24922760041194647
azbwiki,True,10.0,0.16946778711484595,1.0,0.437914691943128,0.6349036402569593,0.2898203592814371
azbwiki,True,11.0,0.1889763779527559,0.9917355371900827,0.5109004739336492,0.5513918629550322,0.3174603174603175
azbwiki,True,12.0,0.2030716723549488,0.9834710743801653,0.5554502369668246,0.5,0.3366336633663366
azbwiki,True,13.0,0.2211895910780669,0.9834710743801653,0.6009478672985782,0.4486081370449679,0.3611532625189682
azbwiki,True,14.0,0.2392638036809816,0.9669421487603306,0.6436018957345971,0.39828693790149894,0.3836065573770492
azbwiki,True,15.0,0.25892857142857145,0.9586776859504132,0.680568720379147,0.3554603854389722,0.4077328646748682
azbwiki,True,16.0,0.2755344418052256,0.9586776859504132,0.7061611374407583,0.3265524625267666,0.4280442804428044
azbwiki,True,17.0,0.29292929292929293,0.9586776859504132,0.7298578199052133,0.29978586723768735,0.44874274661508706
azbwiki,True,18.0,0.31351351351351353,0.9586776859504132,0.7545023696682465,0.27194860813704497,0.47250509164969456
azbwiki,True,19.0,0.32492997198879553,0.9586776859504132,0.7668246445497631,0.2580299785867238,0.48535564853556484
azbwiki,True,20.0,0.3391812865497076,0.9586776859504132,0.781042654028436,0.24197002141327623,0.5010799136069115
azbwiki,True,21.0,0.3421828908554572,0.9586776859504132,0.7838862559241706,0.23875802997858672,0.5043478260869565
azbwiki,True,22.0,0.3525835866261398,0.9586776859504132,0.7933649289099526,0.22805139186295503,0.5155555555555555
azbwiki,True,23.0,0.3659305993690852,0.9586776859504132,0.804739336492891,0.215203426124197,0.5296803652968036
azbwiki,True,24.0,0.3682539682539683,0.9586776859504132,0.8066350710900474,0.21306209850107066,0.5321100917431193
azbwiki,True,25.0,0.36942675159235666,0.9586776859504132,0.8075829383886256,0.21199143468950749,0.5333333333333333
azbwiki,True,26.0,0.3729903536977492,0.9586776859504132,0.8104265402843602,0.20877944325481798,0.5370370370370371
azbwiki,True,27.0,0.3741935483870968,0.9586776859504132,0.8113744075829384,0.20770877944325483,0.5382830626450116
azbwiki,True,28.0,0.380327868852459,0.9586776859504132,0.8161137440758294,0.20235546038543897,0.5446009389671361
azbwiki,True,29.0,0.3815789473684211,0.9586776859504132,0.8170616113744076,0.2012847965738758,0.5458823529411765
azbwiki,True,30.0,0.3841059602649007,0.9586776859504132,0.818957345971564,0.19914346895074947,0.5484633569739953
azbwiki,True,31.0,0.3879598662207358,0.9586776859504132,0.8218009478672986,0.19593147751605997,0.5523809523809524
azbwiki,True,32.0,0.39322033898305087,0.9586776859504132,0.8255924170616113,0.19164882226980728,0.5576923076923077
azbwiki,True,33.0,0.39322033898305087,0.9586776859504132,0.8255924170616113,0.19164882226980728,0.5576923076923077
azbwiki,True,34.0,0.391156462585034,0.9504132231404959,0.8246445497630331,0.19164882226980728,0.5542168674698795
azbwiki,True,35.0,0.391156462585034,0.9504132231404959,0.8246445497630331,0.19164882226980728,0.5542168674698795
azbwiki,True,36.0,0.391156462585034,0.9504132231404959,0.8246445497630331,0.19164882226980728,0.5542168674698795
azbwiki,True,37.0,0.3951890034364261,0.9504132231404959,0.8274881516587678,0.18843683083511778,0.558252427184466
azbwiki,True,38.0,0.39655172413793105,0.9504132231404959,0.828436018957346,0.1873661670235546,0.559610705596107
azbwiki,True,39.0,0.39655172413793105,0.9504132231404959,0.828436018957346,0.1873661670235546,0.559610705596107
azbwiki,True,40.0,0.39792387543252594,0.9504132231404959,0.8293838862559242,0.18629550321199143,0.5609756097560975
azbwiki,True,41.0,0.3993055555555556,0.9504132231404959,0.8303317535545024,0.18522483940042828,0.5623471882640588
azbwiki,True,42.0,0.40069686411149824,0.9504132231404959,0.8312796208530806,0.1841541755888651,0.5637254901960784
azbwiki,True,43.0,0.40069686411149824,0.9504132231404959,0.8312796208530806,0.1841541755888651,0.5637254901960784
azbwiki,True,44.0,0.40069686411149824,0.9504132231404959,0.8312796208530806,0.1841541755888651,0.5637254901960784
azbwiki,True,45.0,0.40069686411149824,0.9504132231404959,0.8312796208530806,0.1841541755888651,0.5637254901960784
azbwiki,True,46.0,0.40350877192982454,0.9504132231404959,0.833175355450237,0.18201284796573874,0.5665024630541872
azbwiki,True,47.0,0.40492957746478875,0.9504132231404959,0.8341232227488151,0.1809421841541756,0.5679012345679013
azbwiki,True,48.0,0.4078014184397163,0.9504132231404959,0.8360189573459715,0.17880085653104924,0.5707196029776674
azbwiki,True,49.0,0.4078014184397163,0.9504132231404959,0.8360189573459715,0.17880085653104924,0.5707196029776674
azbwiki,True,50.0,0.4078014184397163,0.9504132231404959,0.8360189573459715,0.17880085653104924,0.5707196029776674
azbwiki,True,51.0,0.4078014184397163,0.9504132231404959,0.8360189573459715,0.17880085653104924,0.5707196029776674
azbwiki,True,52.0,0.4078014184397163,0.9504132231404959,0.8360189573459715,0.17880085653104924,0.5707196029776674
azbwiki,True,53.0,0.4092526690391459,0.9504132231404959,0.8369668246445497,0.1777301927194861,0.5721393034825871
azbwiki,True,54.0,0.4092526690391459,0.9504132231404959,0.8369668246445497,0.1777301927194861,0.5721393034825871
azbwiki,True,55.0,0.4107142857142857,0.9504132231404959,0.837914691943128,0.1766595289079229,0.57356608478803
azbwiki,True,56.0,0.4107142857142857,0.9504132231404959,0.837914691943128,0.1766595289079229,0.57356608478803
azbwiki,True,57.0,0.4121863799283154,0.9504132231404959,0.8388625592417062,0.17558886509635974,0.5750000000000001
azbwiki,True,58.0,0.41007194244604317,0.9421487603305785,0.837914691943128,0.17558886509635974,0.5714285714285714
azbwiki,True,59.0,0.41304347826086957,0.9421487603305785,0.8398104265402844,0.1734475374732334,0.5743073047858941
azbwiki,True,60.0,0.41605839416058393,0.9421487603305785,0.8417061611374408,0.17130620985010706,0.5772151898734177
azbwiki,True,61.0,0.41605839416058393,0.9421487603305785,0.8417061611374408,0.17130620985010706,0.5772151898734177
azbwiki,True,62.0,0.41697416974169743,0.9338842975206612,0.842654028436019,0.16916488222698073,0.5765306122448979
azbwiki,True,63.0,0.4185185185185185,0.9338842975206612,0.8436018957345972,0.16809421841541755,0.578005115089514
azbwiki,True,64.0,0.4185185185185185,0.9338842975206612,0.8436018957345972,0.16809421841541755,0.578005115089514
azbwiki,True,65.0,0.4200743494423792,0.9338842975206612,0.8445497630331753,0.1670235546038544,0.5794871794871794
azbwiki,True,66.0,0.4232209737827715,0.9338842975206612,0.8464454976303317,0.16488222698072805,0.5824742268041238
azbwiki,True,67.0,0.4232209737827715,0.9338842975206612,0.8464454976303317,0.16488222698072805,0.5824742268041238
azbwiki,True,68.0,0.424812030075188,0.9338842975206612,0.8473933649289099,0.16381156316916487,0.5839793281653747
azbwiki,True,69.0,0.42641509433962266,0.9338842975206612,0.8483412322274881,0.16274089935760172,0.5854922279792747
azbwiki,True,70.0,0.42748091603053434,0.9256198347107438,0.8492890995260663,0.16059957173447537,0.5848563968668408
azbwiki,True,71.0,0.42911877394636017,0.9256198347107438,0.8502369668246446,0.15952890792291222,0.5863874345549738
azbwiki,True,72.0,0.43410852713178294,0.9256198347107438,0.8530805687203792,0.15631691648822268,0.5910290237467019
azbwiki,True,73.0,0.43700787401574803,0.9173553719008265,0.8549763033175355,0.15310492505353318,0.5920000000000001
azbwiki,True,74.0,0.44223107569721115,0.9173553719008265,0.8578199052132701,0.14989293361884368,0.5967741935483871
azbwiki,True,75.0,0.4435483870967742,0.9090909090909091,0.8587677725118483,0.14775160599571735,0.5962059620596206
azbwiki,True,76.0,0.45081967213114754,0.9090909090909091,0.8625592417061612,0.14346895074946467,0.6027397260273972
azbwiki,True,77.0,0.448559670781893,0.9008264462809917,0.861611374407583,0.14346895074946467,0.5989010989010989
azbwiki,True,78.0,0.45041322314049587,0.9008264462809917,0.8625592417061612,0.1423982869379015,0.6005509641873278
azbwiki,True,79.0,0.45416666666666666,0.9008264462809917,0.8644549763033176,0.14025695931477516,0.6038781163434902
azbwiki,True,80.0,0.45726495726495725,0.8842975206611571,0.8663507109004739,0.13597430406852248,0.6028169014084507
azbwiki,True,81.0,0.45614035087719296,0.859504132231405,0.8663507109004739,0.13276231263383298,0.5959885386819485
azbwiki,True,82.0,0.45539906103286387,0.8016528925619835,0.8672985781990521,0.12419700214132762,0.5808383233532934
azbwiki,True,83.0,0.45544554455445546,0.7603305785123967,0.8682464454976303,0.11777301927194861,0.5696594427244582
azbwiki,True,84.0,0.44329896907216493,0.7107438016528925,0.8644549763033176,0.11563169164882227,0.5460317460317459
azbwiki,True,85.0,0.45604395604395603,0.6859504132231405,0.8701421800947867,0.10599571734475374,0.5478547854785478
azbwiki,True,86.0,0.4583333333333333,0.6363636363636364,0.8720379146919431,0.0974304068522484,0.532871972318339
azbwiki,True,87.0,0.487012987012987,0.6198347107438017,0.8815165876777251,0.08458244111349036,0.5454545454545454
azbwiki,True,88.0,0.48226950354609927,0.5619834710743802,0.8805687203791469,0.07815845824411134,0.5190839694656488
azbwiki,True,89.0,0.5039370078740157,0.5289256198347108,0.8862559241706162,0.06745182012847965,0.5161290322580645
azbwiki,True,90.0,0.5185185185185185,0.4628099173553719,0.8890995260663507,0.055674518201284794,0.4890829694323144
azbwiki,True,91.0,0.5376344086021505,0.4132231404958678,0.8919431279620853,0.046038543897216275,0.4672897196261682
azbwiki,True,92.0,0.5789473684210527,0.36363636363636365,0.8966824644549763,0.034261241970021415,0.4467005076142132
azbwiki,True,93.0,0.6349206349206349,0.3305785123966942,0.9014218009478673,0.02462526766595289,0.43478260869565216
azbwiki,True,94.0,0.6545454545454545,0.2975206611570248,0.9014218009478673,0.020342612419700215,0.4090909090909091
azbwiki,True,95.0,0.6595744680851063,0.256198347107438,0.8995260663507109,0.017130620985010708,0.36904761904761896
azbwiki,True,96.0,0.75,0.19834710743801653,0.9004739336492891,0.008565310492505354,0.3137254901960784
azbwiki,True,97.0,0.9,0.1487603305785124,0.9004739336492891,0.0021413276231263384,0.2553191489361702
azbwiki,True,98.0,0.9230769230769231,0.09917355371900827,0.8957345971563981,0.0010706638115631692,0.17910447761194032
azbwiki,True,99.0,1.0,0.03305785123966942,0.8890995260663507,0.0,0.06400000000000002
azbwiki,False,0.0,0.03225027177195314,1.0,0.03225027177195314,1.0,0.062485373274046345
azbwiki,False,1.0,0.03225027177195314,1.0,0.03225027177195314,1.0,0.062485373274046345
azbwiki,False,2.0,0.032277562862669244,1.0,0.03309578451503805,0.9991263105341986,0.06253659679119335
azbwiki,False,3.0,0.032363636363636365,1.0,0.03575311027901921,0.996380429355966,0.06269813314547376
azbwiki,False,4.0,0.032628620310399606,1.0,0.043845875105689096,0.9880179730404394,0.06319526627218934
azbwiki,False,5.0,0.03308140255234791,1.0,0.05737407899504771,0.9740389415876186,0.06404413528424083
azbwiki,False,6.0,0.03341288782816229,0.9962546816479401,0.07041913274550067,0.960434348477284,0.06465726786582401
azbwiki,False,7.0,0.03368771615217113,0.9850187265917603,0.08829568788501027,0.9415876185721418,0.06514738667327223
azbwiki,False,8.0,0.03419363290973405,0.9775280898876404,0.10882956878850103,0.9201198202695956,0.0660759493670886
azbwiki,False,9.0,0.034949878081820644,0.9662921348314607,0.138422514796473,0.889166250624064,0.06745979866649235
azbwiki,False,10.0,0.03613777526821005,0.9588014981273408,0.17393405000603937,0.8522216674987518,0.0696503877023534
azbwiki,False,11.0,0.03743394010569583,0.9550561797752809,0.20654668438217175,0.8183974038941587,0.0720440740217545
azbwiki,False,12.0,0.03871461361897475,0.947565543071161,0.2395216813624834,0.7840738891662506,0.07438988532784475
azbwiki,False,13.0,0.03979705089583003,0.9400749063670412,0.2665780891412006,0.7558662006989516,0.0763614237906906
azbwiki,False,14.0,0.04103921893099454,0.9288389513108615,0.29774127310061604,0.723290064902646,0.07860538827258322
azbwiki,False,15.0,0.04253847484004842,0.9213483146067416,0.3286628819905786,0.6910883674488267,0.08132231404958677
azbwiki,False,16.0,0.04430037817396002,0.9213483146067416,0.3564440149776543,0.6623814278582126,0.08453608247422681
azbwiki,False,17.0,0.0456245325355273,0.9138576779026217,0.38072230945766394,0.6370444333499751,0.08691006233303651
azbwiki,False,18.0,0.047088706525986714,0.9026217228464419,0.4077787172363812,0.6087119321018473,0.08950789229340761
azbwiki,False,19.0,0.049043549043549045,0.9026217228464419,0.4324193743205701,0.5832501248127808,0.0930322331596217
azbwiki,False,20.0,0.05050933786078098,0.8913857677902621,0.4560937311269477,0.5584123814278582,0.0956015264109259
azbwiki,False,21.0,0.05152378864284148,0.8801498127340824,0.47360792366227805,0.5399400898652021,0.09734879867439933
azbwiki,False,22.0,0.05342123209820414,0.8801498127340824,0.4931755042879575,0.5197204193709436,0.10072867552507501
azbwiki,False,23.0,0.055110692416391896,0.8764044943820225,0.5114144220316463,0.5007488766849726,0.10370042100598272
azbwiki,False,24.0,0.05669099756690998,0.8726591760299626,0.5275999516849861,0.48389915127309036,0.10646561571852868
azbwiki,False,25.0,0.05852546237648847,0.8651685393258427,0.5468051697064863,0.4638042935596605,0.10963455149501661
azbwiki,False,26.0,0.06003159557661927,0.8539325842696629,0.5640777871723638,0.445581627558662,0.1121771217712177
azbwiki,False,27.0,0.061838893409275834,0.8539325842696629,0.5774852035269961,0.43172740888667,0.11532625189681335
azbwiki,False,28.0,0.06376404494382022,0.850187265917603,0.5925836453677981,0.41600099850224664,0.11863078129082831
azbwiki,False,29.0,0.06567858180761407,0.846441947565543,0.6067157869307888,0.4012730903644533,0.12189859762675297
azbwiki,False,30.0,0.06740896780018056,0.8389513108614233,0.6204855658896002,0.38679480778831754,0.12479108635097493
azbwiki,False,31.0,0.06894409937888199,0.8314606741573034,0.6324435318275154,0.3741887169246131,0.12733008316604533
azbwiki,False,32.0,0.07005141388174807,0.8164794007490637,0.644522285300157,0.3612081877184224,0.12903225806451613
azbwiki,False,33.0,0.07123834886817576,0.8014981273408239,0.6566010387727986,0.34822765851223164,0.13084683583002138
azbwiki,False,34.0,0.07231404958677685,0.7865168539325843,0.667713491967629,0.336245631552671,0.1324503311258278
azbwiki,False,35.0,0.07383512544802867,0.7715355805243446,0.680516970648629,0.3225162256615077,0.1347726529277069
azbwiki,False,36.0,0.07484253427195257,0.7565543071161048,0.6905423360309216,0.31165751372940587,0.13621038435603505
azbwiki,False,37.0,0.0770410118819471,0.7528089887640449,0.7011716390868462,0.30054917623564653,0.13977746870653684
azbwiki,False,38.0,0.07952286282306163,0.7490636704119851,0.7122840922816766,0.28894158761857214,0.14378145219266714
azbwiki,False,39.0,0.08155737704918033,0.7453183520599251,0.721101582316705,0.2797054418372441,0.14702622829700776
azbwiki,False,40.0,0.08400852878464819,0.7378277153558053,0.7320932479768087,0.26809785322016977,0.1508422664624809
azbwiki,False,41.0,0.0860310421286031,0.7265917602996255,0.7422394008938278,0.2572391412880679,0.15384615384615383
azbwiki,False,42.0,0.08931860036832412,0.7265917602996255,0.7522647662761203,0.24687968047928108,0.15908159081590814
azbwiki,False,43.0,0.09238095238095238,0.7265917602996255,0.7609614687764222,0.23789316025961058,0.1639205745669624
azbwiki,False,44.0,0.09535573122529645,0.7228464419475655,0.7698997463461771,0.2285322016974538,0.1684853775643824
azbwiki,False,45.0,0.09831029185867896,0.7191011235955056,0.7782340862422998,0.21979530703944083,0.17297297297297298
azbwiki,False,46.0,0.10250934329951948,0.7191011235955056,0.7878970890204131,0.2098102845731403,0.1794392523364486
azbwiki,False,47.0,0.1056142301278488,0.7116104868913857,0.7963522164512622,0.2008237643534698,0.18393030009680544
azbwiki,False,48.0,0.10944700460829493,0.7116104868913857,0.8039618311390264,0.19296055916125812,0.18971542685971043
azbwiki,False,49.0,0.11336515513126491,0.7116104868913857,0.8112090832226114,0.1854717923115327,0.19557385486361295
azbwiki,False,50.0,0.11717296962182269,0.7078651685393258,0.8185771228409228,0.17773339990014977,0.20106382978723406
azbwiki,False,51.0,0.12033462033462033,0.700374531835206,0.8252204372508757,0.17061907139291063,0.20538165842943437
azbwiki,False,52.0,0.12309728656518862,0.6966292134831461,0.8301727261746588,0.16537693459810285,0.2092238470191226
azbwiki,False,53.0,0.12758620689655173,0.6928838951310862,0.8372991907235173,0.15788816774837744,0.215492137449039
azbwiki,False,54.0,0.1323319027181688,0.6928838951310862,0.8435801425292909,0.15139790314528206,0.2222222222222222
azbwiki,False,55.0,0.1363973313565604,0.6891385767790262,0.8492571566614325,0.14540688966550175,0.2277227722772277
azbwiki,False,56.0,0.13935681470137826,0.6816479400749064,0.8539678705157627,0.14028956565152273,0.23140495867768593
azbwiki,False,57.0,0.14455917394757745,0.6816479400749064,0.8596448846479043,0.13442336495257115,0.23853211009174313
azbwiki,False,58.0,0.14921681780708987,0.6779026217228464,0.8649595361758666,0.12880678981527707,0.2445945945945946
azbwiki,False,59.0,0.15443686006825938,0.6779026217228464,0.8699118250996497,0.12368946580129805,0.25156358582348853
azbwiki,False,60.0,0.15975286849073256,0.6779026217228464,0.8746225389539799,0.11882176734897654,0.25857142857142856
azbwiki,False,61.0,0.16467341306347746,0.6704119850187266,0.8796956154124894,0.11333000499251124,0.26440177252584934
azbwiki,False,62.0,0.16936251189343482,0.6666666666666666,0.8838023915931876,0.10896155766350474,0.2701062215477997
azbwiki,False,63.0,0.17629482071713148,0.6629213483146067,0.8892378306558764,0.10322016974538192,0.2785208497246263
azbwiki,False,64.0,0.18360995850622408,0.6629213483146067,0.894069332044933,0.09822765851223166,0.2875710804224208
azbwiki,False,65.0,0.19011815252416756,0.6629213483146067,0.8980553206909047,0.09410883674488267,0.29549248747913187
azbwiki,False,66.0,0.195338512763596,0.6591760299625468,0.9014373716632443,0.09048926610084873,0.3013698630136986
azbwiki,False,67.0,0.20207852193995382,0.6554307116104869,0.9054233603092161,0.086245631552671,0.30891438658428955
azbwiki,False,68.0,0.20893719806763286,0.6479400749063671,0.9095301364899142,0.08175237144283574,0.3159817351598173
azbwiki,False,69.0,0.21437578814627994,0.6367041198501873,0.9130329749969803,0.07775836245631552,0.320754716981132
azbwiki,False,70.0,0.22060766182298547,0.6254681647940075,0.9166566010387728,0.07363954068896655,0.326171875
azbwiki,False,71.0,0.22758620689655173,0.6179775280898876,0.9200386520111125,0.06989515726410385,0.3326612903225807
azbwiki,False,72.0,0.23309352517985613,0.6067415730337079,0.9229375528445465,0.06652521218172741,0.3367983367983368
azbwiki,False,73.0,0.2394578313253012,0.5955056179775281,0.9259572412127068,0.06303045431852222,0.3415682062298604
azbwiki,False,74.0,0.2480252764612954,0.5880149812734082,0.9292185046503201,0.05941088367448827,0.34888888888888886
azbwiki,False,75.0,0.25742574257425743,0.5842696629213483,0.9322381930184805,0.05616575137294059,0.35738831615120276
azbwiki,False,76.0,0.2708333333333333,0.5842696629213483,0.935861819060273,0.052421367948077884,0.3701067615658363
azbwiki,False,77.0,0.2791970802919708,0.5730337078651685,0.9385191448242541,0.04930104842735896,0.3754601226993865
azbwiki,False,78.0,0.2925430210325048,0.5730337078651685,0.9415388331924145,0.04618072890664004,0.38734177215189874
azbwiki,False,79.0,0.3046092184368738,0.5692883895131086,0.9441961589563957,0.04331003494757863,0.39686684073107054
azbwiki,False,80.0,0.31769722814498935,0.5580524344569289,0.9470950597898297,0.0399400898652022,0.4048913043478261
azbwiki,False,81.0,0.32293986636971045,0.5430711610486891,0.9485445102065467,0.03794308537194209,0.40502793296089384
azbwiki,False,82.0,0.32779097387173395,0.5168539325842697,0.9502355356927165,0.03532201697453819,0.4011627906976744
azbwiki,False,83.0,0.336734693877551,0.4943820224719101,0.9522889237830656,0.032451323015476784,0.4006069802731411
azbwiki,False,84.0,0.34173669467787116,0.45692883895131087,0.9541007368039618,0.029331003494757864,0.391025641025641
azbwiki,False,85.0,0.35276073619631904,0.4307116104868914,0.956154124894311,0.0263354967548677,0.387858347386172
azbwiki,False,86.0,0.36,0.4044943820224719,0.9576035753110279,0.023964053919121316,0.380952380952381
azbwiki,False,87.0,0.3880597014925373,0.3895131086142322,0.9605024761444619,0.020469296055916127,0.38878504672897196
azbwiki,False,88.0,0.3949579831932773,0.352059925093633,0.961710351491726,0.01797304043934099,0.37227722772277233
azbwiki,False,89.0,0.4205607476635514,0.33707865168539325,0.9636429520473487,0.01547678482276585,0.3742203742203742
azbwiki,False,90.0,0.4308510638297872,0.30337078651685395,0.96460925232516,0.013354967548676985,0.3560439560439561
azbwiki,False,91.0,0.45625,0.27340823970037453,0.966058702741877,0.010858711932101847,0.34192037470725994
azbwiki,False,92.0,0.5,0.23595505617977527,0.9677497282280468,0.007863205192211682,0.32061068702290074
azbwiki,False,93.0,0.5412844036697247,0.2209737827715356,0.9688368160405846,0.006240639041437843,0.3138297872340426
azbwiki,False,94.0,0.5729166666666666,0.20599250936329588,0.9694407537142167,0.005117324013979032,0.30303030303030304
azbwiki,False,95.0,0.631578947368421,0.1797752808988764,0.9701654789225752,0.003494757863205192,0.27988338192419826
azbwiki,False,96.0,0.76,0.14232209737827714,0.9708902041309337,0.0014977533699450823,0.2397476340694006
azbwiki,False,97.0,0.9117647058823529,0.11610486891385768,0.9711317792003865,0.00037443834248627057,0.20598006644518274
azbwiki,False,98.0,0.9583333333333334,0.08614232209737828,0.970407053992028,0.00012481278082875687,0.15807560137457044
azbwiki,False,99.0,1.0,0.033707865168539325,0.9688368160405846,0.0,0.06521739130434782
