wiki_db,user_is_anonymous_or_bot,threshold,precision,recall,accuracy,fpr,F1
bxrwiki,True,0.0,0.65,1.0,0.65,1.0,0.787878787878788
bxrwiki,True,1.0,0.65,1.0,0.65,1.0,0.787878787878788
bxrwiki,True,2.0,0.65,1.0,0.65,1.0,0.787878787878788
bxrwiki,True,3.0,0.65,1.0,0.65,1.0,0.787878787878788
bxrwiki,True,4.0,0.65,1.0,0.65,1.0,0.787878787878788
bxrwiki,True,5.0,0.65,1.0,0.65,1.0,0.787878787878788
bxrwiki,True,6.0,0.65,1.0,0.65,1.0,0.787878787878788
bxrwiki,True,7.0,0.65,1.0,0.65,1.0,0.787878787878788
bxrwiki,True,8.0,0.65,1.0,0.65,1.0,0.787878787878788
bxrwiki,True,9.0,0.65,1.0,0.65,1.0,0.787878787878788
bxrwiki,True,10.0,0.65,1.0,0.65,1.0,0.787878787878788
bxrwiki,True,11.0,0.65,1.0,0.65,1.0,0.787878787878788
bxrwiki,True,12.0,0.65,1.0,0.65,1.0,0.787878787878788
bxrwiki,True,13.0,0.65,1.0,0.65,1.0,0.787878787878788
bxrwiki,True,14.0,0.65,1.0,0.65,1.0,0.787878787878788
bxrwiki,True,15.0,0.65,1.0,0.65,1.0,0.787878787878788
bxrwiki,True,16.0,0.65,1.0,0.65,1.0,0.787878787878788
bxrwiki,True,17.0,0.65,1.0,0.65,1.0,0.787878787878788
bxrwiki,True,18.0,0.65,1.0,0.65,1.0,0.787878787878788
bxrwiki,True,19.0,0.65,1.0,0.65,1.0,0.787878787878788
bxrwiki,True,20.0,0.65,1.0,0.65,1.0,0.787878787878788
bxrwiki,True,21.0,0.65,1.0,0.65,1.0,0.787878787878788
bxrwiki,True,22.0,0.65,1.0,0.65,1.0,0.787878787878788
bxrwiki,True,23.0,0.65,1.0,0.65,1.0,0.787878787878788
bxrwiki,True,24.0,0.65,1.0,0.65,1.0,0.787878787878788
bxrwiki,True,25.0,0.65,1.0,0.65,1.0,0.787878787878788
bxrwiki,True,26.0,0.65,1.0,0.65,1.0,0.787878787878788
bxrwiki,True,27.0,0.65,1.0,0.65,1.0,0.787878787878788
bxrwiki,True,28.0,0.65,1.0,0.65,1.0,0.787878787878788
bxrwiki,True,29.0,0.65,1.0,0.65,1.0,0.787878787878788
bxrwiki,True,30.0,0.65,1.0,0.65,1.0,0.787878787878788
bxrwiki,True,31.0,0.65,1.0,0.65,1.0,0.787878787878788
bxrwiki,True,32.0,0.65,1.0,0.65,1.0,0.787878787878788
bxrwiki,True,33.0,0.65,1.0,0.65,1.0,0.787878787878788
bxrwiki,True,34.0,0.65,1.0,0.65,1.0,0.787878787878788
bxrwiki,True,35.0,0.65,1.0,0.65,1.0,0.787878787878788
bxrwiki,True,36.0,0.65,1.0,0.65,1.0,0.787878787878788
bxrwiki,True,37.0,0.65,1.0,0.65,1.0,0.787878787878788
bxrwiki,True,38.0,0.65,1.0,0.65,1.0,0.787878787878788
bxrwiki,True,39.0,0.65,1.0,0.65,1.0,0.787878787878788
bxrwiki,True,40.0,0.65,1.0,0.65,1.0,0.787878787878788
bxrwiki,True,41.0,0.65,1.0,0.65,1.0,0.787878787878788
bxrwiki,True,42.0,0.65,1.0,0.65,1.0,0.787878787878788
bxrwiki,True,43.0,0.65,1.0,0.65,1.0,0.787878787878788
bxrwiki,True,44.0,0.65,1.0,0.65,1.0,0.787878787878788
bxrwiki,True,45.0,0.65,1.0,0.65,1.0,0.787878787878788
bxrwiki,True,46.0,0.65,1.0,0.65,1.0,0.787878787878788
bxrwiki,True,47.0,0.65,1.0,0.65,1.0,0.787878787878788
bxrwiki,True,48.0,0.65,1.0,0.65,1.0,0.787878787878788
bxrwiki,True,49.0,0.65,1.0,0.65,1.0,0.787878787878788
bxrwiki,True,50.0,0.65,1.0,0.65,1.0,0.787878787878788
bxrwiki,True,51.0,0.65,1.0,0.65,1.0,0.787878787878788
bxrwiki,True,52.0,0.65,1.0,0.65,1.0,0.787878787878788
bxrwiki,True,53.0,0.65,1.0,0.65,1.0,0.787878787878788
bxrwiki,True,54.0,0.65,1.0,0.65,1.0,0.787878787878788
bxrwiki,True,55.0,0.6610169491525424,1.0,0.6666666666666666,0.9523809523809523,0.7959183673469388
bxrwiki,True,56.0,0.6610169491525424,1.0,0.6666666666666666,0.9523809523809523,0.7959183673469388
bxrwiki,True,57.0,0.6610169491525424,1.0,0.6666666666666666,0.9523809523809523,0.7959183673469388
bxrwiki,True,58.0,0.6610169491525424,1.0,0.6666666666666666,0.9523809523809523,0.7959183673469388
bxrwiki,True,59.0,0.6610169491525424,1.0,0.6666666666666666,0.9523809523809523,0.7959183673469388
bxrwiki,True,60.0,0.6610169491525424,1.0,0.6666666666666666,0.9523809523809523,0.7959183673469388
bxrwiki,True,61.0,0.6610169491525424,1.0,0.6666666666666666,0.9523809523809523,0.7959183673469388
bxrwiki,True,62.0,0.6610169491525424,1.0,0.6666666666666666,0.9523809523809523,0.7959183673469388
bxrwiki,True,63.0,0.6610169491525424,1.0,0.6666666666666666,0.9523809523809523,0.7959183673469388
bxrwiki,True,64.0,0.6610169491525424,1.0,0.6666666666666666,0.9523809523809523,0.7959183673469388
bxrwiki,True,65.0,0.6610169491525424,1.0,0.6666666666666666,0.9523809523809523,0.7959183673469388
bxrwiki,True,66.0,0.6610169491525424,1.0,0.6666666666666666,0.9523809523809523,0.7959183673469388
bxrwiki,True,67.0,0.6610169491525424,1.0,0.6666666666666666,0.9523809523809523,0.7959183673469388
bxrwiki,True,68.0,0.6610169491525424,1.0,0.6666666666666666,0.9523809523809523,0.7959183673469388
bxrwiki,True,69.0,0.6610169491525424,1.0,0.6666666666666666,0.9523809523809523,0.7959183673469388
bxrwiki,True,70.0,0.6610169491525424,1.0,0.6666666666666666,0.9523809523809523,0.7959183673469388
bxrwiki,True,71.0,0.6610169491525424,1.0,0.6666666666666666,0.9523809523809523,0.7959183673469388
bxrwiki,True,72.0,0.6724137931034483,1.0,0.6833333333333333,0.9047619047619048,0.8041237113402061
bxrwiki,True,73.0,0.6724137931034483,1.0,0.6833333333333333,0.9047619047619048,0.8041237113402061
bxrwiki,True,74.0,0.6842105263157895,1.0,0.7,0.8571428571428571,0.8125000000000001
bxrwiki,True,75.0,0.6842105263157895,1.0,0.7,0.8571428571428571,0.8125000000000001
bxrwiki,True,76.0,0.6842105263157895,1.0,0.7,0.8571428571428571,0.8125000000000001
bxrwiki,True,77.0,0.6842105263157895,1.0,0.7,0.8571428571428571,0.8125000000000001
bxrwiki,True,78.0,0.6842105263157895,1.0,0.7,0.8571428571428571,0.8125000000000001
bxrwiki,True,79.0,0.6842105263157895,1.0,0.7,0.8571428571428571,0.8125000000000001
bxrwiki,True,80.0,0.6785714285714286,0.9743589743589743,0.6833333333333333,0.8571428571428571,0.8
bxrwiki,True,81.0,0.6785714285714286,0.9743589743589743,0.6833333333333333,0.8571428571428571,0.8
bxrwiki,True,82.0,0.6851851851851852,0.9487179487179487,0.6833333333333333,0.8095238095238095,0.7956989247311828
bxrwiki,True,83.0,0.6851851851851852,0.9487179487179487,0.6833333333333333,0.8095238095238095,0.7956989247311828
bxrwiki,True,84.0,0.6851851851851852,0.9487179487179487,0.6833333333333333,0.8095238095238095,0.7956989247311828
bxrwiki,True,85.0,0.6851851851851852,0.9487179487179487,0.6833333333333333,0.8095238095238095,0.7956989247311828
bxrwiki,True,86.0,0.6792452830188679,0.9230769230769231,0.6666666666666666,0.8095238095238095,0.7826086956521738
bxrwiki,True,87.0,0.7142857142857143,0.8974358974358975,0.7,0.6666666666666666,0.7954545454545455
bxrwiki,True,88.0,0.7045454545454546,0.7948717948717948,0.65,0.6190476190476191,0.746987951807229
bxrwiki,True,89.0,0.7027027027027027,0.6666666666666666,0.6,0.5238095238095238,0.6842105263157895
bxrwiki,True,90.0,0.7575757575757576,0.6410256410256411,0.6333333333333333,0.38095238095238093,0.6944444444444444
bxrwiki,True,91.0,0.7142857142857143,0.5128205128205128,0.55,0.38095238095238093,0.5970149253731343
bxrwiki,True,92.0,0.7692307692307693,0.5128205128205128,0.5833333333333334,0.2857142857142857,0.6153846153846154
bxrwiki,True,93.0,0.75,0.46153846153846156,0.55,0.2857142857142857,0.5714285714285714
bxrwiki,True,94.0,0.6842105263157895,0.3333333333333333,0.4666666666666667,0.2857142857142857,0.44827586206896547
bxrwiki,True,95.0,0.6666666666666666,0.20512820512820512,0.4166666666666667,0.19047619047619047,0.31372549019607837
bxrwiki,True,96.0,0.8,0.10256410256410256,0.4,0.047619047619047616,0.18181818181818182
bxrwiki,True,97.0,1.0,0.05128205128205128,0.38333333333333336,0.0,0.09756097560975609
bxrwiki,True,98.0,1.0,0.0,0.35,0.0,0.0
bxrwiki,True,99.0,1.0,0.0,0.35,0.0,0.0
bxrwiki,False,0.0,0.03184431667403804,1.0,0.03184431667403804,1.0,0.061723103300471496
bxrwiki,False,1.0,0.03184431667403804,1.0,0.03184431667403804,1.0,0.061723103300471496
bxrwiki,False,2.0,0.03187250996015936,1.0,0.03272888102609465,0.9990863407948835,0.06177606177606178
bxrwiki,False,3.0,0.03214285714285714,1.0,0.04113224237063246,0.9904065783462769,0.06228373702422146
bxrwiki,False,4.0,0.03244704821991888,1.0,0.05042016806722689,0.9808131566925536,0.06285464862505456
bxrwiki,False,5.0,0.03302752293577982,1.0,0.06766917293233082,0.962996802192782,0.06394316163410303
bxrwiki,False,6.0,0.034482758620689655,1.0,0.10835913312693499,0.9209684787574235,0.06666666666666667
bxrwiki,False,7.0,0.03564356435643564,1.0,0.1384343210968598,0.8899040657834628,0.06883365200764817
bxrwiki,False,8.0,0.03669724770642202,1.0,0.16408668730650156,0.8634079488350845,0.07079646017699115
bxrwiki,False,9.0,0.03815580286168521,1.0,0.19725785050862452,0.8291457286432161,0.07350689127105665
bxrwiki,False,10.0,0.039713182570325425,1.0,0.22998673153471916,0.7953403380539059,0.07639257294429708
bxrwiki,False,11.0,0.04067796610169491,1.0,0.24900486510393632,0.7756966651439013,0.0781758957654723
bxrwiki,False,12.0,0.04190919674039581,1.0,0.27200353825740825,0.7519415258108726,0.08044692737430169
bxrwiki,False,13.0,0.043373493975903614,1.0,0.29765590446705,0.7254454088624943,0.08314087759815242
bxrwiki,False,14.0,0.04477611940298507,1.0,0.3206545776205219,0.7016902695294656,0.08571428571428572
bxrwiki,False,15.0,0.046065259117082535,1.0,0.34055727554179566,0.6811329374143444,0.08807339449541285
bxrwiki,False,16.0,0.04790419161676647,1.0,0.367094206103494,0.6537231612608497,0.09142857142857144
bxrwiki,False,17.0,0.04944289693593315,0.9861111111111112,0.39584254754533393,0.6235724074920055,0.09416445623342178
bxrwiki,False,18.0,0.051787016776075855,0.9861111111111112,0.42459088898717384,0.5938784833257195,0.0984060984060984
bxrwiki,False,19.0,0.054474708171206226,0.9722222222222222,0.46174259177355154,0.5550479671082686,0.10316875460574798
bxrwiki,False,20.0,0.05688375927452597,0.9583333333333334,0.49270234409553293,0.5226130653266332,0.10739299610894941
bxrwiki,False,21.0,0.05928509154315606,0.9444444444444444,0.5210084033613446,0.4929191411603472,0.11156685808039377
bxrwiki,False,22.0,0.06082289803220036,0.9444444444444444,0.5338345864661654,0.47967108268615805,0.1142857142857143
bxrwiki,False,23.0,0.062100456621004566,0.9444444444444444,0.5440070765148165,0.46916400182731843,0.11653813196229648
bxrwiki,False,24.0,0.06390977443609022,0.9444444444444444,0.5577178239716939,0.4550022841480128,0.11971830985915494
bxrwiki,False,25.0,0.06570048309178744,0.9444444444444444,0.5705440070765149,0.44175422567382366,0.12285456187895215
bxrwiki,False,26.0,0.0647410358565737,0.9027777777777778,0.5816010614772225,0.4289629968021928,0.12081784386617099
bxrwiki,False,27.0,0.06820566631689402,0.9027777777777778,0.6041574524546661,0.40566468707172226,0.12682926829268293
bxrwiki,False,28.0,0.07042253521126761,0.9027777777777778,0.6174259177355153,0.39195979899497485,0.1306532663316583
bxrwiki,False,29.0,0.072480181200453,0.8888888888888888,0.6342326404245909,0.3741434444952033,0.13403141361256546
bxrwiki,False,30.0,0.07517899761336516,0.875,0.653250773993808,0.35404294198264047,0.13846153846153844
bxrwiki,False,31.0,0.0799492385786802,0.875,0.6753648827952233,0.3312014618547282,0.14651162790697675
bxrwiki,False,32.0,0.08559782608695653,0.875,0.6983635559486953,0.3074463225216994,0.15594059405940594
bxrwiki,False,33.0,0.09143686502177069,0.875,0.7191508182220256,0.28597533120146185,0.16557161629434952
bxrwiki,False,34.0,0.0989010989010989,0.875,0.7421494913754976,0.2622201918684331,0.1777150916784203
bxrwiki,False,35.0,0.10896309314586995,0.8611111111111112,0.7713401149933657,0.2316126084970306,0.1934477379095164
bxrwiki,False,36.0,0.12048192771084337,0.8333333333333334,0.8009730207872623,0.20009136592051166,0.21052631578947367
bxrwiki,False,37.0,0.13333333333333333,0.8333333333333334,0.8222025652366209,0.17816354499771586,0.2298850574712644
bxrwiki,False,38.0,0.14634146341463414,0.8333333333333334,0.8398938522777533,0.15989036089538602,0.24896265560165973
bxrwiki,False,39.0,0.15567282321899736,0.8194444444444444,0.8527200353825741,0.14618547281863864,0.2616407982261641
bxrwiki,False,40.0,0.16022099447513813,0.8055555555555556,0.8593542680229986,0.13887619917770672,0.2672811059907834
bxrwiki,False,41.0,0.1661721068249258,0.7777777777777778,0.8686421937195931,0.12836911831886708,0.273838630806846
bxrwiki,False,42.0,0.1794871794871795,0.7777777777777778,0.8796992481203008,0.11694837825491092,0.29166666666666663
bxrwiki,False,43.0,0.1891891891891892,0.7777777777777778,0.8867757629367536,0.10963910461397898,0.30434782608695654
bxrwiki,False,44.0,0.1958041958041958,0.7777777777777778,0.8911985846970367,0.10507080858839653,0.3128491620111732
bxrwiki,False,45.0,0.19708029197080293,0.75,0.8947368421052632,0.10050251256281408,0.31213872832369943
bxrwiki,False,46.0,0.20463320463320464,0.7361111111111112,0.9004865103936311,0.09410689812699863,0.32024169184290036
bxrwiki,False,47.0,0.21370967741935484,0.7361111111111112,0.9053516143299425,0.08908177249885793,0.33125000000000004
bxrwiki,False,48.0,0.21721311475409835,0.7361111111111112,0.9071207430340558,0.08725445408862495,0.33544303797468356
bxrwiki,False,49.0,0.2264957264957265,0.7361111111111112,0.9115435647943387,0.08268615806304248,0.3464052287581699
bxrwiki,False,50.0,0.2409090909090909,0.7361111111111112,0.9177355152587351,0.07629054362722705,0.363013698630137
bxrwiki,False,51.0,0.24766355140186916,0.7361111111111112,0.9203892083149049,0.07354956601187757,0.3706293706293707
bxrwiki,False,52.0,0.2535885167464115,0.7361111111111112,0.9226006191950464,0.07126541799908634,0.37722419928825623
bxrwiki,False,53.0,0.25853658536585367,0.7361111111111112,0.9243697478991597,0.06943809958885336,0.38267148014440433
bxrwiki,False,54.0,0.2717948717948718,0.7361111111111112,0.9287925696594427,0.0648698035632709,0.3970037453183521
bxrwiki,False,55.0,0.28804347826086957,0.7361111111111112,0.9336576735957541,0.059844677935130194,0.4140625
bxrwiki,False,56.0,0.2905027932960894,0.7222222222222222,0.934984520123839,0.058017359524897213,0.4143426294820718
bxrwiki,False,57.0,0.30409356725146197,0.7222222222222222,0.9385227775320655,0.054362722704431245,0.42798353909465026
bxrwiki,False,58.0,0.3132530120481928,0.7222222222222222,0.940734188412207,0.05207857469164002,0.4369747899159664
bxrwiki,False,59.0,0.32298136645962733,0.7222222222222222,0.9429455992923486,0.04979442667884879,0.4463519313304721
bxrwiki,False,60.0,0.3291139240506329,0.7222222222222222,0.9442724458204335,0.04842393787117405,0.4521739130434782
bxrwiki,False,61.0,0.33548387096774196,0.7222222222222222,0.9455992923485184,0.047053449063499314,0.4581497797356828
bxrwiki,False,62.0,0.348993288590604,0.7222222222222222,0.9482529854046882,0.04431247144814984,0.47058823529411764
bxrwiki,False,63.0,0.36363636363636365,0.7222222222222222,0.9509066784608581,0.041571493832800364,0.4837209302325582
bxrwiki,False,64.0,0.36879432624113473,0.7222222222222222,0.9517912428129146,0.040657834627683874,0.48826291079812206
bxrwiki,False,65.0,0.37410071942446044,0.7222222222222222,0.9526758071649712,0.039744175422567384,0.49289099526066354
bxrwiki,False,66.0,0.3805970149253731,0.7083333333333334,0.9540026536930561,0.0379168570123344,0.49514563106796117
bxrwiki,False,67.0,0.3893129770992366,0.7083333333333334,0.955329500221141,0.03654636820465966,0.5024630541871921
bxrwiki,False,68.0,0.4,0.6944444444444444,0.9570986289252543,0.034262220191868434,0.5076142131979695
bxrwiki,False,69.0,0.4132231404958678,0.6944444444444444,0.9588677576293675,0.03243490178163545,0.5181347150259067
bxrwiki,False,70.0,0.42016806722689076,0.6944444444444444,0.9597523219814241,0.031521242576518956,0.5235602094240838
bxrwiki,False,71.0,0.4188034188034188,0.6805555555555556,0.9597523219814241,0.031064412973960714,0.5185185185185185
bxrwiki,False,72.0,0.44144144144144143,0.6805555555555556,0.9624060150375939,0.02832343535861124,0.5355191256830601
bxrwiki,False,73.0,0.4666666666666667,0.6805555555555556,0.9650597080937638,0.025582457743261764,0.5536723163841808
bxrwiki,False,74.0,0.4803921568627451,0.6805555555555556,0.9663865546218487,0.024211968935587025,0.5632183908045977
bxrwiki,False,75.0,0.48,0.6666666666666666,0.9663865546218487,0.02375513933302878,0.5581395348837209
bxrwiki,False,76.0,0.4895833333333333,0.6527777777777778,0.9672711189739054,0.022384650525354044,0.5595238095238094
bxrwiki,False,77.0,0.5053763440860215,0.6527777777777778,0.9685979655019903,0.021014161717679305,0.5696969696969698
bxrwiki,False,78.0,0.5164835164835165,0.6527777777777778,0.9694825298540469,0.020100502512562814,0.5766871165644172
bxrwiki,False,79.0,0.5164835164835165,0.6527777777777778,0.9694825298540469,0.020100502512562814,0.5766871165644172
bxrwiki,False,80.0,0.5287356321839081,0.6388888888888888,0.9703670942061035,0.018730013704888075,0.5786163522012578
bxrwiki,False,81.0,0.5357142857142857,0.625,0.9708093763821318,0.017816354499771585,0.576923076923077
bxrwiki,False,82.0,0.5375,0.5972222222222222,0.9708093763821318,0.016902695294655094,0.5657894736842105
bxrwiki,False,83.0,0.5443037974683544,0.5972222222222222,0.9712516585581601,0.01644586569209685,0.5695364238410596
bxrwiki,False,84.0,0.5584415584415584,0.5972222222222222,0.9721362229102167,0.015532206486980357,0.5771812080536912
bxrwiki,False,85.0,0.56,0.5833333333333334,0.9721362229102167,0.01507537688442211,0.5714285714285714
bxrwiki,False,86.0,0.5694444444444444,0.5694444444444444,0.972578505086245,0.01416171767930562,0.5694444444444444
bxrwiki,False,87.0,0.6129032258064516,0.5277777777777778,0.9743476337903583,0.0109639104613979,0.5671641791044777
bxrwiki,False,88.0,0.6071428571428571,0.4722222222222222,0.9734630694383016,0.010050251256281407,0.53125
bxrwiki,False,89.0,0.6041666666666666,0.4027777777777778,0.972578505086245,0.00867976244860667,0.48333333333333334
bxrwiki,False,90.0,0.6666666666666666,0.3888888888888889,0.9743476337903583,0.006395614435815441,0.49122807017543857
bxrwiki,False,91.0,0.7096774193548387,0.3055555555555556,0.9739053516143299,0.004111466423024212,0.4271844660194175
bxrwiki,False,92.0,0.75,0.2916666666666667,0.9743476337903583,0.0031978072179077205,0.42
bxrwiki,False,93.0,0.76,0.2638888888888889,0.9739053516143299,0.002740977615349475,0.3917525773195877
bxrwiki,False,94.0,0.7,0.19444444444444445,0.9716939407341885,0.002740977615349475,0.30434782608695654
bxrwiki,False,95.0,0.6666666666666666,0.1111111111111111,0.9699248120300752,0.001827318410232983,0.1904761904761905
bxrwiki,False,96.0,0.8,0.05555555555555555,0.9694825298540469,0.00045682960255824577,0.10389610389610389
bxrwiki,False,97.0,1.0,0.027777777777777776,0.9690402476780186,0.0,0.05405405405405406
bxrwiki,False,98.0,1.0,0.0,0.9681556833259619,0.0,0.0
bxrwiki,False,99.0,1.0,0.0,0.9681556833259619,0.0,0.0
