wiki_db,user_is_anonymous_or_bot,threshold,precision,recall,accuracy,fpr,F1
cvwiki,True,0.0,0.16783216783216784,1.0,0.16783216783216784,1.0,0.2874251497005988
cvwiki,True,1.0,0.16783216783216784,1.0,0.16783216783216784,1.0,0.2874251497005988
cvwiki,True,2.0,0.16783216783216784,1.0,0.16783216783216784,1.0,0.2874251497005988
cvwiki,True,3.0,0.16783216783216784,1.0,0.16783216783216784,1.0,0.2874251497005988
cvwiki,True,4.0,0.16783216783216784,1.0,0.16783216783216784,1.0,0.2874251497005988
cvwiki,True,5.0,0.16850551654964896,1.0,0.17182817182817184,0.9951980792316927,0.288412017167382
cvwiki,True,6.0,0.17055837563451776,1.0,0.1838161838161838,0.9807923169267707,0.29141370338248046
cvwiki,True,7.0,0.17518248175182483,1.0,0.2097902097902098,0.9495798319327731,0.2981366459627329
cvwiki,True,8.0,0.18181818181818182,1.0,0.24475524475524477,0.907563025210084,0.3076923076923077
cvwiki,True,9.0,0.19557625145518046,1.0,0.3096903096903097,0.82953181272509,0.32716650438169426
cvwiki,True,10.0,0.21346886912325286,1.0,0.38161838161838163,0.7430972388955582,0.3518324607329843
cvwiki,True,11.0,0.23661971830985915,1.0,0.45854145854145856,0.6506602641056423,0.3826879271070615
cvwiki,True,12.0,0.25426356589147286,0.9761904761904762,0.5154845154845155,0.5774309723889556,0.40344403444034443
cvwiki,True,13.0,0.27627118644067794,0.9702380952380952,0.5684315684315684,0.5126050420168067,0.4300791556728232
cvwiki,True,14.0,0.30639097744360905,0.9702380952380952,0.6263736263736264,0.4429771908763505,0.46571428571428575
cvwiki,True,15.0,0.3333333333333333,0.9702380952380952,0.6693306693306693,0.39135654261704683,0.49619482496194817
cvwiki,True,16.0,0.36794582392776526,0.9702380952380952,0.7152847152847153,0.33613445378151263,0.5335515548281506
cvwiki,True,17.0,0.39563106796116504,0.9702380952380952,0.7462537462537463,0.29891956782713086,0.5620689655172413
cvwiki,True,18.0,0.4323607427055703,0.9702380952380952,0.7812187812187812,0.25690276110444177,0.5981651376146789
cvwiki,True,19.0,0.4630681818181818,0.9702380952380952,0.8061938061938062,0.226890756302521,0.6269230769230769
cvwiki,True,20.0,0.4969512195121951,0.9702380952380952,0.8301698301698301,0.19807923169267708,0.657258064516129
cvwiki,True,21.0,0.5158227848101266,0.9702380952380952,0.8421578421578422,0.1836734693877551,0.6735537190082644
cvwiki,True,22.0,0.5379537953795379,0.9702380952380952,0.8551448551448552,0.16806722689075632,0.6921443736730362
cvwiki,True,23.0,0.5567010309278351,0.9642857142857143,0.8651348651348651,0.15486194477791115,0.7058823529411765
cvwiki,True,24.0,0.5664335664335665,0.9642857142857143,0.8701298701298701,0.148859543817527,0.7136563876651983
cvwiki,True,25.0,0.5806451612903226,0.9642857142857143,0.8771228771228772,0.1404561824729892,0.7248322147651007
cvwiki,True,26.0,0.5875912408759124,0.9583333333333334,0.8801198801198801,0.13565426170468187,0.7285067873303167
cvwiki,True,27.0,0.5925925925925926,0.9523809523809523,0.8821178821178821,0.13205282112845138,0.730593607305936
cvwiki,True,28.0,0.599250936329588,0.9523809523809523,0.8851148851148851,0.12845138055222088,0.7356321839080461
cvwiki,True,29.0,0.6060606060606061,0.9523809523809523,0.8881118881118881,0.12484993997599039,0.7407407407407407
cvwiki,True,30.0,0.6083650190114068,0.9523809523809523,0.8891108891108891,0.12364945978391356,0.7424593967517401
cvwiki,True,31.0,0.6083650190114068,0.9523809523809523,0.8891108891108891,0.12364945978391356,0.7424593967517401
cvwiki,True,32.0,0.6153846153846154,0.9523809523809523,0.8921078921078921,0.12004801920768307,0.7476635514018692
cvwiki,True,33.0,0.6138996138996139,0.9464285714285714,0.8911088911088911,0.12004801920768307,0.7447306791569086
cvwiki,True,34.0,0.6138996138996139,0.9464285714285714,0.8911088911088911,0.12004801920768307,0.7447306791569086
cvwiki,True,35.0,0.6186770428015564,0.9464285714285714,0.8931068931068931,0.11764705882352941,0.7482352941176471
cvwiki,True,36.0,0.6186770428015564,0.9464285714285714,0.8931068931068931,0.11764705882352941,0.7482352941176471
cvwiki,True,37.0,0.6186770428015564,0.9464285714285714,0.8931068931068931,0.11764705882352941,0.7482352941176471
cvwiki,True,38.0,0.62109375,0.9464285714285714,0.8941058941058941,0.11644657863145258,0.75
cvwiki,True,39.0,0.62109375,0.9464285714285714,0.8941058941058941,0.11644657863145258,0.75
cvwiki,True,40.0,0.6235294117647059,0.9464285714285714,0.8951048951048951,0.11524609843937575,0.75177304964539
cvwiki,True,41.0,0.6235294117647059,0.9464285714285714,0.8951048951048951,0.11524609843937575,0.75177304964539
cvwiki,True,42.0,0.6259842519685039,0.9464285714285714,0.8961038961038961,0.11404561824729892,0.7535545023696683
cvwiki,True,43.0,0.6284584980237155,0.9464285714285714,0.8971028971028971,0.11284513805522209,0.7553444180522564
cvwiki,True,44.0,0.6309523809523809,0.9464285714285714,0.8981018981018981,0.11164465786314526,0.7571428571428572
cvwiki,True,45.0,0.6334661354581673,0.9464285714285714,0.8991008991008991,0.11044417767106843,0.7589498806682576
cvwiki,True,46.0,0.636,0.9464285714285714,0.9000999000999002,0.1092436974789916,0.7607655502392344
cvwiki,True,47.0,0.6345381526104418,0.9404761904761905,0.8991008991008991,0.1092436974789916,0.7577937649880095
cvwiki,True,48.0,0.6345381526104418,0.9404761904761905,0.8991008991008991,0.1092436974789916,0.7577937649880095
cvwiki,True,49.0,0.6370967741935484,0.9404761904761905,0.9000999000999002,0.10804321728691477,0.7596153846153847
cvwiki,True,50.0,0.6396761133603239,0.9404761904761905,0.9010989010989011,0.10684273709483794,0.7614457831325301
cvwiki,True,51.0,0.6434426229508197,0.9345238095238095,0.9020979020979021,0.10444177671068428,0.7621359223300971
cvwiki,True,52.0,0.6446280991735537,0.9285714285714286,0.9020979020979021,0.10324129651860744,0.7609756097560976
cvwiki,True,53.0,0.6431535269709544,0.9226190476190477,0.9010989010989011,0.10324129651860744,0.7579462102689487
cvwiki,True,54.0,0.6431535269709544,0.9226190476190477,0.9010989010989011,0.10324129651860744,0.7579462102689487
cvwiki,True,55.0,0.6431535269709544,0.9226190476190477,0.9010989010989011,0.10324129651860744,0.7579462102689487
cvwiki,True,56.0,0.6431535269709544,0.9226190476190477,0.9010989010989011,0.10324129651860744,0.7579462102689487
cvwiki,True,57.0,0.6371308016877637,0.8988095238095238,0.8971028971028971,0.10324129651860744,0.745679012345679
cvwiki,True,58.0,0.6371308016877637,0.8988095238095238,0.8971028971028971,0.10324129651860744,0.745679012345679
cvwiki,True,59.0,0.6398305084745762,0.8988095238095238,0.8981018981018981,0.10204081632653061,0.7475247524752474
cvwiki,True,60.0,0.6351931330472103,0.8809523809523809,0.8951048951048951,0.10204081632653061,0.738154613466334
cvwiki,True,61.0,0.6336206896551724,0.875,0.8941058941058941,0.10204081632653061,0.735
cvwiki,True,62.0,0.6304347826086957,0.8630952380952381,0.8921078921078921,0.10204081632653061,0.728643216080402
cvwiki,True,63.0,0.62882096069869,0.8571428571428571,0.8911088911088911,0.10204081632653061,0.7254408060453401
cvwiki,True,64.0,0.6255506607929515,0.8452380952380952,0.8891108891108891,0.10204081632653061,0.7189873417721518
cvwiki,True,65.0,0.6255506607929515,0.8452380952380952,0.8891108891108891,0.10204081632653061,0.7189873417721518
cvwiki,True,66.0,0.6222222222222222,0.8333333333333334,0.8871128871128872,0.10204081632653061,0.712468193384224
cvwiki,True,67.0,0.6233183856502242,0.8273809523809523,0.8871128871128872,0.10084033613445378,0.7109974424552429
cvwiki,True,68.0,0.6244343891402715,0.8214285714285714,0.8871128871128872,0.09963985594237695,0.7095115681233932
cvwiki,True,69.0,0.6192660550458715,0.8035714285714286,0.8841158841158842,0.09963985594237695,0.699481865284974
cvwiki,True,70.0,0.6186046511627907,0.7916666666666666,0.8831168831168831,0.09843937575030012,0.6945169712793735
cvwiki,True,71.0,0.6179245283018868,0.7797619047619048,0.8821178821178821,0.09723889555822329,0.6894736842105262
cvwiki,True,72.0,0.6078431372549019,0.7380952380952381,0.8761238761238761,0.09603841536614646,0.6666666666666666
cvwiki,True,73.0,0.6108374384236454,0.7380952380952381,0.8771228771228772,0.09483793517406963,0.6684636118598383
cvwiki,True,74.0,0.6069651741293532,0.7261904761904762,0.8751248751248751,0.09483793517406963,0.6612466124661247
cvwiki,True,75.0,0.6030150753768844,0.7142857142857143,0.8731268731268731,0.09483793517406963,0.653950953678474
cvwiki,True,76.0,0.6030927835051546,0.6964285714285714,0.8721278721278721,0.09243697478991597,0.6464088397790055
cvwiki,True,77.0,0.6063829787234043,0.6785714285714286,0.8721278721278721,0.08883553421368548,0.6404494382022472
cvwiki,True,78.0,0.6054054054054054,0.6666666666666666,0.8711288711288712,0.08763505402160865,0.6345609065155807
cvwiki,True,79.0,0.6077348066298343,0.6547619047619048,0.8711288711288712,0.08523409363745499,0.6303724928366763
cvwiki,True,80.0,0.6,0.625,0.8671328671328671,0.08403361344537816,0.6122448979591836
cvwiki,True,81.0,0.6069364161849711,0.625,0.8691308691308691,0.08163265306122448,0.6158357771260997
cvwiki,True,82.0,0.6319018404907976,0.6130952380952381,0.8751248751248751,0.07202881152460984,0.622356495468278
cvwiki,True,83.0,0.6289308176100629,0.5952380952380952,0.8731268731268731,0.07082833133253301,0.6116207951070336
cvwiki,True,84.0,0.6428571428571429,0.5892857142857143,0.8761238761238761,0.06602641056422569,0.6149068322981367
cvwiki,True,85.0,0.64,0.5714285714285714,0.8741258741258742,0.06482593037214886,0.6037735849056605
cvwiki,True,86.0,0.676056338028169,0.5714285714285714,0.8821178821178821,0.055222088835534214,0.6193548387096774
cvwiki,True,87.0,0.6785714285714286,0.5654761904761905,0.8821178821178821,0.05402160864345738,0.6168831168831169
cvwiki,True,88.0,0.6838235294117647,0.5535714285714286,0.8821178821178821,0.05162064825930372,0.611842105263158
cvwiki,True,89.0,0.7142857142857143,0.5357142857142857,0.8861138861138861,0.04321728691476591,0.6122448979591837
cvwiki,True,90.0,0.725,0.5178571428571429,0.8861138861138861,0.03961584633853541,0.6041666666666666
cvwiki,True,91.0,0.7304347826086957,0.5,0.8851148851148851,0.03721488595438175,0.5936395759717314
cvwiki,True,92.0,0.7476635514018691,0.47619047619047616,0.8851148851148851,0.03241296518607443,0.5818181818181818
cvwiki,True,93.0,0.75,0.4107142857142857,0.8781218781218781,0.027611044417767107,0.5307692307692309
cvwiki,True,94.0,0.7721518987341772,0.3630952380952381,0.8751248751248751,0.021608643457382955,0.4939271255060729
cvwiki,True,95.0,0.7638888888888888,0.3273809523809524,0.8701298701298701,0.02040816326530612,0.4583333333333333
cvwiki,True,96.0,0.8225806451612904,0.30357142857142855,0.8721278721278721,0.013205282112845138,0.44347826086956527
cvwiki,True,97.0,0.9056603773584906,0.2857142857142857,0.8751248751248751,0.006002400960384154,0.43438914027149317
cvwiki,True,98.0,0.9111111111111111,0.24404761904761904,0.8691308691308691,0.004801920768307323,0.38497652582159625
cvwiki,True,99.0,0.875,0.125,0.8501498501498501,0.003601440576230492,0.21875
cvwiki,False,0.0,0.032099013886093784,1.0,0.032099013886093784,1.0,0.06220142341815347
cvwiki,False,1.0,0.03220270543105189,1.0,0.035318977661501307,0.9966732508576776,0.062396088019559905
cvwiki,False,2.0,0.03299465800775113,0.987460815047022,0.07063795532300261,0.9597671275600375,0.0638556659233732
cvwiki,False,3.0,0.03372370418564303,0.9749216300940439,0.10253572147313343,0.926395675226115,0.06519232784823395
cvwiki,False,4.0,0.03496821071752952,0.9655172413793104,0.14359025960957938,0.8836677409294106,0.06749205653555387
cvwiki,False,5.0,0.036563508184968334,0.9592476489028213,0.18736164218152546,0.838236822954569,0.07044198895027623
cvwiki,False,6.0,0.038583980644339745,0.9498432601880877,0.23867981485208292,0.7849048757667118,0.07415565345080764
cvwiki,False,7.0,0.04081354081354081,0.9373040752351097,0.2909036023344737,0.7305333194718786,0.07822105951602354
cvwiki,False,8.0,0.044461190655614165,0.9247648902821317,0.3596297041658281,0.6591121738226426,0.08484325568018407
cvwiki,False,9.0,0.049315068493150684,0.9028213166144201,0.4382169450593681,0.5771909761929515,0.09352167559668777
cvwiki,False,10.0,0.0513617254615244,0.8808777429467085,0.4739384181927953,0.5395571265204283,0.09706390328151986
cvwiki,False,11.0,0.05464159811985899,0.8746081504702194,0.5102636345341115,0.5018193159372076,0.10285714285714286
cvwiki,False,12.0,0.05666316894018888,0.8463949843260188,0.5427651438921313,0.4673042935856118,0.10621557828481511
cvwiki,False,13.0,0.05949197860962567,0.8369905956112853,0.5700342121151137,0.4388190040544755,0.11108799667152071
cvwiki,False,14.0,0.0621132793907663,0.8181818181818182,0.5976051519420407,0.40970994905915376,0.11546118115461182
cvwiki,False,15.0,0.06402439024390244,0.7899686520376176,0.622559871201449,0.3829919950098763,0.11844888366627497
cvwiki,False,16.0,0.0669882100750268,0.7836990595611285,0.642684644797746,0.36199189104896556,0.12342631449024932
cvwiki,False,17.0,0.07005104934770277,0.774294670846395,0.6628094183940431,0.3408878261773573,0.1284785435630689
cvwiki,False,18.0,0.07259744123772686,0.7648902821316614,0.6788086134030992,0.3240461586443497,0.13260869565217392
cvwiki,False,19.0,0.07581903276131045,0.7617554858934169,0.694304689072248,0.3079322174862252,0.13791146424517595
cvwiki,False,20.0,0.07874015748031496,0.7523510971786834,0.7094988931374522,0.29192223723879823,0.14256014256014257
cvwiki,False,21.0,0.08286713286713286,0.7429467084639498,0.7278124371100825,0.2726894687597463,0.1491034916640453
cvwiki,False,22.0,0.08915753683415187,0.7398119122257053,0.7490440732541759,0.2506497556918599,0.15913688469318948
cvwiki,False,23.0,0.0980310012568077,0.7335423197492164,0.7748037834574361,0.2238278407318848,0.17294900221729487
cvwiki,False,24.0,0.10535959688502061,0.7210031347962382,0.7945260615818072,0.20303565859236927,0.1838529176658673
cvwiki,False,25.0,0.10946745562130178,0.6959247648902821,0.8085127792312337,0.18775340471982535,0.1891776736259054
cvwiki,False,26.0,0.11411889596602973,0.6739811912225705,0.8215938820688268,0.1735107599542572,0.19518837948252382
cvwiki,False,27.0,0.11698537682789652,0.6520376175548589,0.8308512779231234,0.163218629795197,0.19837863614687648
cvwiki,False,28.0,0.12583586626139817,0.6489028213166145,0.8440330046286979,0.14949578958311674,0.21079429735234215
cvwiki,False,29.0,0.13212435233160622,0.6394984326018809,0.853592272086939,0.13930762033475413,0.2190016103059581
cvwiki,False,30.0,0.14175977653631286,0.6363636363636364,0.8646608975649024,0.127767959247323,0.23186750428326672
cvwiki,False,31.0,0.1497764530551416,0.6300940438871473,0.8733145502113101,0.11861939910593616,0.24202287778446718
cvwiki,False,32.0,0.15480844409695074,0.6206896551724138,0.8790501106862548,0.1123817444640815,0.24780976220275347
cvwiki,False,33.0,0.16075845012366036,0.6112852664576802,0.8850875427651439,0.1058322070901341,0.25456919060052224
cvwiki,False,34.0,0.16853932584269662,0.6112852664576802,0.890722479372107,0.10001039609106976,0.26422764227642276
cvwiki,False,35.0,0.17567567567567569,0.6112852664576802,0.8954518011672369,0.09512423328828361,0.27291812456263126
cvwiki,False,36.0,0.1833648393194707,0.6081504702194357,0.9004829945663111,0.08982222684270715,0.28177196804647786
cvwiki,False,37.0,0.1868344627299129,0.6050156739811913,0.9027973435298853,0.08732716498596528,0.28550295857988167
cvwiki,False,38.0,0.1902390438247012,0.5987460815047022,0.9053129402294224,0.08452022039713068,0.2887377173091459
cvwiki,False,39.0,0.195496417604913,0.5987460815047022,0.9080297846649226,0.08171327580829608,0.29475308641975306
cvwiki,False,40.0,0.2016895459345301,0.5987460815047022,0.911048500704367,0.07859444848736875,0.30173775671406
cvwiki,False,41.0,0.20674646354733406,0.5956112852664577,0.9136647212718857,0.07578750389853416,0.3069466882067851
cvwiki,False,42.0,0.21372328458942633,0.5956112852664577,0.9166834373113303,0.07266867657760682,0.3145695364238411
cvwiki,False,43.0,0.21824480369515012,0.5924764890282131,0.9187965385389414,0.0703815365422601,0.31898734177215193
cvwiki,False,44.0,0.2231404958677686,0.5924764890282131,0.9207083920305896,0.06840627923900613,0.3241852487135506
cvwiki,False,45.0,0.22826086956521738,0.5924764890282131,0.9226202455222379,0.06643102193575216,0.32955536181342626
cvwiki,False,46.0,0.2315270935960591,0.5893416927899686,0.9240289796739787,0.0648716082752885,0.3324491600353669
cvwiki,False,47.0,0.23514538558786346,0.5830721003134797,0.925739585429664,0.06289635097203451,0.3351351351351351
cvwiki,False,48.0,0.2421875,0.5830721003134797,0.928053934393238,0.06050525002599023,0.3422263109475621
cvwiki,False,49.0,0.25,0.5830721003134797,0.9304689072247937,0.05801018816924836,0.34995296331138287
cvwiki,False,50.0,0.256198347107438,0.5830721003134797,0.9322801368484605,0.056138891776691964,0.3559808612440192
cvwiki,False,51.0,0.2621082621082621,0.5768025078369906,0.9342926142080902,0.05385175174134525,0.3604309500489716
cvwiki,False,52.0,0.26725403817914833,0.5705329153605015,0.9360032199637754,0.05187649443809128,0.36400000000000005
cvwiki,False,53.0,0.27439024390243905,0.5642633228840125,0.9381163211913865,0.04948539349204699,0.36923076923076925
cvwiki,False,54.0,0.2803738317757009,0.5642633228840125,0.9395250553431274,0.048029940742280904,0.37460978147762747
cvwiki,False,55.0,0.28753993610223644,0.5642633228840125,0.9411350372308311,0.04636656617111966,0.38095238095238093
cvwiki,False,56.0,0.29654036243822074,0.5642633228840125,0.9430468907224794,0.04439130886786568,0.38876889848812096
cvwiki,False,57.0,0.298811544991511,0.5517241379310345,0.9440531294022942,0.042935856118099594,0.3876651982378855
cvwiki,False,58.0,0.3060869565217391,0.5517241379310345,0.945461863554035,0.04148040336833351,0.39373601789709173
cvwiki,False,59.0,0.3217550274223035,0.5517241379310345,0.9482793318575166,0.03856949786880133,0.40646651270207856
cvwiki,False,60.0,0.325187969924812,0.542319749216301,0.9491849466693499,0.0373219669404304,0.40658049353701525
cvwiki,False,61.0,0.33076923076923076,0.5391849529780565,0.9501911853491648,0.036178396922757046,0.41001191895113226
cvwiki,False,62.0,0.3359683794466403,0.5329153605015674,0.9511974240289797,0.034930865994386114,0.41212121212121217
cvwiki,False,63.0,0.3463114754098361,0.5297805642633229,0.9528074059166834,0.03316353051252729,0.41883519206939285
cvwiki,False,64.0,0.35456475583864117,0.5235109717868338,0.9541155162004428,0.03160411685206362,0.42278481012658226
cvwiki,False,65.0,0.36086956521739133,0.5203761755485894,0.9550211310122761,0.030564507745087847,0.42618741976893454
cvwiki,False,66.0,0.36607142857142855,0.5141065830721003,0.955826121956128,0.02952489863811207,0.4276401564537157
cvwiki,False,67.0,0.37644341801385683,0.5109717868338558,0.9571342322398873,0.028069445888345982,0.43351063829787234
cvwiki,False,68.0,0.3824228028503563,0.5047021943573667,0.9579392231837391,0.027029836781370206,0.4351351351351351
cvwiki,False,69.0,0.38349514563106796,0.4952978056426332,0.9582410947876836,0.02640607131718474,0.4322845417236662
cvwiki,False,70.0,0.3875,0.48589341692789967,0.9588448379955725,0.02547042312090654,0.4311543810848401
cvwiki,False,71.0,0.3963730569948187,0.47962382445141066,0.9598510766753874,0.02422289219253561,0.4340425531914893
cvwiki,False,72.0,0.39037433155080214,0.45768025078369906,0.9596498289394244,0.02370308763904772,0.4213564213564214
cvwiki,False,73.0,0.4022038567493113,0.45768025078369906,0.9607566914872208,0.022559517621374363,0.4281524926686217
cvwiki,False,74.0,0.41025641025641024,0.45141065830721006,0.9615616824310727,0.021519908514398587,0.4298507462686567
cvwiki,False,75.0,0.4226190476190476,0.445141065830721,0.962668544978869,0.020168416675330075,0.43358778625954203
cvwiki,False,76.0,0.43034055727554177,0.43573667711598746,0.9633729120547394,0.0191288075683543,0.43302180685358255
cvwiki,False,77.0,0.42394822006472493,0.4106583072100313,0.9631716643187764,0.018505042104168833,0.4171974522292994
cvwiki,False,78.0,0.42857142857142855,0.4043887147335423,0.9635741597907024,0.017881276639983366,0.4161290322580645
cvwiki,False,79.0,0.4456140350877193,0.3981191222570533,0.9647816462064802,0.016425823890217277,0.4205298013245033
cvwiki,False,80.0,0.4552238805970149,0.3824451410658307,0.9654860132823506,0.015178292961846345,0.41567291311754684
cvwiki,False,81.0,0.4653846153846154,0.3793103448275862,0.9660897564902395,0.014450566586963302,0.41796200345423146
cvwiki,False,82.0,0.49377593360995853,0.3730407523510972,0.9675991145099617,0.01268323110510448,0.425
cvwiki,False,83.0,0.5043478260869565,0.36363636363636365,0.9681022338498692,0.01185154381952386,0.4225865209471767
cvwiki,False,84.0,0.5227272727272727,0.3605015673981191,0.968907224793721,0.01091589562324566,0.4267161410018553
cvwiki,False,85.0,0.5311004784688995,0.34796238244514105,0.9692090963976655,0.010188169248362616,0.4204545454545454
cvwiki,False,86.0,0.5567010309278351,0.3385579937304075,0.9701147112094989,0.008940638319991683,0.42105263157894735
cvwiki,False,87.0,0.572972972972973,0.3322884012539185,0.9706178305494063,0.008212911945108639,0.42063492063492064
cvwiki,False,88.0,0.5872093023255814,0.3166144200626959,0.9709197021533508,0.007381224659528018,0.4114052953156823
cvwiki,False,89.0,0.6114649681528662,0.30094043887147337,0.9714228214932582,0.00634161555255224,0.40336134453781514
cvwiki,False,90.0,0.6301369863013698,0.2884012539184953,0.9717246930972027,0.005613889177669197,0.3956989247311828
cvwiki,False,91.0,0.6470588235294118,0.27586206896551724,0.9719259408331656,0.00499012371348373,0.38681318681318677
cvwiki,False,92.0,0.6885245901639344,0.26332288401253917,0.9725296840410546,0.003950514606507953,0.380952380952381
cvwiki,False,93.0,0.696078431372549,0.2225705329153605,0.9719259408331656,0.0032227882316249092,0.33729216152019004
cvwiki,False,94.0,0.7159090909090909,0.1974921630094044,0.9717246930972027,0.0025990227674394426,0.3095823095823096
cvwiki,False,95.0,0.7215189873417721,0.1786833855799373,0.9714228214932582,0.0022871400353467095,0.28643216080402006
cvwiki,False,96.0,0.7910447761194029,0.16614420062695925,0.9718253169651841,0.0014554527497660878,0.2746113989637306
cvwiki,False,97.0,0.8909090909090909,0.1536050156739812,0.9722278124371101,0.0006237654641854663,0.2620320855614973
cvwiki,False,98.0,0.8913043478260869,0.12852664576802508,0.9715234453612397,0.0005198045534878886,0.2246575342465753
cvwiki,False,99.0,0.875,0.06583072100313479,0.9697122157375729,0.00031188273209273315,0.12244897959183672
