wiki_db,user_is_anonymous_or_bot,threshold,precision,recall,accuracy,fpr,F1
diqwiki,True,0.0,0.22018348623853212,1.0,0.22018348623853212,1.0,0.3609022556390978
diqwiki,True,1.0,0.22018348623853212,1.0,0.22018348623853212,1.0,0.3609022556390978
diqwiki,True,2.0,0.22018348623853212,1.0,0.22018348623853212,1.0,0.3609022556390978
diqwiki,True,3.0,0.22018348623853212,1.0,0.22018348623853212,1.0,0.3609022556390978
diqwiki,True,4.0,0.22018348623853212,1.0,0.22018348623853212,1.0,0.3609022556390978
diqwiki,True,5.0,0.22018348623853212,1.0,0.22018348623853212,1.0,0.3609022556390978
diqwiki,True,6.0,0.22018348623853212,1.0,0.22018348623853212,1.0,0.3609022556390978
diqwiki,True,7.0,0.22018348623853212,1.0,0.22018348623853212,1.0,0.3609022556390978
diqwiki,True,8.0,0.22018348623853212,1.0,0.22018348623853212,1.0,0.3609022556390978
diqwiki,True,9.0,0.22018348623853212,1.0,0.22018348623853212,1.0,0.3609022556390978
diqwiki,True,10.0,0.22119815668202766,1.0,0.22477064220183487,0.9941176470588236,0.36226415094339626
diqwiki,True,11.0,0.22119815668202766,1.0,0.22477064220183487,0.9941176470588236,0.36226415094339626
diqwiki,True,12.0,0.22119815668202766,1.0,0.22477064220183487,0.9941176470588236,0.36226415094339626
diqwiki,True,13.0,0.2222222222222222,1.0,0.22935779816513763,0.9882352941176471,0.3636363636363636
diqwiki,True,14.0,0.2222222222222222,1.0,0.22935779816513763,0.9882352941176471,0.3636363636363636
diqwiki,True,15.0,0.22429906542056074,1.0,0.23853211009174313,0.9764705882352941,0.366412213740458
diqwiki,True,16.0,0.22535211267605634,1.0,0.24311926605504589,0.9705882352941176,0.36781609195402304
diqwiki,True,17.0,0.22641509433962265,1.0,0.24770642201834864,0.9647058823529412,0.36923076923076925
diqwiki,True,18.0,0.22857142857142856,1.0,0.25688073394495414,0.9529411764705882,0.3720930232558139
diqwiki,True,19.0,0.22966507177033493,1.0,0.26146788990825687,0.9470588235294117,0.3735408560311284
diqwiki,True,20.0,0.23645320197044334,1.0,0.2889908256880734,0.9117647058823529,0.38247011952191234
diqwiki,True,21.0,0.2436548223350254,1.0,0.3165137614678899,0.8764705882352941,0.39183673469387753
diqwiki,True,22.0,0.25263157894736843,1.0,0.3486238532110092,0.8352941176470589,0.4033613445378152
diqwiki,True,23.0,0.26519337016574585,1.0,0.38990825688073394,0.7823529411764706,0.4192139737991266
diqwiki,True,24.0,0.2711864406779661,1.0,0.40825688073394495,0.7588235294117647,0.4266666666666667
diqwiki,True,25.0,0.2781065088757396,0.9791666666666666,0.43577981651376146,0.7176470588235294,0.43317972350230416
diqwiki,True,26.0,0.281437125748503,0.9791666666666666,0.44495412844036697,0.7058823529411765,0.43720930232558136
diqwiki,True,27.0,0.2919254658385093,0.9791666666666666,0.4724770642201835,0.6705882352941176,0.4497607655502392
diqwiki,True,28.0,0.2967741935483871,0.9583333333333334,0.4908256880733945,0.6411764705882353,0.45320197044334976
diqwiki,True,29.0,0.2987012987012987,0.9583333333333334,0.4954128440366973,0.6352941176470588,0.4554455445544554
diqwiki,True,30.0,0.3,0.9375,0.5045871559633027,0.6176470588235294,0.45454545454545453
diqwiki,True,31.0,0.30612244897959184,0.9375,0.518348623853211,0.6,0.46153846153846156
diqwiki,True,32.0,0.3103448275862069,0.9375,0.5275229357798165,0.5882352941176471,0.46632124352331605
diqwiki,True,33.0,0.3103448275862069,0.9375,0.5275229357798165,0.5882352941176471,0.46632124352331605
diqwiki,True,34.0,0.3146853146853147,0.9375,0.536697247706422,0.5764705882352941,0.4712041884816754
diqwiki,True,35.0,0.3191489361702128,0.9375,0.5458715596330275,0.5647058823529412,0.4761904761904763
diqwiki,True,36.0,0.3284671532846715,0.9375,0.5642201834862385,0.5411764705882353,0.48648648648648646
diqwiki,True,37.0,0.3283582089552239,0.9166666666666666,0.5688073394495413,0.5294117647058824,0.4835164835164836
diqwiki,True,38.0,0.3333333333333333,0.9166666666666666,0.5779816513761468,0.5176470588235295,0.4888888888888888
diqwiki,True,39.0,0.34108527131782945,0.9166666666666666,0.591743119266055,0.5,0.49717514124293777
diqwiki,True,40.0,0.3492063492063492,0.9166666666666666,0.6055045871559633,0.4823529411764706,0.5057471264367815
diqwiki,True,41.0,0.352,0.9166666666666666,0.6100917431192661,0.4764705882352941,0.5086705202312138
diqwiki,True,42.0,0.3548387096774194,0.9166666666666666,0.6146788990825688,0.47058823529411764,0.5116279069767442
diqwiki,True,43.0,0.3548387096774194,0.9166666666666666,0.6146788990825688,0.47058823529411764,0.5116279069767442
diqwiki,True,44.0,0.3548387096774194,0.9166666666666666,0.6146788990825688,0.47058823529411764,0.5116279069767442
diqwiki,True,45.0,0.36134453781512604,0.8958333333333334,0.6284403669724771,0.4470588235294118,0.5149700598802396
diqwiki,True,46.0,0.3644067796610169,0.8958333333333334,0.6330275229357798,0.4411764705882353,0.5180722891566264
diqwiki,True,47.0,0.3644067796610169,0.8958333333333334,0.6330275229357798,0.4411764705882353,0.5180722891566264
diqwiki,True,48.0,0.3706896551724138,0.8958333333333334,0.6422018348623854,0.4294117647058823,0.524390243902439
diqwiki,True,49.0,0.3739130434782609,0.8958333333333334,0.6467889908256881,0.4235294117647059,0.5276073619631901
diqwiki,True,50.0,0.37719298245614036,0.8958333333333334,0.6513761467889908,0.4176470588235294,0.5308641975308642
diqwiki,True,51.0,0.38392857142857145,0.8958333333333334,0.6605504587155964,0.40588235294117647,0.5375
diqwiki,True,52.0,0.38738738738738737,0.8958333333333334,0.6651376146788991,0.4,0.5408805031446541
diqwiki,True,53.0,0.38181818181818183,0.875,0.6605504587155964,0.4,0.5316455696202532
diqwiki,True,54.0,0.38181818181818183,0.875,0.6605504587155964,0.4,0.5316455696202532
diqwiki,True,55.0,0.38317757009345793,0.8541666666666666,0.6651376146788991,0.38823529411764707,0.529032258064516
diqwiki,True,56.0,0.37735849056603776,0.8333333333333334,0.6605504587155964,0.38823529411764707,0.5194805194805195
diqwiki,True,57.0,0.38095238095238093,0.8333333333333334,0.6651376146788991,0.38235294117647056,0.522875816993464
diqwiki,True,58.0,0.38461538461538464,0.8333333333333334,0.6697247706422018,0.3764705882352941,0.5263157894736842
diqwiki,True,59.0,0.38461538461538464,0.8333333333333334,0.6697247706422018,0.3764705882352941,0.5263157894736842
diqwiki,True,60.0,0.38461538461538464,0.8333333333333334,0.6697247706422018,0.3764705882352941,0.5263157894736842
diqwiki,True,61.0,0.38461538461538464,0.8333333333333334,0.6697247706422018,0.3764705882352941,0.5263157894736842
diqwiki,True,62.0,0.3883495145631068,0.8333333333333334,0.6743119266055045,0.37058823529411766,0.5298013245033113
diqwiki,True,63.0,0.39603960396039606,0.8333333333333334,0.6834862385321101,0.3588235294117647,0.5369127516778525
diqwiki,True,64.0,0.39603960396039606,0.8333333333333334,0.6834862385321101,0.3588235294117647,0.5369127516778525
diqwiki,True,65.0,0.40404040404040403,0.8333333333333334,0.6926605504587156,0.34705882352941175,0.54421768707483
diqwiki,True,66.0,0.3979591836734694,0.8125,0.6880733944954128,0.34705882352941175,0.5342465753424657
diqwiki,True,67.0,0.4020618556701031,0.8125,0.6926605504587156,0.3411764705882353,0.5379310344827587
diqwiki,True,68.0,0.40625,0.8125,0.6972477064220184,0.3352941176470588,0.5416666666666666
diqwiki,True,69.0,0.40625,0.8125,0.6972477064220184,0.3352941176470588,0.5416666666666666
diqwiki,True,70.0,0.40625,0.8125,0.6972477064220184,0.3352941176470588,0.5416666666666666
diqwiki,True,71.0,0.4105263157894737,0.8125,0.7018348623853211,0.32941176470588235,0.5454545454545455
diqwiki,True,72.0,0.4105263157894737,0.8125,0.7018348623853211,0.32941176470588235,0.5454545454545455
diqwiki,True,73.0,0.42391304347826086,0.8125,0.7155963302752294,0.31176470588235294,0.5571428571428573
diqwiki,True,74.0,0.42391304347826086,0.8125,0.7155963302752294,0.31176470588235294,0.5571428571428573
diqwiki,True,75.0,0.42391304347826086,0.8125,0.7155963302752294,0.31176470588235294,0.5571428571428573
diqwiki,True,76.0,0.43333333333333335,0.8125,0.7247706422018348,0.3,0.5652173913043479
diqwiki,True,77.0,0.4431818181818182,0.8125,0.7339449541284404,0.28823529411764703,0.573529411764706
diqwiki,True,78.0,0.4367816091954023,0.7916666666666666,0.7293577981651376,0.28823529411764703,0.5629629629629629
diqwiki,True,79.0,0.4418604651162791,0.7916666666666666,0.7339449541284404,0.2823529411764706,0.5671641791044777
diqwiki,True,80.0,0.4470588235294118,0.7916666666666666,0.7385321100917431,0.27647058823529413,0.5714285714285714
diqwiki,True,81.0,0.4578313253012048,0.7916666666666666,0.7477064220183486,0.2647058823529412,0.5801526717557252
diqwiki,True,82.0,0.47435897435897434,0.7708333333333334,0.7614678899082569,0.2411764705882353,0.5873015873015872
diqwiki,True,83.0,0.4861111111111111,0.7291666666666666,0.7706422018348624,0.21764705882352942,0.5833333333333334
diqwiki,True,84.0,0.5147058823529411,0.7291666666666666,0.7889908256880734,0.19411764705882353,0.603448275862069
diqwiki,True,85.0,0.53125,0.7083333333333334,0.7981651376146789,0.17647058823529413,0.6071428571428571
diqwiki,True,86.0,0.55,0.6875,0.8073394495412844,0.1588235294117647,0.6111111111111112
diqwiki,True,87.0,0.5636363636363636,0.6458333333333334,0.8119266055045872,0.1411764705882353,0.6019417475728155
diqwiki,True,88.0,0.54,0.5625,0.7981651376146789,0.13529411764705881,0.5510204081632654
diqwiki,True,89.0,0.5813953488372093,0.5208333333333334,0.8119266055045872,0.10588235294117647,0.5494505494505495
diqwiki,True,90.0,0.5428571428571428,0.3958333333333333,0.7935779816513762,0.09411764705882353,0.4578313253012048
diqwiki,True,91.0,0.6,0.3125,0.8027522935779816,0.058823529411764705,0.4109589041095891
diqwiki,True,92.0,0.6842105263157895,0.2708333333333333,0.8119266055045872,0.03529411764705882,0.38805970149253727
diqwiki,True,93.0,0.7272727272727273,0.16666666666666666,0.8027522935779816,0.01764705882352941,0.2711864406779661
diqwiki,True,94.0,0.5714285714285714,0.08333333333333333,0.7844036697247706,0.01764705882352941,0.14545454545454545
diqwiki,True,95.0,0.75,0.0625,0.7889908256880734,0.0058823529411764705,0.11538461538461539
diqwiki,True,96.0,0.75,0.0625,0.7889908256880734,0.0058823529411764705,0.11538461538461539
diqwiki,True,97.0,0.75,0.0625,0.7889908256880734,0.0058823529411764705,0.11538461538461539
diqwiki,True,98.0,0.6666666666666666,0.041666666666666664,0.7844036697247706,0.0058823529411764705,0.0784313725490196
diqwiki,True,99.0,1.0,0.041666666666666664,0.7889908256880734,0.0,0.07999999999999999
diqwiki,False,0.0,0.045774647887323945,1.0,0.045774647887323945,1.0,0.08754208754208755
diqwiki,False,1.0,0.045774647887323945,1.0,0.045774647887323945,1.0,0.08754208754208755
diqwiki,False,2.0,0.04596346493812611,1.0,0.04988262910798122,0.9956949569495694,0.08788732394366197
diqwiki,False,3.0,0.046762589928057555,1.0,0.06690140845070422,0.977859778597786,0.08934707903780069
diqwiki,False,4.0,0.05006418485237484,1.0,0.13145539906103287,0.9102091020910209,0.09535452322738387
diqwiki,False,5.0,0.05213903743315508,1.0,0.16784037558685447,0.8720787207872078,0.0991105463786531
diqwiki,False,6.0,0.05604075691411936,0.9871794871794872,0.23826291079812206,0.7976629766297663,0.10606060606060608
diqwiki,False,7.0,0.05716406829992576,0.9871794871794872,0.25410798122065725,0.7810578105781057,0.10807017543859651
diqwiki,False,8.0,0.058868501529051986,0.9871794871794872,0.27699530516431925,0.7570725707257072,0.11111111111111112
diqwiki,False,9.0,0.061452513966480445,0.9871794871794872,0.30927230046948356,0.7232472324723247,0.11570247933884295
diqwiki,False,10.0,0.06332236842105263,0.9871794871794872,0.33098591549295775,0.7004920049200491,0.11901081916537866
diqwiki,False,11.0,0.06468085106382979,0.9743589743589743,0.3538732394366197,0.6758917589175891,0.12130885873902635
diqwiki,False,12.0,0.06654991243432574,0.9743589743589743,0.3732394366197183,0.6555965559655597,0.12459016393442623
diqwiki,False,13.0,0.06757990867579909,0.9487179487179487,0.3984741784037559,0.6279212792127922,0.12617220801364026
diqwiki,False,14.0,0.06867356538099718,0.9358974358974359,0.41607981220657275,0.6088560885608856,0.12795793163891325
diqwiki,False,15.0,0.07149853085210578,0.9358974358974359,0.44072769953051644,0.5830258302583026,0.13284804367606917
diqwiki,False,16.0,0.07515657620041753,0.9230769230769231,0.4765258215962441,0.5448954489544895,0.138996138996139
diqwiki,False,17.0,0.07766990291262135,0.9230769230769231,0.49471830985915494,0.525830258302583,0.14328358208955222
diqwiki,False,18.0,0.08040770101925254,0.9102564102564102,0.5193661971830986,0.4993849938499385,0.1477627471383975
diqwiki,False,19.0,0.08343125734430082,0.9102564102564102,0.5381455399061033,0.4797047970479705,0.15285252960172227
diqwiki,False,20.0,0.08364544319600499,0.8589743589743589,0.562793427230047,0.45141451414514144,0.15244596131968144
diqwiki,False,21.0,0.08627450980392157,0.8461538461538461,0.5827464788732394,0.42988929889298894,0.15658362989323843
diqwiki,False,22.0,0.09028727770177838,0.8461538461538461,0.6026995305164319,0.4089790897908979,0.1631644004944376
diqwiki,False,23.0,0.09523809523809523,0.8461538461538461,0.625,0.3856088560885609,0.17120622568093383
diqwiki,False,24.0,0.09939759036144578,0.8461538461538461,0.642018779342723,0.3677736777367774,0.1778975741239892
diqwiki,False,25.0,0.10466988727858294,0.8333333333333334,0.6660798122065728,0.3419434194341943,0.18597997138769673
diqwiki,False,26.0,0.11149228130360206,0.8333333333333334,0.6883802816901409,0.31857318573185733,0.19667170953101365
diqwiki,False,27.0,0.11818181818181818,0.8333333333333334,0.7077464788732394,0.2982779827798278,0.20700636942675157
diqwiki,False,28.0,0.1233140655105973,0.8205128205128205,0.7247652582159625,0.27982779827798276,0.21440536013400335
diqwiki,False,29.0,0.12749003984063745,0.8205128205128205,0.7347417840375586,0.2693726937269373,0.2206896551724138
diqwiki,False,30.0,0.13404255319148936,0.8076923076923077,0.7523474178403756,0.25030750307503075,0.22992700729927007
diqwiki,False,31.0,0.14,0.8076923076923077,0.7640845070422535,0.23800738007380073,0.23863636363636365
diqwiki,False,32.0,0.14549653579676675,0.8076923076923077,0.7740610328638498,0.22755227552275523,0.24657534246575344
diqwiki,False,33.0,0.1507177033492823,0.8076923076923077,0.7828638497652582,0.21832718327183273,0.2540322580645161
diqwiki,False,34.0,0.15538847117794485,0.7948717948717948,0.7928403755868545,0.2072570725707257,0.259958071278826
diqwiki,False,35.0,0.16103896103896104,0.7948717948717948,0.801056338028169,0.1986469864698647,0.2678185745140389
diqwiki,False,36.0,0.16847826086956522,0.7948717948717948,0.8110328638497653,0.1881918819188192,0.27802690582959644
diqwiki,False,37.0,0.17134831460674158,0.782051282051282,0.8169014084507042,0.1814268142681427,0.28110599078341014
diqwiki,False,38.0,0.18154761904761904,0.782051282051282,0.8286384976525821,0.16912669126691268,0.2946859903381642
diqwiki,False,39.0,0.18597560975609756,0.782051282051282,0.8333333333333334,0.16420664206642066,0.30049261083743845
diqwiki,False,40.0,0.19003115264797507,0.782051282051282,0.8374413145539906,0.15990159901599016,0.3057644110275689
diqwiki,False,41.0,0.1930379746835443,0.782051282051282,0.8403755868544601,0.15682656826568267,0.3096446700507614
diqwiki,False,42.0,0.2026578073089701,0.782051282051282,0.8491784037558685,0.14760147601476015,0.32189973614775724
diqwiki,False,43.0,0.20748299319727892,0.782051282051282,0.8532863849765259,0.14329643296432965,0.32795698924731187
diqwiki,False,44.0,0.21403508771929824,0.782051282051282,0.8585680751173709,0.13776137761377613,0.33608815426997246
diqwiki,False,45.0,0.22140221402214022,0.7692307692307693,0.8656103286384976,0.12976629766297662,0.3438395415472779
diqwiki,False,46.0,0.22727272727272727,0.7692307692307693,0.8697183098591549,0.12546125461254612,0.3508771929824561
diqwiki,False,47.0,0.22957198443579765,0.7564102564102564,0.8726525821596244,0.12177121771217712,0.3522388059701493
diqwiki,False,48.0,0.23293172690763053,0.7435897435897436,0.8761737089201878,0.11746617466174662,0.3547400611620795
diqwiki,False,49.0,0.23481781376518218,0.7435897435897436,0.8773474178403756,0.11623616236162361,0.35692307692307695
diqwiki,False,50.0,0.2396694214876033,0.7435897435897436,0.8802816901408451,0.11316113161131611,0.36250000000000004
diqwiki,False,51.0,0.24680851063829787,0.7435897435897436,0.8843896713615024,0.1088560885608856,0.3706070287539936
diqwiki,False,52.0,0.25,0.7435897435897436,0.886150234741784,0.1070110701107011,0.3741935483870968
diqwiki,False,53.0,0.2544642857142857,0.7307692307692307,0.8896713615023474,0.1027060270602706,0.37748344370860926
diqwiki,False,54.0,0.26146788990825687,0.7307692307692307,0.8931924882629108,0.0990159901599016,0.3851351351351351
diqwiki,False,55.0,0.2641509433962264,0.717948717948718,0.8955399061032864,0.0959409594095941,0.38620689655172413
diqwiki,False,56.0,0.2619047619047619,0.7051282051282052,0.8955399061032864,0.0953259532595326,0.3819444444444444
diqwiki,False,57.0,0.2644230769230769,0.7051282051282052,0.8967136150234741,0.0940959409594096,0.38461538461538464
diqwiki,False,58.0,0.2682926829268293,0.7051282051282052,0.8984741784037559,0.09225092250922509,0.38869257950530034
diqwiki,False,59.0,0.270935960591133,0.7051282051282052,0.8996478873239436,0.0910209102091021,0.39145907473309605
diqwiki,False,60.0,0.2722772277227723,0.7051282051282052,0.9002347417840375,0.09040590405904059,0.39285714285714285
diqwiki,False,61.0,0.2722772277227723,0.7051282051282052,0.9002347417840375,0.09040590405904059,0.39285714285714285
diqwiki,False,62.0,0.2777777777777778,0.7051282051282052,0.9025821596244131,0.08794587945879459,0.3985507246376812
diqwiki,False,63.0,0.2864583333333333,0.7051282051282052,0.9061032863849765,0.08425584255842558,0.4074074074074074
diqwiki,False,64.0,0.29411764705882354,0.7051282051282052,0.909037558685446,0.08118081180811808,0.41509433962264153
diqwiki,False,65.0,0.29891304347826086,0.7051282051282052,0.9107981220657277,0.07933579335793357,0.4198473282442748
diqwiki,False,66.0,0.292817679558011,0.6794871794871795,0.9102112676056338,0.07872078720787208,0.4092664092664092
diqwiki,False,67.0,0.29608938547486036,0.6794871794871795,0.9113849765258216,0.07749077490774908,0.4124513618677043
diqwiki,False,68.0,0.3028571428571429,0.6794871794871795,0.9137323943661971,0.07503075030750307,0.4189723320158103
diqwiki,False,69.0,0.3063583815028902,0.6794871794871795,0.914906103286385,0.07380073800738007,0.42231075697211157
diqwiki,False,70.0,0.3063583815028902,0.6794871794871795,0.914906103286385,0.07380073800738007,0.42231075697211157
diqwiki,False,71.0,0.3058823529411765,0.6666666666666666,0.9154929577464789,0.07257072570725707,0.41935483870967744
diqwiki,False,72.0,0.3132530120481928,0.6666666666666666,0.9178403755868545,0.07011070110701106,0.4262295081967213
diqwiki,False,73.0,0.325,0.6666666666666666,0.9213615023474179,0.06642066420664207,0.4369747899159664
diqwiki,False,74.0,0.3269230769230769,0.6538461538461539,0.9225352112676056,0.06457564575645756,0.4358974358974359
diqwiki,False,75.0,0.3355263157894737,0.6538461538461539,0.9248826291079812,0.06211562115621156,0.44347826086956516
diqwiki,False,76.0,0.3591549295774648,0.6538461538461539,0.9307511737089202,0.055965559655596554,0.4636363636363636
diqwiki,False,77.0,0.37593984962406013,0.6410256410256411,0.9348591549295775,0.051045510455104554,0.47393364928909953
diqwiki,False,78.0,0.3779527559055118,0.6153846153846154,0.9360328638497653,0.04858548585485855,0.4682926829268293
diqwiki,False,79.0,0.38524590163934425,0.6025641025641025,0.937793427230047,0.046125461254612546,0.47
diqwiki,False,80.0,0.40869565217391307,0.6025641025641025,0.9419014084507042,0.041820418204182044,0.48704663212435234
diqwiki,False,81.0,0.43119266055045874,0.6025641025641025,0.9454225352112676,0.038130381303813035,0.502673796791444
diqwiki,False,82.0,0.46,0.5897435897435898,0.9495305164319249,0.033210332103321034,0.5168539325842696
diqwiki,False,83.0,0.4835164835164835,0.5641025641025641,0.9524647887323944,0.02890528905289053,0.5207100591715976
diqwiki,False,84.0,0.5058823529411764,0.5512820512820513,0.95481220657277,0.025830258302583026,0.5276073619631901
diqwiki,False,85.0,0.5316455696202531,0.5384615384615384,0.9571596244131455,0.022755227552275523,0.5350318471337578
diqwiki,False,86.0,0.5466666666666666,0.5256410256410257,0.9583333333333334,0.020910209102091022,0.5359477124183005
diqwiki,False,87.0,0.5588235294117647,0.48717948717948717,0.9589201877934272,0.01845018450184502,0.5205479452054794
diqwiki,False,88.0,0.5409836065573771,0.4230769230769231,0.9571596244131455,0.017220172201722016,0.47482014388489213
diqwiki,False,89.0,0.5686274509803921,0.3717948717948718,0.9583333333333334,0.013530135301353014,0.4496124031007752
diqwiki,False,90.0,0.5348837209302325,0.2948717948717949,0.9559859154929577,0.012300123001230012,0.38016528925619836
diqwiki,False,91.0,0.59375,0.24358974358974358,0.9577464788732394,0.007995079950799507,0.3454545454545454
diqwiki,False,92.0,0.68,0.21794871794871795,0.9595070422535211,0.004920049200492005,0.3300970873786408
diqwiki,False,93.0,0.75,0.15384615384615385,0.9589201877934272,0.0024600246002460025,0.25531914893617025
diqwiki,False,94.0,0.6666666666666666,0.10256410256410256,0.9565727699530516,0.0024600246002460025,0.17777777777777778
diqwiki,False,95.0,0.7777777777777778,0.08974358974358974,0.9571596244131455,0.0012300123001230013,0.16091954022988506
diqwiki,False,96.0,0.875,0.08974358974358974,0.9577464788732394,0.0006150061500615006,0.1627906976744186
diqwiki,False,97.0,0.8571428571428571,0.07692307692307693,0.9571596244131455,0.0006150061500615006,0.1411764705882353
diqwiki,False,98.0,0.8333333333333334,0.0641025641025641,0.9565727699530516,0.0006150061500615006,0.11904761904761904
diqwiki,False,99.0,1.0,0.038461538461538464,0.9559859154929577,0.0,0.07407407407407407
