wiki_db,user_is_anonymous_or_bot,threshold,precision,recall,accuracy,fpr,F1
dvwiki,True,0.0,0.17619783616692428,1.0,0.17619783616692428,1.0,0.29960578186596587
dvwiki,True,1.0,0.17619783616692428,1.0,0.17619783616692428,1.0,0.29960578186596587
dvwiki,True,2.0,0.17619783616692428,1.0,0.17619783616692428,1.0,0.29960578186596587
dvwiki,True,3.0,0.17619783616692428,1.0,0.17619783616692428,1.0,0.29960578186596587
dvwiki,True,4.0,0.17619783616692428,1.0,0.17619783616692428,1.0,0.29960578186596587
dvwiki,True,5.0,0.17619783616692428,1.0,0.17619783616692428,1.0,0.29960578186596587
dvwiki,True,6.0,0.17619783616692428,1.0,0.17619783616692428,1.0,0.29960578186596587
dvwiki,True,7.0,0.17619783616692428,1.0,0.17619783616692428,1.0,0.29960578186596587
dvwiki,True,8.0,0.17619783616692428,1.0,0.17619783616692428,1.0,0.29960578186596587
dvwiki,True,9.0,0.17619783616692428,1.0,0.17619783616692428,1.0,0.29960578186596587
dvwiki,True,10.0,0.17619783616692428,1.0,0.17619783616692428,1.0,0.29960578186596587
dvwiki,True,11.0,0.17619783616692428,1.0,0.17619783616692428,1.0,0.29960578186596587
dvwiki,True,12.0,0.17619783616692428,1.0,0.17619783616692428,1.0,0.29960578186596587
dvwiki,True,13.0,0.17647058823529413,1.0,0.1777434312210201,0.99812382739212,0.3
dvwiki,True,14.0,0.17647058823529413,1.0,0.1777434312210201,0.99812382739212,0.3
dvwiki,True,15.0,0.17647058823529413,1.0,0.1777434312210201,0.99812382739212,0.3
dvwiki,True,16.0,0.17647058823529413,1.0,0.1777434312210201,0.99812382739212,0.3
dvwiki,True,17.0,0.17647058823529413,1.0,0.1777434312210201,0.99812382739212,0.3
dvwiki,True,18.0,0.17647058823529413,1.0,0.1777434312210201,0.99812382739212,0.3
dvwiki,True,19.0,0.17647058823529413,1.0,0.1777434312210201,0.99812382739212,0.3
dvwiki,True,20.0,0.17647058823529413,1.0,0.1777434312210201,0.99812382739212,0.3
dvwiki,True,21.0,0.17647058823529413,1.0,0.1777434312210201,0.99812382739212,0.3
dvwiki,True,22.0,0.17647058823529413,1.0,0.1777434312210201,0.99812382739212,0.3
dvwiki,True,23.0,0.17647058823529413,1.0,0.1777434312210201,0.99812382739212,0.3
dvwiki,True,24.0,0.17647058823529413,1.0,0.1777434312210201,0.99812382739212,0.3
dvwiki,True,25.0,0.17647058823529413,1.0,0.1777434312210201,0.99812382739212,0.3
dvwiki,True,26.0,0.17647058823529413,1.0,0.1777434312210201,0.99812382739212,0.3
dvwiki,True,27.0,0.17647058823529413,1.0,0.1777434312210201,0.99812382739212,0.3
dvwiki,True,28.0,0.17647058823529413,1.0,0.1777434312210201,0.99812382739212,0.3
dvwiki,True,29.0,0.17647058823529413,1.0,0.1777434312210201,0.99812382739212,0.3
dvwiki,True,30.0,0.17647058823529413,1.0,0.1777434312210201,0.99812382739212,0.3
dvwiki,True,31.0,0.17647058823529413,1.0,0.1777434312210201,0.99812382739212,0.3
dvwiki,True,32.0,0.17647058823529413,1.0,0.1777434312210201,0.99812382739212,0.3
dvwiki,True,33.0,0.17647058823529413,1.0,0.1777434312210201,0.99812382739212,0.3
dvwiki,True,34.0,0.17647058823529413,1.0,0.1777434312210201,0.99812382739212,0.3
dvwiki,True,35.0,0.17647058823529413,1.0,0.1777434312210201,0.99812382739212,0.3
dvwiki,True,36.0,0.17647058823529413,1.0,0.1777434312210201,0.99812382739212,0.3
dvwiki,True,37.0,0.17647058823529413,1.0,0.1777434312210201,0.99812382739212,0.3
dvwiki,True,38.0,0.17647058823529413,1.0,0.1777434312210201,0.99812382739212,0.3
dvwiki,True,39.0,0.17647058823529413,1.0,0.1777434312210201,0.99812382739212,0.3
dvwiki,True,40.0,0.17647058823529413,1.0,0.1777434312210201,0.99812382739212,0.3
dvwiki,True,41.0,0.17647058823529413,1.0,0.1777434312210201,0.99812382739212,0.3
dvwiki,True,42.0,0.17647058823529413,1.0,0.1777434312210201,0.99812382739212,0.3
dvwiki,True,43.0,0.17647058823529413,1.0,0.1777434312210201,0.99812382739212,0.3
dvwiki,True,44.0,0.17647058823529413,1.0,0.1777434312210201,0.99812382739212,0.3
dvwiki,True,45.0,0.17647058823529413,1.0,0.1777434312210201,0.99812382739212,0.3
dvwiki,True,46.0,0.17647058823529413,1.0,0.1777434312210201,0.99812382739212,0.3
dvwiki,True,47.0,0.17647058823529413,1.0,0.1777434312210201,0.99812382739212,0.3
dvwiki,True,48.0,0.17647058823529413,1.0,0.1777434312210201,0.99812382739212,0.3
dvwiki,True,49.0,0.17647058823529413,1.0,0.1777434312210201,0.99812382739212,0.3
dvwiki,True,50.0,0.17701863354037267,1.0,0.18083462132921174,0.9943714821763602,0.30079155672823216
dvwiki,True,51.0,0.17729393468118196,1.0,0.18238021638330756,0.9924953095684803,0.3011889035667107
dvwiki,True,52.0,0.17729393468118196,1.0,0.18238021638330756,0.9924953095684803,0.3011889035667107
dvwiki,True,53.0,0.17729393468118196,1.0,0.18238021638330756,0.9924953095684803,0.3011889035667107
dvwiki,True,54.0,0.17757009345794392,1.0,0.1839258114374034,0.9906191369606003,0.30158730158730157
dvwiki,True,55.0,0.17757009345794392,1.0,0.1839258114374034,0.9906191369606003,0.30158730158730157
dvwiki,True,56.0,0.17757009345794392,1.0,0.1839258114374034,0.9906191369606003,0.30158730158730157
dvwiki,True,57.0,0.17757009345794392,1.0,0.1839258114374034,0.9906191369606003,0.30158730158730157
dvwiki,True,58.0,0.17757009345794392,1.0,0.1839258114374034,0.9906191369606003,0.30158730158730157
dvwiki,True,59.0,0.17757009345794392,1.0,0.1839258114374034,0.9906191369606003,0.30158730158730157
dvwiki,True,60.0,0.17784711388455537,1.0,0.18547140649149924,0.9887429643527205,0.30198675496688737
dvwiki,True,61.0,0.17784711388455537,1.0,0.18547140649149924,0.9887429643527205,0.30198675496688737
dvwiki,True,62.0,0.17784711388455537,1.0,0.18547140649149924,0.9887429643527205,0.30198675496688737
dvwiki,True,63.0,0.178125,1.0,0.18701700154559506,0.9868667917448405,0.30238726790450926
dvwiki,True,64.0,0.17683881064162754,0.9912280701754386,0.18547140649149924,0.9868667917448405,0.30013280212483406
dvwiki,True,65.0,0.1755485893416928,0.9824561403508771,0.1839258114374034,0.9868667917448405,0.2978723404255319
dvwiki,True,66.0,0.1755485893416928,0.9824561403508771,0.1839258114374034,0.9868667917448405,0.2978723404255319
dvwiki,True,67.0,0.1755485893416928,0.9824561403508771,0.1839258114374034,0.9868667917448405,0.2978723404255319
dvwiki,True,68.0,0.17034700315457413,0.9473684210526315,0.1777434312210201,0.9868667917448405,0.2887700534759359
dvwiki,True,69.0,0.16930379746835442,0.9385964912280702,0.1777434312210201,0.9849906191369606,0.28686327077747986
dvwiki,True,70.0,0.16427432216905902,0.9035087719298246,0.1731066460587326,0.9831144465290806,0.27800269905533065
dvwiki,True,71.0,0.15890850722311398,0.868421052631579,0.16692426584234932,0.9831144465290806,0.2686567164179105
dvwiki,True,72.0,0.1539708265802269,0.8333333333333334,0.16383307573415765,0.9793621013133208,0.2599179206566347
dvwiki,True,73.0,0.14614121510673234,0.7807017543859649,0.15765069551777433,0.975609756097561,0.2461964038727524
dvwiki,True,74.0,0.14382402707275804,0.7456140350877193,0.1731066460587326,0.949343339587242,0.24113475177304966
dvwiki,True,75.0,0.14335664335664336,0.7192982456140351,0.19319938176197837,0.9193245778611632,0.239067055393586
dvwiki,True,76.0,0.13768115942028986,0.6666666666666666,0.20556414219474498,0.8930581613508443,0.2282282282282282
dvwiki,True,77.0,0.1252371916508539,0.5789473684210527,0.2132921174652241,0.8649155722326454,0.2059282371294852
dvwiki,True,78.0,0.1191919191919192,0.5175438596491229,0.241112828438949,0.8180112570356473,0.19376026272577998
dvwiki,True,79.0,0.11652542372881355,0.4824561403508772,0.2642967542503864,0.7823639774859287,0.18771331058020477
dvwiki,True,80.0,0.10864745011086474,0.4298245614035088,0.2782071097372488,0.7542213883677298,0.17345132743362832
dvwiki,True,81.0,0.10451306413301663,0.38596491228070173,0.3091190108191654,0.7073170731707317,0.16448598130841122
dvwiki,True,82.0,0.10606060606060606,0.3684210526315789,0.3415765069551777,0.6641651031894934,0.16470588235294117
dvwiki,True,83.0,0.1008174386920981,0.32456140350877194,0.37094281298299847,0.6191369606003753,0.15384615384615385
dvwiki,True,84.0,0.09970674486803519,0.2982456140350877,0.401854714064915,0.575984990619137,0.14945054945054945
dvwiki,True,85.0,0.11036789297658862,0.2894736842105263,0.46367851622874806,0.49906191369606,0.15980629539951577
dvwiki,True,86.0,0.11235955056179775,0.2631578947368421,0.5038639876352395,0.4446529080675422,0.15748031496062992
dvwiki,True,87.0,0.10887096774193548,0.23684210526315788,0.5239567233384853,0.4146341463414634,0.14917127071823205
dvwiki,True,88.0,0.11255411255411256,0.22807017543859648,0.5471406491499228,0.38461538461538464,0.1507246376811594
dvwiki,True,89.0,0.12807881773399016,0.22807017543859648,0.5904173106646059,0.3320825515947467,0.1640378548895899
dvwiki,True,90.0,0.10404624277456648,0.15789473684210525,0.6120556414219475,0.29080675422138835,0.1254355400696864
dvwiki,True,91.0,0.1103448275862069,0.14035087719298245,0.6491499227202473,0.24202626641651032,0.12355212355212356
dvwiki,True,92.0,0.0673076923076923,0.06140350877192982,0.6846986089644513,0.18198874296435272,0.06422018348623852
dvwiki,True,93.0,0.05063291139240506,0.03508771929824561,0.714064914992272,0.14071294559099437,0.04145077720207254
dvwiki,True,94.0,0.03333333333333333,0.008771929824561403,0.7805255023183926,0.054409005628517824,0.01388888888888889
dvwiki,True,95.0,0.08333333333333333,0.008771929824561403,0.8083462132921174,0.020637898686679174,0.015873015873015872
dvwiki,True,96.0,0.16666666666666666,0.008771929824561403,0.8176197836166924,0.009380863039399626,0.016666666666666666
dvwiki,True,97.0,0.0,0.0,0.8176197836166924,0.0075046904315197,0.016666666666666666
dvwiki,True,98.0,0.0,0.0,0.8207109737248841,0.00375234521575985,0.016666666666666666
dvwiki,True,99.0,0.0,0.0,0.8238021638330757,0.0,0.016666666666666666
dvwiki,False,0.0,0.12763819095477386,1.0,0.12763819095477386,1.0,0.2263814616755793
dvwiki,False,1.0,0.12763819095477386,1.0,0.12763819095477386,1.0,0.2263814616755793
dvwiki,False,2.0,0.12763819095477386,1.0,0.12763819095477386,1.0,0.2263814616755793
dvwiki,False,3.0,0.12763819095477386,1.0,0.12763819095477386,1.0,0.2263814616755793
dvwiki,False,4.0,0.12763819095477386,1.0,0.12763819095477386,1.0,0.2263814616755793
dvwiki,False,5.0,0.12763819095477386,1.0,0.12763819095477386,1.0,0.2263814616755793
dvwiki,False,6.0,0.12776659959758552,1.0,0.12864321608040202,0.9988479262672811,0.22658340767172166
dvwiki,False,7.0,0.12776659959758552,1.0,0.12864321608040202,0.9988479262672811,0.22658340767172166
dvwiki,False,8.0,0.12776659959758552,1.0,0.12864321608040202,0.9988479262672811,0.22658340767172166
dvwiki,False,9.0,0.12776659959758552,1.0,0.12864321608040202,0.9988479262672811,0.22658340767172166
dvwiki,False,10.0,0.12815338042381433,1.0,0.13165829145728644,0.9953917050691244,0.22719141323792486
dvwiki,False,11.0,0.12854251012145748,1.0,0.13467336683417086,0.9919354838709677,0.22780269058295963
dvwiki,False,12.0,0.1286727456940223,1.0,0.135678391959799,0.9907834101382489,0.2280071813285458
dvwiki,False,13.0,0.1290650406504065,1.0,0.13869346733668342,0.9873271889400922,0.2286228622862286
dvwiki,False,14.0,0.12972420837589377,1.0,0.14371859296482412,0.9815668202764977,0.22965641952983723
dvwiki,False,15.0,0.13052415210688592,1.0,0.14974874371859295,0.9746543778801844,0.23090909090909092
dvwiki,False,16.0,0.13146997929606624,1.0,0.15678391959798996,0.966589861751152,0.23238792314730097
dvwiki,False,17.0,0.132429614181439,1.0,0.16381909547738693,0.9585253456221198,0.23388581952117865
dvwiki,False,18.0,0.1339662447257384,1.0,0.1748743718592965,0.945852534562212,0.23627906976744187
dvwiki,False,19.0,0.1343915343915344,1.0,0.17788944723618091,0.9423963133640553,0.23694029850746268
dvwiki,False,20.0,0.13568376068376067,1.0,0.18693467336683417,0.9320276497695853,0.23894637817497646
dvwiki,False,21.0,0.13597430406852248,1.0,0.18894472361809045,0.9297235023041475,0.2393967954759661
dvwiki,False,22.0,0.13655913978494624,1.0,0.192964824120603,0.9251152073732719,0.24030274361400192
dvwiki,False,23.0,0.13700107874865156,1.0,0.19597989949748743,0.9216589861751152,0.24098671726755216
dvwiki,False,24.0,0.13789359391965256,1.0,0.2020100502512563,0.9147465437788018,0.24236641221374045
dvwiki,False,25.0,0.13864628820960698,1.0,0.207035175879397,0.9089861751152074,0.24352828379674019
dvwiki,False,26.0,0.13879781420765028,1.0,0.20804020100502513,0.9078341013824884,0.24376199616122843
dvwiki,False,27.0,0.1394072447859495,1.0,0.21206030150753769,0.9032258064516129,0.24470134874759153
dvwiki,False,28.0,0.14095449500554938,1.0,0.2221105527638191,0.8917050691244239,0.24708171206225676
dvwiki,False,29.0,0.14317925591882752,1.0,0.23618090452261306,0.8755760368663594,0.25049309664694286
dvwiki,False,30.0,0.1438278595696489,1.0,0.24020100502512562,0.8709677419354839,0.2514851485148515
dvwiki,False,31.0,0.14367160775370583,0.9921259842519685,0.2442211055276382,0.8652073732718893,0.250996015936255
dvwiki,False,32.0,0.1453287197231834,0.9921259842519685,0.2542713567839196,0.8536866359447005,0.2535211267605634
dvwiki,False,33.0,0.14617169373549885,0.9921259842519685,0.2592964824120603,0.847926267281106,0.25480283114256824
dvwiki,False,34.0,0.14719626168224298,0.9921259842519685,0.26532663316582916,0.8410138248847926,0.2563580874872838
dvwiki,False,35.0,0.14823529411764705,0.9921259842519685,0.271356783919598,0.8341013824884793,0.2579324462640737
dvwiki,False,36.0,0.1494661921708185,0.9921259842519685,0.27839195979899495,0.826036866359447,0.2597938144329897
dvwiki,False,37.0,0.15035799522673032,0.9921259842519685,0.2834170854271357,0.8202764976958525,0.261139896373057
dvwiki,False,38.0,0.1510791366906475,0.9921259842519685,0.28743718592964823,0.815668202764977,0.26222684703433924
dvwiki,False,39.0,0.15180722891566265,0.9921259842519685,0.2914572864321608,0.8110599078341014,0.26332288401253917
dvwiki,False,40.0,0.15254237288135594,0.9921259842519685,0.29547738693467335,0.8064516129032258,0.2644281217208814
dvwiki,False,41.0,0.1529126213592233,0.9921259842519685,0.2974874371859296,0.804147465437788,0.2649842271293375
dvwiki,False,42.0,0.15422276621787026,0.9921259842519685,0.30452261306532663,0.7960829493087558,0.2669491525423729
dvwiki,False,43.0,0.15536374845869297,0.9921259842519685,0.31055276381909547,0.7891705069124424,0.26865671641791045
dvwiki,False,44.0,0.15613382899628253,0.9921259842519685,0.314572864321608,0.7845622119815668,0.2698072805139186
dvwiki,False,45.0,0.15632754342431762,0.9921259842519685,0.3155778894472362,0.783410138248848,0.270096463022508
dvwiki,False,46.0,0.1571072319201995,0.9921259842519685,0.31959798994974875,0.7788018433179723,0.271259418729817
dvwiki,False,47.0,0.1575,0.9921259842519685,0.32160804020100503,0.7764976958525346,0.2718446601941748
dvwiki,False,48.0,0.15789473684210525,0.9921259842519685,0.3236180904522613,0.7741935483870968,0.27243243243243237
dvwiki,False,49.0,0.15809284818067754,0.9921259842519685,0.3246231155778894,0.7730414746543779,0.2727272727272727
dvwiki,False,50.0,0.15869017632241814,0.9921259842519685,0.32763819095477387,0.7695852534562212,0.27361563517915305
dvwiki,False,51.0,0.16010165184243966,0.9921259842519685,0.33467336683417087,0.761520737327189,0.275711159737418
dvwiki,False,52.0,0.16050955414012738,0.9921259842519685,0.33668341708542715,0.7592165898617511,0.2763157894736842
dvwiki,False,53.0,0.16091954022988506,0.9921259842519685,0.33869346733668343,0.7569124423963134,0.2769230769230769
dvwiki,False,54.0,0.1625806451612903,0.9921259842519685,0.34673366834170855,0.7476958525345622,0.2793791574279379
dvwiki,False,55.0,0.1630012936610608,0.9921259842519685,0.3487437185929648,0.7453917050691244,0.28
dvwiki,False,56.0,0.16321243523316062,0.9921259842519685,0.349748743718593,0.7442396313364056,0.2803114571746385
dvwiki,False,57.0,0.16342412451361868,0.9921259842519685,0.3507537688442211,0.7430875576036866,0.2806236080178174
dvwiki,False,58.0,0.1640625,0.9921259842519685,0.35376884422110555,0.7396313364055299,0.2815642458100559
dvwiki,False,59.0,0.16339869281045752,0.984251968503937,0.35477386934673366,0.7373271889400922,0.2802690582959641
dvwiki,False,60.0,0.16382699868938402,0.984251968503937,0.35678391959798994,0.7350230414746544,0.2808988764044944
dvwiki,False,61.0,0.1618421052631579,0.968503937007874,0.35577889447236183,0.7338709677419355,0.2773393461104848
dvwiki,False,62.0,0.16094986807387862,0.9606299212598425,0.35577889447236183,0.7327188940092166,0.27570621468926554
dvwiki,False,63.0,0.16158940397350993,0.9606299212598425,0.3587939698492462,0.7292626728110599,0.27664399092970526
dvwiki,False,64.0,0.16069057104913678,0.952755905511811,0.3587939698492462,0.728110599078341,0.275
dvwiki,False,65.0,0.15733333333333333,0.9291338582677166,0.35577889447236183,0.728110599078341,0.26909920182440134
dvwiki,False,66.0,0.15796519410977242,0.9291338582677166,0.3587939698492462,0.7246543778801844,0.27002288329519447
dvwiki,False,67.0,0.15838926174496645,0.9291338582677166,0.3608040201005025,0.7223502304147466,0.27064220183486243
dvwiki,False,68.0,0.15426251691474965,0.8976377952755905,0.3587939698492462,0.7200460829493087,0.2632794457274827
dvwiki,False,69.0,0.15353260869565216,0.889763779527559,0.3597989949748744,0.717741935483871,0.26187717265353416
dvwiki,False,70.0,0.14931506849315068,0.8582677165354331,0.3577889447236181,0.7154377880184332,0.2543757292882147
dvwiki,False,71.0,0.14502762430939226,0.8267716535433071,0.35577889447236183,0.7131336405529954,0.24676850763807281
dvwiki,False,72.0,0.13966480446927373,0.7874015748031497,0.35376884422110555,0.7096774193548387,0.23724792408066428
dvwiki,False,73.0,0.13352272727272727,0.7401574803149606,0.35376884422110555,0.7027649769585254,0.22623345367027675
dvwiki,False,74.0,0.13196480938416422,0.7086614173228346,0.3678391959798995,0.6820276497695853,0.22249690976514214
dvwiki,False,75.0,0.13141993957703926,0.6850393700787402,0.38190954773869346,0.6624423963133641,0.22053231939163498
dvwiki,False,76.0,0.12755905511811025,0.6377952755905512,0.3969849246231156,0.6382488479262672,0.2125984251968504
dvwiki,False,77.0,0.11677631578947369,0.5590551181102362,0.4040201005025126,0.618663594470046,0.19319727891156463
dvwiki,False,78.0,0.11267605633802817,0.5039370078740157,0.4301507537688442,0.5806451612903226,0.18417266187050363
dvwiki,False,79.0,0.10800744878957169,0.4566929133858268,0.4492462311557789,0.5518433179723502,0.17469879518072287
dvwiki,False,80.0,0.10196078431372549,0.4094488188976378,0.464321608040201,0.5276497695852534,0.16326530612244897
dvwiki,False,81.0,0.09812108559498957,0.3700787401574803,0.48542713567839196,0.4976958525345622,0.15511551155115513
dvwiki,False,82.0,0.10067114093959731,0.3543307086614173,0.5135678391959799,0.4631336405529954,0.156794425087108
dvwiki,False,83.0,0.09615384615384616,0.31496062992125984,0.5346733668341709,0.43317972350230416,0.14732965009208104
dvwiki,False,84.0,0.09585492227979274,0.29133858267716534,0.5587939698492462,0.402073732718894,0.14424951267056527
dvwiki,False,85.0,0.10526315789473684,0.28346456692913385,0.6010050251256281,0.35253456221198154,0.15351812366737738
dvwiki,False,86.0,0.10784313725490197,0.25984251968503935,0.6311557788944724,0.31451612903225806,0.15242494226327946
dvwiki,False,87.0,0.1048951048951049,0.23622047244094488,0.6452261306532663,0.29493087557603687,0.14527845036319612
dvwiki,False,88.0,0.10943396226415095,0.2283464566929134,0.664321608040201,0.271889400921659,0.1479591836734694
dvwiki,False,89.0,0.1206896551724138,0.2204724409448819,0.6954773869346733,0.2350230414746544,0.15598885793871867
dvwiki,False,90.0,0.1,0.15748031496062992,0.7115577889447237,0.2073732718894009,0.12232415902140671
dvwiki,False,91.0,0.10714285714285714,0.14173228346456693,0.7396984924623116,0.1728110599078341,0.12203389830508475
dvwiki,False,92.0,0.07258064516129033,0.07086614173228346,0.7658291457286432,0.13248847926267282,0.07171314741035857
dvwiki,False,93.0,0.053763440860215055,0.03937007874015748,0.7889447236180904,0.10138248847926268,0.04545454545454546
dvwiki,False,94.0,0.05,0.015748031496062992,0.8361809045226131,0.04377880184331797,0.02395209580838323
dvwiki,False,95.0,0.1,0.015748031496062992,0.8562814070351759,0.020737327188940093,0.027210884353741496
dvwiki,False,96.0,0.2,0.015748031496062992,0.8663316582914573,0.009216589861751152,0.029197080291970802
dvwiki,False,97.0,0.16666666666666666,0.007874015748031496,0.8683417085427135,0.00576036866359447,0.015037593984962405
dvwiki,False,98.0,0.25,0.007874015748031496,0.8703517587939699,0.0034562211981566822,0.015267175572519085
dvwiki,False,99.0,0.0,0.0,0.871356783919598,0.001152073732718894,0.015267175572519085
