wiki_db,user_is_anonymous_or_bot,threshold,precision,recall,accuracy,fpr,F1
enwiki,True,0.0,0.2207110611524282,1.0,0.2207110611524282,1.0,0.36161065165423023
enwiki,True,1.0,0.22090780664737347,0.9999964843880462,0.2216036444089009,0.9988536226470265,0.36187444280976644
enwiki,True,2.0,0.22352464398504646,0.9999085940892016,0.23334831748961413,0.9837577180917364,0.36537214382565764
enwiki,True,3.0,0.22870055494348007,0.9995523454112182,0.2558797725787871,0.9547439826390542,0.3722330735381736
enwiki,True,4.0,0.23435187888286943,0.9985779349646945,0.27962918610166915,0.9239922607912228,0.3796138476685184
enwiki,True,5.0,0.2394307592337732,0.9976603602447569,0.300019191445271,0.8975674994386766,0.3861810561077065
enwiki,True,6.0,0.243674821823748,0.9969326285703237,0.3163747256425125,0.8763736240941038,0.39162650612809063
enwiki,True,7.0,0.24725039061971638,0.9960888817014155,0.3298137809061156,0.8588893780703721,0.3961643785816506
enwiki,True,8.0,0.25041503062527937,0.9951953303298289,0.34144387433379564,0.8437123243365059,0.40014418141414404
enwiki,True,9.0,0.2532086089262027,0.9944342003418347,0.3514486437441837,0.830658425184855,0.40364004612012544
enwiki,True,10.0,0.25569672861666454,0.993507250656687,0.36027425144310876,0.8190706875725094,0.40671749060168977
enwiki,True,11.0,0.258031115227035,0.9927660424697643,0.3683394433860124,0.8085113374031832,0.40960203262645895
enwiki,True,12.0,0.26021865225358815,0.9920260061534928,0.3757791028439032,0.7987550156083558,0.4122895132172391
enwiki,True,13.0,0.26228814249198157,0.991138900070488,0.3827728586407801,0.7895292335352216,0.4148051258245893
enwiki,True,14.0,0.26423672041995355,0.9902857782363699,0.38925928263308696,0.7809640953882871,0.4171624926614955
enwiki,True,15.0,0.26602227133601236,0.9894853905815584,0.3951219846540858,0.7732142658596445,0.4193126956378373
enwiki,True,16.0,0.26765661454575274,0.9887324636881231,0.40042329810418525,0.7661982638722363,0.4212720223487676
enwiki,True,17.0,0.2691261860722783,0.9880152788495511,0.40514692836004185,0.7599336800455497,0.42302444266994604
enwiki,True,18.0,0.27045970683918846,0.9873924295984058,0.40937538311763216,0.7543312336882269,0.4246124950755179
enwiki,True,19.0,0.2716718995391717,0.9868135254966828,0.41318547988700327,0.749278079316767,0.4260510286879052
enwiki,True,20.0,0.27277505051362816,0.9862398948128903,0.41663864681171126,0.7446844383920913,0.4273525713491387
enwiki,True,21.0,0.273735655999862,0.98542192909831,0.4197374703399058,0.7404762975529623,0.42845331099259404
enwiki,True,22.0,0.2746321383976378,0.9847059161303894,0.4225904519714684,0.7366125013877505,0.4294826007478125
enwiki,True,23.0,0.2754934255038326,0.9841563087949479,0.42526225291014214,0.7330283296926836,0.43048251487475475
enwiki,True,24.0,0.27630811843406006,0.9836125608127626,0.4277813240855742,0.7296418035429831,0.4314242006230922
enwiki,True,25.0,0.27709654746916135,0.9831561171940963,0.4301789615203763,0.7264358301668835,0.4323405509647765
enwiki,True,26.0,0.277833974897172,0.9826645174558922,0.4324309819243485,0.7234067586810952,0.4331898697721092
enwiki,True,27.0,0.2785277686209665,0.9822297534442743,0.4345280740841516,0.7205925914616792,0.43399029030072117
enwiki,True,28.0,0.27919973752707916,0.9817838566614694,0.43655701333520935,0.7178627264564079,0.4347618737491979
enwiki,True,29.0,0.27985269029035853,0.9813397176846415,0.4385220673169687,0.7152153382236361,0.43550937723099853
enwiki,True,30.0,0.2804841598407691,0.9809278051507231,0.4404068120836788,0.7126801316774033,0.43623291823461646
enwiki,True,31.0,0.2810954220009296,0.9804983145570358,0.44223297379979754,0.7102151216598774,0.4369292261288058
enwiki,True,32.0,0.2816736446486664,0.9800559333861847,0.443964730158451,0.7078676037045845,0.4375833483215881
enwiki,True,33.0,0.28225717001859263,0.9796235131158693,0.4456995902548841,0.7055189241046085,0.43824390719561135
enwiki,True,34.0,0.28282932225409363,0.9791494914374341,0.4474098790938948,0.703189992464245,0.43888563586675544
enwiki,True,35.0,0.28338399251343505,0.9787158992964674,0.449051756379345,0.7009602984696659,0.4395094570228912
enwiki,True,36.0,0.28389926551669314,0.978285236832129,0.45057995926861455,0.6988773036036375,0.4400853594472512
enwiki,True,37.0,0.2844119060522091,0.9778744961688619,0.4520882465071311,0.6968255071948123,0.440659344576416
enwiki,True,38.0,0.2849066142011996,0.977461997699618,0.45354338223617063,0.6948414180760873,0.44121088824540433
enwiki,True,39.0,0.28538695875406467,0.9770565304542815,0.45495247918814496,0.6929183982778452,0.44174522525677595
enwiki,True,40.0,0.2858519469361191,0.976652821014922,0.45631514939583157,0.6910554521046429,0.442260682818419
enwiki,True,41.0,0.2863056186571447,0.9762661037000058,0.45763747101238234,0.6892490946224314,0.442763711311386
enwiki,True,42.0,0.28675117899047664,0.9758711832905308,0.45893651459558554,0.6874702847141333,0.44325559361368605
enwiki,True,43.0,0.2871795322950854,0.9754657160451944,0.4601895194017235,0.6857475656491047,0.4437252481993329
enwiki,True,44.0,0.2876073157756653,0.9750461863520429,0.4614413603061941,0.6840223573454693,0.4441921967371959
enwiki,True,45.0,0.28802131618581844,0.9746237269822632,0.4626541458436037,0.6823464359662452,0.4446418415852303
enwiki,True,46.0,0.28842238967250744,0.9741819317467376,0.463835764680809,0.6807050320290331,0.4450735293133472
enwiki,True,47.0,0.2888118654086229,0.9736874023319054,0.46500070092744855,0.6790701001121983,0.4454853672836337
enwiki,True,48.0,0.2892131913625852,0.9732204118773778,0.4661834836663213,0.6774200668144832,0.4459136393326259
enwiki,True,49.0,0.2896244439183391,0.972701273178869,0.46740454583781005,0.675706143059198,0.4463476605561322
enwiki,True,50.0,0.2900249186930403,0.9721358455896355,0.46860879609632555,0.6740006827151752,0.4467634037664942
enwiki,True,51.0,0.29043256980518883,0.9715387774928179,0.4698373589674485,0.6722550626549655,0.44718369306367267
enwiki,True,52.0,0.2908619592283515,0.9709182719829751,0.47112424624434796,0.6704279615176988,0.447626589566176
enwiki,True,53.0,0.29129749543800676,0.9702333135873129,0.4724424295438592,0.6685424462477964,0.44806917471459073
enwiki,True,54.0,0.2917491403517866,0.9695219881019973,0.47380458246191587,0.6665930405203239,0.4485272043413422
enwiki,True,55.0,0.29219436594875586,0.9687116395466501,0.4751765638829415,0.6646029772289431,0.448966191089403
enwiki,True,56.0,0.2926687433921097,0.9678303928169016,0.4766381657323554,0.6624778312558425,0.44943101783363126
enwiki,True,57.0,0.29317919186061386,0.9668583261116804,0.4782116314642452,0.660183417057491,0.4499274643016798
enwiki,True,58.0,0.29372494973017166,0.965797783172289,0.47989282276157136,0.6577257088065445,0.4504546014156941
enwiki,True,59.0,0.29430960818655844,0.9646059907199563,0.4817021725647168,0.655066372228461,0.4510116665958936
enwiki,True,60.0,0.29494850510140735,0.9632606832123084,0.4836819693009296,0.6521448358504791,0.45161377166098315
enwiki,True,61.0,0.29561846000667497,0.961695649957549,0.48579315760314884,0.6489924640790423,0.45222587543165077
enwiki,True,62.0,0.29637907799173324,0.9600128437023379,0.48814617880736805,0.6454964114306501,0.4529282886395424
enwiki,True,63.0,0.29720174990594345,0.9581255460184815,0.4906935715900397,0.6416930207889592,0.4536770447528348
enwiki,True,64.0,0.2981220344124653,0.9558755543680599,0.4935625892001306,0.6373741918064554,0.454494597857196
enwiki,True,65.0,0.29915185509520326,0.9533759542689197,0.4967395234624471,0.6325895433060308,0.4554057533740477
enwiki,True,66.0,0.30025191695866316,0.9503953012674367,0.5001919144527102,0.6273151785970618,0.4563365382586495
enwiki,True,67.0,0.3015121088855706,0.9469675796124976,0.5041079262738127,0.6213192665906508,0.4573918095835652
enwiki,True,68.0,0.30290079651553625,0.9430670081497744,0.5084063444538534,0.6146987216432162,0.4585282972264643
enwiki,True,69.0,0.3044426994170967,0.9386437823765889,0.5131408377919389,0.6073705691345366,0.4597640648226927
enwiki,True,70.0,0.3061785575935707,0.9336363790837495,0.5183980523010854,0.5992061984032696,0.4611324342177137
enwiki,True,71.0,0.30807282897144284,0.9278824941860567,0.5241186289962564,0.5902358122111757,0.46256588661587067
enwiki,True,72.0,0.3102434620523225,0.9214043932258845,0.5305186656203622,0.5801884154486131,0.4641906169520303
enwiki,True,73.0,0.3126511228761631,0.9140854750734323,0.5375024635918626,0.5691537866546608,0.4659351496713759
enwiki,True,74.0,0.31533975235103323,0.905754646613616,0.5451577035030336,0.5569709550660901,0.4678105905589434
enwiki,True,75.0,0.3182527109557551,0.8961253854722023,0.5533876521930753,0.5436829015361755,0.4696961088505906
enwiki,True,76.0,0.3215805789433802,0.8852369493160084,0.5624856128821671,0.5289243717867042,0.471778050943136
enwiki,True,77.0,0.32524579069450127,0.8729434402489522,0.5722480321009252,0.5129152485612616,0.47391709443388874
enwiki,True,78.0,0.3293094425815667,0.8591259133999307,0.5827193967575252,0.4955647576253261,0.4761189142096094
enwiki,True,79.0,0.33381595359426514,0.8436501895793747,0.5938936286988148,0.47684269621713726,0.478355822232573
enwiki,True,80.0,0.338817830774993,0.8263416600602459,0.6057629685803452,0.4567095684174699,0.480585346371624
enwiki,True,81.0,0.34424793250020935,0.8069501304585003,0.6181267080256969,0.4353520671218212,0.4826118510435272
enwiki,True,82.0,0.35029852954012913,0.7853818511220368,0.6311317572897748,0.41255512211457834,0.4844991817418641
enwiki,True,83.0,0.35682968107763174,0.7611217848996263,0.6444857184092516,0.3885480752460322,0.48587233351773496
enwiki,True,84.0,0.36393373936293394,0.7338968859295248,0.658168546410967,0.36327931630240534,0.486577495380023
enwiki,True,85.0,0.3716414789833211,0.7040534419891801,0.6719492714751497,0.3371433066282284,0.48648637706237835
enwiki,True,86.0,0.38017159275108175,0.671723288526859,0.6858291868258746,0.3101757253101965,0.48554302722150877
enwiki,True,87.0,0.38959293787286237,0.6365243957102503,0.6996629340771269,0.28245490038979815,0.48334708173491486
enwiki,True,88.0,0.4004210607156543,0.598781957645079,0.7135574628598977,0.2539356936736333,0.4799122945224698
enwiki,True,89.0,0.4127423174203215,0.5578244924481726,0.7272322728723489,0.22478787123467397,0.47443982502980747
enwiki,True,90.0,0.4266795725667177,0.513473875780539,0.7403400041279713,0.19540672416365318,0.46607032974747603
enwiki,True,91.0,0.4429710690240426,0.46596741144905907,0.7528082360785722,0.16595239347759744,0.45417833398915913
enwiki,True,92.0,0.46240325084967165,0.41565255910183146,0.7643708232095442,0.13686481061291858,0.4377833216849569
enwiki,True,93.0,0.48460448030483416,0.3627554897745497,0.7742017833042703,0.10926794977513048,0.41491914135016855
enwiki,True,94.0,0.5096870732486852,0.3083525666603972,0.7818759042869343,0.08401230082149852,0.3842437690362419
enwiki,True,95.0,0.5388147578478472,0.2528791397063175,0.7873302061450904,0.06130198131776641,0.34421134947881626
enwiki,True,96.0,0.5766760582796977,0.19608208485163825,0.7907974692122145,0.040766592559267525,0.2926551982572635
enwiki,True,97.0,0.6319455072108896,0.13307352960994873,0.7915537466511963,0.02195076983022895,0.21985131119134974
enwiki,True,98.0,0.727889917802518,0.0655849128684874,0.7883528877434947,0.006943980017056263,0.12032794234080052
enwiki,True,99.0,0.8860685725386085,0.016035877991859016,0.7823731489437205,0.0005839753771155002,0.031501645986325655
enwiki,False,0.0,0.10312092069859573,1.0,0.10312092069859573,1.0,0.18696213400302528
enwiki,False,1.0,0.10315599044104808,0.9999969973837204,0.10346327109386404,0.9996179417763982,0.18701971864591044
enwiki,False,2.0,0.10377275097944731,0.999903249030989,0.1094784339377097,0.9929003915521403,0.1880311085214355
enwiki,False,3.0,0.10512410049867012,0.9995289228681258,0.1225412465827317,0.9782926101845751,0.19023996986613365
enwiki,False,4.0,0.10685272504180719,0.9986508244183432,0.13906946678624904,0.9597630548546999,0.1930496957815399
enwiki,False,5.0,0.10888764158816544,0.9975608747088296,0.15788810780827595,0.9386553737007,0.19634361542858322
enwiki,False,6.0,0.11116408102394006,0.9963167906969607,0.1781319530785578,0.9159408998890458,0.20001183456008334
enwiki,False,7.0,0.11354491446027101,0.9947440870144852,0.19861535073576092,0.8929215466836982,0.20382433123422594
enwiki,False,8.0,0.11591672808852099,0.9930202516459341,0.21827860056130877,0.870799263118627,0.2076
enwiki,False,9.0,0.11822780816523135,0.9911709736416998,0.23677866408758802,0.8499594830322611,0.21125671607425656
enwiki,False,10.0,0.12054170984212652,0.9891568853661157,0.2546815152220009,0.8297666318556388,0.21489558115871774
enwiki,False,11.0,0.12294222377012715,0.9871411289703762,0.2724791256912418,0.8096909298572172,0.21865263589614742
enwiki,False,12.0,0.12540837762875576,0.9849769098808094,0.2900947754288402,0.7898010401113186,0.22248918039428436
enwiki,False,13.0,0.1279484669427207,0.9826118491245371,0.3075921799339457,0.7700198988658126,0.22641486081629877
enwiki,False,14.0,0.13053888969246455,0.9800516183100875,0.3248020046024471,0.750536962502865,0.23039067806476857
enwiki,False,15.0,0.13318168512359885,0.977362942243675,0.34169225407030057,0.7313955769855951,0.23441983404836755
enwiki,False,16.0,0.13588118166165095,0.9745444864291752,0.35828415536935015,0.7125719212139171,0.23850719629980982
enwiki,False,17.0,0.1385927112629957,0.9715705618161958,0.3743533969151171,0.6943131438961307,0.24258161229193057
enwiki,False,18.0,0.14134765506799027,0.9685589376877052,0.39001922164499453,0.6764998326577308,0.24669379483077825
enwiki,False,19.0,0.1441027274305119,0.9653281225708,0.4051745655020962,0.6592304940768509,0.25077077192808056
enwiki,False,20.0,0.1468758242406442,0.9619792045468952,0.4198777426176632,0.6424517320644091,0.2548421297681763
enwiki,False,21.0,0.14963408696960215,0.9584414553214033,0.43403610405043763,0.6262587159429713,0.25885511701542596
enwiki,False,22.0,0.15241410870128674,0.9548283070648892,0.4477832390462065,0.6105155388564913,0.2628680103143484
enwiki,False,23.0,0.15519092874145596,0.9511657824517763,0.46102075325963093,0.5953349003090798,0.2668439566956328
enwiki,False,24.0,0.15798219659851648,0.9473484562882458,0.4738920065637973,0.5805448357408564,0.27080437817906666
enwiki,False,25.0,0.16079539280916474,0.9434924297371109,0.48638836365077565,0.5661683223482005,0.27476393881124156
enwiki,False,26.0,0.16361489075687083,0.9395079579340132,0.49850490480329884,0.5522005268644278,0.27869514639281834
enwiki,False,27.0,0.166443637971416,0.9354163928169411,0.510259554305955,0.5386239191079938,0.28260233257967443
enwiki,False,28.0,0.16930826776338848,0.9312430898122565,0.5217463028410748,0.5253366168859378,0.28652393787429714
enwiki,False,29.0,0.17220964173499173,0.9270717885517581,0.5329398637499785,0.512376442428026,0.2904637450802222
enwiki,False,30.0,0.17513549549994445,0.9228811370974576,0.5438173586271938,0.4997664496491566,0.2944021801396123
enwiki,False,31.0,0.17808300068039706,0.9186140857400414,0.5544021475288347,0.4874740331788414,0.29833133484436214
enwiki,False,32.0,0.1810614869173124,0.9143073331229278,0.5647171432639903,0.47547786526885527,0.3022650311126405
enwiki,False,33.0,0.1840445317345769,0.9098511169398936,0.5747350637641803,0.4637957446155587,0.3061592263728191
enwiki,False,34.0,0.18707678431253058,0.9053705462025912,0.5845438102714821,0.4523440480334646,0.3100814211610464
enwiki,False,35.0,0.19012708441599177,0.9009149972676191,0.5940481535733437,0.4412346311229769,0.3139903485167407
enwiki,False,36.0,0.19319240599567225,0.8963887200380598,0.6032837014136205,0.4304167829431717,0.3178753548382822
enwiki,False,37.0,0.1962732027238891,0.8918437598627604,0.6122445019665279,0.4199031236903909,0.32173936643991935
enwiki,False,38.0,0.19937005770335606,0.8873021359277717,0.6209353029312467,0.40969089149795784,0.3255838864324163
enwiki,False,39.0,0.20249028006887357,0.8826600911594302,0.629413902384759,0.3997037130804116,0.32941073201160553
enwiki,False,40.0,0.20560172877664273,0.8780807677089304,0.6375687982035532,0.39008466847530576,0.3331878560961535
enwiki,False,41.0,0.2087218520575973,0.873452735149894,0.6454843480571297,0.38072688878595823,0.33693024160861185
enwiki,False,42.0,0.21184350717511105,0.8687803305947249,0.6531541184690625,0.3716380458642485,0.3406281922815386
enwiki,False,43.0,0.21497493801942708,0.8641015871829654,0.6605937286815835,0.36280509756198137,0.34429473871152044
enwiki,False,44.0,0.2180866305429464,0.8592673749727262,0.6677966764110326,0.3542181471902322,0.34787957455746105
enwiki,False,45.0,0.2211996614872091,0.854492881464049,0.6747558057050211,0.34590991519726727,0.3514266922488876
enwiki,False,46.0,0.22434205624301243,0.849806798323606,0.6815231692364506,0.337825662919926,0.35497390093503994
enwiki,False,47.0,0.22745916526345972,0.8450496532645445,0.6880518404713901,0.32999937666203477,0.3584386168526603
enwiki,False,48.0,0.23053659442071556,0.8402905064612967,0.6943132644075211,0.32247083497558915,0.36180950505284265
enwiki,False,49.0,0.2336176978378074,0.8355253544254894,0.7003910762383814,0.31514632618988025,0.36514011735434404
enwiki,False,50.0,0.23667312507692828,0.8307495264206879,0.7062482576718089,0.3080665878383886,0.3683940682695949
enwiki,False,51.0,0.2397439393452281,0.8259800372724767,0.7119524118157021,0.30115820029862683,0.37162288228644536
enwiki,False,52.0,0.2427809176551675,0.8212142179886074,0.7174379997791975,0.2944939310856725,0.374767016794888
enwiki,False,53.0,0.24577062373922157,0.8164357209915573,0.7227005834956697,0.2880768489402775,0.3778096739611046
enwiki,False,54.0,0.24869213810743518,0.8115931681805413,0.727734073524865,0.28190783612540793,0.38072175304367856
enwiki,False,55.0,0.2516316860004468,0.8068530379470645,0.7326303275248445,0.2759036146889112,0.3836234679628126
enwiki,False,56.0,0.2545157271136093,0.8020688693414862,0.7373288295328632,0.2701148188531924,0.3864132453956605
enwiki,False,57.0,0.2573795296370733,0.7972880369762186,0.7418741666368789,0.2644971820329065,0.3891380117076191
enwiki,False,58.0,0.2602314092250359,0.7924641671109427,0.7462915566883367,0.25901725495385863,0.39180190665455294
enwiki,False,59.0,0.26308403107291967,0.7876459688541949,0.7505914239832638,0.2536690152123233,0.39442497417770667
enwiki,False,60.0,0.26587212222068207,0.7826342686594252,0.7547391928863227,0.24846811338613486,0.39690866119843426
enwiki,False,61.0,0.2686872026191074,0.7776602679801667,0.7588027073307331,0.24336548798252353,0.3993842731266815
enwiki,False,62.0,0.2714899245671778,0.772547146079951,0.7627714742132331,0.2383525081681248,0.40178413642693994
enwiki,False,63.0,0.2742993781327572,0.7672975719510267,0.7666678214814191,0.2334045856576647,0.4041280013579368
enwiki,False,64.0,0.2771404398214386,0.7619248905546366,0.7705159692818359,0.22849624990290313,0.4064425847079066
enwiki,False,65.0,0.28004094148115083,0.7564367752434955,0.7743413762912494,0.22359999731485183,0.40875604615903266
enwiki,False,66.0,0.28293539652615946,0.7505676612888696,0.7781195815377943,0.21871256735646205,0.41095603396750846
enwiki,False,67.0,0.2858839000438431,0.7444329826055103,0.7818885666149156,0.21380488370911022,0.41311834829161576
enwiki,False,68.0,0.2889307259403215,0.7380607636120273,0.7856802580794229,0.20884457115786464,0.41528763263937674
enwiki,False,69.0,0.29206428006692775,0.7313242271766133,0.7894956192325991,0.20381597912489102,0.41742443342684493
enwiki,False,70.0,0.29529708512706604,0.7242130309543049,0.793339122544687,0.19871293176942634,0.41953089759194717
enwiki,False,71.0,0.2986666688912952,0.7166491069218313,0.7972440019099513,0.19348939798019318,0.4216209510914955
enwiki,False,72.0,0.30219028306439866,0.7085710682574751,0.8012197527267533,0.18812773249786865,0.42368713724152446
enwiki,False,73.0,0.30587543502125003,0.699899512441841,0.8052679231578695,0.18261707965204316,0.42570570758259035
enwiki,False,74.0,0.3097776770019285,0.690527679784986,0.8094271828690903,0.1769020486721463,0.4276895232000476
enwiki,False,75.0,0.3138939462991531,0.6803895127287577,0.813681258949456,0.17099318835451244,0.42959610206085597
enwiki,False,76.0,0.31835475955278947,0.669416284722755,0.818104566423081,0.16479962561362826,0.4315005214997688
enwiki,False,77.0,0.3231204644102879,0.6575793041003061,0.8226390663876625,0.15838277362378964,0.43331779398740533
enwiki,False,78.0,0.32818836740100676,0.6447167632063404,0.8272685203358577,0.15174213371462436,0.43496233146733176
enwiki,False,79.0,0.33366254748925966,0.6307289084555676,0.8320302561923845,0.14482461667112592,0.4364423037411161
enwiki,False,80.0,0.3396449148728822,0.6156724559332698,0.8369297785360029,0.1376306060858883,0.43778125526718853
enwiki,False,81.0,0.3459906045625736,0.5992538164921034,0.8418654246777353,0.13023969742216188,0.4386932853265455
enwiki,False,82.0,0.35291987676620024,0.5814045972056986,0.8469063458882569,0.12256692492038056,0.43922479719461743
enwiki,False,83.0,0.360342812871855,0.5617257837328926,0.8519788496194152,0.11464857643993467,0.439042929600441
enwiki,False,84.0,0.3682740524330323,0.5400689133798583,0.8570384519941042,0.10651718063279353,0.4379257060586403
enwiki,False,85.0,0.37687342986331557,0.5168560205459023,0.8620531576482802,0.09825693607333523,0.43590216506673024
enwiki,False,86.0,0.3861884986661533,0.49190561375812125,0.8669808565544275,0.0898939270579503,0.43268321191274156
enwiki,False,87.0,0.3963693841086996,0.46515964243510843,0.8717968125117423,0.08144905938301049,0.4280181753687008
enwiki,False,88.0,0.407772311145439,0.43663879126679045,0.8765113466054002,0.07291320354477916,0.4217121459961311
enwiki,False,89.0,0.42070597910500884,0.40619426393530894,0.8810894359530392,0.06430830103963182,0.4133227845898949
enwiki,False,90.0,0.43515409499386093,0.3735224625723881,0.8853993147005865,0.055746360905010006,0.40198971428017466
enwiki,False,91.0,0.451993263211867,0.33880321053077583,0.8894575309879401,0.04722960797795877,0.3872975507584255
enwiki,False,92.0,0.47191681404117586,0.30197778998100344,0.8931728464221493,0.03885301978474701,0.3682889008874554
enwiki,False,93.0,0.4948277440037311,0.2633528014076265,0.8963113508095223,0.030912653089406803,0.34375525298369475
enwiki,False,94.0,0.5209642155155255,0.22353977765960073,0.8987343287653013,0.023633484948306104,0.3128424453663217
enwiki,False,95.0,0.5514864473345351,0.18289402833001822,0.9004006335632538,0.017102245646943296,0.2746902491685945
enwiki,False,96.0,0.5900717020536025,0.1413962032250768,0.9013304945303237,0.011294155103747412,0.22812729772238188
enwiki,False,97.0,0.6454850390445261,0.09687941426296112,0.9013824783959905,0.006117764844314151,0.1684730787405755
enwiki,False,98.0,0.7385924629171358,0.04968729419567583,0.9001894297569477,0.0020219549221163185,0.09311075329420271
enwiki,False,99.0,0.8822244470738145,0.012935270932739393,0.8980349032265811,0.0001985475266429031,0.025496706379503208
