wiki_db,user_is_anonymous_or_bot,threshold,precision,recall,accuracy,fpr,F1
frwiki,True,0.0,0.18071750456483426,1.0,0.18071750456483426,1.0,0.3061147206950905
frwiki,True,1.0,0.18073986135260656,1.0,0.1808412005088556,0.9998490191787197,0.30614679366470865
frwiki,True,2.0,0.1817181772951557,0.999981161340559,0.1862361593884654,0.9932598837032133,0.3075482028755151
frwiki,True,3.0,0.18539425970083534,0.9994097220041822,0.20630554259963482,0.9686375435281863,0.31276874218829837
frwiki,True,4.0,0.19019872651389458,0.9984552299258385,0.23147596497021652,0.9377044820526743,0.3195293502944072
frwiki,True,5.0,0.19498749513495064,0.9972809534873498,0.25543893335512197,0.908196734935854,0.3261972004559785
frwiki,True,6.0,0.19897237247483618,0.9960376019642442,0.2746299618812224,0.8844982865754503,0.33168587539195526
frwiki,True,7.0,0.20212425325201333,0.9949637983761076,0.28930892551348003,0.8663445742479354,0.3359925186556483
frwiki,True,8.0,0.20494709710493714,0.9941286178075568,0.30199627096447657,0.8506744271732235,0.3398347107438016
frwiki,True,9.0,0.20777388871742,0.993412748748799,0.3142864276043954,0.8355153986586255,0.34366887454624057
frwiki,True,10.0,0.21024056564248597,0.9926089659459832,0.3248244141748743,0.8224756422225485,0.34698715837998023
frwiki,True,11.0,0.21247644120626405,0.9918240218026085,0.33418672186456316,0.8108750515966568,0.3499778417903833
frwiki,True,12.0,0.21449861975510337,0.9910076798934988,0.3425322261978931,0.800508625298845,0.35266473442042673
frwiki,True,13.0,0.21646380375844196,0.990455079216563,0.35037386815374155,0.7908153795436224,0.35528100011262537
frwiki,True,14.0,0.2182660931371667,0.9900092309431261,0.3574097842356896,0.7821291343119845,0.35767584208866576
frwiki,True,15.0,0.2198781772639423,0.9894566302661902,0.3636740191989723,0.7743612403143726,0.35980097321267507
frwiki,True,16.0,0.22135769501054112,0.9890045024396064,0.36931523514145026,0.767375953326149,0.36174916479758185
frwiki,True,17.0,0.22272884175739605,0.9886465679102275,0.3744469145805743,0.7610333736872287,0.3635538631884366
frwiki,True,18.0,0.22403317512605808,0.9882321174025256,0.3793016966771184,0.755016303158408,0.3652612681196842
frwiki,True,19.0,0.225234705989316,0.9878365055542647,0.3837286496828731,0.7495255877863441,0.36682935474317746
frwiki,True,20.0,0.22642310837739152,0.9875162483437678,0.3880285022690829,0.744206630412801,0.3683816613823419
frwiki,True,21.0,0.22757936795170608,0.98717715247383,0.39217969275743225,0.7390649716183759,0.3698867199126606
frwiki,True,22.0,0.22871043041924255,0.9868757339227741,0.39618562562344456,0.7341089222739651,0.37135791850338673
frwiki,True,23.0,0.22978188226175592,0.9866810677752171,0.3999044477203064,0.7295268621198815,0.37275517998889746
frwiki,True,24.0,0.23075510476915234,0.9863419719052792,0.40332027149557476,0.7252827773822419,0.37401033890758084
frwiki,True,25.0,0.23168556400628518,0.9860970693325463,0.4065250177883846,0.7213171068196236,0.3752138508444121
frwiki,True,26.0,0.23255100770967532,0.9857077370374324,0.40954932687844775,0.7175398159973183,0.3763196095142542
frwiki,True,27.0,0.23337383206756201,0.9854628344646995,0.4123512102343074,0.714065871962723,0.37737827283045733
frwiki,True,28.0,0.23410211414723825,0.9851614159136436,0.4148489604433989,0.7109506805218119,0.3783076661534437
frwiki,True,29.0,0.23479586092913518,0.9848725564688817,0.417213936107073,0.7080003213536746,0.37919158437325845
frwiki,True,30.0,0.2354730967699304,0.9845962561304138,0.41950628295957865,0.7051413817653952,0.3800536894857081
frwiki,True,31.0,0.23611123662181416,0.9844267081954449,0.4216170577841631,0.7025276128685525,0.38087174335308144
frwiki,True,32.0,0.23666606263779408,0.9841629669632709,0.4234895193221008,0.700183947275835,0.3815734533462696
frwiki,True,33.0,0.23720171138409551,0.983855268859068,0.42530977890201127,0.6978943023439427,0.38224613151329956
frwiki,True,34.0,0.23764338469055918,0.9833905819261901,0.4268883207197515,0.6958650647001299,0.38278421854108763
frwiki,True,35.0,0.23811696915211283,0.9829698518653412,0.4285428958241838,0.6937527183473556,0.3833663550623657
frwiki,True,36.0,0.23857344098742544,0.9826684333142853,0.43008966253703784,0.6917982785416084,0.38393473793970617
frwiki,True,37.0,0.23903587509033325,0.9824612080604345,0.43161146309605275,0.6898950891063874,0.3845174546062269
frwiki,True,38.0,0.23948904349530262,0.9822288645939955,0.4331082975012284,0.688016832283855,0.3850857054931528
frwiki,True,39.0,0.23994242952910977,0.9819714029149685,0.4346096712071022,0.6861274943001278,0.3856517503730101
frwiki,True,40.0,0.24037638087038077,0.9817578981079707,0.43602820267523684,0.6843489679283492,0.3861955506810334
frwiki,True,41.0,0.24085843206391083,0.9814564795569147,0.43762263204542023,0.6823363520263288,0.3867940521016493
frwiki,True,42.0,0.24131950075449027,0.9811425018995649,0.4391512415554822,0.6804013042526726,0.3873638905967988
frwiki,True,43.0,0.24179595703772047,0.9808096855827739,0.44072751372287344,0.6784039249472952,0.38795145111393436
frwiki,True,44.0,0.2422693208794278,0.9805208261380121,0.4422708759602039,0.6764564108672948,0.38853782921952784
frwiki,True,45.0,0.24275255812651353,0.9801000960771632,0.4438880018338775,0.6743897743044494,0.3891258766538935
frwiki,True,46.0,0.2432908277439809,0.9796730864631673,0.44566513805715663,0.6721264471303948,0.3897833343327137
frwiki,True,47.0,0.24384126691257296,0.9792711950617594,0.44746043148322784,0.6698464982145479,0.3904575192855158
frwiki,True,48.0,0.2444131559926183,0.9788881423197925,0.4493033875666284,0.6675125286378759,0.3911597912275419
frwiki,True,49.0,0.2450022170438786,0.9784611327057967,0.4512042197339289,0.6650982206425411,0.3918795717963002
frwiki,True,50.0,0.2455635484043912,0.9779210911351548,0.45305625441872555,0.6627185412759403,0.39255380155654285
frwiki,True,51.0,0.24618209829188936,0.977355931351925,0.4550751084041748,0.6601297049917861,0.3932980064841699
frwiki,True,52.0,0.24677490503225888,0.9766023849742852,0.45707807483718094,0.6575187063852421,0.39399286348534
frwiki,True,53.0,0.24744817132876598,0.9759493114469975,0.45926488294845735,0.6547054765868915,0.39479707262303043
frwiki,True,54.0,0.24807422577646002,0.9751518081973287,0.46135636574507516,0.651976740642652,0.3955279287952941
frwiki,True,55.0,0.24879927772245233,0.974253832097308,0.46375425133881,0.6488518531856954,0.39637469182325663
frwiki,True,56.0,0.24952700842287298,0.9731297920839953,0.46622590056888785,0.6455870660686533,0.39720413075071703
frwiki,True,57.0,0.2503578990959105,0.9718801610077427,0.4690153008478279,0.6419067354068033,0.39815136383865984
frwiki,True,58.0,0.2512906204080571,0.970793798313312,0.4720078348330048,0.6380144775371012,0.3992381739416751
frwiki,True,59.0,0.25223761813169304,0.9692490282391505,0.47517740154540494,0.6338050214281955,0.4003008415783809
frwiki,True,60.0,0.25337349575877555,0.967685419505548,0.4788406172087159,0.6289888717438701,0.4015954258551764
frwiki,True,61.0,0.25456510656329245,0.9657638762425665,0.482741011333499,0.6238042734498148,0.40292378126657896
frwiki,True,62.0,0.25582795082213206,0.9635409144285293,0.48689220182184834,0.6182470711105816,0.4043086627783655
frwiki,True,63.0,0.25730762184412087,0.961324232167639,0.4915620074149477,0.6120582425832403,0.40595697738554887
frwiki,True,64.0,0.2589699751347574,0.9587810131431047,0.49675156293797157,0.6051629900297252,0.4077935432177077
frwiki,True,65.0,0.26080503972415875,0.9556600752290467,0.5024937783209807,0.5974657384347306,0.40977905707142576
frwiki,True,66.0,0.2628785540647855,0.9520493321695228,0.5088941923052044,0.5888570613314569,0.4119970488368586
frwiki,True,67.0,0.26496016006177825,0.94801785904915,0.5153286510446633,0.5801140251486954,0.4141657304873482
frwiki,True,68.0,0.2672517939018901,0.9432328395511376,0.5223793198538799,0.5704526377319079,0.4164954456598594
frwiki,True,69.0,0.26981176049734684,0.9377884669726902,0.5301097489426266,0.559816108129971,0.41905649153132113
frwiki,True,70.0,0.27254507177314763,0.9316407844417791,0.5382634678214647,0.5485077831305942,0.4217191277442755
frwiki,True,71.0,0.2756985995257515,0.9250472536374311,0.5472683055811837,0.5360622539635929,0.42479302618640474
frwiki,True,72.0,0.2790392512653997,0.9173861987980936,0.5567202644596587,0.5228355029323523,0.4279192790829486
frwiki,True,73.0,0.28287698137396106,0.9089590384748222,0.5671186675336731,0.5082845531383233,0.4314747745733661
frwiki,True,74.0,0.2869664870842942,0.8994266767976791,0.5779517086495239,0.4929593072058021,0.4351092398172451
frwiki,True,75.0,0.29166701013081864,0.8887577160009293,0.5898344630517945,0.47610209073808846,0.4392000608224373
frwiki,True,76.0,0.2965531459078969,0.8762048892600802,0.6020202157756587,0.45845949697068755,0.44312860552303013
frwiki,True,77.0,0.3016400650749681,0.8615798099807218,0.6145010230448948,0.4399996675651642,0.4468406971423547
frwiki,True,78.0,0.3076017064636075,0.8462325820894585,0.6279748023418252,0.42016854446177415,0.451195789375002
frwiki,True,79.0,0.31391956905535756,0.8284991240023359,0.6417799505897119,0.39940660381801407,0.45531833389988147
frwiki,True,80.0,0.3206216377764495,0.8084045539319422,0.6558131986976746,0.37784543442307317,0.4591425672338066
frwiki,True,81.0,0.32781785569331884,0.7861498175789811,0.6700405019104781,0.3555709152762118,0.4626955586518881
frwiki,True,82.0,0.33570366110579664,0.7624759022147984,0.6844085234449206,0.3328115953270743,0.4661641145542394
frwiki,True,83.0,0.3441189407935251,0.7368930026939283,0.6986346918325498,0.30980433439620136,0.4691508564597797
frwiki,True,84.0,0.3531111430769327,0.7090871413590208,0.7126702095908615,0.2865394364675474,0.4714497748589346
frwiki,True,85.0,0.36285480715108953,0.6800881649261838,0.726376628048566,0.2634130530538295,0.47322483882032423
frwiki,True,86.0,0.37403729629026716,0.6492869567401583,0.7402521354572721,0.23968274635499054,0.4746443506961499
frwiki,True,87.0,0.38638708407166766,0.6161685934428907,0.753798543565371,0.21584301318935212,0.4749453650437927
frwiki,True,88.0,0.4000155759196283,0.5805698066525586,0.766833145519767,0.19208084815207785,0.4736700540252528
frwiki,True,89.0,0.4159587948753776,0.5421201027334895,0.7796941192224632,0.16790175442484617,0.4707328909415094
frwiki,True,90.0,0.43404496587216784,0.4999529033513975,0.7918242655127764,0.14379468824538125,0.4646735244765449
frwiki,True,91.0,0.45462134240488056,0.45484687309651045,0.8028729234117838,0.12035941746335599,0.4547340797870503
frwiki,True,92.0,0.47771611353100285,0.40702179632897323,0.8124202076049174,0.09815692586426132,0.43954456680952636
frwiki,True,93.0,0.5044866987250187,0.3590397307327611,0.8204366126376401,0.07778836644291956,0.41951412785877273
frwiki,True,94.0,0.5389609682233624,0.310680891947729,0.8273998999084196,0.05862211301122244,0.3941540128423703
frwiki,True,95.0,0.5776986951364176,0.2568839601373966,0.8317701116554489,0.04142138054646746,0.35563051217296426
frwiki,True,96.0,0.6302291778667145,0.19876041620878257,0.8341271435429015,0.0257235305687683,0.30221034038287103
frwiki,True,97.0,0.7080329891551399,0.1369319359234397,0.8338241452213079,0.012455225183046932,0.2294824909889763
frwiki,True,98.0,0.8273545805345148,0.07270466633594354,0.8296797636840056,0.0033465106808542467,0.13366350921548595
frwiki,True,99.0,0.9402566158781075,0.0294511042594209,0.8242666476016037,0.00041277325450934005,0.05711328279599354
frwiki,False,0.0,0.05691990126605563,1.0,0.05691990126605563,1.0,0.10770901597722367
frwiki,False,1.0,0.05695504234831637,0.999988752839908,0.057546857971686224,0.9993345242957463,0.10777186454970274
frwiki,False,2.0,0.057392832185628774,0.9997863039582505,0.06534775291077134,0.9910505849782606,0.10855410517060482
frwiki,False,3.0,0.058419054060752165,0.9986203483620386,0.08376914079830068,0.9714469967043,0.11038085426790002
frwiki,False,4.0,0.06008929901696021,0.9964309011974476,0.11263923805768045,0.9407022906981611,0.113343472958949
frwiki,False,5.0,0.062157517902000255,0.9936266092811565,0.14629430815925043,0.9048467041303164,0.11699619678707857
frwiki,False,6.0,0.06443028909945209,0.9903424385342701,0.18091840834940737,0.8679346381122303,0.12098919122675156
frwiki,False,7.0,0.06672223388322569,0.9867658416249897,0.21361575833699842,0.8330479624473486,0.1249928172962356
frwiki,False,8.0,0.06905619973046538,0.9833879445440027,0.24446659492301642,0.8001312396832598,0.12905014423882316
frwiki,False,9.0,0.07142382789281014,0.9798075985813582,0.2737816223155615,0.7688308015011105,0.1331421560024341
frwiki,False,10.0,0.07382155278351323,0.9760810395375168,0.3015924230852373,0.739116553283877,0.13726191078719166
frwiki,False,11.0,0.07631084681855183,0.9721220391851058,0.32864502876467977,0.7101922321946782,0.14151302770358548
frwiki,False,12.0,0.07888753996616356,0.9681180501923264,0.35476210748786474,0.6822571867868792,0.14588738034330961
frwiki,False,13.0,0.08150335883601767,0.9640315820255385,0.3795697899054849,0.6557055886608913,0.15029973440071823
frwiki,False,14.0,0.08417343182892428,0.9600613345130354,0.4031589826058992,0.6304530371238597,0.15477679904358851
frwiki,False,15.0,0.08684095363453545,0.9559898625597036,0.4253062602416621,0.6067233184632738,0.1592186767794363
frwiki,False,16.0,0.08953087872579397,0.9515284890565132,0.4464608208608854,0.5840226999396976,0.16366248533805178
frwiki,False,17.0,0.09222247903984775,0.9468796628851215,0.46645664257215286,0.5625394426160142,0.16807508394104842
frwiki,False,18.0,0.09498125670752906,0.9423133158877384,0.4856479623160182,0.5419142212904707,0.17256834330353377
frwiki,False,19.0,0.09775391479994497,0.9376494935028905,0.5038497659795537,0.5223323554468429,0.17704965613419085
frwiki,False,20.0,0.10059352853054912,0.9332181124266122,0.5212647795227148,0.5035987957627684,0.1816108449517867
frwiki,False,21.0,0.10346379086911439,0.928486807081212,0.5379781478486828,0.48559112729231035,0.18618093738864508
frwiki,False,22.0,0.10634319502114081,0.9238829695501886,0.5537489471587317,0.4685906102532134,0.1907322298467678
frwiki,False,23.0,0.1092933946745781,0.919406599833542,0.5689190374400704,0.45223475158930126,0.19536321360644476
frwiki,False,24.0,0.11224760690976768,0.9146340549011375,0.5833979388958349,0.43659392292383914,0.19995582291299122
frwiki,False,25.0,0.11524490866826385,0.9098240194350926,0.5972887216719813,0.4215744462760174,0.20457665460213384
frwiki,False,26.0,0.11828142448280204,0.9050027368089557,0.6105960804749506,0.4071729275160967,0.20921854733971026
frwiki,False,27.0,0.1213472551450082,0.9003014238904676,0.6232692271168805,0.39345113980533536,0.2138682481249647
frwiki,False,28.0,0.12450935636309818,0.8957313278397204,0.63556316951582,0.380139362967103,0.218628668372954
frwiki,False,29.0,0.12763661694513623,0.8909512848005878,0.6471836349362128,0.3675290396083627,0.223285604825999
frwiki,False,30.0,0.1307888972678037,0.8862537209354638,0.6582695440095653,0.35549051397306647,0.22793960604209568
frwiki,False,31.0,0.13397135181589803,0.8819048190331941,0.6687844060630853,0.34407854468767785,0.23260705225535414
frwiki,False,32.0,0.13711404413836906,0.8773609663559951,0.678741451633107,0.3332462927617921,0.23716406815697771
frwiki,False,33.0,0.14024802420477178,0.8727383835581516,0.6882300935377579,0.32290596337281463,0.24166135498699243
frwiki,False,34.0,0.14337752853499716,0.868411975976066,0.6971863130528417,0.3131480666471316,0.24611989412918495
frwiki,False,35.0,0.14653848403247666,0.8642130362083574,0.7057759186740271,0.3037866042750195,0.2505867479217872
frwiki,False,36.0,0.14963217397772816,0.8597104231181627,0.7139165396428481,0.2948828968671051,0.25489925813615877
frwiki,False,37.0,0.15279775967672504,0.8556689435917431,0.7217372803864341,0.2863462080216862,0.2592932363200937
frwiki,False,38.0,0.1558436033266544,0.8514625057173064,0.7290245317617163,0.27836525135227785,0.26346506547938753
frwiki,False,39.0,0.15893090300067428,0.8474322733509789,0.7360501599507824,0.2706723431600932,0.26766316494975373
frwiki,False,40.0,0.16193442391622065,0.8432520788500903,0.7426728969689055,0.2633975917518122,0.27169393784924467
frwiki,False,41.0,0.1648874724095963,0.8390793824559298,0.7489467319401578,0.2564932530357662,0.2756140361679464
frwiki,False,42.0,0.16783762803071983,0.8348841917415852,0.7549832708403887,0.24983917481917775,0.27948924548998344
frwiki,False,43.0,0.17082592764442828,0.8309176932824461,0.7608064139932981,0.24342517471282835,0.28339044599018004
frwiki,False,44.0,0.1738486200771197,0.8273898340668981,0.766373695645169,0.23730895292228912,0.28732532260027904
frwiki,False,45.0,0.17677409489471121,0.8234720733014914,0.771672312051162,0.23145407912168972,0.29106540981097473
frwiki,False,46.0,0.17977080972998039,0.8197380161509219,0.7768495062769292,0.22573904346635681,0.29487476871456547
frwiki,False,47.0,0.1827213568999538,0.8158390006523353,0.7818113841936489,0.22024236349093032,0.29857225571523044
frwiki,False,48.0,0.18562611022707115,0.812134935928678,0.7865024629070178,0.21504459320789385,0.302183473120717
frwiki,False,49.0,0.18859565523789873,0.8086745596736824,0.7910740400018864,0.20998824499733562,0.3058599488392407
frwiki,False,50.0,0.19153183901145318,0.804948000629841,0.7954988008225979,0.2050715086567279,0.3094356046876452
frwiki,False,51.0,0.19442521200916726,0.8011652057855392,0.7997355599899192,0.20035072673974605,0.31291324666272774
frwiki,False,52.0,0.1972799275686326,0.7972924336605007,0.803806083870077,0.19580078268631793,0.31629632934737345
frwiki,False,53.0,0.20015887801856413,0.7934908935493787,0.8077630812126597,0.19137551633198663,0.3196785256039917
frwiki,False,54.0,0.2029792179408358,0.7896856043848928,0.8115322902975995,0.18714914598038873,0.3229484168112991
frwiki,False,55.0,0.20581521888590745,0.785621630538289,0.8152449495094992,0.18296712559072,0.32617889469137434
frwiki,False,56.0,0.20866182707569017,0.7817038697728823,0.8188317052304791,0.1789274323747934,0.3293970262055369
frwiki,False,57.0,0.21156462862586778,0.7776099034993664,0.8223928534617805,0.17490425725693223,0.3326303803964334
frwiki,False,58.0,0.2144746538174917,0.7736321578801353,0.8258342866788345,0.17101503712612245,0.33584322520427284
frwiki,False,59.0,0.21738872579545118,0.7695606859268035,0.8291890812224759,0.16721202789069545,0.3390119391103719
frwiki,False,60.0,0.22031355406244096,0.765238027398082,0.8324888196633085,0.16345223724061778,0.34212782504992845
frwiki,False,61.0,0.22319814939275576,0.7607241671477952,0.8356812200432382,0.15979472303335637,0.3451333981380136
frwiki,False,62.0,0.22618193155361366,0.7561128315100437,0.8388759677763886,0.15612883663940427,0.34820314051156326
frwiki,False,63.0,0.22929640545637747,0.7516327127400332,0.8420626064711407,0.1524794683435176,0.3513947665690697
frwiki,False,64.0,0.23244504869324714,0.7467401980999797,0.8452311065273704,0.1488244431647318,0.3545316114126638
frwiki,False,65.0,0.23572785496530732,0.7415440101374403,0.8484407919628333,0.14510741854937156,0.35773582585167873
frwiki,False,66.0,0.23917181975301724,0.7361903619336118,0.8516837671348783,0.14134559142145023,0.3610473972731192
frwiki,False,67.0,0.24255680976432023,0.7304430631265606,0.8548232453694723,0.13766974891359565,0.3641808062729851
frwiki,False,68.0,0.24603144274348254,0.7241146610480853,0.857987690906503,0.1339323595197985,0.36727452509079844
frwiki,False,69.0,0.24977714899498438,0.7174975818605802,0.861254566402248,0.1300689347750088,0.37055553027714067
frwiki,False,70.0,0.25364581729887603,0.710430616269392,0.8645297643321386,0.1261695322549806,0.3738246222466841
frwiki,False,71.0,0.2579056994177534,0.7032811715041952,0.867927024629497,0.12213572219726908,0.37740886379388566
frwiki,False,72.0,0.26221851967621895,0.695051999370159,0.8713294064247912,0.11803131424097642,0.3807816134448604
frwiki,False,73.0,0.26693767727679524,0.6865978840342813,0.8748369923235148,0.113801776034955,0.3844195262844141
frwiki,False,74.0,0.2718378251529866,0.6774839353063351,0.878346925575459,0.10952992434484811,0.3879943918290753
frwiki,False,75.0,0.27728781678780745,0.667638921172404,0.882035257672164,0.10502478280398109,0.3918359623394597
frwiki,False,76.0,0.2828319058767266,0.6562867875861345,0.8857139869602395,0.1004388609753145,0.3953043299569703
frwiki,False,77.0,0.2886611105789188,0.6439374058050342,0.8894104280953427,0.09577396906137604,0.3986274553035253
frwiki,False,78.0,0.29518800236416987,0.631003171699146,0.8932396013852798,0.09093303495161668,0.40221623991980054
frwiki,False,79.0,0.30198423484642567,0.6164493465399986,0.8970642933645232,0.08599910168699562,0.40538148432126186
frwiki,False,80.0,0.30935086411071744,0.6003471623415088,0.900960899710614,0.08089546193540066,0.4083067304456026
frwiki,False,81.0,0.31702311271964634,0.5825766493960275,0.9048018097666539,0.0757501875256681,0.41060540601957735
frwiki,False,82.0,0.325485714780403,0.5638238844691715,0.9086659799591518,0.07052096497371246,0.4127170564707012
frwiki,False,83.0,0.334431536015899,0.543822684772095,0.9124307077333978,0.0653218370387802,0.41416585649982235
frwiki,False,84.0,0.34410891504843577,0.5223106165693162,0.9161431535495502,0.06008695760392543,0.4148838594401429
frwiki,False,85.0,0.35461445414789117,0.5000862282273726,0.9197399388706542,0.0549317270802904,0.41497054701511454
frwiki,False,86.0,0.366328530259366,0.4765646674214761,0.9232838020464226,0.04975432157569079,0.4142380901172169
frwiki,False,87.0,0.3790164718618806,0.45151349284305714,0.9266729533053828,0.044648645346252146,0.4121008472372401
frwiki,False,88.0,0.3931805648526132,0.42500393650603224,0.9299355608861813,0.039589129281270403,0.40847336399685075
frwiki,False,89.0,0.4094711942361372,0.3965223780995299,0.9331002198189593,0.034514452770118983,0.4028927705496607
frwiki,False,90.0,0.42773681648120776,0.36561143311313893,0.9360484954639533,0.029522593024610834,0.3942416726800842
frwiki,False,91.0,0.4483337462521299,0.33243231084151253,0.9387189298459346,0.024688447174330424,0.3817804883824565
frwiki,False,92.0,0.47154500522764,0.2975923579296228,0.9410357674746043,0.02012899955763176,0.36489760268462546
frwiki,False,93.0,0.49912923072530796,0.26217505079967307,0.943028030171598,0.015878870297857513,0.34377642316389734
frwiki,False,94.0,0.534084078775236,0.2265253023611538,0.9447258067372879,0.011926971904525394,0.31812270642805623
frwiki,False,95.0,0.5743676880862447,0.1875576416954719,0.9458446406404946,0.00838870478877765,0.2827758701089491
frwiki,False,96.0,0.6267604497717263,0.14565447224575795,0.9464336129031019,0.005235105710170736,0.23637674502085354
frwiki,False,97.0,0.7023439120514416,0.10155435752472501,0.9464107795581385,0.0025976406272804307,0.17745052439879203
frwiki,False,98.0,0.8160900513160073,0.05544849925393838,0.9455249738110069,0.0007541756281119927,0.10384157665074055
frwiki,False,99.0,0.9279561472200469,0.02221314118185158,0.9442463064930564,0.0001040866453439894,0.04338768082777104
