wiki_db,user_is_anonymous_or_bot,threshold,precision,recall,accuracy,fpr,F1
gdwiki,True,0.0,0.030303030303030304,1.0,0.030303030303030304,1.0,0.05882352941176471
gdwiki,True,1.0,0.030303030303030304,1.0,0.030303030303030304,1.0,0.05882352941176471
gdwiki,True,2.0,0.030303030303030304,1.0,0.030303030303030304,1.0,0.05882352941176471
gdwiki,True,3.0,0.030303030303030304,1.0,0.030303030303030304,1.0,0.05882352941176471
gdwiki,True,4.0,0.030303030303030304,1.0,0.030303030303030304,1.0,0.05882352941176471
gdwiki,True,5.0,0.030303030303030304,1.0,0.030303030303030304,1.0,0.05882352941176471
gdwiki,True,6.0,0.030303030303030304,1.0,0.030303030303030304,1.0,0.05882352941176471
gdwiki,True,7.0,0.030328559393428812,1.0,0.031144781144781145,0.9991319444444444,0.058871627146361405
gdwiki,True,8.0,0.030328559393428812,1.0,0.031144781144781145,0.9991319444444444,0.058871627146361405
gdwiki,True,9.0,0.030379746835443037,1.0,0.03282828282828283,0.9973958333333334,0.05896805896805897
gdwiki,True,10.0,0.030456852791878174,1.0,0.03535353535353535,0.9947916666666666,0.059113300492610835
gdwiki,True,11.0,0.030508474576271188,1.0,0.037037037037037035,0.9930555555555556,0.05921052631578948
gdwiki,True,12.0,0.030638297872340424,1.0,0.041245791245791245,0.9887152777777778,0.05945499587118083
gdwiki,True,13.0,0.030742954739538857,1.0,0.04461279461279461,0.9852430555555556,0.05965202982601492
gdwiki,True,14.0,0.03103448275862069,1.0,0.05387205387205387,0.9756944444444444,0.06020066889632107
gdwiki,True,15.0,0.03171806167400881,1.0,0.07491582491582492,0.9539930555555556,0.06148590947907772
gdwiki,True,16.0,0.03234501347708895,1.0,0.09343434343434344,0.9348958333333334,0.06266318537859009
gdwiki,True,17.0,0.032846715328467155,1.0,0.10774410774410774,0.9201388888888888,0.06360424028268552
gdwiki,True,18.0,0.033582089552238806,1.0,0.12794612794612795,0.8993055555555556,0.06498194945848376
gdwiki,True,19.0,0.03441682600382409,1.0,0.14983164983164984,0.8767361111111112,0.06654343807763402
gdwiki,True,20.0,0.03525954946131244,1.0,0.17087542087542087,0.8550347222222222,0.06811731315042574
gdwiki,True,21.0,0.03625377643504532,1.0,0.19444444444444445,0.8307291666666666,0.06997084548104958
gdwiki,True,22.0,0.0371900826446281,1.0,0.21548821548821548,0.8090277777777778,0.07171314741035857
gdwiki,True,23.0,0.038135593220338986,1.0,0.2356902356902357,0.7881944444444444,0.07346938775510205
gdwiki,True,24.0,0.0392156862745098,1.0,0.25757575757575757,0.765625,0.07547169811320754
gdwiki,True,25.0,0.04086265607264472,1.0,0.2887205387205387,0.7335069444444444,0.07851690294438385
gdwiki,True,26.0,0.04295942720763723,1.0,0.32491582491582494,0.6961805555555556,0.08237986270022883
gdwiki,True,27.0,0.04534005037783375,1.0,0.36195286195286197,0.6579861111111112,0.08674698795180721
gdwiki,True,28.0,0.04851752021563342,1.0,0.4057239057239057,0.6128472222222222,0.09254498714652956
gdwiki,True,29.0,0.05325443786982249,1.0,0.4612794612794613,0.5555555555555556,0.10112359550561797
gdwiki,True,30.0,0.05872756933115824,1.0,0.5143097643097643,0.5008680555555556,0.11093990755007704
gdwiki,True,31.0,0.06569343065693431,1.0,0.569023569023569,0.4444444444444444,0.12328767123287672
gdwiki,True,32.0,0.07377049180327869,1.0,0.6195286195286195,0.3923611111111111,0.13740458015267176
gdwiki,True,33.0,0.08126410835214447,1.0,0.6574074074074074,0.3532986111111111,0.1503131524008351
gdwiki,True,34.0,0.0906801007556675,1.0,0.6961279461279462,0.3133680555555556,0.16628175519630484
gdwiki,True,35.0,0.09944751381215469,1.0,0.7255892255892256,0.2829861111111111,0.18090452261306533
gdwiki,True,36.0,0.11145510835913312,1.0,0.7584175084175084,0.24913194444444445,0.20055710306406685
gdwiki,True,37.0,0.1299638989169675,1.0,0.7971380471380471,0.2092013888888889,0.2300319488817891
gdwiki,True,38.0,0.14342629482071714,1.0,0.819023569023569,0.18663194444444445,0.2508710801393728
gdwiki,True,39.0,0.1572052401746725,1.0,0.8375420875420876,0.1675347222222222,0.2716981132075472
gdwiki,True,40.0,0.17647058823529413,1.0,0.8585858585858586,0.14583333333333334,0.3
gdwiki,True,41.0,0.1836734693877551,1.0,0.8653198653198653,0.1388888888888889,0.3103448275862069
gdwiki,True,42.0,0.1935483870967742,1.0,0.8737373737373737,0.13020833333333334,0.3243243243243243
gdwiki,True,43.0,0.2057142857142857,1.0,0.882996632996633,0.12065972222222222,0.34123222748815163
gdwiki,True,44.0,0.21686746987951808,1.0,0.8905723905723906,0.11284722222222222,0.3564356435643564
gdwiki,True,45.0,0.23225806451612904,1.0,0.8998316498316499,0.1032986111111111,0.3769633507853404
gdwiki,True,46.0,0.23841059602649006,1.0,0.9031986531986532,0.0998263888888889,0.3850267379679145
gdwiki,True,47.0,0.2517482517482518,1.0,0.9099326599326599,0.09288194444444445,0.40223463687150846
gdwiki,True,48.0,0.26666666666666666,1.0,0.9166666666666666,0.0859375,0.4210526315789474
gdwiki,True,49.0,0.27906976744186046,1.0,0.9217171717171717,0.08072916666666667,0.43636363636363634
gdwiki,True,50.0,0.2903225806451613,1.0,0.9259259259259259,0.0763888888888889,0.45000000000000007
gdwiki,True,51.0,0.29508196721311475,1.0,0.9276094276094277,0.07465277777777778,0.4556962025316456
gdwiki,True,52.0,0.3130434782608696,1.0,0.9335016835016835,0.0685763888888889,0.4768211920529802
gdwiki,True,53.0,0.3185840707964602,1.0,0.9351851851851852,0.06684027777777778,0.4832214765100671
gdwiki,True,54.0,0.33962264150943394,1.0,0.9410774410774411,0.06076388888888889,0.5070422535211268
gdwiki,True,55.0,0.35294117647058826,1.0,0.9444444444444444,0.057291666666666664,0.5217391304347826
gdwiki,True,56.0,0.36,1.0,0.9461279461279462,0.05555555555555555,0.5294117647058824
gdwiki,True,57.0,0.36363636363636365,1.0,0.946969696969697,0.0546875,0.5333333333333333
gdwiki,True,58.0,0.36363636363636365,1.0,0.946969696969697,0.0546875,0.5333333333333333
gdwiki,True,59.0,0.3673469387755102,1.0,0.9478114478114478,0.05381944444444445,0.5373134328358209
gdwiki,True,60.0,0.375,1.0,0.9494949494949495,0.052083333333333336,0.5454545454545454
gdwiki,True,61.0,0.391304347826087,1.0,0.9528619528619529,0.04861111111111111,0.5625
gdwiki,True,62.0,0.3956043956043956,1.0,0.9537037037037037,0.04774305555555555,0.5669291338582677
gdwiki,True,63.0,0.4,1.0,0.9545454545454546,0.046875,0.5714285714285715
gdwiki,True,64.0,0.4,1.0,0.9545454545454546,0.046875,0.5714285714285715
gdwiki,True,65.0,0.4,1.0,0.9545454545454546,0.046875,0.5714285714285715
gdwiki,True,66.0,0.4,1.0,0.9545454545454546,0.046875,0.5714285714285715
gdwiki,True,67.0,0.4,1.0,0.9545454545454546,0.046875,0.5714285714285715
gdwiki,True,68.0,0.3977272727272727,0.9722222222222222,0.9545454545454546,0.04600694444444445,0.5645161290322581
gdwiki,True,69.0,0.4166666666666667,0.9722222222222222,0.9579124579124579,0.042534722222222224,0.5833333333333334
gdwiki,True,70.0,0.4166666666666667,0.9722222222222222,0.9579124579124579,0.042534722222222224,0.5833333333333334
gdwiki,True,71.0,0.4166666666666667,0.9722222222222222,0.9579124579124579,0.042534722222222224,0.5833333333333334
gdwiki,True,72.0,0.42168674698795183,0.9722222222222222,0.9587542087542088,0.041666666666666664,0.5882352941176471
gdwiki,True,73.0,0.4268292682926829,0.9722222222222222,0.9595959595959596,0.04079861111111111,0.5932203389830508
gdwiki,True,74.0,0.4375,0.9722222222222222,0.9612794612794613,0.0390625,0.603448275862069
gdwiki,True,75.0,0.4375,0.9722222222222222,0.9612794612794613,0.0390625,0.603448275862069
gdwiki,True,76.0,0.4375,0.9722222222222222,0.9612794612794613,0.0390625,0.603448275862069
gdwiki,True,77.0,0.43037974683544306,0.9444444444444444,0.9604377104377104,0.0390625,0.5913043478260869
gdwiki,True,78.0,0.43037974683544306,0.9444444444444444,0.9604377104377104,0.0390625,0.5913043478260869
gdwiki,True,79.0,0.42857142857142855,0.9166666666666666,0.9604377104377104,0.03819444444444445,0.5840707964601769
gdwiki,True,80.0,0.43243243243243246,0.8888888888888888,0.9612794612794613,0.036458333333333336,0.5818181818181818
gdwiki,True,81.0,0.4225352112676056,0.8333333333333334,0.9604377104377104,0.035590277777777776,0.5607476635514019
gdwiki,True,82.0,0.4142857142857143,0.8055555555555556,0.9595959595959596,0.035590277777777776,0.5471698113207547
gdwiki,True,83.0,0.42424242424242425,0.7777777777777778,0.9612794612794613,0.03298611111111111,0.5490196078431373
gdwiki,True,84.0,0.4307692307692308,0.7777777777777778,0.9621212121212122,0.03211805555555555,0.5544554455445544
gdwiki,True,85.0,0.4444444444444444,0.7777777777777778,0.9638047138047138,0.030381944444444444,0.5656565656565655
gdwiki,True,86.0,0.4576271186440678,0.75,0.9654882154882155,0.027777777777777776,0.5684210526315788
gdwiki,True,87.0,0.45614035087719296,0.7222222222222222,0.9654882154882155,0.026909722222222224,0.5591397849462365
gdwiki,True,88.0,0.4727272727272727,0.7222222222222222,0.9671717171717171,0.025173611111111112,0.5714285714285714
gdwiki,True,89.0,0.48148148148148145,0.7222222222222222,0.968013468013468,0.024305555555555556,0.5777777777777777
gdwiki,True,90.0,0.5,0.6944444444444444,0.9696969696969697,0.021701388888888888,0.5813953488372093
gdwiki,True,91.0,0.5476190476190477,0.6388888888888888,0.9730639730639731,0.016493055555555556,0.5897435897435898
gdwiki,True,92.0,0.5384615384615384,0.5833333333333334,0.9722222222222222,0.015625,0.5599999999999999
gdwiki,True,93.0,0.6,0.5833333333333334,0.9755892255892256,0.012152777777777778,0.591549295774648
gdwiki,True,94.0,0.65625,0.5833333333333334,0.9781144781144782,0.009548611111111112,0.6176470588235293
gdwiki,True,95.0,0.6666666666666666,0.4444444444444444,0.9764309764309764,0.006944444444444444,0.5333333333333333
gdwiki,True,96.0,0.7647058823529411,0.3611111111111111,0.9772727272727273,0.003472222222222222,0.490566037735849
gdwiki,True,97.0,0.8,0.3333333333333333,0.9772727272727273,0.0026041666666666665,0.47058823529411764
gdwiki,True,98.0,0.8,0.2222222222222222,0.9747474747474747,0.001736111111111111,0.3478260869565218
gdwiki,True,99.0,1.0,0.19444444444444445,0.9755892255892256,0.0,0.32558139534883723
gdwiki,False,0.0,0.014251207729468598,1.0,0.014251207729468598,1.0,0.0281019290307216
gdwiki,False,1.0,0.014289174134172923,1.0,0.016908212560386472,0.9973045822102425,0.028175740210124166
gdwiki,False,2.0,0.014735264735264736,1.0,0.04710144927536232,0.9666748345993629,0.029042579374846174
gdwiki,False,3.0,0.015356585111920874,1.0,0.08623188405797101,0.9269786816956628,0.03024865419123302
gdwiki,False,4.0,0.01585094549499444,0.9661016949152542,0.14468599033816426,0.8671894143592257,0.031190150478796173
gdwiki,False,5.0,0.016691068814055635,0.9661016949152542,0.18840579710144928,0.8228375398186719,0.03281519861830742
gdwiki,False,6.0,0.017478152309612985,0.9491525423728814,0.2388888888888889,0.771379563832394,0.03432424149555623
gdwiki,False,7.0,0.018518518518518517,0.9322033898305084,0.29492753623188406,0.7142857142857143,0.036315615714757346
gdwiki,False,8.0,0.019772976931526912,0.9152542372881356,0.3521739130434783,0.6559666748345994,0.038709677419354833
gdwiki,False,9.0,0.020750199521149242,0.8813559322033898,0.40555555555555556,0.60132320509679,0.0405458089668616
gdwiki,False,10.0,0.021573604060913704,0.864406779661017,0.4393719806763285,0.5667728497917177,0.04209657449442839
gdwiki,False,11.0,0.022686832740213523,0.864406779661017,0.4673913043478261,0.5383484440088213,0.044213263979193757
gdwiki,False,12.0,0.023776223776223775,0.864406779661017,0.49227053140096616,0.5131095319774565,0.04627949183303085
gdwiki,False,13.0,0.024963289280469897,0.864406779661017,0.5169082125603864,0.4881156579269787,0.048525214081826834
gdwiki,False,14.0,0.026140440799589954,0.864406779661017,0.5391304347826087,0.46557216368537124,0.05074626865671642
gdwiki,False,15.0,0.02696871628910464,0.847457627118644,0.5620772946859903,0.4420485175202156,0.05227391531625719
gdwiki,False,16.0,0.02820078962210942,0.847457627118644,0.5816425120772947,0.4222004410683656,0.05458515283842795
gdwiki,False,17.0,0.029069767441860465,0.847457627118644,0.5944444444444444,0.40921342808135264,0.05621135469364811
gdwiki,False,18.0,0.030211480362537766,0.847457627118644,0.6101449275362318,0.3932859593236952,0.05834305717619604
gdwiki,False,19.0,0.030663329161451813,0.8305084745762712,0.6234299516908213,0.3795638323940211,0.05914302957151479
gdwiki,False,20.0,0.031776913099870296,0.8305084745762712,0.6369565217391304,0.36584170546434697,0.06121174266083697
gdwiki,False,21.0,0.03290799194089993,0.8305084745762712,0.6497584541062802,0.352854692477334,0.06330749354005169
gdwiki,False,22.0,0.03409881697981907,0.8305084745762712,0.6623188405797101,0.340112717471208,0.06550802139037434
gdwiki,False,23.0,0.03535353535353535,0.8305084745762712,0.6746376811594202,0.3276157804459691,0.06782006920415225
gdwiki,False,24.0,0.036539895600298286,0.8305084745762712,0.6855072463768116,0.31658907130605246,0.07
gdwiki,False,25.0,0.038221528861154444,0.8305084745762712,0.6997584541062802,0.3021318304337172,0.07307979120059657
gdwiki,False,26.0,0.039247751430907606,0.8135593220338984,0.7135265700483092,0.2879196275422691,0.0748829953198128
gdwiki,False,27.0,0.041343669250646,0.8135593220338984,0.7285024154589372,0.2727272727272727,0.07868852459016394
gdwiki,False,28.0,0.04375569735642662,0.8135593220338984,0.7439613526570048,0.2570448419505023,0.08304498269896193
gdwiki,False,29.0,0.04682926829268293,0.8135593220338984,0.7613526570048309,0.23940210732663564,0.08856088560885608
gdwiki,False,30.0,0.05042016806722689,0.8135593220338984,0.7789855072463768,0.2215143347218819,0.09495548961424333
gdwiki,False,31.0,0.0547945205479452,0.8135593220338984,0.7973429951690821,0.20289144817446705,0.10267379679144385
gdwiki,False,32.0,0.05977584059775841,0.8135593220338984,0.8149758454106281,0.1850036755697133,0.11136890951276102
gdwiki,False,33.0,0.06408544726301736,0.8135593220338984,0.8280193236714976,0.17177162460181328,0.11881188118811882
gdwiki,False,34.0,0.06936416184971098,0.8135593220338984,0.8417874396135265,0.15780445969125215,0.1278295605858855
gdwiki,False,35.0,0.07535321821036106,0.8135593220338984,0.855072463768116,0.14432737074246507,0.1379310344827586
gdwiki,False,36.0,0.08020477815699659,0.7966101694915254,0.8669082125603865,0.1320754716981132,0.14573643410852713
gdwiki,False,37.0,0.08867924528301886,0.7966101694915254,0.8804347826086957,0.1183533447684391,0.1595925297113752
gdwiki,False,38.0,0.09552845528455285,0.7966101694915254,0.8896135265700483,0.10904190149473168,0.17059891107078043
gdwiki,False,39.0,0.10151187904967603,0.7966101694915254,0.8966183574879227,0.1019358000490076,0.18007662835249041
gdwiki,False,40.0,0.10981308411214953,0.7966101694915254,0.9050724637681159,0.09335947071796129,0.19301848049281314
gdwiki,False,41.0,0.11633663366336634,0.7966101694915254,0.9108695652173913,0.08747855917667238,0.20302375809935208
gdwiki,False,42.0,0.12176165803108809,0.7966101694915254,0.9152173913043479,0.08306787552070571,0.21123595505617976
gdwiki,False,43.0,0.12806539509536785,0.7966101694915254,0.9198067632850242,0.078412153883852,0.22065727699530516
gdwiki,False,44.0,0.13352272727272727,0.7966101694915254,0.9234299516908212,0.07473658417054643,0.2287104622871046
gdwiki,False,45.0,0.1407185628742515,0.7966101694915254,0.9277777777777778,0.07032590051457976,0.23918575063613232
gdwiki,False,46.0,0.14551083591331268,0.7966101694915254,0.9304347826086956,0.06763048272482235,0.24607329842931935
gdwiki,False,47.0,0.15112540192926044,0.7966101694915254,0.9333333333333333,0.0646900269541779,0.25405405405405407
gdwiki,False,48.0,0.15614617940199335,0.7966101694915254,0.9357487922705314,0.062239647145307525,0.26111111111111107
gdwiki,False,49.0,0.16376306620209058,0.7966101694915254,0.9391304347826087,0.058809115412888996,0.27167630057803466
gdwiki,False,50.0,0.16845878136200718,0.7966101694915254,0.9410628019323671,0.056848811565792697,0.2781065088757396
gdwiki,False,51.0,0.17279411764705882,0.7966101694915254,0.9427536231884058,0.05513354569958344,0.283987915407855
gdwiki,False,52.0,0.17870722433460076,0.7966101694915254,0.9449275362318841,0.0529282038716001,0.2919254658385093
gdwiki,False,53.0,0.1857707509881423,0.7966101694915254,0.9473429951690822,0.05047782406272972,0.30128205128205127
gdwiki,False,54.0,0.19665271966527198,0.7966101694915254,0.9507246376811594,0.0470472923303112,0.31543624161073824
gdwiki,False,55.0,0.20346320346320346,0.7966101694915254,0.9526570048309179,0.0450869884832149,0.32413793103448274
gdwiki,False,56.0,0.20704845814977973,0.7966101694915254,0.9536231884057971,0.04410683655966675,0.3286713286713287
gdwiki,False,57.0,0.20982142857142858,0.7966101694915254,0.9543478260869566,0.043371722617005636,0.33215547703180215
gdwiki,False,58.0,0.21559633027522937,0.7966101694915254,0.9557971014492753,0.04190149473168341,0.3393501805054152
gdwiki,False,59.0,0.21962616822429906,0.7966101694915254,0.9567632850241546,0.04092134280813526,0.3443223443223443
gdwiki,False,60.0,0.22380952380952382,0.7966101694915254,0.9577294685990339,0.03994119088458711,0.3494423791821562
gdwiki,False,61.0,0.2315270935960591,0.7966101694915254,0.9594202898550724,0.03822592501837785,0.3587786259541985
gdwiki,False,62.0,0.23618090452261306,0.7966101694915254,0.9603864734299516,0.037245773094829696,0.36434108527131787
gdwiki,False,63.0,0.2422680412371134,0.7966101694915254,0.9615942028985507,0.036020583190394515,0.3715415019762846
gdwiki,False,64.0,0.24607329842931938,0.7966101694915254,0.9623188405797102,0.035285469247733396,0.37600000000000006
gdwiki,False,65.0,0.25133689839572193,0.7966101694915254,0.9632850241545894,0.03430531732418525,0.3821138211382114
gdwiki,False,66.0,0.2554347826086957,0.7966101694915254,0.9640096618357488,0.03357020338152414,0.3868312757201646
gdwiki,False,67.0,0.2655367231638418,0.7966101694915254,0.9657004830917875,0.031854937515314874,0.3983050847457627
gdwiki,False,68.0,0.2658959537572254,0.7796610169491526,0.966183574879227,0.031119823572653763,0.39655172413793105
gdwiki,False,69.0,0.2754491017964072,0.7796610169491526,0.9676328502415459,0.029649595687331536,0.40707964601769914
gdwiki,False,70.0,0.2804878048780488,0.7796610169491526,0.9683574879227053,0.028914481744670425,0.4125560538116593
gdwiki,False,71.0,0.2929936305732484,0.7796610169491526,0.970048309178744,0.02719921587846116,0.42592592592592593
gdwiki,False,72.0,0.3,0.7627118644067796,0.971256038647343,0.025728987993138937,0.43062200956937796
gdwiki,False,73.0,0.32142857142857145,0.7627118644067796,0.9736714975845411,0.02327860818426856,0.45226130653266333
gdwiki,False,74.0,0.3284671532846715,0.7627118644067796,0.9743961352657005,0.02254349424160745,0.4591836734693878
gdwiki,False,75.0,0.33088235294117646,0.7627118644067796,0.9746376811594203,0.022298456260720412,0.4615384615384615
gdwiki,False,76.0,0.3308270676691729,0.7457627118644068,0.9748792270531401,0.021808380298946335,0.4583333333333333
gdwiki,False,77.0,0.3333333333333333,0.7288135593220338,0.9753623188405797,0.021073266356285224,0.4574468085106383
gdwiki,False,78.0,0.3467741935483871,0.7288135593220338,0.9765700483091787,0.019848076451850036,0.4699453551912569
gdwiki,False,79.0,0.3565217391304348,0.6949152542372882,0.9777777777777777,0.018132810585640775,0.47126436781609193
gdwiki,False,80.0,0.35714285714285715,0.6779661016949152,0.9780193236714976,0.017642734623866698,0.4678362573099415
gdwiki,False,81.0,0.35185185185185186,0.6440677966101694,0.9780193236714976,0.017152658662092625,0.4550898203592814
gdwiki,False,82.0,0.34615384615384615,0.6101694915254238,0.9780193236714976,0.01666258270031855,0.44171779141104295
gdwiki,False,83.0,0.34375,0.559322033898305,0.9785024154589372,0.015437392795883362,0.4258064516129032
gdwiki,False,84.0,0.3473684210526316,0.559322033898305,0.978743961352657,0.015192354814996324,0.42857142857142855
gdwiki,False,85.0,0.358695652173913,0.559322033898305,0.9794685990338164,0.014457240872335212,0.4370860927152318
gdwiki,False,86.0,0.3855421686746988,0.5423728813559322,0.981159420289855,0.012496937025238911,0.4507042253521127
gdwiki,False,87.0,0.3875,0.5254237288135594,0.9814009661835749,0.012006861063464836,0.4460431654676259
gdwiki,False,88.0,0.39473684210526316,0.5084745762711864,0.9818840579710145,0.011271747120803725,0.4444444444444444
gdwiki,False,89.0,0.410958904109589,0.5084745762711864,0.9826086956521739,0.010536633178142612,0.45454545454545453
gdwiki,False,90.0,0.43283582089552236,0.4915254237288136,0.9835748792270531,0.009311443273707424,0.46031746031746035
gdwiki,False,91.0,0.4576271186440678,0.4576271186440678,0.9845410628019323,0.0078412153883852,0.4576271186440678
gdwiki,False,92.0,0.44642857142857145,0.423728813559322,0.9842995169082126,0.007596177407498162,0.4347826086956522
gdwiki,False,93.0,0.5102040816326531,0.423728813559322,0.9859903381642512,0.0058809115412889,0.46296296296296297
gdwiki,False,94.0,0.5952380952380952,0.423728813559322,0.9876811594202899,0.004165645675079637,0.49504950495049505
gdwiki,False,95.0,0.6060606060606061,0.3389830508474576,0.9874396135265701,0.0031854937515314874,0.43478260869565216
gdwiki,False,96.0,0.6666666666666666,0.2711864406779661,0.9876811594202899,0.0019603038470963,0.38554216867469876
gdwiki,False,97.0,0.7777777777777778,0.23728813559322035,0.9881642512077294,0.00098015192354815,0.3636363636363637
gdwiki,False,98.0,0.7272727272727273,0.13559322033898305,0.9869565217391304,0.0007351139426611125,0.2285714285714286
gdwiki,False,99.0,1.0,0.11864406779661017,0.9874396135265701,0.0,0.21212121212121215
