wiki_db,user_is_anonymous_or_bot,threshold,precision,recall,accuracy,fpr,F1
hsbwiki,True,0.0,0.03940886699507389,1.0,0.03940886699507389,1.0,0.07582938388625593
hsbwiki,True,1.0,0.03940886699507389,1.0,0.03940886699507389,1.0,0.07582938388625593
hsbwiki,True,2.0,0.03940886699507389,1.0,0.03940886699507389,1.0,0.07582938388625593
hsbwiki,True,3.0,0.03940886699507389,1.0,0.03940886699507389,1.0,0.07582938388625593
hsbwiki,True,4.0,0.03940886699507389,1.0,0.03940886699507389,1.0,0.07582938388625593
hsbwiki,True,5.0,0.03940886699507389,1.0,0.03940886699507389,1.0,0.07582938388625593
hsbwiki,True,6.0,0.03940886699507389,1.0,0.03940886699507389,1.0,0.07582938388625593
hsbwiki,True,7.0,0.03940886699507389,1.0,0.03940886699507389,1.0,0.07582938388625593
hsbwiki,True,8.0,0.03940886699507389,1.0,0.03940886699507389,1.0,0.07582938388625593
hsbwiki,True,9.0,0.03940886699507389,1.0,0.03940886699507389,1.0,0.07582938388625593
hsbwiki,True,10.0,0.03940886699507389,1.0,0.03940886699507389,1.0,0.07582938388625593
hsbwiki,True,11.0,0.03940886699507389,1.0,0.03940886699507389,1.0,0.07582938388625593
hsbwiki,True,12.0,0.039603960396039604,1.0,0.04433497536945813,0.9948717948717949,0.07619047619047618
hsbwiki,True,13.0,0.039603960396039604,1.0,0.04433497536945813,0.9948717948717949,0.07619047619047618
hsbwiki,True,14.0,0.03980099502487562,1.0,0.04926108374384237,0.9897435897435898,0.07655502392344497
hsbwiki,True,15.0,0.04,1.0,0.054187192118226604,0.9846153846153847,0.07692307692307693
hsbwiki,True,16.0,0.04060913705583756,1.0,0.06896551724137931,0.9692307692307692,0.07804878048780488
hsbwiki,True,17.0,0.041025641025641026,1.0,0.07881773399014778,0.958974358974359,0.07881773399014778
hsbwiki,True,18.0,0.041237113402061855,1.0,0.08374384236453201,0.9538461538461539,0.0792079207920792
hsbwiki,True,19.0,0.042105263157894736,1.0,0.10344827586206896,0.9333333333333333,0.08080808080808081
hsbwiki,True,20.0,0.043243243243243246,1.0,0.12807881773399016,0.9076923076923077,0.08290155440414508
hsbwiki,True,21.0,0.0449438202247191,1.0,0.1625615763546798,0.8717948717948718,0.08602150537634408
hsbwiki,True,22.0,0.04597701149425287,1.0,0.18226600985221675,0.8512820512820513,0.08791208791208792
hsbwiki,True,23.0,0.047058823529411764,1.0,0.2019704433497537,0.8307692307692308,0.0898876404494382
hsbwiki,True,24.0,0.04878048780487805,1.0,0.2315270935960591,0.8,0.09302325581395349
hsbwiki,True,25.0,0.05063291139240506,1.0,0.26108374384236455,0.7692307692307693,0.09638554216867469
hsbwiki,True,26.0,0.05228758169934641,1.0,0.2857142857142857,0.7435897435897436,0.09937888198757763
hsbwiki,True,27.0,0.05673758865248227,1.0,0.3448275862068966,0.6820512820512821,0.10738255033557045
hsbwiki,True,28.0,0.06060606060606061,1.0,0.3891625615763547,0.6358974358974359,0.1142857142857143
hsbwiki,True,29.0,0.06349206349206349,1.0,0.4187192118226601,0.6051282051282051,0.11940298507462686
hsbwiki,True,30.0,0.06779661016949153,1.0,0.458128078817734,0.5641025641025641,0.12698412698412698
hsbwiki,True,31.0,0.07766990291262135,1.0,0.5320197044334976,0.48717948717948717,0.14414414414414414
hsbwiki,True,32.0,0.08080808080808081,1.0,0.5517241379310345,0.4666666666666667,0.14953271028037382
hsbwiki,True,33.0,0.09195402298850575,1.0,0.6108374384236454,0.40512820512820513,0.16842105263157897
hsbwiki,True,34.0,0.09876543209876543,1.0,0.6403940886699507,0.37435897435897436,0.1797752808988764
hsbwiki,True,35.0,0.1111111111111111,1.0,0.6847290640394089,0.3282051282051282,0.19999999999999998
hsbwiki,True,36.0,0.12121212121212122,1.0,0.7142857142857143,0.29743589743589743,0.21621621621621626
hsbwiki,True,37.0,0.13559322033898305,1.0,0.7487684729064039,0.26153846153846155,0.23880597014925373
hsbwiki,True,38.0,0.1509433962264151,1.0,0.7783251231527094,0.23076923076923078,0.26229508196721313
hsbwiki,True,39.0,0.16666666666666666,1.0,0.8029556650246306,0.20512820512820512,0.2857142857142857
hsbwiki,True,40.0,0.19047619047619047,1.0,0.8325123152709359,0.17435897435897435,0.32
hsbwiki,True,41.0,0.18421052631578946,0.875,0.8423645320197044,0.15897435897435896,0.30434782608695654
hsbwiki,True,42.0,0.2,0.875,0.8571428571428571,0.14358974358974358,0.32558139534883723
hsbwiki,True,43.0,0.23333333333333334,0.875,0.8817733990147784,0.11794871794871795,0.3684210526315789
hsbwiki,True,44.0,0.23333333333333334,0.875,0.8817733990147784,0.11794871794871795,0.3684210526315789
hsbwiki,True,45.0,0.2413793103448276,0.875,0.8866995073891626,0.11282051282051282,0.3783783783783784
hsbwiki,True,46.0,0.2413793103448276,0.875,0.8866995073891626,0.11282051282051282,0.3783783783783784
hsbwiki,True,47.0,0.25,0.875,0.8916256157635468,0.1076923076923077,0.3888888888888889
hsbwiki,True,48.0,0.2692307692307692,0.875,0.9014778325123153,0.09743589743589744,0.411764705882353
hsbwiki,True,49.0,0.28,0.875,0.9064039408866995,0.09230769230769231,0.42424242424242425
hsbwiki,True,50.0,0.2916666666666667,0.875,0.9113300492610837,0.08717948717948718,0.43750000000000006
hsbwiki,True,51.0,0.3181818181818182,0.875,0.9211822660098522,0.07692307692307693,0.4666666666666667
hsbwiki,True,52.0,0.3333333333333333,0.875,0.9261083743842364,0.07179487179487179,0.48275862068965514
hsbwiki,True,53.0,0.3333333333333333,0.875,0.9261083743842364,0.07179487179487179,0.48275862068965514
hsbwiki,True,54.0,0.3333333333333333,0.875,0.9261083743842364,0.07179487179487179,0.48275862068965514
hsbwiki,True,55.0,0.3333333333333333,0.875,0.9261083743842364,0.07179487179487179,0.48275862068965514
hsbwiki,True,56.0,0.3333333333333333,0.875,0.9261083743842364,0.07179487179487179,0.48275862068965514
hsbwiki,True,57.0,0.35,0.875,0.9310344827586207,0.06666666666666667,0.4999999999999999
hsbwiki,True,58.0,0.35,0.875,0.9310344827586207,0.06666666666666667,0.4999999999999999
hsbwiki,True,59.0,0.35,0.875,0.9310344827586207,0.06666666666666667,0.4999999999999999
hsbwiki,True,60.0,0.35,0.875,0.9310344827586207,0.06666666666666667,0.4999999999999999
hsbwiki,True,61.0,0.35,0.875,0.9310344827586207,0.06666666666666667,0.4999999999999999
hsbwiki,True,62.0,0.3157894736842105,0.75,0.9261083743842364,0.06666666666666667,0.44444444444444436
hsbwiki,True,63.0,0.3157894736842105,0.75,0.9261083743842364,0.06666666666666667,0.44444444444444436
hsbwiki,True,64.0,0.3333333333333333,0.75,0.9310344827586207,0.06153846153846154,0.46153846153846156
hsbwiki,True,65.0,0.3333333333333333,0.75,0.9310344827586207,0.06153846153846154,0.46153846153846156
hsbwiki,True,66.0,0.3333333333333333,0.75,0.9310344827586207,0.06153846153846154,0.46153846153846156
hsbwiki,True,67.0,0.29411764705882354,0.625,0.9261083743842364,0.06153846153846154,0.4
hsbwiki,True,68.0,0.29411764705882354,0.625,0.9261083743842364,0.06153846153846154,0.4
hsbwiki,True,69.0,0.29411764705882354,0.625,0.9261083743842364,0.06153846153846154,0.4
hsbwiki,True,70.0,0.3125,0.625,0.9310344827586207,0.05641025641025641,0.4166666666666667
hsbwiki,True,71.0,0.3125,0.625,0.9310344827586207,0.05641025641025641,0.4166666666666667
hsbwiki,True,72.0,0.3125,0.625,0.9310344827586207,0.05641025641025641,0.4166666666666667
hsbwiki,True,73.0,0.3125,0.625,0.9310344827586207,0.05641025641025641,0.4166666666666667
hsbwiki,True,74.0,0.3333333333333333,0.625,0.9359605911330049,0.05128205128205128,0.43478260869565216
hsbwiki,True,75.0,0.3333333333333333,0.625,0.9359605911330049,0.05128205128205128,0.43478260869565216
hsbwiki,True,76.0,0.3333333333333333,0.625,0.9359605911330049,0.05128205128205128,0.43478260869565216
hsbwiki,True,77.0,0.3333333333333333,0.625,0.9359605911330049,0.05128205128205128,0.43478260869565216
hsbwiki,True,78.0,0.35714285714285715,0.625,0.9408866995073891,0.046153846153846156,0.45454545454545453
hsbwiki,True,79.0,0.35714285714285715,0.625,0.9408866995073891,0.046153846153846156,0.45454545454545453
hsbwiki,True,80.0,0.35714285714285715,0.625,0.9408866995073891,0.046153846153846156,0.45454545454545453
hsbwiki,True,81.0,0.35714285714285715,0.625,0.9408866995073891,0.046153846153846156,0.45454545454545453
hsbwiki,True,82.0,0.35714285714285715,0.625,0.9408866995073891,0.046153846153846156,0.45454545454545453
hsbwiki,True,83.0,0.35714285714285715,0.625,0.9408866995073891,0.046153846153846156,0.45454545454545453
hsbwiki,True,84.0,0.2727272727272727,0.375,0.9359605911330049,0.041025641025641026,0.3157894736842105
hsbwiki,True,85.0,0.3,0.375,0.9408866995073891,0.035897435897435895,0.33333333333333326
hsbwiki,True,86.0,0.375,0.375,0.9507389162561576,0.02564102564102564,0.375
hsbwiki,True,87.0,0.4,0.25,0.9556650246305419,0.015384615384615385,0.3076923076923077
hsbwiki,True,88.0,0.4,0.25,0.9556650246305419,0.015384615384615385,0.3076923076923077
hsbwiki,True,89.0,0.3333333333333333,0.125,0.9556650246305419,0.010256410256410256,0.18181818181818182
hsbwiki,True,90.0,0.3333333333333333,0.125,0.9556650246305419,0.010256410256410256,0.18181818181818182
hsbwiki,True,91.0,0.5,0.125,0.9605911330049262,0.005128205128205128,0.2
hsbwiki,True,92.0,0.5,0.125,0.9605911330049262,0.005128205128205128,0.2
hsbwiki,True,93.0,0.5,0.125,0.9605911330049262,0.005128205128205128,0.2
hsbwiki,True,94.0,0.0,0.0,0.9556650246305419,0.005128205128205128,0.2
hsbwiki,True,95.0,0.0,0.0,0.9605911330049262,0.0,0.2
hsbwiki,True,96.0,0.0,0.0,0.9605911330049262,0.0,0.2
hsbwiki,True,97.0,0.0,0.0,0.9605911330049262,0.0,0.2
hsbwiki,True,98.0,0.0,0.0,0.9605911330049262,0.0,0.2
hsbwiki,True,99.0,0.0,0.0,0.9605911330049262,0.0,0.2
hsbwiki,False,0.0,0.029508196721311476,1.0,0.029508196721311476,1.0,0.057324840764331204
hsbwiki,False,1.0,0.029508196721311476,1.0,0.029508196721311476,1.0,0.057324840764331204
hsbwiki,False,2.0,0.029605263157894735,1.0,0.03278688524590164,0.9966216216216216,0.05750798722044728
hsbwiki,False,3.0,0.0297029702970297,1.0,0.036065573770491806,0.9932432432432432,0.05769230769230769
hsbwiki,False,4.0,0.030100334448160536,1.0,0.04918032786885246,0.9797297297297297,0.05844155844155845
hsbwiki,False,5.0,0.030612244897959183,1.0,0.06557377049180328,0.9628378378378378,0.05940594059405941
hsbwiki,False,6.0,0.03103448275862069,1.0,0.07868852459016394,0.9493243243243243,0.06020066889632107
hsbwiki,False,7.0,0.03180212014134275,1.0,0.10163934426229508,0.9256756756756757,0.06164383561643835
hsbwiki,False,8.0,0.03272727272727273,1.0,0.12786885245901639,0.8986486486486487,0.06338028169014084
hsbwiki,False,9.0,0.033271719038817,1.0,0.14262295081967213,0.8834459459459459,0.06440071556350625
hsbwiki,False,10.0,0.03435114503816794,1.0,0.17049180327868851,0.8547297297297297,0.06642066420664207
hsbwiki,False,11.0,0.03515625,1.0,0.1901639344262295,0.8344594594594594,0.06792452830188679
hsbwiki,False,12.0,0.035856573705179286,1.0,0.20655737704918034,0.8175675675675675,0.06923076923076923
hsbwiki,False,13.0,0.036734693877551024,1.0,0.2262295081967213,0.7972972972972973,0.07086614173228348
hsbwiki,False,14.0,0.03765690376569038,1.0,0.2459016393442623,0.777027027027027,0.07258064516129033
hsbwiki,False,15.0,0.03854389721627409,1.0,0.2639344262295082,0.7584459459459459,0.07422680412371134
hsbwiki,False,16.0,0.03956043956043956,1.0,0.2836065573770492,0.7381756756756757,0.07610993657505284
hsbwiki,False,17.0,0.04090909090909091,1.0,0.3081967213114754,0.7128378378378378,0.07860262008733623
hsbwiki,False,18.0,0.04186046511627907,1.0,0.32459016393442625,0.6959459459459459,0.08035714285714286
hsbwiki,False,19.0,0.043689320388349516,1.0,0.3540983606557377,0.6655405405405406,0.08372093023255814
hsbwiki,False,20.0,0.04591836734693878,1.0,0.38688524590163936,0.6317567567567568,0.0878048780487805
hsbwiki,False,21.0,0.048,1.0,0.41475409836065574,0.6030405405405406,0.0916030534351145
hsbwiki,False,22.0,0.04945054945054945,1.0,0.43278688524590164,0.5844594594594594,0.09424083769633507
hsbwiki,False,23.0,0.05056179775280899,1.0,0.4459016393442623,0.5709459459459459,0.0962566844919786
hsbwiki,False,24.0,0.052478134110787174,1.0,0.4672131147540984,0.5489864864864865,0.0997229916897507
hsbwiki,False,25.0,0.05389221556886228,1.0,0.4819672131147541,0.5337837837837838,0.10227272727272727
hsbwiki,False,26.0,0.0529595015576324,0.9444444444444444,0.5,0.5135135135135135,0.10029498525073745
hsbwiki,False,27.0,0.056291390728476824,0.9444444444444444,0.5311475409836065,0.4814189189189189,0.10625000000000001
hsbwiki,False,28.0,0.056140350877192984,0.8888888888888888,0.5557377049180328,0.4543918918918919,0.10561056105610561
hsbwiki,False,29.0,0.057971014492753624,0.8888888888888888,0.5704918032786885,0.4391891891891892,0.10884353741496598
hsbwiki,False,30.0,0.06015037593984962,0.8888888888888888,0.5868852459016394,0.4222972972972973,0.11267605633802817
hsbwiki,False,31.0,0.06611570247933884,0.8888888888888888,0.6262295081967213,0.38175675675675674,0.12307692307692308
hsbwiki,False,32.0,0.06808510638297872,0.8888888888888888,0.6377049180327868,0.36993243243243246,0.12648221343873517
hsbwiki,False,33.0,0.07441860465116279,0.8888888888888888,0.6704918032786885,0.33614864864864863,0.13733905579399142
hsbwiki,False,34.0,0.07804878048780488,0.8888888888888888,0.6868852459016394,0.31925675675675674,0.14349775784753366
hsbwiki,False,35.0,0.08247422680412371,0.8888888888888888,0.7049180327868853,0.30067567567567566,0.15094339622641506
hsbwiki,False,36.0,0.08196721311475409,0.8333333333333334,0.719672131147541,0.28378378378378377,0.14925373134328357
hsbwiki,False,37.0,0.08771929824561403,0.8333333333333334,0.739344262295082,0.2635135135135135,0.15873015873015872
hsbwiki,False,38.0,0.09316770186335403,0.8333333333333334,0.7557377049180328,0.24662162162162163,0.16759776536312848
hsbwiki,False,39.0,0.09740259740259741,0.8333333333333334,0.7672131147540984,0.23479729729729729,0.17441860465116282
hsbwiki,False,40.0,0.10344827586206896,0.8333333333333334,0.7819672131147541,0.2195945945945946,0.18404907975460125
hsbwiki,False,41.0,0.10144927536231885,0.7777777777777778,0.7901639344262295,0.20945945945945946,0.1794871794871795
hsbwiki,False,42.0,0.1044776119402985,0.7777777777777778,0.7967213114754098,0.20270270270270271,0.1842105263157895
hsbwiki,False,43.0,0.11023622047244094,0.7777777777777778,0.8081967213114755,0.19087837837837837,0.19310344827586207
hsbwiki,False,44.0,0.11290322580645161,0.7777777777777778,0.8131147540983606,0.1858108108108108,0.19718309859154928
hsbwiki,False,45.0,0.11864406779661017,0.7777777777777778,0.8229508196721311,0.17567567567567569,0.2058823529411765
hsbwiki,False,46.0,0.1206896551724138,0.7777777777777778,0.8262295081967214,0.17229729729729729,0.208955223880597
hsbwiki,False,47.0,0.12727272727272726,0.7777777777777778,0.8360655737704918,0.16216216216216217,0.21874999999999994
hsbwiki,False,48.0,0.12962962962962962,0.7777777777777778,0.839344262295082,0.15878378378378377,0.2222222222222222
hsbwiki,False,49.0,0.1308411214953271,0.7777777777777778,0.840983606557377,0.1570945945945946,0.22399999999999998
hsbwiki,False,50.0,0.14285714285714285,0.7777777777777778,0.8557377049180328,0.14189189189189189,0.24137931034482757
hsbwiki,False,51.0,0.15053763440860216,0.7777777777777778,0.8639344262295082,0.13344594594594594,0.25225225225225223
hsbwiki,False,52.0,0.15384615384615385,0.7777777777777778,0.8672131147540983,0.13006756756756757,0.25688073394495414
hsbwiki,False,53.0,0.15730337078651685,0.7777777777777778,0.8704918032786885,0.1266891891891892,0.2616822429906542
hsbwiki,False,54.0,0.16091954022988506,0.7777777777777778,0.8737704918032787,0.12331081081081081,0.26666666666666666
hsbwiki,False,55.0,0.16470588235294117,0.7777777777777778,0.8770491803278688,0.11993243243243243,0.27184466019417475
hsbwiki,False,56.0,0.16470588235294117,0.7777777777777778,0.8770491803278688,0.11993243243243243,0.27184466019417475
hsbwiki,False,57.0,0.16666666666666666,0.7777777777777778,0.8786885245901639,0.11824324324324324,0.2745098039215686
hsbwiki,False,58.0,0.1686746987951807,0.7777777777777778,0.8803278688524591,0.11655405405405406,0.2772277227722772
hsbwiki,False,59.0,0.1686746987951807,0.7777777777777778,0.8803278688524591,0.11655405405405406,0.2772277227722772
hsbwiki,False,60.0,0.1625,0.7222222222222222,0.8819672131147541,0.11317567567567567,0.2653061224489796
hsbwiki,False,61.0,0.17567567567567569,0.7222222222222222,0.8918032786885246,0.10304054054054054,0.28260869565217395
hsbwiki,False,62.0,0.16666666666666666,0.6111111111111112,0.898360655737705,0.0929054054054054,0.2619047619047619
hsbwiki,False,63.0,0.18032786885245902,0.6111111111111112,0.9065573770491804,0.08445945945945946,0.2784810126582279
hsbwiki,False,64.0,0.1896551724137931,0.6111111111111112,0.9114754098360656,0.07939189189189189,0.28947368421052627
hsbwiki,False,65.0,0.2,0.6111111111111112,0.9163934426229509,0.07432432432432433,0.30136986301369867
hsbwiki,False,66.0,0.20754716981132076,0.6111111111111112,0.919672131147541,0.07094594594594594,0.3098591549295775
hsbwiki,False,67.0,0.19607843137254902,0.5555555555555556,0.919672131147541,0.06925675675675676,0.2898550724637681
hsbwiki,False,68.0,0.2,0.5555555555555556,0.921311475409836,0.06756756756756757,0.29411764705882354
hsbwiki,False,69.0,0.2,0.5555555555555556,0.921311475409836,0.06756756756756757,0.29411764705882354
hsbwiki,False,70.0,0.20833333333333334,0.5555555555555556,0.9245901639344263,0.06418918918918919,0.30303030303030304
hsbwiki,False,71.0,0.2127659574468085,0.5555555555555556,0.9262295081967213,0.0625,0.3076923076923077
hsbwiki,False,72.0,0.24390243902439024,0.5555555555555556,0.9360655737704918,0.052364864864864864,0.33898305084745767
hsbwiki,False,73.0,0.2564102564102564,0.5555555555555556,0.9393442622950819,0.048986486486486486,0.3508771929824561
hsbwiki,False,74.0,0.2702702702702703,0.5555555555555556,0.9426229508196722,0.04560810810810811,0.36363636363636365
hsbwiki,False,75.0,0.2857142857142857,0.5555555555555556,0.9459016393442623,0.04222972972972973,0.3773584905660377
hsbwiki,False,76.0,0.2857142857142857,0.5555555555555556,0.9459016393442623,0.04222972972972973,0.3773584905660377
hsbwiki,False,77.0,0.29411764705882354,0.5555555555555556,0.9475409836065574,0.04054054054054054,0.3846153846153846
hsbwiki,False,78.0,0.3125,0.5555555555555556,0.9508196721311475,0.037162162162162164,0.39999999999999997
hsbwiki,False,79.0,0.3225806451612903,0.5555555555555556,0.9524590163934427,0.03547297297297297,0.40816326530612246
hsbwiki,False,80.0,0.35714285714285715,0.5555555555555556,0.9573770491803278,0.030405405405405407,0.43478260869565216
hsbwiki,False,81.0,0.36,0.5,0.9590163934426229,0.02702702702702703,0.41860465116279066
hsbwiki,False,82.0,0.375,0.5,0.9606557377049181,0.02533783783783784,0.42857142857142855
hsbwiki,False,83.0,0.4090909090909091,0.5,0.9639344262295082,0.02195945945945946,0.45
hsbwiki,False,84.0,0.3684210526315789,0.3888888888888889,0.9622950819672131,0.02027027027027027,0.37837837837837834
hsbwiki,False,85.0,0.3888888888888889,0.3888888888888889,0.9639344262295082,0.018581081081081082,0.3888888888888889
hsbwiki,False,86.0,0.42857142857142855,0.3333333333333333,0.9672131147540983,0.013513513513513514,0.375
hsbwiki,False,87.0,0.45454545454545453,0.2777777777777778,0.9688524590163935,0.010135135135135136,0.3448275862068966
hsbwiki,False,88.0,0.5,0.2777777777777778,0.9704918032786886,0.008445945945945946,0.35714285714285715
hsbwiki,False,89.0,0.5,0.2222222222222222,0.9704918032786886,0.006756756756756757,0.30769230769230765
hsbwiki,False,90.0,0.5714285714285714,0.2222222222222222,0.9721311475409836,0.005067567567567568,0.32
hsbwiki,False,91.0,0.6666666666666666,0.2222222222222222,0.9737704918032787,0.0033783783783783786,0.3333333333333333
hsbwiki,False,92.0,0.8,0.2222222222222222,0.9754098360655737,0.0016891891891891893,0.3478260869565218
hsbwiki,False,93.0,0.8,0.2222222222222222,0.9754098360655737,0.0016891891891891893,0.3478260869565218
hsbwiki,False,94.0,0.6666666666666666,0.1111111111111111,0.9721311475409836,0.0016891891891891893,0.1904761904761905
hsbwiki,False,95.0,0.6666666666666666,0.0,0.9704918032786886,0.0,0.0
hsbwiki,False,96.0,0.6666666666666666,0.0,0.9704918032786886,0.0,0.0
hsbwiki,False,97.0,0.6666666666666666,0.0,0.9704918032786886,0.0,0.0
hsbwiki,False,98.0,0.6666666666666666,0.0,0.9704918032786886,0.0,0.0
hsbwiki,False,99.0,0.6666666666666666,0.0,0.9704918032786886,0.0,0.0
