wiki_db,user_is_anonymous_or_bot,threshold,precision,recall,accuracy,fpr,F1
iewiki,True,0.0,0.3466666666666667,1.0,0.3466666666666667,1.0,0.5148514851485149
iewiki,True,1.0,0.3466666666666667,1.0,0.3466666666666667,1.0,0.5148514851485149
iewiki,True,2.0,0.3466666666666667,1.0,0.3466666666666667,1.0,0.5148514851485149
iewiki,True,3.0,0.3466666666666667,1.0,0.3466666666666667,1.0,0.5148514851485149
iewiki,True,4.0,0.3466666666666667,1.0,0.3466666666666667,1.0,0.5148514851485149
iewiki,True,5.0,0.3466666666666667,1.0,0.3466666666666667,1.0,0.5148514851485149
iewiki,True,6.0,0.3466666666666667,1.0,0.3466666666666667,1.0,0.5148514851485149
iewiki,True,7.0,0.36619718309859156,1.0,0.4,0.9183673469387755,0.5360824742268041
iewiki,True,8.0,0.4,1.0,0.48,0.7959183673469388,0.5714285714285715
iewiki,True,9.0,0.43333333333333335,1.0,0.5466666666666666,0.6938775510204082,0.6046511627906976
iewiki,True,10.0,0.43333333333333335,1.0,0.5466666666666666,0.6938775510204082,0.6046511627906976
iewiki,True,11.0,0.4406779661016949,1.0,0.56,0.673469387755102,0.611764705882353
iewiki,True,12.0,0.4406779661016949,1.0,0.56,0.673469387755102,0.611764705882353
iewiki,True,13.0,0.4406779661016949,1.0,0.56,0.673469387755102,0.611764705882353
iewiki,True,14.0,0.4406779661016949,1.0,0.56,0.673469387755102,0.611764705882353
iewiki,True,15.0,0.4406779661016949,1.0,0.56,0.673469387755102,0.611764705882353
iewiki,True,16.0,0.4406779661016949,1.0,0.56,0.673469387755102,0.611764705882353
iewiki,True,17.0,0.4406779661016949,1.0,0.56,0.673469387755102,0.611764705882353
iewiki,True,18.0,0.4406779661016949,1.0,0.56,0.673469387755102,0.611764705882353
iewiki,True,19.0,0.4406779661016949,1.0,0.56,0.673469387755102,0.611764705882353
iewiki,True,20.0,0.4406779661016949,1.0,0.56,0.673469387755102,0.611764705882353
iewiki,True,21.0,0.4406779661016949,1.0,0.56,0.673469387755102,0.611764705882353
iewiki,True,22.0,0.4406779661016949,1.0,0.56,0.673469387755102,0.611764705882353
iewiki,True,23.0,0.4406779661016949,1.0,0.56,0.673469387755102,0.611764705882353
iewiki,True,24.0,0.4406779661016949,1.0,0.56,0.673469387755102,0.611764705882353
iewiki,True,25.0,0.4406779661016949,1.0,0.56,0.673469387755102,0.611764705882353
iewiki,True,26.0,0.4406779661016949,1.0,0.56,0.673469387755102,0.611764705882353
iewiki,True,27.0,0.4406779661016949,1.0,0.56,0.673469387755102,0.611764705882353
iewiki,True,28.0,0.4406779661016949,1.0,0.56,0.673469387755102,0.611764705882353
iewiki,True,29.0,0.4406779661016949,1.0,0.56,0.673469387755102,0.611764705882353
iewiki,True,30.0,0.4406779661016949,1.0,0.56,0.673469387755102,0.611764705882353
iewiki,True,31.0,0.4406779661016949,1.0,0.56,0.673469387755102,0.611764705882353
iewiki,True,32.0,0.4406779661016949,1.0,0.56,0.673469387755102,0.611764705882353
iewiki,True,33.0,0.4406779661016949,1.0,0.56,0.673469387755102,0.611764705882353
iewiki,True,34.0,0.4406779661016949,1.0,0.56,0.673469387755102,0.611764705882353
iewiki,True,35.0,0.4406779661016949,1.0,0.56,0.673469387755102,0.611764705882353
iewiki,True,36.0,0.45614035087719296,1.0,0.5866666666666667,0.6326530612244898,0.6265060240963854
iewiki,True,37.0,0.45614035087719296,1.0,0.5866666666666667,0.6326530612244898,0.6265060240963854
iewiki,True,38.0,0.45614035087719296,1.0,0.5866666666666667,0.6326530612244898,0.6265060240963854
iewiki,True,39.0,0.4642857142857143,1.0,0.6,0.6122448979591837,0.6341463414634146
iewiki,True,40.0,0.48148148148148145,1.0,0.6266666666666667,0.5714285714285714,0.65
iewiki,True,41.0,0.49056603773584906,1.0,0.64,0.5510204081632653,0.6582278481012659
iewiki,True,42.0,0.49056603773584906,1.0,0.64,0.5510204081632653,0.6582278481012659
iewiki,True,43.0,0.49056603773584906,1.0,0.64,0.5510204081632653,0.6582278481012659
iewiki,True,44.0,0.5,1.0,0.6533333333333333,0.5306122448979592,0.6666666666666666
iewiki,True,45.0,0.5098039215686274,1.0,0.6666666666666666,0.5102040816326531,0.6753246753246753
iewiki,True,46.0,0.52,1.0,0.68,0.4897959183673469,0.6842105263157895
iewiki,True,47.0,0.52,1.0,0.68,0.4897959183673469,0.6842105263157895
iewiki,True,48.0,0.52,1.0,0.68,0.4897959183673469,0.6842105263157895
iewiki,True,49.0,0.52,1.0,0.68,0.4897959183673469,0.6842105263157895
iewiki,True,50.0,0.5306122448979592,1.0,0.6933333333333334,0.46938775510204084,0.6933333333333334
iewiki,True,51.0,0.5306122448979592,1.0,0.6933333333333334,0.46938775510204084,0.6933333333333334
iewiki,True,52.0,0.5531914893617021,1.0,0.72,0.42857142857142855,0.7123287671232876
iewiki,True,53.0,0.5531914893617021,1.0,0.72,0.42857142857142855,0.7123287671232876
iewiki,True,54.0,0.5531914893617021,1.0,0.72,0.42857142857142855,0.7123287671232876
iewiki,True,55.0,0.5652173913043478,1.0,0.7333333333333333,0.40816326530612246,0.7222222222222222
iewiki,True,56.0,0.5652173913043478,1.0,0.7333333333333333,0.40816326530612246,0.7222222222222222
iewiki,True,57.0,0.5777777777777777,1.0,0.7466666666666667,0.3877551020408163,0.732394366197183
iewiki,True,58.0,0.5777777777777777,1.0,0.7466666666666667,0.3877551020408163,0.732394366197183
iewiki,True,59.0,0.5777777777777777,1.0,0.7466666666666667,0.3877551020408163,0.732394366197183
iewiki,True,60.0,0.5777777777777777,1.0,0.7466666666666667,0.3877551020408163,0.732394366197183
iewiki,True,61.0,0.5777777777777777,1.0,0.7466666666666667,0.3877551020408163,0.732394366197183
iewiki,True,62.0,0.5777777777777777,1.0,0.7466666666666667,0.3877551020408163,0.732394366197183
iewiki,True,63.0,0.5777777777777777,1.0,0.7466666666666667,0.3877551020408163,0.732394366197183
iewiki,True,64.0,0.5777777777777777,1.0,0.7466666666666667,0.3877551020408163,0.732394366197183
iewiki,True,65.0,0.5777777777777777,1.0,0.7466666666666667,0.3877551020408163,0.732394366197183
iewiki,True,66.0,0.5909090909090909,1.0,0.76,0.3673469387755102,0.7428571428571429
iewiki,True,67.0,0.5909090909090909,1.0,0.76,0.3673469387755102,0.7428571428571429
iewiki,True,68.0,0.5952380952380952,0.9615384615384616,0.76,0.3469387755102041,0.7352941176470588
iewiki,True,69.0,0.5952380952380952,0.9615384615384616,0.76,0.3469387755102041,0.7352941176470588
iewiki,True,70.0,0.5952380952380952,0.9615384615384616,0.76,0.3469387755102041,0.7352941176470588
iewiki,True,71.0,0.6097560975609756,0.9615384615384616,0.7733333333333333,0.32653061224489793,0.7462686567164178
iewiki,True,72.0,0.6097560975609756,0.9615384615384616,0.7733333333333333,0.32653061224489793,0.7462686567164178
iewiki,True,73.0,0.625,0.9615384615384616,0.7866666666666666,0.30612244897959184,0.7575757575757575
iewiki,True,74.0,0.6052631578947368,0.8846153846153846,0.76,0.30612244897959184,0.71875
iewiki,True,75.0,0.6052631578947368,0.8846153846153846,0.76,0.30612244897959184,0.71875
iewiki,True,76.0,0.5945945945945946,0.8461538461538461,0.7466666666666667,0.30612244897959184,0.6984126984126985
iewiki,True,77.0,0.5945945945945946,0.8461538461538461,0.7466666666666667,0.30612244897959184,0.6984126984126985
iewiki,True,78.0,0.6,0.8076923076923077,0.7466666666666667,0.2857142857142857,0.6885245901639345
iewiki,True,79.0,0.6,0.8076923076923077,0.7466666666666667,0.2857142857142857,0.6885245901639345
iewiki,True,80.0,0.6,0.8076923076923077,0.7466666666666667,0.2857142857142857,0.6885245901639345
iewiki,True,81.0,0.6363636363636364,0.8076923076923077,0.7733333333333333,0.24489795918367346,0.7118644067796609
iewiki,True,82.0,0.625,0.7692307692307693,0.76,0.24489795918367346,0.6896551724137931
iewiki,True,83.0,0.6,0.6923076923076923,0.7333333333333333,0.24489795918367346,0.6428571428571429
iewiki,True,84.0,0.5862068965517241,0.6538461538461539,0.72,0.24489795918367346,0.6181818181818182
iewiki,True,85.0,0.6153846153846154,0.6153846153846154,0.7333333333333333,0.20408163265306123,0.6153846153846154
iewiki,True,86.0,0.625,0.5769230769230769,0.7333333333333333,0.1836734693877551,0.6
iewiki,True,87.0,0.6521739130434783,0.5769230769230769,0.7466666666666667,0.16326530612244897,0.6122448979591837
iewiki,True,88.0,0.6363636363636364,0.5384615384615384,0.7333333333333333,0.16326530612244897,0.5833333333333334
iewiki,True,89.0,0.65,0.5,0.7333333333333333,0.14285714285714285,0.5652173913043479
iewiki,True,90.0,0.6666666666666666,0.46153846153846156,0.7333333333333333,0.12244897959183673,0.5454545454545455
iewiki,True,91.0,0.7058823529411765,0.46153846153846156,0.7466666666666667,0.10204081632653061,0.558139534883721
iewiki,True,92.0,0.6666666666666666,0.38461538461538464,0.72,0.10204081632653061,0.4878048780487804
iewiki,True,93.0,0.7272727272727273,0.3076923076923077,0.72,0.061224489795918366,0.43243243243243246
iewiki,True,94.0,0.7142857142857143,0.19230769230769232,0.6933333333333334,0.04081632653061224,0.30303030303030304
iewiki,True,95.0,0.6,0.11538461538461539,0.6666666666666666,0.04081632653061224,0.1935483870967742
iewiki,True,96.0,0.5,0.07692307692307693,0.6533333333333333,0.04081632653061224,0.13333333333333336
iewiki,True,97.0,0.3333333333333333,0.038461538461538464,0.64,0.04081632653061224,0.06896551724137931
iewiki,True,98.0,0.5,0.038461538461538464,0.6533333333333333,0.02040816326530612,0.07142857142857144
iewiki,True,99.0,0.0,0.0,0.64,0.02040816326530612,0.07142857142857144
iewiki,False,0.0,0.021616947686986597,1.0,0.021616947686986597,1.0,0.04231908590774439
iewiki,False,1.0,0.02162629757785467,1.0,0.02204928664072633,0.9995581087052585,0.042337002540220145
iewiki,False,2.0,0.02174858634188778,1.0,0.027669693039342844,0.993813521873619,0.04257130693912303
iewiki,False,3.0,0.022036139268400177,1.0,0.040639861651534805,0.9805567830313743,0.043122035360069
iewiki,False,4.0,0.022381378692927483,1.0,0.055771725032425425,0.965090587715422,0.043782837127845885
iewiki,False,5.0,0.022779043280182234,1.0,0.07263294422827497,0.9478568272205038,0.044543429844098
iewiki,False,6.0,0.023299161230195712,1.0,0.09381755296152183,0.9262041537781706,0.04553734061930782
iewiki,False,7.0,0.023389021479713605,0.98,0.11500216169476869,0.9041095890410958,0.04568764568764569
iewiki,False,8.0,0.02407862407862408,0.98,0.14094249891915261,0.8775961113566063,0.047002398081534766
iewiki,False,9.0,0.02401635155850792,0.94,0.17293558149589278,0.8440123729562528,0.046836073741903336
iewiki,False,10.0,0.025160599571734475,0.94,0.21141374837872892,0.8046840477242598,0.04900938477580813
iewiki,False,11.0,0.02648244099021301,0.92,0.26718547341115434,0.7472381794078656,0.0514829322887521
iewiki,False,12.0,0.027093596059113302,0.88,0.3143104193687851,0.6981882456915599,0.05256869772998806
iewiki,False,13.0,0.027958387516254877,0.86,0.3506268914829226,0.6606274856385329,0.05415617128463476
iewiki,False,14.0,0.029737206085753802,0.86,0.39040207522697795,0.6199734865223155,0.057486631016042775
iewiki,False,15.0,0.031318281136198105,0.86,0.4219628188499784,0.5877154220061864,0.060435699226985246
iewiki,False,16.0,0.03369905956112853,0.86,0.4638996973627324,0.5448519664162615,0.06485671191553545
iewiki,False,17.0,0.03511705685618729,0.84,0.4976221357544315,0.5099425541316837,0.06741573033707865
iewiki,False,18.0,0.03700440528634361,0.84,0.5239948119325551,0.4829871851524525,0.07088607594936709
iewiki,False,19.0,0.037209302325581395,0.8,0.5482057933419802,0.45735749005744586,0.07111111111111111
iewiki,False,20.0,0.03933136676499508,0.8,0.5732814526588845,0.43172779496243924,0.07497656982193066
iewiki,False,21.0,0.04024767801857585,0.78,0.5931690445309122,0.410958904109589,0.07654563297350343
iewiki,False,22.0,0.04252998909487459,0.78,0.6156506701253783,0.3879805567830314,0.08066184074457083
iewiki,False,23.0,0.04519119351100811,0.78,0.6389969736273238,0.3641184268669907,0.0854326396495071
iewiki,False,24.0,0.04767726161369193,0.78,0.6584522265456118,0.3442333186036235,0.08986175115207373
iewiki,False,25.0,0.05032258064516129,0.78,0.6770428015564203,0.3252319929297393,0.09454545454545456
iewiki,False,26.0,0.05320600272851296,0.78,0.695201037613489,0.30667255855059655,0.09961685823754789
iewiki,False,27.0,0.05467625899280575,0.76,0.7107652399481194,0.2903225806451613,0.10201342281879194
iewiki,False,28.0,0.057057057057057055,0.76,0.7233030696065715,0.27750773309765797,0.10614525139664803
iewiki,False,29.0,0.06041335453100159,0.76,0.7392996108949417,0.26115775519222273,0.11192930780559647
iewiki,False,30.0,0.0632279534109817,0.76,0.7514051015996541,0.2487847989394609,0.11674347158218126
iewiki,False,31.0,0.06390328151986183,0.74,0.7600518806744487,0.23950508174988952,0.1176470588235294
iewiki,False,32.0,0.06545454545454546,0.72,0.7717250324254216,0.22713212549712772,0.12000000000000001
iewiki,False,33.0,0.06870229007633588,0.72,0.7829658452226546,0.21564295183384888,0.1254355400696864
iewiki,False,34.0,0.07272727272727272,0.72,0.7955036748811067,0.20282810428634557,0.13211009174311927
iewiki,False,35.0,0.07578947368421053,0.72,0.8041504539559015,0.1939902783915157,0.13714285714285715
iewiki,False,36.0,0.07894736842105263,0.72,0.8123648940769563,0.1855943437914273,0.14229249011857706
iewiki,False,37.0,0.08200455580865604,0.72,0.8197146562905318,0.1780821917808219,0.14723926380368096
iewiki,False,38.0,0.0861244019138756,0.72,0.8287937743190662,0.16880247459125056,0.15384615384615385
iewiki,False,39.0,0.08977556109725686,0.72,0.8361435365326416,0.16129032258064516,0.15964523281596452
iewiki,False,40.0,0.09186351706036745,0.7,0.8439256376999568,0.1528943879805568,0.16241299303944315
iewiki,False,41.0,0.09615384615384616,0.7,0.8512753999135322,0.1453822359699514,0.16908212560386474
iewiki,False,42.0,0.09971509971509972,0.7,0.8568958063121487,0.13963764913831198,0.1745635910224439
iewiki,False,43.0,0.10479041916167664,0.7,0.8642455685257242,0.13212549712770658,0.18229166666666666
iewiki,False,44.0,0.11041009463722397,0.7,0.8715953307392996,0.12461334511710119,0.19073569482288827
iewiki,False,45.0,0.11363636363636363,0.7,0.8754863813229572,0.12063632346442775,0.19553072625698326
iewiki,False,46.0,0.12110726643598616,0.7,0.8837008214440121,0.11224038886433937,0.20648967551622419
iewiki,False,47.0,0.12544802867383512,0.7,0.8880242109814094,0.10782147591692444,0.21276595744680848
iewiki,False,48.0,0.13011152416356878,0.7,0.8923476005188068,0.1034025629695095,0.21943573667711602
iewiki,False,49.0,0.13618677042801555,0.7,0.8975356679636836,0.09809986743261158,0.22801302931596087
iewiki,False,50.0,0.14112903225806453,0.7,0.9014267185473411,0.09412284577993814,0.23489932885906045
iewiki,False,51.0,0.14893617021276595,0.7,0.9070471249459576,0.08837825894829872,0.24561403508771928
iewiki,False,52.0,0.15454545454545454,0.68,0.9126675313445741,0.0821917808219178,0.2518518518518518
iewiki,False,53.0,0.1619047619047619,0.68,0.9169909208819714,0.07777286787450287,0.26153846153846155
iewiki,False,54.0,0.17346938775510204,0.68,0.9230436662343278,0.07158638974812197,0.2764227642276423
iewiki,False,55.0,0.18181818181818182,0.68,0.9269347168179853,0.06760936809544851,0.28691983122362874
iewiki,False,56.0,0.19428571428571428,0.68,0.9321227842628621,0.062306672558550595,0.3022222222222222
iewiki,False,57.0,0.20359281437125748,0.68,0.93558149589278,0.05877154220061865,0.3133640552995392
iewiki,False,58.0,0.20754716981132076,0.66,0.9381755296152183,0.05567830313742819,0.3157894736842105
iewiki,False,59.0,0.2129032258064516,0.66,0.9399048854301773,0.05391073795846222,0.32195121951219513
iewiki,False,60.0,0.2185430463576159,0.66,0.9416342412451362,0.05214317277949625,0.3283582089552239
iewiki,False,61.0,0.22377622377622378,0.64,0.9442282749675746,0.04904993371630579,0.3316062176165803
iewiki,False,62.0,0.22857142857142856,0.64,0.9455252918287937,0.047724259832081305,0.33684210526315794
iewiki,False,63.0,0.23880597014925373,0.64,0.9481193255512321,0.04507291206363235,0.34782608695652173
iewiki,False,64.0,0.24615384615384617,0.64,0.949848681366191,0.04330534688466637,0.35555555555555557
iewiki,False,65.0,0.25,0.64,0.9507133592736705,0.04242156429518339,0.3595505617977528
iewiki,False,66.0,0.2601626016260163,0.64,0.9528750540423692,0.04021210782147592,0.369942196531792
iewiki,False,67.0,0.27350427350427353,0.64,0.9554690877648077,0.037560760053026956,0.38323353293413176
iewiki,False,68.0,0.2743362831858407,0.62,0.9563337656722871,0.03623508616880247,0.3803680981595092
iewiki,False,69.0,0.28440366972477066,0.62,0.958063121487246,0.0344675209898365,0.3899371069182391
iewiki,False,70.0,0.29245283018867924,0.62,0.9593601383484652,0.03314184710561202,0.3974358974358974
iewiki,False,71.0,0.31313131313131315,0.62,0.9623865110246433,0.030048608042421564,0.4161073825503356
iewiki,False,72.0,0.3225806451612903,0.6,0.9641158668396023,0.027839151568714096,0.4195804195804196
iewiki,False,73.0,0.3448275862068966,0.6,0.9667099005620406,0.025187803800265134,0.43795620437956206
iewiki,False,74.0,0.34146341463414637,0.56,0.9671422395157804,0.023862129916040652,0.42424242424242425
iewiki,False,75.0,0.35,0.56,0.9680069174232598,0.022978347326557666,0.4307692307692308
iewiki,False,76.0,0.35064935064935066,0.54,0.9684392563769996,0.02209456473707468,0.42519685039370075
iewiki,False,77.0,0.36,0.54,0.969303934284479,0.021210782147591693,0.43200000000000005
iewiki,False,78.0,0.37142857142857144,0.52,0.9706009511456982,0.019443216968625717,0.43333333333333335
iewiki,False,79.0,0.3880597014925373,0.52,0.9718979680069174,0.018117543084401236,0.4444444444444445
iewiki,False,80.0,0.4126984126984127,0.52,0.9736273238218763,0.016349977905435263,0.46017699115044247
iewiki,False,81.0,0.43333333333333335,0.52,0.9749243406830955,0.015024304021210782,0.4727272727272728
iewiki,False,82.0,0.43103448275862066,0.5,0.9749243406830955,0.014582412726469289,0.46296296296296297
iewiki,False,83.0,0.4489795918367347,0.44,0.9762213575443147,0.011931064958020326,0.4444444444444445
iewiki,False,84.0,0.4666666666666667,0.42,0.9770860354517942,0.010605391073795847,0.4421052631578947
iewiki,False,85.0,0.5,0.4,0.9783830523130134,0.008837825894829872,0.4444444444444445
iewiki,False,86.0,0.5294117647058824,0.36,0.9792477302204928,0.007070260715863898,0.42857142857142855
iewiki,False,87.0,0.5483870967741935,0.34,0.9796800691742326,0.0061864781263809105,0.4197530864197531
iewiki,False,88.0,0.5517241379310345,0.32,0.9796800691742326,0.0057445868316394165,0.4050632911392405
iewiki,False,89.0,0.5555555555555556,0.3,0.9796800691742326,0.005302695536897923,0.3896103896103896
iewiki,False,90.0,0.56,0.28,0.9796800691742326,0.004860804242156429,0.37333333333333335
iewiki,False,91.0,0.6666666666666666,0.28,0.9814094249891915,0.0030932390631904553,0.3943661971830986
iewiki,False,92.0,0.631578947368421,0.24,0.980544747081712,0.0030932390631904553,0.34782608695652173
iewiki,False,93.0,0.6666666666666666,0.16,0.9801124081279723,0.0017675651789659744,0.25806451612903225
iewiki,False,94.0,0.625,0.1,0.9792477302204928,0.0013256738842244808,0.1724137931034483
iewiki,False,95.0,0.5,0.06,0.9783830523130134,0.0013256738842244808,0.10714285714285712
iewiki,False,96.0,0.5,0.04,0.9783830523130134,0.0008837825894829872,0.07407407407407407
iewiki,False,97.0,0.3333333333333333,0.02,0.9779507133592736,0.0008837825894829872,0.03773584905660377
iewiki,False,98.0,0.5,0.02,0.9783830523130134,0.0004418912947414936,0.038461538461538464
iewiki,False,99.0,0.0,0.0,0.9779507133592736,0.0004418912947414936,0.038461538461538464
