wiki_db,user_is_anonymous_or_bot,threshold,precision,recall,accuracy,fpr,F1
iowiki,True,0.0,0.11382113821138211,1.0,0.11382113821138211,1.0,0.20437956204379562
iowiki,True,1.0,0.11382113821138211,1.0,0.11382113821138211,1.0,0.20437956204379562
iowiki,True,2.0,0.11382113821138211,1.0,0.11382113821138211,1.0,0.20437956204379562
iowiki,True,3.0,0.11382113821138211,1.0,0.11382113821138211,1.0,0.20437956204379562
iowiki,True,4.0,0.11382113821138211,1.0,0.11382113821138211,1.0,0.20437956204379562
iowiki,True,5.0,0.11382113821138211,1.0,0.11382113821138211,1.0,0.20437956204379562
iowiki,True,6.0,0.11382113821138211,1.0,0.11382113821138211,1.0,0.20437956204379562
iowiki,True,7.0,0.11382113821138211,1.0,0.11382113821138211,1.0,0.20437956204379562
iowiki,True,8.0,0.11382113821138211,1.0,0.11382113821138211,1.0,0.20437956204379562
iowiki,True,9.0,0.11382113821138211,1.0,0.11382113821138211,1.0,0.20437956204379562
iowiki,True,10.0,0.11382113821138211,1.0,0.11382113821138211,1.0,0.20437956204379562
iowiki,True,11.0,0.11382113821138211,1.0,0.11382113821138211,1.0,0.20437956204379562
iowiki,True,12.0,0.11382113821138211,1.0,0.11382113821138211,1.0,0.20437956204379562
iowiki,True,13.0,0.11382113821138211,1.0,0.11382113821138211,1.0,0.20437956204379562
iowiki,True,14.0,0.11382113821138211,1.0,0.11382113821138211,1.0,0.20437956204379562
iowiki,True,15.0,0.11382113821138211,1.0,0.11382113821138211,1.0,0.20437956204379562
iowiki,True,16.0,0.11382113821138211,1.0,0.11382113821138211,1.0,0.20437956204379562
iowiki,True,17.0,0.11382113821138211,1.0,0.11382113821138211,1.0,0.20437956204379562
iowiki,True,18.0,0.11382113821138211,1.0,0.11382113821138211,1.0,0.20437956204379562
iowiki,True,19.0,0.11382113821138211,1.0,0.11382113821138211,1.0,0.20437956204379562
iowiki,True,20.0,0.11382113821138211,1.0,0.11382113821138211,1.0,0.20437956204379562
iowiki,True,21.0,0.11382113821138211,1.0,0.11382113821138211,1.0,0.20437956204379562
iowiki,True,22.0,0.11382113821138211,1.0,0.11382113821138211,1.0,0.20437956204379562
iowiki,True,23.0,0.11382113821138211,1.0,0.11382113821138211,1.0,0.20437956204379562
iowiki,True,24.0,0.11382113821138211,1.0,0.11382113821138211,1.0,0.20437956204379562
iowiki,True,25.0,0.11382113821138211,1.0,0.11382113821138211,1.0,0.20437956204379562
iowiki,True,26.0,0.11382113821138211,1.0,0.11382113821138211,1.0,0.20437956204379562
iowiki,True,27.0,0.11382113821138211,1.0,0.11382113821138211,1.0,0.20437956204379562
iowiki,True,28.0,0.11475409836065574,1.0,0.12195121951219512,0.9908256880733946,0.2058823529411765
iowiki,True,29.0,0.11475409836065574,1.0,0.12195121951219512,0.9908256880733946,0.2058823529411765
iowiki,True,30.0,0.11475409836065574,1.0,0.12195121951219512,0.9908256880733946,0.2058823529411765
iowiki,True,31.0,0.11475409836065574,1.0,0.12195121951219512,0.9908256880733946,0.2058823529411765
iowiki,True,32.0,0.11570247933884298,1.0,0.13008130081300814,0.981651376146789,0.2074074074074074
iowiki,True,33.0,0.11570247933884298,1.0,0.13008130081300814,0.981651376146789,0.2074074074074074
iowiki,True,34.0,0.11570247933884298,1.0,0.13008130081300814,0.981651376146789,0.2074074074074074
iowiki,True,35.0,0.11570247933884298,1.0,0.13008130081300814,0.981651376146789,0.2074074074074074
iowiki,True,36.0,0.11764705882352941,1.0,0.14634146341463414,0.963302752293578,0.21052631578947367
iowiki,True,37.0,0.11764705882352941,1.0,0.14634146341463414,0.963302752293578,0.21052631578947367
iowiki,True,38.0,0.11016949152542373,0.9285714285714286,0.13821138211382114,0.963302752293578,0.196969696969697
iowiki,True,39.0,0.11206896551724138,0.9285714285714286,0.15447154471544716,0.944954128440367,0.20000000000000004
iowiki,True,40.0,0.11304347826086956,0.9285714285714286,0.16260162601626016,0.9357798165137615,0.20155038759689922
iowiki,True,41.0,0.11403508771929824,0.9285714285714286,0.17073170731707318,0.926605504587156,0.203125
iowiki,True,42.0,0.11403508771929824,0.9285714285714286,0.17073170731707318,0.926605504587156,0.203125
iowiki,True,43.0,0.11403508771929824,0.9285714285714286,0.17073170731707318,0.926605504587156,0.203125
iowiki,True,44.0,0.11504424778761062,0.9285714285714286,0.17886178861788618,0.9174311926605505,0.2047244094488189
iowiki,True,45.0,0.11607142857142858,0.9285714285714286,0.18699186991869918,0.908256880733945,0.20634920634920634
iowiki,True,46.0,0.11711711711711711,0.9285714285714286,0.1951219512195122,0.8990825688073395,0.208
iowiki,True,47.0,0.11711711711711711,0.9285714285714286,0.1951219512195122,0.8990825688073395,0.208
iowiki,True,48.0,0.11009174311926606,0.8571428571428571,0.1951219512195122,0.8899082568807339,0.1951219512195122
iowiki,True,49.0,0.11009174311926606,0.8571428571428571,0.1951219512195122,0.8899082568807339,0.1951219512195122
iowiki,True,50.0,0.1111111111111111,0.8571428571428571,0.2032520325203252,0.8807339449541285,0.19672131147540986
iowiki,True,51.0,0.11214953271028037,0.8571428571428571,0.21138211382113822,0.8715596330275229,0.1983471074380165
iowiki,True,52.0,0.11214953271028037,0.8571428571428571,0.21138211382113822,0.8715596330275229,0.1983471074380165
iowiki,True,53.0,0.11428571428571428,0.8571428571428571,0.22764227642276422,0.8532110091743119,0.20168067226890757
iowiki,True,54.0,0.11428571428571428,0.8571428571428571,0.22764227642276422,0.8532110091743119,0.20168067226890757
iowiki,True,55.0,0.11428571428571428,0.8571428571428571,0.22764227642276422,0.8532110091743119,0.20168067226890757
iowiki,True,56.0,0.11538461538461539,0.8571428571428571,0.23577235772357724,0.8440366972477065,0.20338983050847456
iowiki,True,57.0,0.11538461538461539,0.8571428571428571,0.23577235772357724,0.8440366972477065,0.20338983050847456
iowiki,True,58.0,0.1188118811881188,0.8571428571428571,0.2601626016260163,0.8165137614678899,0.20869565217391303
iowiki,True,59.0,0.12121212121212122,0.8571428571428571,0.2764227642276423,0.7981651376146789,0.21238938053097345
iowiki,True,60.0,0.12371134020618557,0.8571428571428571,0.2926829268292683,0.7798165137614679,0.21621621621621623
iowiki,True,61.0,0.12903225806451613,0.8571428571428571,0.3252032520325203,0.7431192660550459,0.22429906542056074
iowiki,True,62.0,0.12903225806451613,0.8571428571428571,0.3252032520325203,0.7431192660550459,0.22429906542056074
iowiki,True,63.0,0.13043478260869565,0.8571428571428571,0.3333333333333333,0.7339449541284404,0.22641509433962262
iowiki,True,64.0,0.13186813186813187,0.8571428571428571,0.34146341463414637,0.7247706422018348,0.22857142857142856
iowiki,True,65.0,0.13333333333333333,0.8571428571428571,0.34959349593495936,0.7155963302752294,0.23076923076923078
iowiki,True,66.0,0.13333333333333333,0.8571428571428571,0.34959349593495936,0.7155963302752294,0.23076923076923078
iowiki,True,67.0,0.1348314606741573,0.8571428571428571,0.35772357723577236,0.7064220183486238,0.23300970873786406
iowiki,True,68.0,0.13793103448275862,0.8571428571428571,0.37398373983739835,0.6880733944954128,0.23762376237623764
iowiki,True,69.0,0.13793103448275862,0.8571428571428571,0.37398373983739835,0.6880733944954128,0.23762376237623764
iowiki,True,70.0,0.1411764705882353,0.8571428571428571,0.3902439024390244,0.6697247706422018,0.2424242424242424
iowiki,True,71.0,0.14457831325301204,0.8571428571428571,0.4065040650406504,0.6513761467889908,0.24742268041237114
iowiki,True,72.0,0.13924050632911392,0.7857142857142857,0.42276422764227645,0.6238532110091743,0.23655913978494622
iowiki,True,73.0,0.14285714285714285,0.7857142857142857,0.43902439024390244,0.6055045871559633,0.24175824175824173
iowiki,True,74.0,0.14473684210526316,0.7857142857142857,0.44715447154471544,0.5963302752293578,0.24444444444444444
iowiki,True,75.0,0.1506849315068493,0.7857142857142857,0.4715447154471545,0.5688073394495413,0.2528735632183908
iowiki,True,76.0,0.1527777777777778,0.7857142857142857,0.4796747967479675,0.5596330275229358,0.2558139534883721
iowiki,True,77.0,0.15492957746478872,0.7857142857142857,0.4878048780487805,0.5504587155963303,0.2588235294117647
iowiki,True,78.0,0.15492957746478872,0.7857142857142857,0.4878048780487805,0.5504587155963303,0.2588235294117647
iowiki,True,79.0,0.16176470588235295,0.7857142857142857,0.5121951219512195,0.5229357798165137,0.2682926829268293
iowiki,True,80.0,0.16176470588235295,0.7857142857142857,0.5121951219512195,0.5229357798165137,0.2682926829268293
iowiki,True,81.0,0.16417910447761194,0.7857142857142857,0.5203252032520326,0.5137614678899083,0.2716049382716049
iowiki,True,82.0,0.16923076923076924,0.7857142857142857,0.5365853658536586,0.4954128440366973,0.2784810126582279
iowiki,True,83.0,0.1746031746031746,0.7857142857142857,0.5528455284552846,0.47706422018348627,0.2857142857142857
iowiki,True,84.0,0.1774193548387097,0.7857142857142857,0.5609756097560976,0.46788990825688076,0.2894736842105263
iowiki,True,85.0,0.19298245614035087,0.7857142857142857,0.6016260162601627,0.42201834862385323,0.30985915492957744
iowiki,True,86.0,0.21153846153846154,0.7857142857142857,0.6422764227642277,0.3761467889908257,0.3333333333333333
iowiki,True,87.0,0.25,0.7857142857142857,0.7073170731707317,0.30275229357798167,0.37931034482758624
iowiki,True,88.0,0.275,0.7857142857142857,0.7398373983739838,0.26605504587155965,0.40740740740740744
iowiki,True,89.0,0.2702702702702703,0.7142857142857143,0.7479674796747967,0.24770642201834864,0.39215686274509803
iowiki,True,90.0,0.29411764705882354,0.7142857142857143,0.7723577235772358,0.22018348623853212,0.4166666666666667
iowiki,True,91.0,0.25,0.5714285714285714,0.7560975609756098,0.22018348623853212,0.34782608695652173
iowiki,True,92.0,0.25,0.42857142857142855,0.7886178861788617,0.1651376146788991,0.3157894736842105
iowiki,True,93.0,0.35294117647058826,0.42857142857142855,0.8455284552845529,0.10091743119266056,0.3870967741935484
iowiki,True,94.0,0.42857142857142855,0.42857142857142855,0.8699186991869918,0.07339449541284404,0.42857142857142855
iowiki,True,95.0,0.7142857142857143,0.35714285714285715,0.9105691056910569,0.01834862385321101,0.4761904761904762
iowiki,True,96.0,0.6,0.21428571428571427,0.8943089430894309,0.01834862385321101,0.3157894736842105
iowiki,True,97.0,0.3333333333333333,0.07142857142857142,0.8780487804878049,0.01834862385321101,0.11764705882352941
iowiki,True,98.0,0.5,0.07142857142857142,0.8861788617886179,0.009174311926605505,0.125
iowiki,True,99.0,0.5,0.07142857142857142,0.8861788617886179,0.009174311926605505,0.125
iowiki,False,0.0,0.0055792249949279775,1.0,0.0055792249949279775,1.0,0.011096539897104811
iowiki,False,1.0,0.005580923389142567,1.0,0.005883546358287685,0.999693971233296,0.011099899091826437
iowiki,False,2.0,0.005598534201954397,1.0,0.009028200446338,0.9965316739773539,0.01113473023585383
iowiki,False,3.0,0.005622572071151094,1.0,0.01328869953337391,0.9922472712434969,0.011182271017586662
iowiki,False,4.0,0.005664847049129673,1.0,0.020693852708460133,0.9848005712536978,0.011265874641540352
iowiki,False,5.0,0.005721418911890149,1.0,0.030432136335970784,0.9750076507191676,0.011377741001241209
iowiki,False,6.0,0.005810268328755546,1.0,0.045343883140596467,0.9600122411506682,0.011553408255435353
iowiki,False,7.0,0.005939524838012959,1.0,0.06624061675796307,0.9389982658369886,0.011808910359634998
iowiki,False,8.0,0.006024096385542169,0.9818181818181818,0.09606411036721445,0.9089054371110884,0.011974720035480653
iowiki,False,9.0,0.006134969325153374,0.9636363636363636,0.12882937715560966,0.8758543303070488,0.012192316540142627
iowiki,False,10.0,0.006234264476681453,0.9454545454545454,0.1588557516737675,0.8455574824033459,0.01238685088137208
iowiki,False,11.0,0.006324404761904762,0.9272727272727272,0.1867518766484074,0.8174028358665715,0.01256312353738145
iowiki,False,12.0,0.006467468632777131,0.9090909090909091,0.22032866707242849,0.783535652351321,0.012843565373747753
iowiki,False,13.0,0.00669882100750268,0.9090909090909091,0.24741326841144248,0.7562990921146587,0.01329964090969544
iowiki,False,14.0,0.006764218663721701,0.8909090909090909,0.2695272874822479,0.7339589921452616,0.013426496780380874
iowiki,False,15.0,0.006588370094528788,0.8363636363636363,0.29549604382227634,0.7075385086198103,0.013073753019752733
iowiki,False,16.0,0.006844219610177057,0.8363636363636363,0.3219720024345709,0.6809140059165562,0.01357733175914994
iowiki,False,17.0,0.00667805559869545,0.7818181818181819,0.349969567863664,0.6524533306130776,0.01324299353249153
iowiki,False,18.0,0.006651524983776768,0.7454545454545455,0.37745993102049097,0.6246047128430072,0.013185399581926355
iowiki,False,19.0,0.0069081718618365625,0.7454545454545455,0.400689795090282,0.6012445169845966,0.01368948247078464
iowiki,False,20.0,0.006890459363957597,0.7090909090909091,0.4281801582471089,0.5733958992145262,0.013648293963254593
iowiki,False,21.0,0.007098823089856155,0.6909090909090909,0.4591194968553459,0.542180965010711,0.014053254437869821
iowiki,False,22.0,0.0068775790921595595,0.6363636363636364,0.48529113410428076,0.5155564623074569,0.013608087091757386
iowiki,False,23.0,0.006896551724137931,0.6,0.5157232704402516,0.48474956645924716,0.013636363636363637
iowiki,False,24.0,0.006586169045005488,0.5454545454545454,0.5384459322377764,0.4615933897786392,0.013015184381778741
iowiki,False,25.0,0.006777284412245852,0.5272727272727272,0.5662406167579631,0.4335407528307661,0.01338255652976465
iowiki,False,26.0,0.006893156080748399,0.509090909090909,0.5880503144654088,0.411506681628073,0.01360213747874666
iowiki,False,27.0,0.007318348144276007,0.509090909090909,0.6119902617163725,0.38743241864735284,0.014429270806493172
iowiki,False,28.0,0.0074400661339211905,0.4909090909090909,0.6317711503347535,0.36743853922268693,0.01465798045602606
iowiki,False,29.0,0.007339988256018791,0.45454545454545453,0.6539866098600122,0.3448944200754871,0.014446691707598961
iowiki,False,30.0,0.007861635220125786,0.45454545454545453,0.6769121525664435,0.3218402529837805,0.015455950540958269
iowiki,False,31.0,0.007689735874289535,0.41818181818181815,0.6956786366402922,0.3027644598592268,0.015101772816808929
iowiki,False,32.0,0.0082319255547602,0.41818181818181815,0.7156624061675796,0.2826685708456595,0.016146016146016146
iowiki,False,33.0,0.008380952380952381,0.4,0.7326029620612701,0.26553095991023157,0.016417910447761194
iowiki,False,34.0,0.008939455505891914,0.4,0.7492391965916008,0.24880138733040905,0.017488076311605722
iowiki,False,35.0,0.009623797025371828,0.4,0.766991276120917,0.23094970927267164,0.018795386586928663
iowiki,False,36.0,0.010299625468164793,0.4,0.7822073442889024,0.21564827093746813,0.02008215426745778
iowiki,False,37.0,0.011190233977619531,0.4,0.7994522215459525,0.1983066408242375,0.02177140029688273
iowiki,False,38.0,0.01162147205312673,0.38181818181818183,0.8153783728951106,0.18218912577782312,0.02255639097744361
iowiki,False,39.0,0.012789281364190013,0.38181818181818183,0.8321160478798945,0.16535754360909927,0.024749558043606366
iowiki,False,40.0,0.014046822742474917,0.38181818181818183,0.8470277946845202,0.1503621340405998,0.027096774193548386
iowiki,False,41.0,0.015475313190862197,0.38181818181818183,0.8610265773990667,0.13628481077221258,0.029745042492917848
iowiki,False,42.0,0.017170891251022075,0.38181818181818183,0.8746195982958004,0.1226155258594308,0.03286384976525822
iowiki,False,43.0,0.01875,0.38181818181818183,0.8850679651044837,0.11210853820259105,0.03574468085106383
iowiki,False,44.0,0.020608439646712464,0.38181818181818183,0.8953134510042605,0.10180556972355402,0.039106145251396655
iowiki,False,45.0,0.022128556375131718,0.38181818181818183,0.902414282815987,0.09466489850045905,0.04183266932270917
iowiki,False,46.0,0.023863636363636365,0.38181818181818183,0.9094136741732602,0.08762623686626543,0.044919786096256686
iowiki,False,47.0,0.025830258302583026,0.38181818181818183,0.9162101846216271,0.08079159440987453,0.048387096774193554
iowiki,False,48.0,0.026737967914438502,0.36363636363636365,0.922600933252181,0.0742629807201877,0.049813200498132
iowiki,False,49.0,0.02844950213371266,0.36363636363636365,0.9271657537025766,0.06967254921962665,0.05277044854881266
iowiki,False,50.0,0.030816640986132512,0.36363636363636365,0.9326435382430514,0.06416403141895338,0.056818181818181816
iowiki,False,51.0,0.03284072249589491,0.36363636363636365,0.9367011564211808,0.06008364786289911,0.060240963855421686
iowiki,False,52.0,0.03442340791738382,0.36363636363636365,0.9395414891458713,0.057227379373661125,0.06289308176100629
iowiki,False,53.0,0.036101083032490974,0.36363636363636365,0.9422803814161087,0.05447312047332449,0.06568144499178982
iowiki,False,54.0,0.034026465028355386,0.32727272727272727,0.9444106309596267,0.05212689992859329,0.06164383561643836
iowiki,False,55.0,0.03508771929824561,0.32727272727272727,0.9460336782308785,0.05049474650617158,0.06338028169014084
iowiki,False,56.0,0.036072144288577156,0.32727272727272727,0.9474538445932238,0.04906661226155259,0.06498194945848376
iowiki,False,57.0,0.03556485355648536,0.3090909090909091,0.9493812132278353,0.04702642048352545,0.06378986866791744
iowiki,False,58.0,0.0367965367965368,0.3090909090909091,0.951004260499087,0.04539426706110374,0.06576402321083172
iowiki,False,59.0,0.038901601830663615,0.3090909090909091,0.9535402718604179,0.042844027338569825,0.06910569105691057
iowiki,False,60.0,0.04116222760290557,0.3090909090909091,0.9559748427672956,0.040395797204937266,0.07264957264957266
iowiki,False,61.0,0.04358974358974359,0.3090909090909091,0.95830797321972,0.03804957666020606,0.07640449438202246
iowiki,False,62.0,0.04644808743169399,0.3090909090909091,0.9607425441265977,0.0356013465265735,0.08076009501187649
iowiki,False,63.0,0.04871060171919771,0.3090909090909091,0.9624670318523026,0.033867183515250435,0.08415841584158415
iowiki,False,64.0,0.05089820359281437,0.3090909090909091,0.9639886386691012,0.03233703968173008,0.08740359897172235
iowiki,False,65.0,0.05379746835443038,0.3090909090909091,0.9658145668492595,0.03050086708150566,0.09164420485175201
iowiki,False,66.0,0.05263157894736842,0.2909090909090909,0.9668289713937919,0.029378761603590736,0.08913649025069638
iowiki,False,67.0,0.0547945205479452,0.2909090909090909,0.9680462568472307,0.028154646536774457,0.09221902017291066
iowiki,False,68.0,0.05474452554744526,0.2727272727272727,0.9696693041184824,0.026420483525451392,0.09118541033434652
iowiki,False,69.0,0.057034220532319393,0.2727272727272727,0.970785149117468,0.025298378047536468,0.09433962264150944
iowiki,False,70.0,0.05952380952380952,0.2727272727272727,0.9719009941164536,0.024176272569621543,0.09771986970684038
iowiki,False,71.0,0.06276150627615062,0.2727272727272727,0.9732197200243458,0.02285014791390391,0.1020408163265306
iowiki,False,72.0,0.06572769953051644,0.2545454545454545,0.9756542909312234,0.020299908191369988,0.1044776119402985
iowiki,False,73.0,0.07,0.2545454545454545,0.9769730168391154,0.01897378353565235,0.10980392156862745
iowiki,False,74.0,0.07291666666666667,0.2545454545454545,0.9777845404747413,0.018157706824441497,0.11336032388663966
iowiki,False,75.0,0.07954545454545454,0.2545454545454545,0.9794075877459931,0.01652555340201979,0.12121212121212122
iowiki,False,76.0,0.08433734939759036,0.2545454545454545,0.9804219922905255,0.015505457513006223,0.12669683257918551
iowiki,False,77.0,0.08441558441558442,0.23636363636363636,0.9814363968350578,0.014383352035091298,0.1244019138755981
iowiki,False,78.0,0.0896551724137931,0.23636363636363636,0.9823493609251369,0.013465265734979089,0.13
iowiki,False,79.0,0.09701492537313433,0.23636363636363636,0.9834652059241226,0.012343160257064164,0.13756613756613756
iowiki,False,80.0,0.10077519379844961,0.23636363636363636,0.9839724081963888,0.01183311231255738,0.14130434782608697
iowiki,False,81.0,0.10655737704918032,0.23636363636363636,0.9846824913775614,0.011119045190247883,0.14689265536723164
iowiki,False,82.0,0.11304347826086956,0.23636363636363636,0.985392574558734,0.010404978067938386,0.15294117647058825
iowiki,False,83.0,0.12037037037037036,0.23636363636363636,0.9861026577399067,0.00969091094562889,0.15950920245398773
iowiki,False,84.0,0.12380952380952381,0.23636363636363636,0.9864069791032664,0.009384882178924818,0.1625
iowiki,False,85.0,0.13541666666666666,0.23636363636363636,0.9873199431933455,0.008466795878812609,0.17218543046357615
iowiki,False,86.0,0.14942528735632185,0.23636363636363636,0.9882329072834246,0.007548709578700398,0.18309859154929578
iowiki,False,87.0,0.17333333333333334,0.23636363636363636,0.9894501927368634,0.006324594511884117,0.2
iowiki,False,88.0,0.19117647058823528,0.23636363636363636,0.9901602759180361,0.00561052738957462,0.2113821138211382
iowiki,False,89.0,0.1935483870967742,0.21818181818181817,0.9905660377358491,0.0051004794450678365,0.20512820512820512
iowiki,False,90.0,0.21052631578947367,0.21818181818181817,0.9910732400081153,0.0045904315005610525,0.21428571428571427
iowiki,False,91.0,0.2,0.18181818181818182,0.9913775613714749,0.004080383556054269,0.1904761904761905
iowiki,False,92.0,0.1891891891891892,0.12727272727272726,0.9920876445526476,0.003060287667040702,0.15217391304347824
iowiki,False,93.0,0.2413793103448276,0.12727272727272726,0.9928991681882735,0.002244210955829848,0.16666666666666669
iowiki,False,94.0,0.25,0.10909090909090909,0.9932034895516332,0.001836172600224421,0.1518987341772152
iowiki,False,95.0,0.3333333333333333,0.09090909090909091,0.9939135727328059,0.0010200958890135673,0.14285714285714288
iowiki,False,96.0,0.2727272727272727,0.05454545454545454,0.9939135727328059,0.0008160767112108538,0.0909090909090909
iowiki,False,97.0,0.125,0.01818181818181818,0.9938121322783526,0.0007140671223094971,0.031746031746031744
iowiki,False,98.0,0.3333333333333333,0.01818181818181818,0.9943193345506188,0.00020401917780271344,0.034482758620689655
iowiki,False,99.0,0.5,0.01818181818181818,0.994420775005072,0.00010200958890135672,0.03508771929824561
