wiki_db,user_is_anonymous_or_bot,threshold,precision,recall,accuracy,fpr,F1
iswiki,True,0.0,0.15331448319195728,1.0,0.15331448319195728,1.0,0.2658676110051757
iswiki,True,1.0,0.15331448319195728,1.0,0.15331448319195728,1.0,0.2658676110051757
iswiki,True,2.0,0.15331448319195728,1.0,0.15331448319195728,1.0,0.2658676110051757
iswiki,True,3.0,0.15331448319195728,1.0,0.15331448319195728,1.0,0.2658676110051757
iswiki,True,4.0,0.1534108770826784,1.0,0.15394282123782596,0.9992578849721707,0.26601253747615156
iswiki,True,5.0,0.15345911949685534,1.0,0.15425699026076028,0.9988868274582561,0.26608505997818976
iswiki,True,6.0,0.15365239294710328,1.0,0.15551366635249764,0.9974025974025974,0.2663755458515284
iswiki,True,7.0,0.15404040404040403,1.0,0.15802701853597234,0.9944341372912802,0.26695842450765866
iswiki,True,8.0,0.1545771301868863,1.0,0.16148287778825007,0.9903525046382189,0.26776406035665296
iswiki,True,9.0,0.15576125119693585,1.0,0.1690229343386742,0.9814471243042672,0.2695388014360674
iswiki,True,10.0,0.15875081327260898,1.0,0.1875589066918002,0.9595547309833025,0.27400336889387983
iswiki,True,11.0,0.1614824619457313,1.0,0.2038956958843858,0.9402597402597402,0.27806267806267804
iswiki,True,12.0,0.16531165311653118,1.0,0.22588752748978952,0.9142857142857143,0.2837209302325582
iswiki,True,13.0,0.1685082872928177,1.0,0.24348099277411248,0.8935064935064935,0.28841607565011823
iswiki,True,14.0,0.17225555947758558,1.0,0.2632736412189758,0.8701298701298701,0.2938873833182776
iswiki,True,15.0,0.17522441651705564,1.0,0.27835375431982406,0.8523191094619667,0.29819737244118544
iswiki,True,16.0,0.17790740065621582,1.0,0.2915488532830663,0.8367346938775511,0.30207366140513775
iswiki,True,17.0,0.17914831130690162,1.0,0.2975180647188187,0.8296846011131725,0.3038605230386052
iswiki,True,18.0,0.18121054585963609,1.0,0.3072573044297832,0.8181818181818182,0.3068217541653568
iswiki,True,19.0,0.1832894241625894,0.9979508196721312,0.31793905120955074,0.8051948051948052,0.309697933227345
iswiki,True,20.0,0.18496012153437144,0.9979508196721312,0.32547910775997485,0.7962894248608534,0.31207946171099005
iswiki,True,21.0,0.1863758132414849,0.9979508196721312,0.33176248821866167,0.7888682745825603,0.3140922283134473
iswiki,True,22.0,0.18795831725202625,0.9979508196721312,0.3386742067232171,0.7807050092764378,0.31633647288080546
iswiki,True,23.0,0.18917866874270145,0.9959016393442623,0.3449575871819039,0.77291280148423,0.3179587831207066
iswiki,True,24.0,0.19133858267716536,0.9959016393442623,0.3540684888469997,0.762152133580705,0.321003963011889
iswiki,True,25.0,0.19224683544303797,0.9959016393442623,0.35783851712221176,0.7576994434137291,0.3222811671087533
iswiki,True,26.0,0.194,0.9938524590163934,0.3660069117185046,0.7476808905380334,0.3246318607764391
iswiki,True,27.0,0.19509251810136766,0.9938524590163934,0.3704052780395853,0.7424860853432282,0.3261600537995965
iswiki,True,28.0,0.1960388035569927,0.9938524590163934,0.37417530631479734,0.7380333951762523,0.3274814314652262
iswiki,True,29.0,0.1976365118174409,0.9938524590163934,0.38045868677348416,0.7306122448979592,0.3297076818490822
iswiki,True,30.0,0.1987704918032787,0.9938524590163934,0.38485705309456486,0.725417439703154,0.3312841530054645
iswiki,True,31.0,0.19942434210526316,0.9938524590163934,0.38737040527803956,0.7224489795918367,0.33219178082191786
iswiki,True,32.0,0.20049607275733775,0.9938524590163934,0.391454602576186,0.7176252319109462,0.33367733058135535
iswiki,True,33.0,0.20082815734989648,0.9938524590163934,0.3927112786679233,0.7161410018552876,0.33413709955218734
iswiki,True,34.0,0.20183104452767375,0.9938524590163934,0.3964813069431354,0.7116883116883117,0.3355240401245244
iswiki,True,35.0,0.2026744671959883,0.9938524590163934,0.3996229971724788,0.7079777365491651,0.3366886497743839
iswiki,True,36.0,0.20336134453781513,0.9918032786885246,0.4030788564247565,0.7035250463821893,0.33751743375174337
iswiki,True,37.0,0.20396123050990309,0.9918032786885246,0.4052780395852969,0.7009276437847867,0.33834323663054877
iswiki,True,38.0,0.2042194092827004,0.9918032786885246,0.4062205466540999,0.6998144712430426,0.3386983904828551
iswiki,True,39.0,0.20525869380831213,0.9918032786885246,0.40999057492931196,0.6953617810760668,0.34012649332396344
iswiki,True,40.0,0.20604512558535548,0.9918032786885246,0.412818096135721,0.6920222634508348,0.3412054987663024
iswiki,True,41.0,0.20683760683760682,0.9918032786885246,0.41564561734213007,0.688682745825603,0.34229137199434223
iswiki,True,42.0,0.20774193548387096,0.9897540983606558,0.4197298146402765,0.6834879406307978,0.34340561677923925
iswiki,True,43.0,0.2090004327131112,0.9897540983606558,0.42412818096135724,0.6782931354359926,0.34512325830653806
iswiki,True,44.0,0.2105492589363557,0.9897540983606558,0.42946905435124094,0.6719851576994434,0.3472322070452911
iswiki,True,45.0,0.21128608923884515,0.9897540983606558,0.4319824065347157,0.6690166975881262,0.34823359769286233
iswiki,True,46.0,0.21212121212121213,0.9897540983606558,0.4348099277411247,0.6656771799628942,0.34936708860759497
iswiki,True,47.0,0.21352785145888595,0.9897540983606558,0.4395224630851398,0.6601113172541744,0.3512727272727273
iswiki,True,48.0,0.21412705464238116,0.9877049180327869,0.44234998429154887,0.6564007421150279,0.3519532676159182
iswiki,True,49.0,0.21546714349575324,0.9877049180327869,0.4467483506126296,0.6512059369202227,0.35376146788990825
iswiki,True,50.0,0.21637426900584794,0.985655737704918,0.4505183788878417,0.6463821892393321,0.3548506086315013
iswiki,True,51.0,0.2174502712477396,0.985655737704918,0.4539742381401194,0.6423005565862708,0.35629629629629633
iswiki,True,52.0,0.21883530482256597,0.985655737704918,0.45837260446120015,0.6371057513914656,0.3581533879374535
iswiki,True,53.0,0.21967963386727687,0.9836065573770492,0.46182846371347785,0.6326530612244898,0.35914702581369246
iswiki,True,54.0,0.22134935304990758,0.9815573770491803,0.46779767514923026,0.6252319109461967,0.361236802413273
iswiki,True,55.0,0.22279069767441861,0.9815573770491803,0.472196041470311,0.6200371057513915,0.3631539044730857
iswiki,True,56.0,0.2235734331150608,0.9795081967213115,0.47533773169965443,0.6159554730983302,0.3640517897943641
iswiki,True,57.0,0.2251530852567122,0.9795081967213115,0.4800502670436695,0.6103896103896104,0.3661432401378782
iswiki,True,58.0,0.22643297015632402,0.9795081967213115,0.48382029531888154,0.6059369202226345,0.3678337822239323
iswiki,True,59.0,0.22870813397129186,0.9795081967213115,0.49041784480050266,0.5981447124304267,0.37083010085337476
iswiki,True,60.0,0.2301013024602026,0.9774590163934426,0.49513038014451777,0.5922077922077922,0.37251073799297146
iswiki,True,61.0,0.2323429128105212,0.9774590163934426,0.5014137606032045,0.584786641929499,0.37544273907910275
iswiki,True,62.0,0.2350911779201577,0.9774590163934426,0.5089538171536286,0.5758812615955473,0.37902264600715135
iswiki,True,63.0,0.23778664007976072,0.9774590163934426,0.5161797046811184,0.5673469387755102,0.3825180433039294
iswiki,True,64.0,0.2407874810701666,0.9774590163934426,0.5240339302544769,0.5580705009276438,0.3863912515188336
iswiki,True,65.0,0.24372759856630824,0.9754098360655737,0.5322023248507697,0.548051948051948,0.39000409668168784
iswiki,True,66.0,0.2488238369053842,0.9754098360655737,0.5447690857681433,0.5332096474953618,0.3965014577259475
iswiki,True,67.0,0.2526595744680851,0.9733606557377049,0.5545083254791078,0.5213358070500927,0.40118243243243246
iswiki,True,68.0,0.2566323768272875,0.9713114754098361,0.5642475651900722,0.5094619666048238,0.40599571734475376
iswiki,True,69.0,0.2601760176017602,0.9692622950819673,0.5727301288092994,0.49907235621521334,0.41023417172593235
iswiki,True,70.0,0.2638345444382337,0.9672131147540983,0.5812126924285266,0.48868274582560295,0.414580588493632
iswiki,True,71.0,0.26636568848758463,0.9672131147540983,0.5865535658184103,0.48237476808905383,0.4176991150442477
iswiki,True,72.0,0.26969522714203564,0.9610655737704918,0.5950361294376374,0.4712430426716141,0.4211944319712618
iswiki,True,73.0,0.27459016393442626,0.9610655737704918,0.604775369148602,0.4597402597402597,0.4271402550091075
iswiki,True,74.0,0.2784734645199761,0.9569672131147541,0.6132579327678291,0.4489795918367347,0.43140877598152416
iswiki,True,75.0,0.2818181818181818,0.9528688524590164,0.6204838202953189,0.4397031539888683,0.43498596819457436
iswiki,True,76.0,0.287042777433354,0.9487704918032787,0.6308513980521521,0.4267161410018553,0.4407425035697287
iswiki,True,77.0,0.29347826086956524,0.9405737704918032,0.6437323279924599,0.4100185528756957,0.4473684210526316
iswiki,True,78.0,0.30192435301924353,0.9323770491803278,0.6591266101162425,0.3903525046382189,0.456140350877193
iswiki,True,79.0,0.30842391304347827,0.930327868852459,0.6694941878730757,0.3777365491651206,0.463265306122449
iswiki,True,80.0,0.3189227498228207,0.9221311475409836,0.6861451460885957,0.35658627087198513,0.47393364928909953
iswiki,True,81.0,0.3252569750367107,0.9077868852459017,0.6971410618912975,0.3410018552875696,0.47891891891891886
iswiki,True,82.0,0.33741392501912776,0.9036885245901639,0.7131636820609488,0.3213358070500928,0.49136490250696374
iswiki,True,83.0,0.35,0.889344262295082,0.7298146402764687,0.29907235621521333,0.5023148148148148
iswiki,True,84.0,0.3552519214346712,0.8524590163934426,0.7401822180333019,0.28014842300556586,0.5015069318866787
iswiki,True,85.0,0.36313868613138683,0.8155737704918032,0.7524348099277411,0.25899814471243043,0.5025252525252525
iswiki,True,86.0,0.376101860920666,0.7868852459016393,0.767200754005655,0.23636363636363636,0.5089463220675944
iswiki,True,87.0,0.3920940170940171,0.7520491803278688,0.7832233741753063,0.21113172541743971,0.5154494382022472
iswiki,True,88.0,0.41040462427745666,0.7274590163934426,0.7979893182532203,0.18923933209647495,0.524759793052476
iswiki,True,89.0,0.43911917098445596,0.694672131147541,0.8171536286522149,0.1606679035250464,0.5380952380952381
iswiki,True,90.0,0.4554744525547445,0.639344262295082,0.827521206409048,0.13840445269016696,0.5319693094629157
iswiki,True,91.0,0.4727272727272727,0.5860655737704918,0.8363179390512095,0.11836734693877551,0.5233302836230558
iswiki,True,92.0,0.4962264150943396,0.5389344262295082,0.8454288407163054,0.09907235621521336,0.5166994106090372
iswiki,True,93.0,0.5413870246085011,0.4959016393442623,0.8583097706566133,0.07606679035250463,0.5176470588235293
iswiki,True,94.0,0.6131805157593123,0.4385245901639344,0.8715048696198555,0.05009276437847866,0.5113500597371565
iswiki,True,95.0,0.7054263565891473,0.3729508196721312,0.8799874332390826,0.028200371057513916,0.48793565683646106
iswiki,True,96.0,0.7891891891891892,0.29918032786885246,0.8803016022620169,0.014471243042671614,0.4338781575037148
iswiki,True,97.0,0.8688524590163934,0.21721311475409835,0.8749607288721332,0.005936920222634508,0.34754098360655733
iswiki,True,98.0,0.9253731343283582,0.12704918032786885,0.8645931511153,0.0018552875695732839,0.22342342342342342
iswiki,True,99.0,0.9523809523809523,0.040983606557377046,0.8526547282437952,0.00037105751391465676,0.07858546168958741
iswiki,False,0.0,0.04216287742090701,1.0,0.04216287742090701,1.0,0.08091418018122006
iswiki,False,1.0,0.04216287742090701,1.0,0.04216287742090701,1.0,0.08091418018122006
iswiki,False,2.0,0.04233347424361374,1.0,0.04619271021291952,0.9957927786499216,0.08122827346465818
iswiki,False,3.0,0.04275172287613588,1.0,0.05593648502345724,0.9856200941915227,0.0819978944905837
iswiki,False,4.0,0.04327666151468315,0.9985734664764622,0.0691687718031998,0.9717425431711146,0.08295804693055225
iswiki,False,5.0,0.04410838059231254,0.9985734664764622,0.08751353302057019,0.9525902668759811,0.08448494357612699
iswiki,False,6.0,0.045093864911941166,0.9971469329529244,0.1095873932395044,0.9294819466248038,0.08628564374768548
iswiki,False,7.0,0.04621182070606902,0.9971469329529244,0.1321424275231565,0.9059340659340659,0.08833006886965312
iswiki,False,8.0,0.047089911240598956,0.9914407988587732,0.1537351136773728,0.8831397174254317,0.08990944372574386
iswiki,False,9.0,0.04830951551063088,0.9885877318116976,0.17839528449416575,0.8572684458398744,0.09211750631397049
iswiki,False,10.0,0.049727324913892076,0.9885877318116976,0.202995308552869,0.831585557299843,0.09469153515064561
iswiki,False,11.0,0.05096388211832484,0.9843081312410842,0.22651269096595694,0.8068445839874411,0.09691011235955055
iswiki,False,12.0,0.05245552683594344,0.9843081312410842,0.24966919283050643,0.782668759811617,0.09960303139660771
iswiki,False,13.0,0.05356445693761224,0.978601997146933,0.27005894382292794,0.7611302982731554,0.10156944033165531
iswiki,False,14.0,0.05518018018018018,0.978601997146933,0.2926139781065801,0.7375824175824176,0.10446965659026877
iswiki,False,15.0,0.05648829708047308,0.9743223965763196,0.31276314206664263,0.7163579277864992,0.10678549093183239
iswiki,False,16.0,0.057878633350331464,0.9714693295292439,0.3320702514134488,0.6960753532182103,0.10924841581775889
iswiki,False,17.0,0.05901810584958217,0.9671897289586305,0.3484301696138578,0.6788069073783359,0.1112478464189023
iswiki,False,18.0,0.06059249977624631,0.9657631954350927,0.3672561048959461,0.6590894819466248,0.11403065521307057
iswiki,False,19.0,0.06230356812719542,0.9614835948644793,0.388247323469265,0.6369858712715856,0.11702404722632173
iswiki,False,20.0,0.06406578695735322,0.9557774607703281,0.40941898231685314,0.6146310832025118,0.1200824446635003
iswiki,False,21.0,0.06613285883748517,0.9543509272467903,0.42986888006736435,0.5932182103610675,0.12369418507904223
iswiki,False,22.0,0.06770515170026471,0.948644793152639,0.4470708528810297,0.5750078492935636,0.12638981279102918
iswiki,False,23.0,0.06971128608923885,0.9472182596291013,0.4648141465175027,0.5564207221350078,0.12986504987287306
iswiki,False,24.0,0.07173818812310359,0.9443651925820257,0.48243714663779624,0.5378963893249608,0.13334676201027293
iswiki,False,25.0,0.07374301675977654,0.9415121255349501,0.4989173583543847,0.5205651491365777,0.13677339135840846
iswiki,False,26.0,0.07551724137931035,0.9372325249643366,0.513593167328281,0.5050549450549451,0.13977236464205936
iswiki,False,27.0,0.07729582791632195,0.9329529243937232,0.5276073619631901,0.4902354788069074,0.14276358873608383
iswiki,False,28.0,0.0799217890749114,0.9329529243937232,0.5443281607121376,0.4727786499215071,0.14723097703737054
iswiki,False,29.0,0.08254089007227082,0.9286733238231099,0.5617707205581619,0.45437990580847726,0.15160689333954358
iswiki,False,30.0,0.08451072736787023,0.9215406562054208,0.5757849151930711,0.43943485086342227,0.15482324745356504
iswiki,False,31.0,0.08689785454054784,0.9186875891583453,0.5895585227956213,0.4249293563579278,0.15877712031558186
iswiki,False,32.0,0.08999441028507546,0.9186875891583453,0.6048959461085047,0.40891679748822607,0.16393025327733232
iswiki,False,33.0,0.09324618736383443,0.9158345221112696,0.6209551305184651,0.39202511773940346,0.16925916161349855
iswiki,False,34.0,0.09588014981273409,0.912981455064194,0.6333453626849512,0.37896389324960755,0.17353579175704992
iswiki,False,35.0,0.09869848156182212,0.9087018544935807,0.6462769156742452,0.36527472527472526,0.17805730258560448
iswiki,False,36.0,0.10145623299727956,0.9044222539229672,0.6582461205341033,0.35259026687598116,0.18244604316546764
iswiki,False,37.0,0.10425602111514351,0.9015691868758916,0.6692529772645255,0.34097331240188383,0.18689930504214108
iswiki,False,38.0,0.10710642638558314,0.8987161198288159,0.6798388066883195,0.32979591836734695,0.19140209630867386
iswiki,False,39.0,0.11027084066127331,0.8944365192582026,0.69126669072537,0.31767660910518053,0.19633630812588074
iswiki,False,40.0,0.11306078147612156,0.891583452211127,0.7005292914711897,0.3078806907378336,0.20067426553218815
iswiki,False,41.0,0.11558441558441558,0.8887303851640513,0.7085889570552147,0.29934065934065934,0.20456411098341812
iswiki,False,42.0,0.11846623426173217,0.8858773181169758,0.7172500902201371,0.2901726844583987,0.20898536092882383
iswiki,False,43.0,0.12105159897979204,0.8801711840228246,0.7254901960784313,0.2813186813186813,0.21283201103828905
iswiki,False,44.0,0.12384584504215175,0.8801711840228246,0.7324070732587513,0.27409733124018837,0.21713883512229457
iswiki,False,45.0,0.12605042016806722,0.8773181169757489,0.7383616023096355,0.2677551020408163,0.22043010752688172
iswiki,False,46.0,0.12869419408928945,0.8758915834522111,0.7447371586671478,0.26103610675039246,0.22441520467836254
iswiki,False,47.0,0.13126338329764453,0.8744650499286734,0.750691687718032,0.25475667189952905,0.22826289331595603
iswiki,False,48.0,0.13326039387308533,0.8687589158345221,0.756225189462288,0.24872841444270016,0.23107569721115534
iswiki,False,49.0,0.13554014761798255,0.8644793152639088,0.7618188379646337,0.24270015698587127,0.234338747099768
iswiki,False,50.0,0.1380255941499086,0.8616262482168331,0.7672921929508,0.2368602825745683,0.23793578885168407
iswiki,False,51.0,0.14000464360343626,0.8601997146932953,0.7713220257428125,0.23259026687598117,0.240814696485623
iswiki,False,52.0,0.14258645191852204,0.8587731811697575,0.7763142066642608,0.2273155416012559,0.2445663213487711
iswiki,False,53.0,0.1452081316553727,0.8559201141226819,0.7814868278599784,0.22178963893249606,0.2482929857231533
iswiki,False,54.0,0.14718934911242604,0.8516405135520685,0.7856971009262601,0.21720565149136578,0.2509985284843389
iswiki,False,55.0,0.15016376921138827,0.8502139800285307,0.7908095753638879,0.21180533751962324,0.25524625267665957
iswiki,False,56.0,0.15259907359752958,0.8459343794579173,0.7954408757367978,0.20678178963893248,0.2585567909308916
iswiki,False,57.0,0.1563406274716583,0.8459343794579173,0.8010345242391436,0.20094191522762953,0.2639074321317312
iswiki,False,58.0,0.15878559914024717,0.8430813124108416,0.805064357031156,0.19660910518053376,0.2672394302509609
iswiki,False,59.0,0.16218441273326015,0.8430813124108416,0.8097558041621556,0.1917111459968603,0.2720368239355581
iswiki,False,60.0,0.16433370660694288,0.8373751783166904,0.813605196679899,0.18744113029827317,0.274748420313597
iswiki,False,61.0,0.167621776504298,0.8345221112696148,0.8182966438108986,0.1824175824175824,0.2791696492483894
iswiki,False,62.0,0.17126099706744868,0.833095577746077,0.8229880909418983,0.17745682888540032,0.28411578691315986
iswiki,False,63.0,0.17378321887130488,0.8302425106990015,0.8264164561530134,0.1737519623233909,0.28740740740740744
iswiki,False,64.0,0.17819963257807717,0.8302425106990015,0.8314086370744617,0.16854003139717424,0.29342072094781946
iswiki,False,65.0,0.1816185696361355,0.8259629101283881,0.8357392036569229,0.16383045525902667,0.29776292105939833
iswiki,False,66.0,0.1868344627299129,0.8259629101283881,0.8410922651269097,0.15824175824175823,0.30473684210526314
iswiki,False,67.0,0.18929633300297324,0.8174037089871612,0.844701070612294,0.15409733124018837,0.30740343347639487
iswiki,False,68.0,0.19395380434782608,0.8145506419400856,0.8494526645013833,0.149010989010989,0.31330589849108365
iswiki,False,69.0,0.19693806541405706,0.8074179743223966,0.8530614699867677,0.14492935635792778,0.31664335664335663
iswiki,False,70.0,0.2007168458781362,0.7988587731811697,0.8573920365692289,0.1400313971742543,0.32082497851618447
iswiki,False,71.0,0.2039545953863054,0.7945791726105563,0.8605798147479851,0.1365149136577708,0.3245920745920746
iswiki,False,72.0,0.20867924528301887,0.7888730385164051,0.864970528088536,0.13167974882260597,0.3300507311250373
iswiki,False,73.0,0.21406371406371405,0.7860199714693296,0.8693010946709973,0.12703296703296704,0.3364885496183206
iswiki,False,74.0,0.21850079744816586,0.7817403708987162,0.8729099001563816,0.12307692307692308,0.3415394203801807
iswiki,False,75.0,0.2240032881216605,0.7774607703281027,0.8770600264645736,0.11855572998430142,0.3477983407785578
iswiki,False,76.0,0.2301822806273845,0.7746077032810271,0.8812702995308553,0.11403453689167975,0.35490196078431374
iswiki,False,77.0,0.23662096417514375,0.7631954350927247,0.8862023336942139,0.10838304552590267,0.3612424037812289
iswiki,False,78.0,0.24376731301939059,0.7532097004279601,0.8910742210994828,0.10285714285714286,0.36832926403906524
iswiki,False,79.0,0.25251557259223767,0.7517831669044223,0.8957055214723927,0.09795918367346938,0.37804878048780494
iswiki,False,80.0,0.26104417670682734,0.7417974322396577,0.9005774088776615,0.09243328100470957,0.3861864092090606
iswiki,False,81.0,0.2702273929138022,0.7289586305278174,0.9055695897991098,0.08665620094191523,0.39429012345679004
iswiki,False,82.0,0.28197997775305894,0.7232524964336662,0.9106820642367376,0.08106750392464677,0.40576230492196874
iswiki,False,83.0,0.2940483205657042,0.7118402282453637,0.9157945386743654,0.0752276295133438,0.4161801501251043
iswiki,False,84.0,0.2999373825923607,0.6833095577746077,0.9194033441597498,0.07020408163265306,0.41688424717145345
iswiki,False,85.0,0.3068105192178018,0.6490727532097005,0.9233730301936726,0.06455259026687599,0.4166666666666667
iswiki,False,86.0,0.32090643274853803,0.6262482168330956,0.9283652111151209,0.058335949764521194,0.4243595940067666
iswiki,False,87.0,0.33494363929146537,0.5934379457917262,0.9331769517623,0.05186813186813187,0.4282038085434894
iswiki,False,88.0,0.3505244755244755,0.572039942938659,0.9372669313124022,0.04665620094191523,0.4346883468834688
iswiki,False,89.0,0.3717948717948718,0.5378031383737518,0.9421989654757609,0.04,0.43965014577259476
iswiki,False,90.0,0.38478747203579416,0.49072753209700426,0.9454468904126068,0.03453689167974882,0.4313479623824451
iswiki,False,91.0,0.4017971758664955,0.44650499286733236,0.9486346685913629,0.02926216640502355,0.4229729729729729
iswiki,False,92.0,0.4237037037037037,0.4079885877318117,0.9516420064958498,0.024427001569858713,0.41569767441860467
iswiki,False,93.0,0.45729537366548045,0.3666191155492154,0.9549500781907855,0.019152276295133438,0.4069675376088678
iswiki,False,94.0,0.5193621867881549,0.3252496433666191,0.9588596174666185,0.013249607535321822,0.4
iswiki,False,95.0,0.6233766233766234,0.2738944365192582,0.9624082761939131,0.00728414442700157,0.3805748265609515
iswiki,False,96.0,0.7142857142857143,0.2211126961483595,0.9634307710814387,0.0038932496075353216,0.33769063180827885
iswiki,False,97.0,0.7971014492753623,0.15691868758915833,0.9627691567424516,0.0017582417582417582,0.26221692491060783
iswiki,False,98.0,0.8918918918918919,0.09415121255349501,0.9613256345482979,0.0005023547880690738,0.1703225806451613
iswiki,False,99.0,0.9130434782608695,0.029957203994293864,0.958979910982798,0.00012558869701726844,0.0580110497237569
