wiki_db,user_is_anonymous_or_bot,threshold,precision,recall,accuracy,fpr,F1
klwiki,True,0.0,0.5,1.0,0.5,1.0,0.6666666666666666
klwiki,True,1.0,0.5,1.0,0.5,1.0,0.6666666666666666
klwiki,True,2.0,0.5,1.0,0.5,1.0,0.6666666666666666
klwiki,True,3.0,0.5,1.0,0.5,1.0,0.6666666666666666
klwiki,True,4.0,0.5,1.0,0.5,1.0,0.6666666666666666
klwiki,True,5.0,0.5,1.0,0.5,1.0,0.6666666666666666
klwiki,True,6.0,0.5,1.0,0.5,1.0,0.6666666666666666
klwiki,True,7.0,0.5,1.0,0.5,1.0,0.6666666666666666
klwiki,True,8.0,0.5,1.0,0.5,1.0,0.6666666666666666
klwiki,True,9.0,0.5,1.0,0.5,1.0,0.6666666666666666
klwiki,True,10.0,0.5,1.0,0.5,1.0,0.6666666666666666
klwiki,True,11.0,0.5,1.0,0.5,1.0,0.6666666666666666
klwiki,True,12.0,0.5,1.0,0.5,1.0,0.6666666666666666
klwiki,True,13.0,0.5,1.0,0.5,1.0,0.6666666666666666
klwiki,True,14.0,0.5,1.0,0.5,1.0,0.6666666666666666
klwiki,True,15.0,0.5,1.0,0.5,1.0,0.6666666666666666
klwiki,True,16.0,0.5,1.0,0.5,1.0,0.6666666666666666
klwiki,True,17.0,0.5,1.0,0.5,1.0,0.6666666666666666
klwiki,True,18.0,0.5,1.0,0.5,1.0,0.6666666666666666
klwiki,True,19.0,0.5,1.0,0.5,1.0,0.6666666666666666
klwiki,True,20.0,0.5,1.0,0.5,1.0,0.6666666666666666
klwiki,True,21.0,0.5,1.0,0.5,1.0,0.6666666666666666
klwiki,True,22.0,0.5,1.0,0.5,1.0,0.6666666666666666
klwiki,True,23.0,0.5,1.0,0.5,1.0,0.6666666666666666
klwiki,True,24.0,0.5,1.0,0.5,1.0,0.6666666666666666
klwiki,True,25.0,0.5,1.0,0.5,1.0,0.6666666666666666
klwiki,True,26.0,0.5,1.0,0.5,1.0,0.6666666666666666
klwiki,True,27.0,0.5,1.0,0.5,1.0,0.6666666666666666
klwiki,True,28.0,0.5,1.0,0.5,1.0,0.6666666666666666
klwiki,True,29.0,0.5,1.0,0.5,1.0,0.6666666666666666
klwiki,True,30.0,0.5,1.0,0.5,1.0,0.6666666666666666
klwiki,True,31.0,0.5,1.0,0.5,1.0,0.6666666666666666
klwiki,True,32.0,0.5,1.0,0.5,1.0,0.6666666666666666
klwiki,True,33.0,0.5,1.0,0.5,1.0,0.6666666666666666
klwiki,True,34.0,0.5,1.0,0.5,1.0,0.6666666666666666
klwiki,True,35.0,0.5,1.0,0.5,1.0,0.6666666666666666
klwiki,True,36.0,0.5,1.0,0.5,1.0,0.6666666666666666
klwiki,True,37.0,0.5,1.0,0.5,1.0,0.6666666666666666
klwiki,True,38.0,0.5,1.0,0.5,1.0,0.6666666666666666
klwiki,True,39.0,0.5,1.0,0.5,1.0,0.6666666666666666
klwiki,True,40.0,0.5,1.0,0.5,1.0,0.6666666666666666
klwiki,True,41.0,0.5,1.0,0.5,1.0,0.6666666666666666
klwiki,True,42.0,0.5333333333333333,1.0,0.5625,0.875,0.6956521739130436
klwiki,True,43.0,0.5333333333333333,1.0,0.5625,0.875,0.6956521739130436
klwiki,True,44.0,0.5333333333333333,1.0,0.5625,0.875,0.6956521739130436
klwiki,True,45.0,0.5333333333333333,1.0,0.5625,0.875,0.6956521739130436
klwiki,True,46.0,0.5333333333333333,1.0,0.5625,0.875,0.6956521739130436
klwiki,True,47.0,0.5333333333333333,1.0,0.5625,0.875,0.6956521739130436
klwiki,True,48.0,0.5333333333333333,1.0,0.5625,0.875,0.6956521739130436
klwiki,True,49.0,0.5333333333333333,1.0,0.5625,0.875,0.6956521739130436
klwiki,True,50.0,0.5333333333333333,1.0,0.5625,0.875,0.6956521739130436
klwiki,True,51.0,0.5333333333333333,1.0,0.5625,0.875,0.6956521739130436
klwiki,True,52.0,0.5714285714285714,1.0,0.625,0.75,0.7272727272727273
klwiki,True,53.0,0.5714285714285714,1.0,0.625,0.75,0.7272727272727273
klwiki,True,54.0,0.5714285714285714,1.0,0.625,0.75,0.7272727272727273
klwiki,True,55.0,0.5714285714285714,1.0,0.625,0.75,0.7272727272727273
klwiki,True,56.0,0.5714285714285714,1.0,0.625,0.75,0.7272727272727273
klwiki,True,57.0,0.5714285714285714,1.0,0.625,0.75,0.7272727272727273
klwiki,True,58.0,0.6153846153846154,1.0,0.6875,0.625,0.761904761904762
klwiki,True,59.0,0.6666666666666666,1.0,0.75,0.5,0.8
klwiki,True,60.0,0.6666666666666666,1.0,0.75,0.5,0.8
klwiki,True,61.0,0.7272727272727273,1.0,0.8125,0.375,0.8421052631578948
klwiki,True,62.0,0.7272727272727273,1.0,0.8125,0.375,0.8421052631578948
klwiki,True,63.0,0.7272727272727273,1.0,0.8125,0.375,0.8421052631578948
klwiki,True,64.0,0.7272727272727273,1.0,0.8125,0.375,0.8421052631578948
klwiki,True,65.0,0.7272727272727273,1.0,0.8125,0.375,0.8421052631578948
klwiki,True,66.0,0.7272727272727273,1.0,0.8125,0.375,0.8421052631578948
klwiki,True,67.0,0.7272727272727273,1.0,0.8125,0.375,0.8421052631578948
klwiki,True,68.0,0.7272727272727273,1.0,0.8125,0.375,0.8421052631578948
klwiki,True,69.0,0.7272727272727273,1.0,0.8125,0.375,0.8421052631578948
klwiki,True,70.0,0.8,1.0,0.875,0.25,0.888888888888889
klwiki,True,71.0,0.8,1.0,0.875,0.25,0.888888888888889
klwiki,True,72.0,0.8,1.0,0.875,0.25,0.888888888888889
klwiki,True,73.0,0.8,1.0,0.875,0.25,0.888888888888889
klwiki,True,74.0,0.8888888888888888,1.0,0.9375,0.125,0.9411764705882353
klwiki,True,75.0,0.8888888888888888,1.0,0.9375,0.125,0.9411764705882353
klwiki,True,76.0,0.8888888888888888,1.0,0.9375,0.125,0.9411764705882353
klwiki,True,77.0,0.8888888888888888,1.0,0.9375,0.125,0.9411764705882353
klwiki,True,78.0,0.8888888888888888,1.0,0.9375,0.125,0.9411764705882353
klwiki,True,79.0,0.8888888888888888,1.0,0.9375,0.125,0.9411764705882353
klwiki,True,80.0,0.8888888888888888,1.0,0.9375,0.125,0.9411764705882353
klwiki,True,81.0,0.8888888888888888,1.0,0.9375,0.125,0.9411764705882353
klwiki,True,82.0,0.8888888888888888,1.0,0.9375,0.125,0.9411764705882353
klwiki,True,83.0,1.0,1.0,1.0,0.0,1.0
klwiki,True,84.0,1.0,0.875,0.9375,0.0,0.9333333333333333
klwiki,True,85.0,1.0,0.875,0.9375,0.0,0.9333333333333333
klwiki,True,86.0,1.0,0.875,0.9375,0.0,0.9333333333333333
klwiki,True,87.0,1.0,0.875,0.9375,0.0,0.9333333333333333
klwiki,True,88.0,1.0,0.875,0.9375,0.0,0.9333333333333333
klwiki,True,89.0,1.0,0.875,0.9375,0.0,0.9333333333333333
klwiki,True,90.0,1.0,0.625,0.8125,0.0,0.7692307692307693
klwiki,True,91.0,1.0,0.625,0.8125,0.0,0.7692307692307693
klwiki,True,92.0,1.0,0.625,0.8125,0.0,0.7692307692307693
klwiki,True,93.0,1.0,0.625,0.8125,0.0,0.7692307692307693
klwiki,True,94.0,1.0,0.625,0.8125,0.0,0.7692307692307693
klwiki,True,95.0,1.0,0.625,0.8125,0.0,0.7692307692307693
klwiki,True,96.0,1.0,0.625,0.8125,0.0,0.7692307692307693
klwiki,True,97.0,1.0,0.625,0.8125,0.0,0.7692307692307693
klwiki,True,98.0,1.0,0.625,0.8125,0.0,0.7692307692307693
klwiki,True,99.0,1.0,0.25,0.625,0.0,0.4
klwiki,False,0.0,0.19402985074626866,1.0,0.19402985074626866,1.0,0.325
klwiki,False,1.0,0.19402985074626866,1.0,0.19402985074626866,1.0,0.325
klwiki,False,2.0,0.19402985074626866,1.0,0.19402985074626866,1.0,0.325
klwiki,False,3.0,0.19402985074626866,1.0,0.19402985074626866,1.0,0.325
klwiki,False,4.0,0.19402985074626866,1.0,0.19402985074626866,1.0,0.325
klwiki,False,5.0,0.19402985074626866,1.0,0.19402985074626866,1.0,0.325
klwiki,False,6.0,0.19402985074626866,1.0,0.19402985074626866,1.0,0.325
klwiki,False,7.0,0.19402985074626866,1.0,0.19402985074626866,1.0,0.325
klwiki,False,8.0,0.19402985074626866,1.0,0.19402985074626866,1.0,0.325
klwiki,False,9.0,0.19402985074626866,1.0,0.19402985074626866,1.0,0.325
klwiki,False,10.0,0.19402985074626866,1.0,0.19402985074626866,1.0,0.325
klwiki,False,11.0,0.19402985074626866,1.0,0.19402985074626866,1.0,0.325
klwiki,False,12.0,0.19402985074626866,1.0,0.19402985074626866,1.0,0.325
klwiki,False,13.0,0.19696969696969696,1.0,0.208955223880597,0.9814814814814815,0.3291139240506329
klwiki,False,14.0,0.19696969696969696,1.0,0.208955223880597,0.9814814814814815,0.3291139240506329
klwiki,False,15.0,0.19696969696969696,1.0,0.208955223880597,0.9814814814814815,0.3291139240506329
klwiki,False,16.0,0.19696969696969696,1.0,0.208955223880597,0.9814814814814815,0.3291139240506329
klwiki,False,17.0,0.19696969696969696,1.0,0.208955223880597,0.9814814814814815,0.3291139240506329
klwiki,False,18.0,0.19696969696969696,1.0,0.208955223880597,0.9814814814814815,0.3291139240506329
klwiki,False,19.0,0.19696969696969696,1.0,0.208955223880597,0.9814814814814815,0.3291139240506329
klwiki,False,20.0,0.19696969696969696,1.0,0.208955223880597,0.9814814814814815,0.3291139240506329
klwiki,False,21.0,0.2,1.0,0.22388059701492538,0.9629629629629629,0.33333333333333337
klwiki,False,22.0,0.2,1.0,0.22388059701492538,0.9629629629629629,0.33333333333333337
klwiki,False,23.0,0.2,1.0,0.22388059701492538,0.9629629629629629,0.33333333333333337
klwiki,False,24.0,0.2,1.0,0.22388059701492538,0.9629629629629629,0.33333333333333337
klwiki,False,25.0,0.20634920634920634,1.0,0.2537313432835821,0.9259259259259259,0.34210526315789475
klwiki,False,26.0,0.20634920634920634,1.0,0.2537313432835821,0.9259259259259259,0.34210526315789475
klwiki,False,27.0,0.20634920634920634,1.0,0.2537313432835821,0.9259259259259259,0.34210526315789475
klwiki,False,28.0,0.20967741935483872,1.0,0.26865671641791045,0.9074074074074074,0.3466666666666667
klwiki,False,29.0,0.21311475409836064,1.0,0.2835820895522388,0.8888888888888888,0.3513513513513513
klwiki,False,30.0,0.21311475409836064,1.0,0.2835820895522388,0.8888888888888888,0.3513513513513513
klwiki,False,31.0,0.21666666666666667,1.0,0.29850746268656714,0.8703703703703703,0.3561643835616438
klwiki,False,32.0,0.22033898305084745,1.0,0.31343283582089554,0.8518518518518519,0.3611111111111111
klwiki,False,33.0,0.22413793103448276,1.0,0.3283582089552239,0.8333333333333334,0.36619718309859156
klwiki,False,34.0,0.22807017543859648,1.0,0.34328358208955223,0.8148148148148148,0.3714285714285714
klwiki,False,35.0,0.22807017543859648,1.0,0.34328358208955223,0.8148148148148148,0.3714285714285714
klwiki,False,36.0,0.22807017543859648,1.0,0.34328358208955223,0.8148148148148148,0.3714285714285714
klwiki,False,37.0,0.22807017543859648,1.0,0.34328358208955223,0.8148148148148148,0.3714285714285714
klwiki,False,38.0,0.23214285714285715,1.0,0.3582089552238806,0.7962962962962963,0.37681159420289856
klwiki,False,39.0,0.23636363636363636,1.0,0.373134328358209,0.7777777777777778,0.3823529411764706
klwiki,False,40.0,0.23636363636363636,1.0,0.373134328358209,0.7777777777777778,0.3823529411764706
klwiki,False,41.0,0.24074074074074073,1.0,0.3880597014925373,0.7592592592592593,0.3880597014925373
klwiki,False,42.0,0.24528301886792453,1.0,0.40298507462686567,0.7407407407407407,0.393939393939394
klwiki,False,43.0,0.24528301886792453,1.0,0.40298507462686567,0.7407407407407407,0.393939393939394
klwiki,False,44.0,0.24528301886792453,1.0,0.40298507462686567,0.7407407407407407,0.393939393939394
klwiki,False,45.0,0.24528301886792453,1.0,0.40298507462686567,0.7407407407407407,0.393939393939394
klwiki,False,46.0,0.24528301886792453,1.0,0.40298507462686567,0.7407407407407407,0.393939393939394
klwiki,False,47.0,0.2549019607843137,1.0,0.43283582089552236,0.7037037037037037,0.40625
klwiki,False,48.0,0.2549019607843137,1.0,0.43283582089552236,0.7037037037037037,0.40625
klwiki,False,49.0,0.2549019607843137,1.0,0.43283582089552236,0.7037037037037037,0.40625
klwiki,False,50.0,0.26,1.0,0.44776119402985076,0.6851851851851852,0.41269841269841273
klwiki,False,51.0,0.26,1.0,0.44776119402985076,0.6851851851851852,0.41269841269841273
klwiki,False,52.0,0.2765957446808511,1.0,0.4925373134328358,0.6296296296296297,0.43333333333333335
klwiki,False,53.0,0.2826086956521739,1.0,0.5074626865671642,0.6111111111111112,0.4406779661016949
klwiki,False,54.0,0.2826086956521739,1.0,0.5074626865671642,0.6111111111111112,0.4406779661016949
klwiki,False,55.0,0.28888888888888886,1.0,0.5223880597014925,0.5925925925925926,0.4482758620689655
klwiki,False,56.0,0.28888888888888886,1.0,0.5223880597014925,0.5925925925925926,0.4482758620689655
klwiki,False,57.0,0.28888888888888886,1.0,0.5223880597014925,0.5925925925925926,0.4482758620689655
klwiki,False,58.0,0.3023255813953488,1.0,0.5522388059701493,0.5555555555555556,0.46428571428571425
klwiki,False,59.0,0.30952380952380953,1.0,0.5671641791044776,0.5370370370370371,0.4727272727272727
klwiki,False,60.0,0.30952380952380953,1.0,0.5671641791044776,0.5370370370370371,0.4727272727272727
klwiki,False,61.0,0.325,1.0,0.5970149253731343,0.5,0.4905660377358491
klwiki,False,62.0,0.325,1.0,0.5970149253731343,0.5,0.4905660377358491
klwiki,False,63.0,0.325,1.0,0.5970149253731343,0.5,0.4905660377358491
klwiki,False,64.0,0.325,1.0,0.5970149253731343,0.5,0.4905660377358491
klwiki,False,65.0,0.3333333333333333,1.0,0.6119402985074627,0.48148148148148145,0.5
klwiki,False,66.0,0.3333333333333333,1.0,0.6119402985074627,0.48148148148148145,0.5
klwiki,False,67.0,0.3333333333333333,1.0,0.6119402985074627,0.48148148148148145,0.5
klwiki,False,68.0,0.3333333333333333,1.0,0.6119402985074627,0.48148148148148145,0.5
klwiki,False,69.0,0.34210526315789475,1.0,0.6268656716417911,0.46296296296296297,0.5098039215686275
klwiki,False,70.0,0.35135135135135137,1.0,0.6417910447761194,0.4444444444444444,0.52
klwiki,False,71.0,0.35135135135135137,1.0,0.6417910447761194,0.4444444444444444,0.52
klwiki,False,72.0,0.3611111111111111,1.0,0.6567164179104478,0.42592592592592593,0.5306122448979591
klwiki,False,73.0,0.37142857142857144,1.0,0.6716417910447762,0.4074074074074074,0.5416666666666666
klwiki,False,74.0,0.40625,1.0,0.7164179104477612,0.35185185185185186,0.5777777777777777
klwiki,False,75.0,0.41935483870967744,1.0,0.7313432835820896,0.3333333333333333,0.5909090909090909
klwiki,False,76.0,0.43333333333333335,1.0,0.746268656716418,0.3148148148148148,0.6046511627906976
klwiki,False,77.0,0.4482758620689655,1.0,0.7611940298507462,0.2962962962962963,0.6190476190476191
klwiki,False,78.0,0.4482758620689655,1.0,0.7611940298507462,0.2962962962962963,0.6190476190476191
klwiki,False,79.0,0.4482758620689655,1.0,0.7611940298507462,0.2962962962962963,0.6190476190476191
klwiki,False,80.0,0.4444444444444444,0.9230769230769231,0.7611940298507462,0.2777777777777778,0.6
klwiki,False,81.0,0.48,0.9230769230769231,0.7910447761194029,0.24074074074074073,0.631578947368421
klwiki,False,82.0,0.4782608695652174,0.8461538461538461,0.7910447761194029,0.2222222222222222,0.6111111111111112
klwiki,False,83.0,0.5,0.8461538461538461,0.8059701492537313,0.2037037037037037,0.6285714285714286
klwiki,False,84.0,0.47619047619047616,0.7692307692307693,0.7910447761194029,0.2037037037037037,0.588235294117647
klwiki,False,85.0,0.5263157894736842,0.7692307692307693,0.8208955223880597,0.16666666666666666,0.625
klwiki,False,86.0,0.5555555555555556,0.7692307692307693,0.835820895522388,0.14814814814814814,0.6451612903225806
klwiki,False,87.0,0.5882352941176471,0.7692307692307693,0.8507462686567164,0.12962962962962962,0.6666666666666667
klwiki,False,88.0,0.5882352941176471,0.7692307692307693,0.8507462686567164,0.12962962962962962,0.6666666666666667
klwiki,False,89.0,0.5882352941176471,0.7692307692307693,0.8507462686567164,0.12962962962962962,0.6666666666666667
klwiki,False,90.0,0.5333333333333333,0.6153846153846154,0.8208955223880597,0.12962962962962962,0.5714285714285715
klwiki,False,91.0,0.6153846153846154,0.6153846153846154,0.8507462686567164,0.09259259259259259,0.6153846153846154
klwiki,False,92.0,0.8888888888888888,0.6153846153846154,0.9104477611940298,0.018518518518518517,0.7272727272727274
klwiki,False,93.0,1.0,0.6153846153846154,0.9253731343283582,0.0,0.761904761904762
klwiki,False,94.0,1.0,0.6153846153846154,0.9253731343283582,0.0,0.761904761904762
klwiki,False,95.0,1.0,0.5384615384615384,0.9104477611940298,0.0,0.7000000000000001
klwiki,False,96.0,1.0,0.46153846153846156,0.8955223880597015,0.0,0.631578947368421
klwiki,False,97.0,1.0,0.46153846153846156,0.8955223880597015,0.0,0.631578947368421
klwiki,False,98.0,1.0,0.46153846153846156,0.8955223880597015,0.0,0.631578947368421
klwiki,False,99.0,1.0,0.15384615384615385,0.835820895522388,0.0,0.2666666666666667
