wiki_db,user_is_anonymous_or_bot,threshold,precision,recall,accuracy,fpr,F1
kuwiki,True,0.0,0.02701212789415656,1.0,0.02701212789415656,1.0,0.052603327965646804
kuwiki,True,1.0,0.02701212789415656,1.0,0.02701212789415656,1.0,0.052603327965646804
kuwiki,True,2.0,0.02701212789415656,1.0,0.02701212789415656,1.0,0.052603327965646804
kuwiki,True,3.0,0.02701808557565064,1.0,0.02723263506063947,0.9997733711048159,0.052614624718135945
kuwiki,True,4.0,0.02702702702702703,1.0,0.027563395810363836,0.9994334277620397,0.052631578947368425
kuwiki,True,5.0,0.027059863043958472,1.0,0.028776185226019844,0.9981869688385269,0.05269383804710184
kuwiki,True,6.0,0.034526493799323564,1.0,0.24465270121278943,0.7763172804532578,0.06674839940062663
kuwiki,True,7.0,0.042653203342618386,1.0,0.39371554575523704,0.6231161473087818,0.08181666388378694
kuwiki,True,8.0,0.051509394131306736,0.9959183673469387,0.5045203969128996,0.5091218130311614,0.09795262946607788
kuwiki,True,9.0,0.05677059097254537,0.9959183673469387,0.5529217199558986,0.4593767705382436,0.10741800572309047
kuwiki,True,10.0,0.061209068010075564,0.9918367346938776,0.588864388092613,0.42232294617563737,0.11530249110320284
kuwiki,True,11.0,0.06970740103270223,0.9918367346938776,0.6422271223814774,0.3674787535410765,0.1302599839185205
kuwiki,True,12.0,0.07570093457943926,0.9918367346938776,0.672657111356119,0.3362039660056657,0.14066570188133143
kuwiki,True,13.0,0.07993421052631579,0.9918367346938776,0.6914002205071664,0.31694050991501416,0.14794520547945206
kuwiki,True,14.0,0.08385093167701864,0.9918367346938776,0.7070562293274532,0.3008498583569405,0.15462933503022588
kuwiki,True,15.0,0.08829941860465117,0.9918367346938776,0.7231532524807056,0.2843059490084986,0.16216216216216214
kuwiki,True,16.0,0.09368874950999607,0.9755102040816327,0.7444321940463065,0.2619830028328612,0.17095851216022886
kuwiki,True,17.0,0.1014060502769493,0.9714285714285714,0.7667034178610805,0.23898016997167137,0.18364197530864199
kuwiki,True,18.0,0.10631531122217174,0.9551020408163265,0.7819184123484013,0.22288951841359772,0.19133278822567457
kuwiki,True,19.0,0.1103219696969697,0.9510204081632653,0.791510474090408,0.21291784702549574,0.19770895205770048
kuwiki,True,20.0,0.11390532544378698,0.9428571428571428,0.8003307607497243,0.20362606232294617,0.20325560932688078
kuwiki,True,21.0,0.12200319659030368,0.9346938775510204,0.8165380374862183,0.18674220963172805,0.2158341187558907
kuwiki,True,22.0,0.12829131652661063,0.9346938775510204,0.8266813671444322,0.17631728045325779,0.225615763546798
kuwiki,True,23.0,0.13693693693693693,0.9306122448979591,0.8396912899669239,0.1628328611898017,0.23874345549738218
kuwiki,True,24.0,0.14038342609771182,0.926530612244898,0.8447629547960309,0.15750708215297451,0.2438238453276048
kuwiki,True,25.0,0.14358001265022138,0.926530612244898,0.8487320837927232,0.15342776203966005,0.24863088718510407
kuwiki,True,26.0,0.14543114543114544,0.9224489795918367,0.8514884233737596,0.15048158640226628,0.25125069483046136
kuwiki,True,27.0,0.14713541666666666,0.9224489795918367,0.8534729878721058,0.14844192634560907,0.25379000561482307
kuwiki,True,28.0,0.14888010540184454,0.9224489795918367,0.8554575523704521,0.14640226628895184,0.2563811684628474
kuwiki,True,29.0,0.14986737400530503,0.9224489795918367,0.8565600882028666,0.14526912181303117,0.257843696520251
kuwiki,True,30.0,0.15013404825737264,0.9142857142857143,0.8578831312017641,0.14368271954674222,0.257915947035118
kuwiki,True,31.0,0.15135135135135136,0.9142857142857143,0.8592061742006615,0.1423229461756374,0.2597101449275362
kuwiki,True,32.0,0.15159755268524813,0.9102040816326531,0.8599779492833517,0.14141643059490086,0.2599067599067599
kuwiki,True,33.0,0.15190735694822888,0.9102040816326531,0.8603087100330761,0.14107648725212465,0.2603619381202568
kuwiki,True,34.0,0.15284441398217957,0.9102040816326531,0.8613009922822492,0.14005665722379604,0.26173708920187794
kuwiki,True,35.0,0.15358126721763085,0.9102040816326531,0.8620727673649393,0.13926345609065155,0.262816735415439
kuwiki,True,36.0,0.15363321799307958,0.9061224489795918,0.8626240352811466,0.13858356940509914,0.2627218934911243
kuwiki,True,37.0,0.15411436541143655,0.9020408163265307,0.8636163175303198,0.13745042492917847,0.26325193567599764
kuwiki,True,38.0,0.15427769985974754,0.8979591836734694,0.8642778390297685,0.13665722379603398,0.26331538001196886
kuwiki,True,39.0,0.15503875968992248,0.8979591836734694,0.8650496141124586,0.13586402266288952,0.2644230769230769
kuwiki,True,40.0,0.15487977369165487,0.8938775510204081,0.865380374862183,0.13541076487252124,0.2640144665461121
kuwiki,True,41.0,0.1554293825408091,0.8938775510204081,0.8659316427783903,0.1348441926345609,0.2648125755743652
kuwiki,True,42.0,0.15527065527065528,0.889795918367347,0.8662624035281147,0.13439093484419262,0.2644026682838084
kuwiki,True,43.0,0.15600287562904386,0.8857142857142857,0.8674751929437706,0.13303116147308783,0.26528117359413206
kuwiki,True,44.0,0.15606936416184972,0.8816326530612245,0.8680264608599779,0.13235127478753542,0.2651933701657459
kuwiki,True,45.0,0.1565217391304348,0.8816326530612245,0.8684674751929438,0.13189801699716713,0.26584615384615384
kuwiki,True,46.0,0.1567489114658926,0.8816326530612245,0.8686879823594267,0.131671388101983,0.266173752310536
kuwiki,True,47.0,0.15801024140453548,0.8816326530612245,0.8699007717750827,0.13042492917847026,0.2679900744416874
kuwiki,True,48.0,0.15797207935341662,0.8775510204081632,0.8703417861080485,0.12985835694050993,0.26774595267745954
kuwiki,True,49.0,0.1584377302873987,0.8775510204081632,0.8707828004410143,0.12940509915014164,0.268414481897628
kuwiki,True,50.0,0.15867158671586715,0.8775510204081632,0.8710033076074972,0.12917847025495752,0.26875
kuwiki,True,51.0,0.1589061345158906,0.8775510204081632,0.8712238147739801,0.12895184135977336,0.2690863579474343
kuwiki,True,52.0,0.15914137675795706,0.8775510204081632,0.8714443219404631,0.12872521246458923,0.26942355889724307
kuwiki,True,53.0,0.15949554896142434,0.8775510204081632,0.8717750826901874,0.12838526912181303,0.26993094789704963
kuwiki,True,54.0,0.15973254086181277,0.8775510204081632,0.8719955898566704,0.1281586402266289,0.2702702702702703
kuwiki,True,55.0,0.15958240119313946,0.8734693877551021,0.8723263506063947,0.12770538243626062,0.2698612862547289
kuwiki,True,56.0,0.15970149253731344,0.8734693877551021,0.8724366041896362,0.12759206798866857,0.27003154574132493
kuwiki,True,57.0,0.15967016491754124,0.8693877551020408,0.872877618522602,0.1270254957507082,0.2697910069664345
kuwiki,True,58.0,0.16051243406179352,0.8693877551020408,0.8736493936052921,0.12623229461756375,0.2709923664122137
kuwiki,True,59.0,0.1608761329305136,0.8693877551020408,0.8739801543550165,0.12589235127478754,0.2715105162523901
kuwiki,True,60.0,0.1607278241091736,0.8653061224489796,0.8743109151047409,0.12543909348441926,0.2710997442455243
kuwiki,True,61.0,0.16021260440394836,0.8612244897959184,0.8743109151047409,0.1253257790368272,0.2701664532650448
kuwiki,True,62.0,0.16057838660578386,0.8612244897959184,0.8746416758544653,0.12498583569405099,0.2706863373957665
kuwiki,True,63.0,0.16131498470948014,0.8612244897959184,0.875303197353914,0.12430594900849859,0.27173213135866064
kuwiki,True,64.0,0.16168582375478927,0.8612244897959184,0.8756339581036384,0.12396600566572238,0.272258064516129
kuwiki,True,65.0,0.16193399846508058,0.8612244897959184,0.8758544652701212,0.12373937677053824,0.27260981912144705
kuwiki,True,66.0,0.162557781201849,0.8612244897959184,0.8764057331863285,0.12317280453257791,0.2734931950745302
kuwiki,True,67.0,0.16216216216216217,0.8571428571428571,0.87651598676957,0.12294617563739377,0.27272727272727276
kuwiki,True,68.0,0.1611154144074361,0.8489795918367347,0.87651598676957,0.12271954674220963,0.2708333333333333
kuwiki,True,69.0,0.16174183514774496,0.8489795918367347,0.8770672546857773,0.12215297450424929,0.2717178314826911
kuwiki,True,70.0,0.16237314597970337,0.8489795918367347,0.8776185226019846,0.12158640226628895,0.272608125819135
kuwiki,True,71.0,0.162754303599374,0.8489795918367347,0.877949283351709,0.12124645892351275,0.27314510833880495
kuwiki,True,72.0,0.16273584905660377,0.8448979591836735,0.8783902976846748,0.1206798866855524,0.2729070533948583
kuwiki,True,73.0,0.1606012658227848,0.8285714285714286,0.8783902976846748,0.12022662889518414,0.26905235255135856
kuwiki,True,74.0,0.15717722534081796,0.8,0.8787210584343991,0.11909348441926346,0.26273458445040215
kuwiki,True,75.0,0.15789473684210525,0.7959183673469388,0.8798235942668137,0.11784702549575071,0.2635135135135135
kuwiki,True,76.0,0.15879478827361562,0.7959183673469388,0.8805953693495039,0.11705382436260624,0.26476578411405294
kuwiki,True,77.0,0.15980230642504117,0.7918367346938775,0.8819184123484013,0.11558073654390935,0.2659355723098012
kuwiki,True,78.0,0.15727502102607233,0.763265306122449,0.8831312017640573,0.11354107648725212,0.2608089260808926
kuwiki,True,79.0,0.15914893617021278,0.763265306122449,0.8846747519294377,0.11195467422096317,0.2633802816901409
kuwiki,True,80.0,0.15916955017301038,0.7510204081632653,0.8861080485115767,0.11014164305949009,0.26266952177016417
kuwiki,True,81.0,0.1619217081850534,0.7428571428571429,0.8891951488423374,0.10674220963172805,0.2658875091307524
kuwiki,True,82.0,0.16315307057745188,0.726530612244898,0.8919514884233738,0.10345609065155807,0.26646706586826346
kuwiki,True,83.0,0.1632075471698113,0.7061224489795919,0.8942668136714443,0.1005099150141643,0.26513409961685824
kuwiki,True,84.0,0.1658583899127061,0.6979591836734694,0.8970231532524807,0.09745042492917846,0.26802507836990597
kuwiki,True,85.0,0.1656686626746507,0.6775510204081633,0.8991179713340683,0.09473087818696883,0.26623897353648757
kuwiki,True,86.0,0.16373056994818652,0.6448979591836734,0.9014332965821389,0.09144475920679887,0.26115702479338837
kuwiki,True,87.0,0.15083798882681565,0.5510204081632653,0.9040793825799338,0.08611898016997167,0.23684210526315788
kuwiki,True,88.0,0.15492957746478872,0.5387755102040817,0.9081587651598677,0.08158640226628895,0.24065633546034637
kuwiki,True,89.0,0.15186615186615188,0.4816326530612245,0.9133406835722161,0.0746742209631728,0.2309197651663405
kuwiki,True,90.0,0.16111111111111112,0.47346938775510206,0.9191841234840132,0.06844192634560907,0.24041450777202072
kuwiki,True,91.0,0.166412213740458,0.4448979591836735,0.9248070562293275,0.06186968838526912,0.2422222222222222
kuwiki,True,92.0,0.15167548500881833,0.3510204081632653,0.9294377067254685,0.054504249291784705,0.21182266009852216
kuwiki,True,93.0,0.1419753086419753,0.2816326530612245,0.9346196251378169,0.04725212464589235,0.18878248974008208
kuwiki,True,94.0,0.13283208020050125,0.2163265306122449,0.940683572216097,0.039206798866855526,0.16459627329192547
kuwiki,True,95.0,0.14814814814814814,0.19591836734693877,0.9478500551267917,0.03127478753541076,0.16871704745166957
kuwiki,True,96.0,0.17372881355932204,0.1673469387755102,0.9560088202866593,0.02209631728045326,0.17047817047817052
kuwiki,True,97.0,0.208955223880597,0.11428571428571428,0.96438809261301,0.012011331444759207,0.14775725593667546
kuwiki,True,98.0,0.3333333333333333,0.07346938775510205,0.9710033076074972,0.004079320113314447,0.12040133779264216
kuwiki,True,99.0,0.5454545454545454,0.04897959183673469,0.9732083792723264,0.0011331444759206798,0.0898876404494382
kuwiki,False,0.0,0.016844199178644763,1.0,0.016844199178644763,1.0,0.033130344240053004
kuwiki,False,1.0,0.016845820632119365,1.0,0.016940451745379878,0.9999020983585158,0.03313348059324708
kuwiki,False,2.0,0.01693326870253676,0.9980952380952381,0.023934804928131416,0.99275527853017,0.03330155703844932
kuwiki,False,3.0,0.017270471464019853,0.9942857142857143,0.04690708418891171,0.9693241523349542,0.033951219512195124
kuwiki,False,4.0,0.017732199204280423,0.9847619047619047,0.08088424024640657,0.9346017034885619,0.03483710117583639
kuwiki,False,5.0,0.018204444444444443,0.9752380952380952,0.11364219712525668,0.9011193421009692,0.03574171029668411
kuwiki,False,6.0,0.020050125313283207,0.96,0.2089964065708419,0.803870378226675,0.03927986906710311
kuwiki,False,7.0,0.02218286473323002,0.9542857142857143,0.2906827515400411,0.7206866168456091,0.04335785374296841
kuwiki,False,8.0,0.024242424242424242,0.9447619047619048,0.35854081108829566,0.6515027901967823,0.04727186085299023
kuwiki,False,9.0,0.0260378155698743,0.939047619047619,0.40730877823408623,0.601801390203309,0.05067064083457526
kuwiki,False,10.0,0.027468490363420563,0.9257142857142857,0.4466760780287474,0.5615311816728127,0.05335382588648589
kuwiki,False,11.0,0.029161086083039085,0.9123809523809524,0.48687756673511295,0.5204124922494534,0.05651583977346469
kuwiki,False,12.0,0.03057867234371976,0.9028571428571428,0.5162345995893224,0.49038932219430215,0.05915387495320105
kuwiki,False,13.0,0.0317557045162164,0.8933333333333333,0.5393993839835729,0.4666644910746337,0.06133124100954623
kuwiki,False,14.0,0.03294217446628022,0.8876190476190476,0.5591953285420944,0.4464314851679013,0.06352668529752573
kuwiki,False,15.0,0.03391458548839959,0.8742857142857143,0.5783816735112937,0.4266879874685899,0.06529625151148731
kuwiki,False,16.0,0.03485130111524164,0.8571428571428571,0.597760523613963,0.40668341872532066,0.06697923643670463
kuwiki,False,17.0,0.03613376835236542,0.8438095238095238,0.6182302361396304,0.38563456580622,0.06929996089166994
kuwiki,False,18.0,0.03678844519966015,0.8247619047619048,0.6333098049281314,0.3699703031687498,0.07043513623424155
kuwiki,False,19.0,0.03781438186326603,0.8133333333333334,0.6482610369609856,0.3545671115752374,0.07226876533807228
kuwiki,False,20.0,0.03909788335335983,0.8057142857142857,0.6631801848049281,0.3392618216232092,0.07457686882933708
kuwiki,False,21.0,0.04026780516204153,0.7904761904761904,0.6791260266940452,0.32278171197337074,0.07663188994552673
kuwiki,False,22.0,0.04189435336976321,0.7885714285714286,0.6926655544147844,0.3089775805241001,0.07956183338137791
kuwiki,False,23.0,0.043141827432690266,0.7752380952380953,0.7065900924024641,0.29458603922592436,0.08173511396726578
kuwiki,False,24.0,0.04414523783246882,0.7619047619047619,0.718108316221766,0.2826420389648533,0.08345503859795535
kuwiki,False,25.0,0.045464956481905634,0.7561904761904762,0.7284715092402464,0.2720033939235715,0.08577292859457707
kuwiki,False,26.0,0.046683339287840894,0.7466666666666667,0.7388988706365504,0.26123421336031066,0.08787267428827618
kuwiki,False,27.0,0.04826732673267327,0.7428571428571429,0.7489412217659137,0.25095454100447084,0.09064497385241138
kuwiki,False,28.0,0.04932735426008968,0.7333333333333333,0.7574435318275154,0.24214339327089385,0.09243697478991596
kuwiki,False,29.0,0.050818145536783293,0.7276190476190476,0.766491273100616,0.2328427373298959,0.0950012434717732
kuwiki,False,30.0,0.05234083690098053,0.7219047619047619,0.7751540041067762,0.2239336879548347,0.09760494463044037
kuwiki,False,31.0,0.05450612833453497,0.72,0.7849075975359343,0.21398035440394217,0.10134048257372653
kuwiki,False,32.0,0.05608322026232474,0.7085714285714285,0.7942120123203286,0.2043207257775022,0.10393964794635374
kuwiki,False,33.0,0.058011915961116337,0.7047619047619048,0.8022651437371663,0.1960643540123356,0.10719976821671737
kuwiki,False,34.0,0.06015407310277004,0.699047619047619,0.8109599589322382,0.18712267075677969,0.11077573196498643
kuwiki,False,35.0,0.06296105678504031,0.699047619047619,0.8196868583162218,0.17824625526221324,0.11551778407302486
kuwiki,False,36.0,0.06485130777499104,0.6895238095238095,0.8272908110882957,0.17034885618248866,0.11855248075978385
kuwiki,False,37.0,0.06737787759685569,0.6857142857142857,0.8348305954825462,0.16261462650523772,0.12269938650306748
kuwiki,False,38.0,0.06818624586012079,0.6666666666666666,0.84092659137577,0.1560878504062918,0.12371862849063274
kuwiki,False,39.0,0.06950354609929078,0.6533333333333333,0.8468300821355236,0.14985477923179846,0.12564102564102564
kuwiki,False,40.0,0.07178947368421053,0.6495238095238095,0.8526373203285421,0.14388277910126293,0.12928909952606635
kuwiki,False,41.0,0.07377408056042031,0.6419047619047619,0.8582199691991786,0.13807394837320106,0.1323385038287846
kuwiki,False,42.0,0.07605698529411764,0.6304761904761905,0.8647651437371663,0.13122083346930782,0.13573918392454376
kuwiki,False,43.0,0.07794994040524433,0.6228571428571429,0.8695456878850103,0.1262278497536142,0.1385593220338983
kuwiki,False,44.0,0.0795539033457249,0.6114285714285714,0.8742941478439425,0.12120223215742584,0.14078947368421052
kuwiki,False,45.0,0.08117797695262484,0.6038095238095238,0.8782084188911704,0.11709036321508991,0.14311512415349886
kuwiki,False,46.0,0.08227513227513228,0.5923809523809523,0.8818339322381931,0.11320693143621709,0.14448315911730547
kuwiki,False,47.0,0.08495478213209098,0.5904761904761905,0.8859727926078029,0.10896452697190223,0.14853857211308097
kuwiki,False,48.0,0.08631459398069279,0.579047619047619,0.8896624743326489,0.10501582743203994,0.15023474178403756
kuwiki,False,49.0,0.08856304985337243,0.5752380952380952,0.893127566735113,0.10142610057761968,0.1534942820838628
kuwiki,False,50.0,0.09115770282588878,0.5714285714285714,0.8968172484599589,0.09760793655973632,0.15723270440251572
kuwiki,False,51.0,0.09393653785736726,0.5695238095238095,0.9002181724845996,0.09411611134680024,0.16127292340884575
kuwiki,False,52.0,0.09551468215553405,0.5638095238095238,0.9027207392197125,0.09147276702672714,0.16335540838852097
kuwiki,False,53.0,0.0984369803791154,0.5638095238095238,0.9056724845995893,0.08847045002121202,0.16761041902604756
kuwiki,False,54.0,0.10098942340498124,0.5638095238095238,0.9081108829568788,0.08599027510361257,0.17129629629629628
kuwiki,False,55.0,0.10314685314685315,0.5619047619047619,0.9103246919917864,0.08370590346898149,0.17429837518463812
kuwiki,False,56.0,0.10515021459227468,0.56,0.9123139117043121,0.08164996899781353,0.17705510388437218
kuwiki,False,57.0,0.10666181288678558,0.5580952380952381,0.9138218685831622,0.08008354273406651,0.1790953545232274
kuwiki,False,58.0,0.10936916759985069,0.5580952380952381,0.9160035934291582,0.07786443886042489,0.18289637952559298
kuwiki,False,59.0,0.11174675819984745,0.5580952380952381,0.9178323921971252,0.07600430767222531,0.1862090880203368
kuwiki,False,60.0,0.11380524051622996,0.5542857142857143,0.9197895277207392,0.07394837320105734,0.1888384166125892
kuwiki,False,61.0,0.11512504962286621,0.5523809523809524,0.9209445585215605,0.07274091962275234,0.19053876478318002
kuwiki,False,62.0,0.11755168220510742,0.5523809523809524,0.9226129363449692,0.0710439578370264,0.19385026737967914
kuwiki,False,63.0,0.11953833470733718,0.5523809523809524,0.923928388090349,0.06970596873674248,0.19654354456116568
kuwiki,False,64.0,0.12144053601340034,0.5523809523809524,0.9251475872689938,0.06846588127794276,0.1991074493649159
kuwiki,False,65.0,0.12329931972789115,0.5523809523809524,0.9263026180698152,0.0672910615801325,0.2015988877302746
kuwiki,False,66.0,0.12548680225010816,0.5523809523809524,0.9276180698151951,0.06595307247984858,0.20451339915373767
kuwiki,False,67.0,0.12759381898454747,0.5504761904761905,0.92902977412731,0.06448454785758574,0.20716845878136203
kuwiki,False,68.0,0.128584229390681,0.5466666666666666,0.9299602156057495,0.06347289756224912,0.2081973159231048
kuwiki,False,69.0,0.13075170842824602,0.5466666666666666,0.9311473305954825,0.06226544398394413,0.21102941176470588
kuwiki,False,70.0,0.13259156235512284,0.5447619047619048,0.9323023613963038,0.06105799040563913,0.21327367636092467
kuwiki,False,71.0,0.134624468587624,0.5428571428571428,0.9335215605749486,0.05978526906634468,0.2157456472369417
kuwiki,False,72.0,0.13695968916949977,0.5371428571428571,0.9351899383983573,0.05799040563913455,0.2182662538699691
kuwiki,False,73.0,0.1372451516658379,0.5257142857142857,0.9363449691991786,0.056619782658355905,0.21766561514195587
kuwiki,False,74.0,0.1367827868852459,0.5085714285714286,0.9376604209445585,0.054988088633619425,0.21558336697618083
kuwiki,False,75.0,0.13867085295656725,0.5047619047619047,0.9388475359342916,0.05371536729432497,0.2175697865353038
kuwiki,False,76.0,0.14216738197424894,0.5047619047619047,0.9403554928131417,0.05218157491107268,0.22185014650481372
kuwiki,False,77.0,0.14222954420647996,0.49333333333333335,0.9413501026694046,0.05097412133276768,0.2208013640238704
kuwiki,False,78.0,0.1417233560090703,0.47619047619047616,0.942601386036961,0.04940769506902066,0.218435998252512
kuwiki,False,79.0,0.14535901926444833,0.4742857142857143,0.9441735112936345,0.04777600104428418,0.22252010723860588
kuwiki,False,80.0,0.14654654654654656,0.46476190476190476,0.9453927104722792,0.0463727441830108,0.2228310502283105
kuwiki,False,81.0,0.15191462649089768,0.46095238095238095,0.9475744353182751,0.04408837254837973,0.22851746931067046
kuwiki,False,82.0,0.15514993481095177,0.4533333333333333,0.949210728952772,0.042293509121169595,0.2311801845556095
kuwiki,False,83.0,0.1560379918588874,0.4380952380952381,0.950622433264887,0.040596547335443656,0.23011505752876438
kuwiki,False,84.0,0.1591549295774648,0.43047619047619046,0.9520983059548255,0.038964853310707176,0.23239074550128536
kuwiki,False,85.0,0.15902366863905326,0.4095238095238095,0.9535741786447639,0.03710472212250759,0.22908897176345233
kuwiki,False,86.0,0.16220472440944883,0.3923809523809524,0.955627566735113,0.03472244884639233,0.2295264623955432
kuwiki,False,87.0,0.15424164524421594,0.34285714285714286,0.9572638603696099,0.03220964004829814,0.2127659574468085
kuwiki,False,88.0,0.1613198900091659,0.3352380952380952,0.9594455852156057,0.02986000065267761,0.21782178217821782
kuwiki,False,89.0,0.1601642710472279,0.29714285714285715,0.9619160677618069,0.026694514244688838,0.20813875917278182
kuwiki,False,90.0,0.16968325791855204,0.2857142857142857,0.9644186344969199,0.023953268283131546,0.21291696238466998
kuwiki,False,91.0,0.1717171717171717,0.259047619047619,0.9664720225872689,0.021407825604542637,0.20652999240698555
kuwiki,False,92.0,0.16152716593245228,0.20952380952380953,0.9683649897330595,0.018633945762490618,0.1824212271973466
kuwiki,False,93.0,0.14930555555555555,0.16380952380952382,0.9701937885010267,0.01599060144241752,0.15622161671207993
kuwiki,False,94.0,0.1452991452991453,0.1295238095238095,0.9725038501026694,0.013053552197891852,0.13695871097683784
kuwiki,False,95.0,0.16531165311653118,0.11619047619047619,0.9752310061601642,0.010051235192376726,0.13646532438478748
kuwiki,False,96.0,0.19852941176470587,0.10285714285714286,0.9778939938398358,0.007114185947851059,0.1355081555834379
kuwiki,False,97.0,0.2468354430379747,0.07428571428571429,0.9805890657084189,0.0038834317788728257,0.11420204978038068
kuwiki,False,98.0,0.375,0.045714285714285714,0.9826424537987679,0.0013053552197891851,0.08149405772495756
kuwiki,False,99.0,0.5454545454545454,0.022857142857142857,0.9832199691991786,0.0003263388049472963,0.04387568555758683
