wiki_db,user_is_anonymous_or_bot,threshold,precision,recall,accuracy,fpr,F1
napwiki,True,0.0,0.2751677852348993,1.0,0.2751677852348993,1.0,0.43157894736842106
napwiki,True,1.0,0.2751677852348993,1.0,0.2751677852348993,1.0,0.43157894736842106
napwiki,True,2.0,0.2751677852348993,1.0,0.2751677852348993,1.0,0.43157894736842106
napwiki,True,3.0,0.2751677852348993,1.0,0.2751677852348993,1.0,0.43157894736842106
napwiki,True,4.0,0.2751677852348993,1.0,0.2751677852348993,1.0,0.43157894736842106
napwiki,True,5.0,0.2751677852348993,1.0,0.2751677852348993,1.0,0.43157894736842106
napwiki,True,6.0,0.2751677852348993,1.0,0.2751677852348993,1.0,0.43157894736842106
napwiki,True,7.0,0.2751677852348993,1.0,0.2751677852348993,1.0,0.43157894736842106
napwiki,True,8.0,0.2751677852348993,1.0,0.2751677852348993,1.0,0.43157894736842106
napwiki,True,9.0,0.2751677852348993,1.0,0.2751677852348993,1.0,0.43157894736842106
napwiki,True,10.0,0.2751677852348993,1.0,0.2751677852348993,1.0,0.43157894736842106
napwiki,True,11.0,0.2751677852348993,1.0,0.2751677852348993,1.0,0.43157894736842106
napwiki,True,12.0,0.2751677852348993,1.0,0.2751677852348993,1.0,0.43157894736842106
napwiki,True,13.0,0.2751677852348993,1.0,0.2751677852348993,1.0,0.43157894736842106
napwiki,True,14.0,0.2751677852348993,1.0,0.2751677852348993,1.0,0.43157894736842106
napwiki,True,15.0,0.2751677852348993,1.0,0.2751677852348993,1.0,0.43157894736842106
napwiki,True,16.0,0.2751677852348993,1.0,0.2751677852348993,1.0,0.43157894736842106
napwiki,True,17.0,0.2751677852348993,1.0,0.2751677852348993,1.0,0.43157894736842106
napwiki,True,18.0,0.2751677852348993,1.0,0.2751677852348993,1.0,0.43157894736842106
napwiki,True,19.0,0.2751677852348993,1.0,0.2751677852348993,1.0,0.43157894736842106
napwiki,True,20.0,0.2751677852348993,1.0,0.2751677852348993,1.0,0.43157894736842106
napwiki,True,21.0,0.2751677852348993,1.0,0.2751677852348993,1.0,0.43157894736842106
napwiki,True,22.0,0.2751677852348993,1.0,0.2751677852348993,1.0,0.43157894736842106
napwiki,True,23.0,0.27702702702702703,1.0,0.28187919463087246,0.9907407407407407,0.4338624338624339
napwiki,True,24.0,0.27702702702702703,1.0,0.28187919463087246,0.9907407407407407,0.4338624338624339
napwiki,True,25.0,0.27702702702702703,1.0,0.28187919463087246,0.9907407407407407,0.4338624338624339
napwiki,True,26.0,0.27702702702702703,1.0,0.28187919463087246,0.9907407407407407,0.4338624338624339
napwiki,True,27.0,0.27702702702702703,1.0,0.28187919463087246,0.9907407407407407,0.4338624338624339
napwiki,True,28.0,0.27702702702702703,1.0,0.28187919463087246,0.9907407407407407,0.4338624338624339
napwiki,True,29.0,0.2789115646258503,1.0,0.28859060402684567,0.9814814814814815,0.43617021276595735
napwiki,True,30.0,0.2789115646258503,1.0,0.28859060402684567,0.9814814814814815,0.43617021276595735
napwiki,True,31.0,0.2789115646258503,1.0,0.28859060402684567,0.9814814814814815,0.43617021276595735
napwiki,True,32.0,0.2789115646258503,1.0,0.28859060402684567,0.9814814814814815,0.43617021276595735
napwiki,True,33.0,0.2808219178082192,1.0,0.2953020134228188,0.9722222222222222,0.4385026737967915
napwiki,True,34.0,0.2808219178082192,1.0,0.2953020134228188,0.9722222222222222,0.4385026737967915
napwiki,True,35.0,0.2808219178082192,1.0,0.2953020134228188,0.9722222222222222,0.4385026737967915
napwiki,True,36.0,0.2887323943661972,1.0,0.3221476510067114,0.9351851851851852,0.44808743169398907
napwiki,True,37.0,0.2887323943661972,1.0,0.3221476510067114,0.9351851851851852,0.44808743169398907
napwiki,True,38.0,0.2907801418439716,1.0,0.3288590604026846,0.9259259259259259,0.45054945054945056
napwiki,True,39.0,0.2949640287769784,1.0,0.3422818791946309,0.9074074074074074,0.45555555555555555
napwiki,True,40.0,0.2971014492753623,1.0,0.348993288590604,0.8981481481481481,0.45810055865921784
napwiki,True,41.0,0.29927007299270075,1.0,0.35570469798657717,0.8888888888888888,0.46067415730337086
napwiki,True,42.0,0.3014705882352941,1.0,0.3624161073825503,0.8796296296296297,0.46327683615819204
napwiki,True,43.0,0.3037037037037037,1.0,0.3691275167785235,0.8703703703703703,0.4659090909090909
napwiki,True,44.0,0.3082706766917293,1.0,0.3825503355704698,0.8518518518518519,0.47126436781609193
napwiki,True,45.0,0.3178294573643411,1.0,0.40939597315436244,0.8148148148148148,0.48235294117647054
napwiki,True,46.0,0.3178294573643411,1.0,0.40939597315436244,0.8148148148148148,0.48235294117647054
napwiki,True,47.0,0.3228346456692913,1.0,0.4228187919463087,0.7962962962962963,0.48809523809523814
napwiki,True,48.0,0.3228346456692913,1.0,0.4228187919463087,0.7962962962962963,0.48809523809523814
napwiki,True,49.0,0.328,1.0,0.436241610738255,0.7777777777777778,0.4939759036144578
napwiki,True,50.0,0.33064516129032256,1.0,0.4429530201342282,0.7685185185185185,0.49696969696969695
napwiki,True,51.0,0.3333333333333333,1.0,0.44966442953020136,0.7592592592592593,0.5
napwiki,True,52.0,0.3416666666666667,1.0,0.4697986577181208,0.7314814814814815,0.5093167701863354
napwiki,True,53.0,0.3445378151260504,1.0,0.47651006711409394,0.7222222222222222,0.5125
napwiki,True,54.0,0.3474576271186441,1.0,0.48322147651006714,0.7129629629629629,0.5157232704402516
napwiki,True,55.0,0.35344827586206895,1.0,0.4966442953020134,0.6944444444444444,0.5222929936305732
napwiki,True,56.0,0.3565217391304348,1.0,0.5033557046979866,0.6851851851851852,0.5256410256410257
napwiki,True,57.0,0.3565217391304348,1.0,0.5033557046979866,0.6851851851851852,0.5256410256410257
napwiki,True,58.0,0.3508771929824561,0.975609756097561,0.4966442953020134,0.6851851851851852,0.5161290322580645
napwiki,True,59.0,0.3508771929824561,0.975609756097561,0.4966442953020134,0.6851851851851852,0.5161290322580645
napwiki,True,60.0,0.3508771929824561,0.975609756097561,0.4966442953020134,0.6851851851851852,0.5161290322580645
napwiki,True,61.0,0.35714285714285715,0.975609756097561,0.5100671140939598,0.6666666666666666,0.5228758169934641
napwiki,True,62.0,0.36036036036036034,0.975609756097561,0.5167785234899329,0.6574074074074074,0.5263157894736842
napwiki,True,63.0,0.36363636363636365,0.975609756097561,0.5234899328859061,0.6481481481481481,0.5298013245033113
napwiki,True,64.0,0.36363636363636365,0.975609756097561,0.5234899328859061,0.6481481481481481,0.5298013245033113
napwiki,True,65.0,0.36363636363636365,0.975609756097561,0.5234899328859061,0.6481481481481481,0.5298013245033113
napwiki,True,66.0,0.3669724770642202,0.975609756097561,0.5302013422818792,0.6388888888888888,0.5333333333333333
napwiki,True,67.0,0.37037037037037035,0.975609756097561,0.5369127516778524,0.6296296296296297,0.5369127516778524
napwiki,True,68.0,0.3786407766990291,0.9512195121951219,0.5570469798657718,0.5925925925925926,0.5416666666666666
napwiki,True,69.0,0.38613861386138615,0.9512195121951219,0.5704697986577181,0.5740740740740741,0.5492957746478874
napwiki,True,70.0,0.3870967741935484,0.8780487804878049,0.5838926174496645,0.5277777777777778,0.5373134328358209
napwiki,True,71.0,0.4,0.8780487804878049,0.6040268456375839,0.5,0.549618320610687
napwiki,True,72.0,0.43373493975903615,0.8780487804878049,0.6510067114093959,0.4351851851851852,0.5806451612903226
napwiki,True,73.0,0.43373493975903615,0.8780487804878049,0.6510067114093959,0.4351851851851852,0.5806451612903226
napwiki,True,74.0,0.43902439024390244,0.8780487804878049,0.6577181208053692,0.42592592592592593,0.5853658536585366
napwiki,True,75.0,0.4375,0.8536585365853658,0.6577181208053692,0.4166666666666667,0.578512396694215
napwiki,True,76.0,0.44871794871794873,0.8536585365853658,0.6711409395973155,0.39814814814814814,0.5882352941176471
napwiki,True,77.0,0.4861111111111111,0.8536585365853658,0.7114093959731543,0.3425925925925926,0.6194690265486725
napwiki,True,78.0,0.5,0.8536585365853658,0.7248322147651006,0.32407407407407407,0.6306306306306306
napwiki,True,79.0,0.5147058823529411,0.8536585365853658,0.738255033557047,0.3055555555555556,0.6422018348623854
napwiki,True,80.0,0.5074626865671642,0.8292682926829268,0.7315436241610739,0.3055555555555556,0.6296296296296297
napwiki,True,81.0,0.5151515151515151,0.8292682926829268,0.738255033557047,0.2962962962962963,0.6355140186915889
napwiki,True,82.0,0.5396825396825397,0.8292682926829268,0.7583892617449665,0.26851851851851855,0.6538461538461539
napwiki,True,83.0,0.5423728813559322,0.7804878048780488,0.7583892617449665,0.25,0.64
napwiki,True,84.0,0.543859649122807,0.7560975609756098,0.7583892617449665,0.24074074074074073,0.6326530612244897
napwiki,True,85.0,0.5535714285714286,0.7560975609756098,0.7651006711409396,0.23148148148148148,0.6391752577319588
napwiki,True,86.0,0.5576923076923077,0.7073170731707317,0.7651006711409396,0.21296296296296297,0.6236559139784946
napwiki,True,87.0,0.5333333333333333,0.5853658536585366,0.7449664429530202,0.19444444444444445,0.5581395348837209
napwiki,True,88.0,0.55,0.5365853658536586,0.7516778523489933,0.16666666666666666,0.54320987654321
napwiki,True,89.0,0.5588235294117647,0.4634146341463415,0.7516778523489933,0.1388888888888889,0.5066666666666667
napwiki,True,90.0,0.5806451612903226,0.43902439024390244,0.7583892617449665,0.12037037037037036,0.5
napwiki,True,91.0,0.68,0.4146341463414634,0.785234899328859,0.07407407407407407,0.5151515151515151
napwiki,True,92.0,0.6956521739130435,0.3902439024390244,0.785234899328859,0.06481481481481481,0.5000000000000001
napwiki,True,93.0,0.8823529411764706,0.36585365853658536,0.8120805369127517,0.018518518518518517,0.5172413793103449
napwiki,True,94.0,0.8666666666666667,0.3170731707317073,0.7986577181208053,0.018518518518518517,0.4642857142857143
napwiki,True,95.0,1.0,0.2682926829268293,0.7986577181208053,0.0,0.4230769230769231
napwiki,True,96.0,1.0,0.24390243902439024,0.7919463087248322,0.0,0.39215686274509803
napwiki,True,97.0,1.0,0.21951219512195122,0.785234899328859,0.0,0.36
napwiki,True,98.0,1.0,0.17073170731707318,0.7718120805369127,0.0,0.2916666666666667
napwiki,True,99.0,1.0,0.07317073170731707,0.7449664429530202,0.0,0.13636363636363635
napwiki,False,0.0,0.1383399209486166,1.0,0.1383399209486166,1.0,0.24305555555555555
napwiki,False,1.0,0.1383399209486166,1.0,0.1383399209486166,1.0,0.24305555555555555
napwiki,False,2.0,0.1383399209486166,1.0,0.1383399209486166,1.0,0.24305555555555555
napwiki,False,3.0,0.13861386138613863,1.0,0.14031620553359683,0.9977064220183486,0.2434782608695652
napwiki,False,4.0,0.13916500994035785,1.0,0.1442687747035573,0.9931192660550459,0.2443280977312391
napwiki,False,5.0,0.13916500994035785,1.0,0.1442687747035573,0.9931192660550459,0.2443280977312391
napwiki,False,6.0,0.14,1.0,0.15019762845849802,0.9862385321100917,0.24561403508771928
napwiki,False,7.0,0.1417004048582996,1.0,0.16205533596837945,0.9724770642201835,0.24822695035460995
napwiki,False,8.0,0.14227642276422764,1.0,0.16600790513833993,0.9678899082568807,0.24911032028469748
napwiki,False,9.0,0.14256198347107438,0.9857142857142858,0.17786561264822134,0.9518348623853211,0.2490974729241877
napwiki,False,10.0,0.1440501043841336,0.9857142857142858,0.18774703557312253,0.9403669724770642,0.25136612021857924
napwiki,False,11.0,0.1461864406779661,0.9857142857142858,0.2015810276679842,0.9243119266055045,0.25461254612546125
napwiki,False,12.0,0.14623655913978495,0.9714285714285714,0.21146245059288538,0.9105504587155964,0.2542056074766355
napwiki,False,13.0,0.1487964989059081,0.9714285714285714,0.22727272727272727,0.8922018348623854,0.25806451612903225
napwiki,False,14.0,0.1504424778761062,0.9714285714285714,0.23715415019762845,0.8807339449541285,0.26053639846743293
napwiki,False,15.0,0.15178571428571427,0.9714285714285714,0.2450592885375494,0.8715596330275229,0.2625482625482625
napwiki,False,16.0,0.15192743764172337,0.9571428571428572,0.2549407114624506,0.8577981651376146,0.2622309197651664
napwiki,False,17.0,0.15207373271889402,0.9428571428571428,0.2648221343873518,0.8440366972477065,0.261904761904762
napwiki,False,18.0,0.15384615384615385,0.9428571428571428,0.274703557312253,0.8325688073394495,0.26452905811623245
napwiki,False,19.0,0.1575178997613365,0.9428571428571428,0.29446640316205536,0.8096330275229358,0.26993865030674846
napwiki,False,20.0,0.15903614457831325,0.9428571428571428,0.30237154150197626,0.8004587155963303,0.2721649484536082
napwiki,False,21.0,0.16058394160583941,0.9428571428571428,0.3102766798418972,0.7912844036697247,0.27442827442827444
napwiki,False,22.0,0.16296296296296298,0.9428571428571428,0.3221343873517787,0.7775229357798165,0.27789473684210525
napwiki,False,23.0,0.16541353383458646,0.9428571428571428,0.3339920948616601,0.7637614678899083,0.2814498933901919
napwiki,False,24.0,0.1649746192893401,0.9285714285714286,0.33992094861660077,0.7545871559633027,0.2801724137931035
napwiki,False,25.0,0.16883116883116883,0.9285714285714286,0.3577075098814229,0.7339449541284404,0.28571428571428575
napwiki,False,26.0,0.17379679144385027,0.9285714285714286,0.3794466403162055,0.7087155963302753,0.2927927927927928
napwiki,False,27.0,0.1752021563342318,0.9285714285714286,0.38537549407114624,0.7018348623853211,0.2947845804988662
napwiki,False,28.0,0.1766304347826087,0.9285714285714286,0.391304347826087,0.694954128440367,0.29680365296803657
napwiki,False,29.0,0.18005540166204986,0.9285714285714286,0.4051383399209486,0.6788990825688074,0.3016241299303944
napwiki,False,30.0,0.18028169014084508,0.9142857142857143,0.41304347826086957,0.6674311926605505,0.3011764705882353
napwiki,False,31.0,0.17847025495750707,0.9,0.41304347826086957,0.6651376146788991,0.2978723404255319
napwiki,False,32.0,0.17478510028653296,0.8714285714285714,0.41304347826086957,0.6605504587155964,0.2911694510739857
napwiki,False,33.0,0.1783625730994152,0.8714285714285714,0.4268774703557312,0.6444954128440367,0.2961165048543689
napwiki,False,34.0,0.17964071856287425,0.8571428571428571,0.43873517786561267,0.6284403669724771,0.29702970297029707
napwiki,False,35.0,0.18181818181818182,0.8571428571428571,0.44664031620553357,0.6192660550458715,0.30000000000000004
napwiki,False,36.0,0.1875,0.8571428571428571,0.466403162055336,0.5963302752293578,0.30769230769230765
napwiki,False,37.0,0.189873417721519,0.8571428571428571,0.4743083003952569,0.5871559633027523,0.31088082901554404
napwiki,False,38.0,0.1891025641025641,0.8428571428571429,0.4782608695652174,0.5802752293577982,0.3089005235602094
napwiki,False,39.0,0.19093851132686085,0.8428571428571429,0.4841897233201581,0.573394495412844,0.3113456464379948
napwiki,False,40.0,0.19407894736842105,0.8428571428571429,0.49407114624505927,0.5619266055045872,0.31550802139037426
napwiki,False,41.0,0.19798657718120805,0.8428571428571429,0.5059288537549407,0.5481651376146789,0.32065217391304346
napwiki,False,42.0,0.2027491408934708,0.8428571428571429,0.5197628458498024,0.5321100917431193,0.3268698060941828
napwiki,False,43.0,0.2062937062937063,0.8428571428571429,0.5296442687747036,0.5206422018348624,0.33146067415730335
napwiki,False,44.0,0.20714285714285716,0.8285714285714286,0.5375494071146245,0.5091743119266054,0.33142857142857146
napwiki,False,45.0,0.21481481481481482,0.8285714285714286,0.5573122529644269,0.48623853211009177,0.34117647058823525
napwiki,False,46.0,0.21561338289962825,0.8285714285714286,0.5592885375494071,0.48394495412844035,0.3421828908554573
napwiki,False,47.0,0.21673003802281368,0.8142857142857143,0.567193675889328,0.4724770642201835,0.34234234234234234
napwiki,False,48.0,0.21839080459770116,0.8142857142857143,0.5711462450592886,0.46788990825688076,0.34441087613293053
napwiki,False,49.0,0.22265625,0.8142857142857143,0.5810276679841897,0.45642201834862384,0.3496932515337423
napwiki,False,50.0,0.22310756972111553,0.8,0.5869565217391305,0.44724770642201833,0.34890965732087226
napwiki,False,51.0,0.2248995983935743,0.8,0.5909090909090909,0.4426605504587156,0.35109717868338564
napwiki,False,52.0,0.22950819672131148,0.8,0.6007905138339921,0.43119266055045874,0.356687898089172
napwiki,False,53.0,0.22916666666666666,0.7857142857142857,0.6047430830039525,0.4243119266055046,0.3548387096774194
napwiki,False,54.0,0.23404255319148937,0.7857142857142857,0.6146245059288538,0.41284403669724773,0.36065573770491804
napwiki,False,55.0,0.24017467248908297,0.7857142857142857,0.6264822134387352,0.39908256880733944,0.3678929765886287
napwiki,False,56.0,0.2422907488986784,0.7857142857142857,0.6304347826086957,0.3944954128440367,0.3703703703703704
napwiki,False,57.0,0.24774774774774774,0.7857142857142857,0.6403162055335968,0.3830275229357798,0.37671232876712324
napwiki,False,58.0,0.2488479262672811,0.7714285714285715,0.6462450592885376,0.3738532110091743,0.37630662020905925
napwiki,False,59.0,0.2523364485981308,0.7714285714285715,0.6521739130434783,0.3669724770642202,0.380281690140845
napwiki,False,60.0,0.2559241706161137,0.7714285714285715,0.658102766798419,0.36009174311926606,0.3843416370106761
napwiki,False,61.0,0.2560386473429952,0.7571428571428571,0.6620553359683794,0.3532110091743119,0.38267148014440433
napwiki,False,62.0,0.25742574257425743,0.7428571428571429,0.6679841897233202,0.3440366972477064,0.3823529411764706
napwiki,False,63.0,0.26,0.7428571428571429,0.6719367588932806,0.3394495412844037,0.3851851851851852
napwiki,False,64.0,0.2562814070351759,0.7285714285714285,0.6699604743083004,0.3394495412844037,0.37918215613382894
napwiki,False,65.0,0.2602040816326531,0.7285714285714285,0.6758893280632411,0.33256880733944955,0.3834586466165414
napwiki,False,66.0,0.26424870466321243,0.7285714285714285,0.6818181818181818,0.3256880733944954,0.38783269961977185
napwiki,False,67.0,0.27419354838709675,0.7285714285714285,0.6956521739130435,0.30963302752293576,0.3984375
napwiki,False,68.0,0.2808988764044944,0.7142857142857143,0.7075098814229249,0.29357798165137616,0.4032258064516129
napwiki,False,69.0,0.28823529411764703,0.7,0.7193675889328063,0.2775229357798165,0.40833333333333327
napwiki,False,70.0,0.2893081761006289,0.6571428571428571,0.7292490118577075,0.2591743119266055,0.4017467248908297
napwiki,False,71.0,0.3006535947712418,0.6571428571428571,0.741106719367589,0.24541284403669725,0.4125560538116592
napwiki,False,72.0,0.3103448275862069,0.6428571428571429,0.7529644268774703,0.22935779816513763,0.4186046511627907
napwiki,False,73.0,0.3191489361702128,0.6428571428571429,0.7608695652173914,0.22018348623853212,0.4265402843601896
napwiki,False,74.0,0.3161764705882353,0.6142857142857143,0.7628458498023716,0.21330275229357798,0.4174757281553398
napwiki,False,75.0,0.3157894736842105,0.6,0.7648221343873518,0.20871559633027523,0.41379310344827586
napwiki,False,76.0,0.328125,0.6,0.7747035573122529,0.19724770642201836,0.42424242424242425
napwiki,False,77.0,0.3445378151260504,0.5857142857142857,0.7885375494071146,0.17889908256880735,0.43386243386243384
napwiki,False,78.0,0.35964912280701755,0.5857142857142857,0.7984189723320159,0.16743119266055045,0.4456521739130435
napwiki,False,79.0,0.3761467889908257,0.5857142857142857,0.808300395256917,0.1559633027522936,0.4581005586592179
napwiki,False,80.0,0.39215686274509803,0.5714285714285714,0.8181818181818182,0.14220183486238533,0.46511627906976744
napwiki,False,81.0,0.41237113402061853,0.5714285714285714,0.8280632411067194,0.13073394495412843,0.4790419161676646
napwiki,False,82.0,0.43478260869565216,0.5714285714285714,0.8379446640316206,0.11926605504587157,0.49382716049382713
napwiki,False,83.0,0.43529411764705883,0.5285714285714286,0.8399209486166008,0.11009174311926606,0.47741935483870973
napwiki,False,84.0,0.43209876543209874,0.5,0.8399209486166008,0.10550458715596331,0.4635761589403974
napwiki,False,85.0,0.44871794871794873,0.5,0.8458498023715415,0.09862385321100918,0.472972972972973
napwiki,False,86.0,0.4520547945205479,0.4714285714285714,0.8478260869565217,0.09174311926605505,0.4615384615384615
napwiki,False,87.0,0.4307692307692308,0.4,0.8438735177865613,0.08486238532110092,0.41481481481481486
napwiki,False,88.0,0.4482758620689655,0.37142857142857144,0.849802371541502,0.07339449541284404,0.40625
napwiki,False,89.0,0.45098039215686275,0.32857142857142857,0.8517786561264822,0.06422018348623854,0.38016528925619836
napwiki,False,90.0,0.46511627906976744,0.2857142857142857,0.8557312252964426,0.052752293577981654,0.3539823008849557
napwiki,False,91.0,0.5428571428571428,0.2714285714285714,0.8675889328063241,0.03669724770642202,0.3619047619047619
napwiki,False,92.0,0.5666666666666667,0.24285714285714285,0.8695652173913043,0.02981651376146789,0.33999999999999997
napwiki,False,93.0,0.6818181818181818,0.21428571428571427,0.8774703557312253,0.016055045871559634,0.32608695652173914
napwiki,False,94.0,0.6842105263157895,0.18571428571428572,0.8754940711462451,0.013761467889908258,0.29213483146067415
napwiki,False,95.0,0.7857142857142857,0.15714285714285714,0.8774703557312253,0.006880733944954129,0.2619047619047619
napwiki,False,96.0,0.8333333333333334,0.14285714285714285,0.8774703557312253,0.0045871559633027525,0.2439024390243902
napwiki,False,97.0,0.8181818181818182,0.12857142857142856,0.8754940711462451,0.0045871559633027525,0.2222222222222222
napwiki,False,98.0,0.875,0.1,0.8735177865612648,0.0022935779816513763,0.17948717948717952
napwiki,False,99.0,1.0,0.04285714285714286,0.8675889328063241,0.0,0.0821917808219178
