wiki_db,user_is_anonymous_or_bot,threshold,precision,recall,accuracy,fpr,F1
nvwiki,True,0.0,0.32,1.0,0.32,1.0,0.48484848484848486
nvwiki,True,1.0,0.32,1.0,0.32,1.0,0.48484848484848486
nvwiki,True,2.0,0.32,1.0,0.32,1.0,0.48484848484848486
nvwiki,True,3.0,0.32,1.0,0.32,1.0,0.48484848484848486
nvwiki,True,4.0,0.32,1.0,0.32,1.0,0.48484848484848486
nvwiki,True,5.0,0.32,1.0,0.32,1.0,0.48484848484848486
nvwiki,True,6.0,0.32,1.0,0.32,1.0,0.48484848484848486
nvwiki,True,7.0,0.32,1.0,0.32,1.0,0.48484848484848486
nvwiki,True,8.0,0.32,1.0,0.32,1.0,0.48484848484848486
nvwiki,True,9.0,0.32,1.0,0.32,1.0,0.48484848484848486
nvwiki,True,10.0,0.32,1.0,0.32,1.0,0.48484848484848486
nvwiki,True,11.0,0.32,1.0,0.32,1.0,0.48484848484848486
nvwiki,True,12.0,0.32,1.0,0.32,1.0,0.48484848484848486
nvwiki,True,13.0,0.32,1.0,0.32,1.0,0.48484848484848486
nvwiki,True,14.0,0.32,1.0,0.32,1.0,0.48484848484848486
nvwiki,True,15.0,0.32,1.0,0.32,1.0,0.48484848484848486
nvwiki,True,16.0,0.32,1.0,0.32,1.0,0.48484848484848486
nvwiki,True,17.0,0.32,1.0,0.32,1.0,0.48484848484848486
nvwiki,True,18.0,0.32,1.0,0.32,1.0,0.48484848484848486
nvwiki,True,19.0,0.32,1.0,0.32,1.0,0.48484848484848486
nvwiki,True,20.0,0.32,1.0,0.32,1.0,0.48484848484848486
nvwiki,True,21.0,0.32,1.0,0.32,1.0,0.48484848484848486
nvwiki,True,22.0,0.3287671232876712,1.0,0.3466666666666667,0.9607843137254902,0.49484536082474223
nvwiki,True,23.0,0.3287671232876712,1.0,0.3466666666666667,0.9607843137254902,0.49484536082474223
nvwiki,True,24.0,0.3287671232876712,1.0,0.3466666666666667,0.9607843137254902,0.49484536082474223
nvwiki,True,25.0,0.34285714285714286,1.0,0.38666666666666666,0.9019607843137255,0.5106382978723404
nvwiki,True,26.0,0.34285714285714286,1.0,0.38666666666666666,0.9019607843137255,0.5106382978723404
nvwiki,True,27.0,0.34285714285714286,1.0,0.38666666666666666,0.9019607843137255,0.5106382978723404
nvwiki,True,28.0,0.34285714285714286,1.0,0.38666666666666666,0.9019607843137255,0.5106382978723404
nvwiki,True,29.0,0.34285714285714286,1.0,0.38666666666666666,0.9019607843137255,0.5106382978723404
nvwiki,True,30.0,0.34782608695652173,1.0,0.4,0.8823529411764706,0.5161290322580645
nvwiki,True,31.0,0.34782608695652173,1.0,0.4,0.8823529411764706,0.5161290322580645
nvwiki,True,32.0,0.34782608695652173,1.0,0.4,0.8823529411764706,0.5161290322580645
nvwiki,True,33.0,0.36923076923076925,1.0,0.4533333333333333,0.803921568627451,0.5393258426966292
nvwiki,True,34.0,0.3870967741935484,1.0,0.49333333333333335,0.7450980392156863,0.5581395348837209
nvwiki,True,35.0,0.39344262295081966,1.0,0.5066666666666667,0.7254901960784313,0.5647058823529412
nvwiki,True,36.0,0.39344262295081966,1.0,0.5066666666666667,0.7254901960784313,0.5647058823529412
nvwiki,True,37.0,0.4067796610169492,1.0,0.5333333333333333,0.6862745098039216,0.5783132530120482
nvwiki,True,38.0,0.4067796610169492,1.0,0.5333333333333333,0.6862745098039216,0.5783132530120482
nvwiki,True,39.0,0.42105263157894735,1.0,0.56,0.6470588235294118,0.5925925925925926
nvwiki,True,40.0,0.42857142857142855,1.0,0.5733333333333334,0.6274509803921569,0.6
nvwiki,True,41.0,0.4444444444444444,1.0,0.6,0.5882352941176471,0.6153846153846153
nvwiki,True,42.0,0.4444444444444444,1.0,0.6,0.5882352941176471,0.6153846153846153
nvwiki,True,43.0,0.47058823529411764,1.0,0.64,0.5294117647058824,0.6399999999999999
nvwiki,True,44.0,0.47058823529411764,1.0,0.64,0.5294117647058824,0.6399999999999999
nvwiki,True,45.0,0.48,1.0,0.6533333333333333,0.5098039215686274,0.6486486486486487
nvwiki,True,46.0,0.48936170212765956,0.9583333333333334,0.6666666666666666,0.47058823529411764,0.6478873239436619
nvwiki,True,47.0,0.5,0.9583333333333334,0.68,0.45098039215686275,0.6571428571428571
nvwiki,True,48.0,0.5,0.9583333333333334,0.68,0.45098039215686275,0.6571428571428571
nvwiki,True,49.0,0.5111111111111111,0.9583333333333334,0.6933333333333334,0.43137254901960786,0.6666666666666666
nvwiki,True,50.0,0.5227272727272727,0.9583333333333334,0.7066666666666667,0.4117647058823529,0.6764705882352942
nvwiki,True,51.0,0.5609756097560976,0.9583333333333334,0.7466666666666667,0.35294117647058826,0.7076923076923077
nvwiki,True,52.0,0.6052631578947368,0.9583333333333334,0.7866666666666666,0.29411764705882354,0.7419354838709677
nvwiki,True,53.0,0.6216216216216216,0.9583333333333334,0.8,0.27450980392156865,0.7540983606557377
nvwiki,True,54.0,0.6216216216216216,0.9583333333333334,0.8,0.27450980392156865,0.7540983606557377
nvwiki,True,55.0,0.6388888888888888,0.9583333333333334,0.8133333333333334,0.2549019607843137,0.7666666666666666
nvwiki,True,56.0,0.6666666666666666,0.9166666666666666,0.8266666666666667,0.21568627450980393,0.7719298245614035
nvwiki,True,57.0,0.7096774193548387,0.9166666666666666,0.8533333333333334,0.17647058823529413,0.7999999999999999
nvwiki,True,58.0,0.7096774193548387,0.9166666666666666,0.8533333333333334,0.17647058823529413,0.7999999999999999
nvwiki,True,59.0,0.7096774193548387,0.9166666666666666,0.8533333333333334,0.17647058823529413,0.7999999999999999
nvwiki,True,60.0,0.7333333333333333,0.9166666666666666,0.8666666666666667,0.1568627450980392,0.8148148148148148
nvwiki,True,61.0,0.75,0.875,0.8666666666666667,0.13725490196078433,0.8076923076923077
nvwiki,True,62.0,0.75,0.875,0.8666666666666667,0.13725490196078433,0.8076923076923077
nvwiki,True,63.0,0.75,0.875,0.8666666666666667,0.13725490196078433,0.8076923076923077
nvwiki,True,64.0,0.8076923076923077,0.875,0.8933333333333333,0.09803921568627451,0.8400000000000001
nvwiki,True,65.0,0.8076923076923077,0.875,0.8933333333333333,0.09803921568627451,0.8400000000000001
nvwiki,True,66.0,0.8,0.8333333333333334,0.88,0.09803921568627451,0.816326530612245
nvwiki,True,67.0,0.8260869565217391,0.7916666666666666,0.88,0.0784313725490196,0.8085106382978724
nvwiki,True,68.0,0.8260869565217391,0.7916666666666666,0.88,0.0784313725490196,0.8085106382978724
nvwiki,True,69.0,0.8260869565217391,0.7916666666666666,0.88,0.0784313725490196,0.8085106382978724
nvwiki,True,70.0,0.8260869565217391,0.7916666666666666,0.88,0.0784313725490196,0.8085106382978724
nvwiki,True,71.0,0.8260869565217391,0.7916666666666666,0.88,0.0784313725490196,0.8085106382978724
nvwiki,True,72.0,0.8260869565217391,0.7916666666666666,0.88,0.0784313725490196,0.8085106382978724
nvwiki,True,73.0,0.8260869565217391,0.7916666666666666,0.88,0.0784313725490196,0.8085106382978724
nvwiki,True,74.0,0.8636363636363636,0.7916666666666666,0.8933333333333333,0.058823529411764705,0.8260869565217391
nvwiki,True,75.0,0.8571428571428571,0.75,0.88,0.058823529411764705,0.7999999999999999
nvwiki,True,76.0,0.8571428571428571,0.75,0.88,0.058823529411764705,0.7999999999999999
nvwiki,True,77.0,0.8571428571428571,0.75,0.88,0.058823529411764705,0.7999999999999999
nvwiki,True,78.0,0.8421052631578947,0.6666666666666666,0.8533333333333334,0.058823529411764705,0.744186046511628
nvwiki,True,79.0,0.8421052631578947,0.6666666666666666,0.8533333333333334,0.058823529411764705,0.744186046511628
nvwiki,True,80.0,0.8235294117647058,0.5833333333333334,0.8266666666666667,0.058823529411764705,0.6829268292682927
nvwiki,True,81.0,0.8125,0.5416666666666666,0.8133333333333334,0.058823529411764705,0.65
nvwiki,True,82.0,0.8125,0.5416666666666666,0.8133333333333334,0.058823529411764705,0.65
nvwiki,True,83.0,0.8,0.5,0.8,0.058823529411764705,0.6153846153846154
nvwiki,True,84.0,0.8,0.5,0.8,0.058823529411764705,0.6153846153846154
nvwiki,True,85.0,0.9230769230769231,0.5,0.8266666666666667,0.0196078431372549,0.6486486486486487
nvwiki,True,86.0,1.0,0.5,0.84,0.0,0.6666666666666666
nvwiki,True,87.0,1.0,0.5,0.84,0.0,0.6666666666666666
nvwiki,True,88.0,1.0,0.4583333333333333,0.8266666666666667,0.0,0.6285714285714286
nvwiki,True,89.0,1.0,0.3333333333333333,0.7866666666666666,0.0,0.5
nvwiki,True,90.0,1.0,0.3333333333333333,0.7866666666666666,0.0,0.5
nvwiki,True,91.0,1.0,0.3333333333333333,0.7866666666666666,0.0,0.5
nvwiki,True,92.0,1.0,0.3333333333333333,0.7866666666666666,0.0,0.5
nvwiki,True,93.0,1.0,0.3333333333333333,0.7866666666666666,0.0,0.5
nvwiki,True,94.0,1.0,0.3333333333333333,0.7866666666666666,0.0,0.5
nvwiki,True,95.0,1.0,0.2916666666666667,0.7733333333333333,0.0,0.45161290322580644
nvwiki,True,96.0,1.0,0.25,0.76,0.0,0.4
nvwiki,True,97.0,1.0,0.25,0.76,0.0,0.4
nvwiki,True,98.0,1.0,0.20833333333333334,0.7466666666666667,0.0,0.3448275862068966
nvwiki,True,99.0,1.0,0.041666666666666664,0.6933333333333334,0.0,0.07999999999999999
nvwiki,False,0.0,0.013922092532695824,1.0,0.013922092532695824,1.0,0.027461858529819697
nvwiki,False,1.0,0.013922092532695824,1.0,0.013922092532695824,1.0,0.027461858529819697
nvwiki,False,2.0,0.013975155279503106,1.0,0.017719026859794686,0.9961494580718768,0.02756508422664625
nvwiki,False,3.0,0.014324989147735494,1.0,0.04204753199268738,0.9714774671990872,0.0282453637660485
nvwiki,False,4.0,0.01471257394205976,0.9797979797979798,0.08620447194487414,0.9264118653736452,0.028989838613269578
nvwiki,False,5.0,0.0156734693877551,0.9696969696969697,0.15173674588665448,0.859811751283514,0.030848329048843184
nvwiki,False,6.0,0.016985905312612938,0.9494949494949495,0.23428491070172971,0.775812892184826,0.03337475590271614
nvwiki,False,7.0,0.019350811485642945,0.9393939393939394,0.33638025594149906,0.6721334854535083,0.03792048929663608
nvwiki,False,8.0,0.02047389003910743,0.898989898989899,0.39980312192378004,0.6072447233314319,0.04003598740440846
nvwiki,False,9.0,0.022036474164133738,0.8787878787878788,0.4553508648572634,0.5506274957216201,0.04299481097108969
nvwiki,False,10.0,0.023000802353570472,0.8686868686868687,0.4844606946983547,0.5209640616086708,0.04481500781657113
nvwiki,False,11.0,0.02459250786388333,0.8686868686868687,0.5184924764449445,0.48645179691956647,0.047830923248053395
nvwiki,False,12.0,0.025702331141661684,0.8686868686868687,0.5397271832372381,0.46491728465487736,0.04992743105950653
nvwiki,False,13.0,0.026551404754553875,0.8686868686868687,0.5547742933483336,0.44965772960638906,0.05152786099460755
nvwiki,False,14.0,0.027476038338658148,0.8686868686868687,0.5701026578540289,0.43411294922989163,0.05326726540724683
nvwiki,False,15.0,0.028323892035988004,0.8585858585858586,0.5879623119111236,0.41585852823730746,0.054838709677419356
nvwiki,False,16.0,0.02975148757437872,0.8585858585858586,0.6082126283223175,0.3953223046206503,0.05751014884979702
nvwiki,False,17.0,0.03108997805413314,0.8585858585858586,0.6255097735902123,0.377780946948089,0.06000705965407695
nvwiki,False,18.0,0.032245827010622154,0.8585858585858586,0.6392912389256082,0.36380490587564174,0.06215722120658135
nvwiki,False,19.0,0.03353057199211045,0.8585858585858586,0.653494585852904,0.34940102681118085,0.06454062262718299
nvwiki,False,20.0,0.0345821325648415,0.8484848484848485,0.6681198143720996,0.33442669709070166,0.06645569620253164
nvwiki,False,21.0,0.03572947681837516,0.8484848484848485,0.6790887357614963,0.3233029092983457,0.06857142857142857
nvwiki,False,22.0,0.037383177570093455,0.8484848484848485,0.6937139642806919,0.3084711922418711,0.07161125319693093
nvwiki,False,23.0,0.03918791312559018,0.8383838383838383,0.7115736183377865,0.2902167712492869,0.07487595850248083
nvwiki,False,24.0,0.0427394438722966,0.8383838383838383,0.7363240050625791,0.26511694238448374,0.08133268005879471
nvwiki,False,25.0,0.04618809126321647,0.8383838383838383,0.756714948671073,0.24443810610382202,0.08755274261603375
nvwiki,False,26.0,0.052798982188295165,0.8383838383838383,0.7883560680635635,0.2123502567027952,0.09934171154997008
nvwiki,False,27.0,0.057815845824411134,0.8181818181818182,0.8118408100126564,0.18824871648602395,0.108
nvwiki,False,28.0,0.062146892655367235,0.7777777777777778,0.83349739839685,0.1657159155733029,0.11509715994020928
nvwiki,False,29.0,0.07205452775073028,0.7474747474747475,0.8624666010406412,0.13590986879634911,0.1314387211367673
nvwiki,False,30.0,0.08068181818181819,0.7171717171717171,0.8822950358599353,0.11537364517969195,0.1450459652706844
nvwiki,False,31.0,0.08255659121171771,0.6262626262626263,0.8979046547602306,0.09826012549914433,0.1458823529411765
nvwiki,False,32.0,0.09448818897637795,0.6060606060606061,0.9136549008578259,0.08200228180262407,0.16348773841961853
nvwiki,False,33.0,0.10727272727272727,0.5959595959595959,0.9253269582337224,0.07002281802624073,0.18181818181818182
nvwiki,False,34.0,0.11823647294589178,0.5959595959595959,0.9324989452960203,0.06274957216200798,0.19732441471571904
nvwiki,False,35.0,0.13053097345132744,0.5959595959595959,0.9391084235691183,0.056046776953793495,0.21415607985480944
nvwiki,False,36.0,0.14004914004914004,0.5757575757575758,0.9448741386584165,0.049914432401597264,0.22529644268774704
nvwiki,False,37.0,0.15489130434782608,0.5757575757575758,0.9503585993531148,0.04435253850541928,0.24411134903640255
nvwiki,False,38.0,0.16569767441860464,0.5757575757575758,0.9537336520883138,0.04092983456930976,0.25733634311512416
nvwiki,False,39.0,0.1832797427652733,0.5757575757575758,0.9583743495992125,0.036223616657159154,0.2780487804878049
nvwiki,False,40.0,0.20141342756183744,0.5757575757575758,0.9623119111236113,0.03223046206503138,0.29842931937172773
nvwiki,False,41.0,0.22093023255813954,0.5757575757575758,0.9658275910561103,0.028665145464917285,0.31932773109243695
nvwiki,False,42.0,0.23265306122448978,0.5757575757575758,0.9676557446210097,0.026811180832857957,0.3313953488372093
nvwiki,False,43.0,0.2556053811659193,0.5757575757575758,0.9707495429616088,0.023673702224757558,0.3540372670807454
nvwiki,False,44.0,0.2753623188405797,0.5757575757575758,0.9729995781184081,0.02139189960068454,0.3725490196078432
nvwiki,False,45.0,0.28865979381443296,0.5656565656565656,0.9745464772887077,0.019680547632629778,0.3822525597269624
nvwiki,False,46.0,0.3021978021978022,0.5555555555555556,0.9759527492617072,0.018111808328579577,0.39145907473309605
nvwiki,False,47.0,0.31213872832369943,0.5454545454545454,0.9769371396428069,0.01697090701654307,0.39705882352941174
nvwiki,False,48.0,0.32727272727272727,0.5454545454545454,0.9780621572212066,0.015830005704506562,0.4090909090909091
nvwiki,False,49.0,0.36,0.5454545454545454,0.9801715651807059,0.013690815744438107,0.43373493975903615
nvwiki,False,50.0,0.3732394366197183,0.5353535353535354,0.9810153283645057,0.012692527096406161,0.43983402489626555
nvwiki,False,51.0,0.38686131386861317,0.5353535353535354,0.9817184643510055,0.011979463776383342,0.44915254237288144
nvwiki,False,52.0,0.41732283464566927,0.5353535353535354,0.9831247363240051,0.010553337136337706,0.4690265486725663
nvwiki,False,53.0,0.424,0.5353535353535354,0.983405990718605,0.01026811180832858,0.4732142857142857
nvwiki,False,54.0,0.43089430894308944,0.5353535353535354,0.9836872451132049,0.009982886480319452,0.4774774774774775
nvwiki,False,55.0,0.45689655172413796,0.5353535353535354,0.9846716354943046,0.008984597832287507,0.49302325581395345
nvwiki,False,56.0,0.4642857142857143,0.5252525252525253,0.9849528898889045,0.008556759840273816,0.49289099526066354
nvwiki,False,57.0,0.47706422018348627,0.5252525252525253,0.9853747714808044,0.008128921848260126,0.5
nvwiki,False,58.0,0.49523809523809526,0.5252525252525253,0.9859372802700043,0.0075584711922418715,0.5098039215686274
nvwiki,False,59.0,0.504950495049505,0.5151515151515151,0.9862185346646042,0.00713063320022818,0.51
nvwiki,False,60.0,0.5434782608695652,0.5050505050505051,0.9872029250457038,0.005989731888191671,0.5235602094240839
nvwiki,False,61.0,0.5444444444444444,0.494949494949495,0.9872029250457038,0.005847119224187108,0.5185185185185185
nvwiki,False,62.0,0.5632183908045977,0.494949494949495,0.9876248066376037,0.005419281232173417,0.5268817204301075
nvwiki,False,63.0,0.5833333333333334,0.494949494949495,0.9880466882295036,0.004991443240159726,0.5355191256830601
nvwiki,False,64.0,0.6125,0.494949494949495,0.9886091970187034,0.004420992584141472,0.547486033519553
nvwiki,False,65.0,0.6153846153846154,0.48484848484848486,0.9886091970187034,0.004278379920136908,0.5423728813559322
nvwiki,False,66.0,0.6,0.45454545454545453,0.9881873154268035,0.004278379920136908,0.5172413793103449
nvwiki,False,67.0,0.5915492957746479,0.42424242424242425,0.9879060610322036,0.004135767256132345,0.49411764705882355
nvwiki,False,68.0,0.5915492957746479,0.42424242424242425,0.9879060610322036,0.004135767256132345,0.49411764705882355
nvwiki,False,69.0,0.5857142857142857,0.41414141414141414,0.9877654338349037,0.004135767256132345,0.48520710059171596
nvwiki,False,70.0,0.5882352941176471,0.40404040404040403,0.9877654338349037,0.003993154592127781,0.4790419161676646
nvwiki,False,71.0,0.5970149253731343,0.40404040404040403,0.9879060610322036,0.0038505419281232175,0.4819277108433735
nvwiki,False,72.0,0.6129032258064516,0.3838383838383838,0.9880466882295036,0.0034227039361095267,0.4720496894409938
nvwiki,False,73.0,0.6129032258064516,0.3838383838383838,0.9880466882295036,0.0034227039361095267,0.4720496894409938
nvwiki,False,74.0,0.6333333333333333,0.3838383838383838,0.9883279426241035,0.0031374786081003994,0.47798742138364775
nvwiki,False,75.0,0.6379310344827587,0.37373737373737376,0.9883279426241035,0.0029948659440958356,0.47133757961783446
nvwiki,False,76.0,0.631578947368421,0.36363636363636365,0.9881873154268035,0.0029948659440958356,0.46153846153846156
nvwiki,False,77.0,0.6363636363636364,0.35353535353535354,0.9881873154268035,0.002852253280091272,0.45454545454545453
nvwiki,False,78.0,0.6153846153846154,0.32323232323232326,0.9877654338349037,0.002852253280091272,0.423841059602649
nvwiki,False,79.0,0.6458333333333334,0.31313131313131315,0.9880466882295036,0.0024244152880775814,0.4217687074829932
nvwiki,False,80.0,0.6744186046511628,0.29292929292929293,0.9881873154268035,0.0019965772960638907,0.4084507042253521
nvwiki,False,81.0,0.7,0.2828282828282828,0.9883279426241035,0.0017113519680547634,0.40287769784172656
nvwiki,False,82.0,0.7,0.2828282828282828,0.9883279426241035,0.0017113519680547634,0.40287769784172656
nvwiki,False,83.0,0.7105263157894737,0.2727272727272727,0.9883279426241035,0.0015687393040501997,0.3941605839416058
nvwiki,False,84.0,0.75,0.2727272727272727,0.9886091970187034,0.0012835139760410724,0.39999999999999997
nvwiki,False,85.0,0.8387096774193549,0.26262626262626265,0.9890310786106032,0.000713063320022818,0.4
nvwiki,False,86.0,0.896551724137931,0.26262626262626265,0.9893123330052032,0.00042783799201369084,0.40625000000000006
nvwiki,False,87.0,0.9285714285714286,0.26262626262626265,0.9894529602025032,0.0002852253280091272,0.4094488188976378
nvwiki,False,88.0,0.96,0.24242424242424243,0.9893123330052032,0.0001426126640045636,0.3870967741935484
nvwiki,False,89.0,0.9444444444444444,0.1717171717171717,0.9883279426241035,0.0001426126640045636,0.29059829059829057
nvwiki,False,90.0,1.0,0.15151515151515152,0.9881873154268035,0.0,0.2631578947368421
nvwiki,False,91.0,1.0,0.1414141414141414,0.9880466882295036,0.0,0.24778761061946902
nvwiki,False,92.0,1.0,0.10101010101010101,0.9874841794403038,0.0,0.1834862385321101
nvwiki,False,93.0,1.0,0.09090909090909091,0.9873435522430037,0.0,0.16666666666666669
nvwiki,False,94.0,1.0,0.08080808080808081,0.9872029250457038,0.0,0.14953271028037382
nvwiki,False,95.0,1.0,0.0707070707070707,0.9870622978484039,0.0,0.1320754716981132
nvwiki,False,96.0,1.0,0.06060606060606061,0.9869216706511039,0.0,0.1142857142857143
nvwiki,False,97.0,1.0,0.06060606060606061,0.9869216706511039,0.0,0.1142857142857143
nvwiki,False,98.0,1.0,0.050505050505050504,0.986781043453804,0.0,0.09615384615384615
nvwiki,False,99.0,1.0,0.010101010101010102,0.9862185346646042,0.0,0.02
