wiki_db,user_is_anonymous_or_bot,threshold,precision,recall,accuracy,fpr,F1
ocwiki,True,0.0,0.036251105216622455,1.0,0.036251105216622455,1.0,0.06996587030716722
ocwiki,True,1.0,0.036251105216622455,1.0,0.036251105216622455,1.0,0.06996587030716722
ocwiki,True,2.0,0.036251105216622455,1.0,0.036251105216622455,1.0,0.06996587030716722
ocwiki,True,3.0,0.036251105216622455,1.0,0.036251105216622455,1.0,0.06996587030716722
ocwiki,True,4.0,0.036251105216622455,1.0,0.036251105216622455,1.0,0.06996587030716722
ocwiki,True,5.0,0.0362671384343211,1.0,0.03669319186560566,0.9995412844036697,0.06999573196756295
ocwiki,True,6.0,0.03631532329495128,1.0,0.03801945181255526,0.998165137614679,0.07008547008547007
ocwiki,True,7.0,0.03637976929902396,1.0,0.03978779840848806,0.9963302752293578,0.0702054794520548
ocwiki,True,8.0,0.03646064917741218,1.0,0.041998231653404064,0.9940366972477064,0.07035607035607035
ocwiki,True,9.0,0.03663985701519214,1.0,0.046861184792219276,0.9889908256880734,0.0706896551724138
ocwiki,True,10.0,0.03675481846705513,1.0,0.04995579133510168,0.9857798165137615,0.07090358841331604
ocwiki,True,11.0,0.037104072398190045,1.0,0.0592396109637489,0.9761467889908257,0.07155322862129145
ocwiki,True,12.0,0.037425832952989506,1.0,0.06763925729442971,0.9674311926605504,0.07215134183897932
ocwiki,True,13.0,0.03789279112754159,1.0,0.07957559681697612,0.955045871559633,0.0730186999109528
ocwiki,True,14.0,0.03838951310861423,1.0,0.09195402298850575,0.9422018348623853,0.0739404869251578
ocwiki,True,15.0,0.03891789273849074,1.0,0.10477453580901856,0.9288990825688074,0.0749200548195523
ocwiki,True,16.0,0.0393852065321806,1.0,0.11582670203359859,0.9174311926605505,0.07578558225508318
ocwiki,True,17.0,0.0398251578436134,1.0,0.1259946949602122,0.9068807339449542,0.07659971975712285
ocwiki,True,18.0,0.040097799511002445,1.0,0.13218390804597702,0.9004587155963303,0.07710390220968501
ocwiki,True,19.0,0.04057397328055418,1.0,0.14279398762157383,0.8894495412844037,0.07798383262006658
ocwiki,True,20.0,0.0408570004982561,1.0,0.14898320070733864,0.8830275229357798,0.07850646242221158
ocwiki,True,21.0,0.04097951024487756,1.0,0.15163572060123784,0.8802752293577981,0.07873259721555449
ocwiki,True,22.0,0.04122674710910005,1.0,0.15694076038903626,0.8747706422018349,0.07918879768227909
ocwiki,True,23.0,0.041456016177957536,1.0,0.16180371352785147,0.8697247706422019,0.07961165048543689
ocwiki,True,24.0,0.04170905391658189,1.0,0.16710875331564987,0.8642201834862385,0.080078125
ocwiki,True,25.0,0.04187946884576098,1.0,0.17064544650751548,0.8605504587155963,0.0803921568627451
ocwiki,True,26.0,0.04209445585215606,1.0,0.17506631299734748,0.8559633027522936,0.08078817733990147
ocwiki,True,27.0,0.042224510813594233,1.0,0.17771883289124668,0.8532110091743119,0.08102766798418973
ocwiki,True,28.0,0.0422462648119526,1.0,0.1781609195402299,0.8527522935779817,0.08106772120612951
ocwiki,True,29.0,0.04231166150670795,1.0,0.1794871794871795,0.8513761467889909,0.08118811881188119
ocwiki,True,30.0,0.04239917269906929,1.0,0.1812555260831123,0.8495412844036697,0.08134920634920635
ocwiki,True,31.0,0.04257528556593977,1.0,0.1847922192749779,0.8458715596330275,0.08167330677290836
ocwiki,True,32.0,0.04268610098906819,1.0,0.1870026525198939,0.8435779816513761,0.0818771842236645
ocwiki,True,33.0,0.04268610098906819,1.0,0.1870026525198939,0.8435779816513761,0.0818771842236645
ocwiki,True,34.0,0.04279749478079332,1.0,0.1892130857648099,0.8412844036697248,0.08208208208208206
ocwiki,True,35.0,0.04288702928870293,1.0,0.1909814323607427,0.8394495412844036,0.08224674022066199
ocwiki,True,36.0,0.042954426401257205,1.0,0.19230769230769232,0.8380733944954128,0.08237066800602713
ocwiki,True,37.0,0.04318062137967351,1.0,0.19672855879752432,0.8334862385321101,0.08278647147905098
ocwiki,True,38.0,0.04322614654717976,1.0,0.1976127320954907,0.8325688073394495,0.0828701364325417
ocwiki,True,39.0,0.04334038054968287,1.0,0.19982316534040673,0.8302752293577982,0.08308004052684904
ocwiki,True,40.0,0.0435244161358811,1.0,0.20335985853227231,0.826605504587156,0.08341810783316377
ocwiki,True,41.0,0.043640234167110166,1.0,0.20557029177718833,0.8243119266055046,0.08363080061193268
ocwiki,True,42.0,0.04375667022411953,1.0,0.20778072502210435,0.8220183486238533,0.08384458077709613
ocwiki,True,43.0,0.043873729266987696,1.0,0.20999115826702033,0.8197247706422018,0.0840594566888775
ocwiki,True,44.0,0.04392072844134976,1.0,0.21087533156498675,0.8188073394495413,0.08414571575166752
ocwiki,True,45.0,0.043991416309012876,1.0,0.21220159151193635,0.8174311926605504,0.0842754367934224
ocwiki,True,46.0,0.04408602150537634,1.0,0.21396993810786913,0.8155963302752294,0.08444902162718845
ocwiki,True,47.0,0.04418103448275862,1.0,0.21573828470380194,0.8137614678899082,0.08462332301341588
ocwiki,True,48.0,0.04427645788336933,1.0,0.21750663129973474,0.8119266055045872,0.08479834539813856
ocwiki,True,49.0,0.044372294372294376,1.0,0.21927497789566755,0.810091743119266,0.0849740932642487
ocwiki,True,50.0,0.044541010320478004,1.0,0.22236958443854996,0.8068807339449541,0.08528341133645347
ocwiki,True,51.0,0.044662309368191724,1.0,0.22458001768346597,0.8045871559633028,0.08550573514077164
ocwiki,True,52.0,0.04480874316939891,1.0,0.22723253757736517,0.8018348623853211,0.08577405857740586
ocwiki,True,53.0,0.04462809917355372,0.9878048780487805,0.23297966401414677,0.7954128440366972,0.08539799683711123
ocwiki,True,54.0,0.044751381215469614,0.9878048780487805,0.23519009725906279,0.7931192660550459,0.08562367864693446
ocwiki,True,55.0,0.04476776720761052,0.975609756097561,0.24447391688771,0.7830275229357798,0.08560727661851257
ocwiki,True,56.0,0.044582392776523705,0.9634146341463414,0.2502210433244916,0.7766055045871559,0.08522114347357067
ocwiki,True,57.0,0.04462242562929062,0.9512195121951219,0.259946949602122,0.7660550458715596,0.08524590163934426
ocwiki,True,58.0,0.04519119351100811,0.9512195121951219,0.2696728558797524,0.7559633027522936,0.08628318584070796
ocwiki,True,59.0,0.04470588235294118,0.926829268292683,0.27939876215738285,0.744954128440367,0.08529741863075198
ocwiki,True,60.0,0.0451574569221628,0.926829268292683,0.28691423519009723,0.7371559633027523,0.08611898016997167
ocwiki,True,61.0,0.04611650485436893,0.926829268292683,0.30238726790450926,0.7211009174311926,0.08786127167630059
ocwiki,True,62.0,0.04584882280049566,0.9024390243902439,0.3156498673740053,0.7064220183486238,0.08726415094339623
ocwiki,True,63.0,0.046290424857324035,0.8902439024390244,0.3311229000884173,0.689908256880734,0.08800482218203738
ocwiki,True,64.0,0.04734111543450065,0.8902439024390244,0.34659593280282935,0.6738532110091743,0.08990147783251232
ocwiki,True,65.0,0.04758757435558493,0.8780487804878049,0.35853227232537577,0.6610091743119266,0.090282131661442
ocwiki,True,66.0,0.04845222072678331,0.8780487804878049,0.3704686118479222,0.6486238532110091,0.09183673469387754
ocwiki,True,67.0,0.048898071625344354,0.8658536585365854,0.38461538461538464,0.6334862385321101,0.09256844850065189
ocwiki,True,68.0,0.04992967651195499,0.8658536585365854,0.3978779840848806,0.6197247706422019,0.09441489361702128
ocwiki,True,69.0,0.05118961788031723,0.8658536585365854,0.41335101679929265,0.6036697247706422,0.0966643975493533
ocwiki,True,70.0,0.05232129697862933,0.8658536585365854,0.4266136162687887,0.5899082568807339,0.09867963863794302
ocwiki,True,71.0,0.05358490566037736,0.8658536585365854,0.4407603890362511,0.5752293577981651,0.10092395167022032
ocwiki,True,72.0,0.05332302936630603,0.8414634146341463,0.4526967285587975,0.5619266055045872,0.1002906976744186
ocwiki,True,73.0,0.05342902711323764,0.8170731707317073,0.46861184792219274,0.5444954128440367,0.10029940119760479
ocwiki,True,74.0,0.05447154471544716,0.8170731707317073,0.4792219274977896,0.5334862385321101,0.10213414634146342
ocwiki,True,75.0,0.056255247691015954,0.8170731707317073,0.4964633068081344,0.5155963302752293,0.10526315789473685
ocwiki,True,76.0,0.05642361111111111,0.7926829268292683,0.5119363395225465,0.49862385321100916,0.10534846029173418
ocwiki,True,77.0,0.05722070844686648,0.7682926829268293,0.5327144120247569,0.4761467889908257,0.10650887573964497
ocwiki,True,78.0,0.059433962264150944,0.7682926829268293,0.5508399646330681,0.4573394495412844,0.11033274956217162
ocwiki,True,79.0,0.061386138613861385,0.7560975609756098,0.5720601237842617,0.43486238532110094,0.11355311355311354
ocwiki,True,80.0,0.05747126436781609,0.6707317073170732,0.5893015030946065,0.41376146788990825,0.10587102983638112
ocwiki,True,81.0,0.055248618784530384,0.6097560975609756,0.6078691423519009,0.3922018348623853,0.10131712259371835
ocwiki,True,82.0,0.05744431418522861,0.5975609756097561,0.629973474801061,0.3688073394495413,0.10481283422459893
ocwiki,True,83.0,0.06145966709346991,0.5853658536585366,0.6609195402298851,0.33623853211009175,0.1112398609501738
ocwiki,True,84.0,0.059490084985835696,0.5121951219512195,0.6887709991158267,0.30458715596330277,0.10659898477157359
ocwiki,True,85.0,0.06578947368421052,0.4878048780487805,0.7303271441202476,0.26055045871559634,0.11594202898550725
ocwiki,True,86.0,0.07707509881422925,0.47560975609756095,0.7745358090185677,0.21422018348623853,0.1326530612244898
ocwiki,True,87.0,0.08108108108108109,0.4024390243902439,0.8129973474801061,0.17155963302752295,0.13496932515337426
ocwiki,True,88.0,0.08771929824561403,0.36585365853658536,0.8390804597701149,0.14311926605504588,0.14150943396226415
ocwiki,True,89.0,0.08391608391608392,0.2926829268292683,0.8585322723253758,0.12018348623853212,0.13043478260869565
ocwiki,True,90.0,0.07373271889400922,0.1951219512195122,0.8819628647214854,0.09220183486238533,0.10702341137123746
ocwiki,True,91.0,0.07738095238095238,0.15853658536585366,0.900972590627763,0.07110091743119266,0.104
ocwiki,True,92.0,0.07207207207207207,0.0975609756097561,0.9217506631299734,0.04724770642201835,0.08290155440414507
ocwiki,True,93.0,0.07894736842105263,0.07317073170731707,0.9354553492484527,0.03211009174311927,0.0759493670886076
ocwiki,True,94.0,0.09523809523809523,0.04878048780487805,0.9487179487179487,0.01743119266055046,0.06451612903225808
ocwiki,True,95.0,0.1111111111111111,0.036585365853658534,0.9544650751547303,0.011009174311926606,0.055045871559633024
ocwiki,True,96.0,0.0,0.0,0.9575596816976127,0.006422018348623854,0.055045871559633024
ocwiki,True,97.0,0.0,0.0,0.9610963748894783,0.0027522935779816515,0.055045871559633024
ocwiki,True,98.0,0.0,0.0,0.962422634836428,0.0013761467889908258,0.055045871559633024
ocwiki,True,99.0,0.0,0.0,0.9633068081343943,0.00045871559633027525,0.055045871559633024
ocwiki,False,0.0,0.014619179400794128,1.0,0.014619179400794128,1.0,0.0288170767862437
ocwiki,False,1.0,0.01462181840062579,1.0,0.014799663097100228,0.9998168386348373,0.02882220377179457
ocwiki,False,2.0,0.014708552751044126,1.0,0.020695463843099508,0.9938335673728554,0.02899069434502505
ocwiki,False,3.0,0.014901576010302325,1.0,0.033569967512934666,0.9807680566579157,0.029365558912386704
ocwiki,False,4.0,0.015114608706514272,0.9958847736625515,0.0512573697509325,0.9627571890835827,0.02977728559123908
ocwiki,False,5.0,0.015224869410115938,0.9835390946502057,0.06972686800625677,0.9438305146834362,0.02998557179599774
ocwiki,False,6.0,0.015421971387321171,0.9670781893004116,0.0969197449163759,0.9159899871787044,0.0303597958788192
ocwiki,False,7.0,0.01570927723840345,0.9588477366255144,0.12110456022139333,0.8913242566701264,0.03091210613598673
ocwiki,False,8.0,0.015992799778454723,0.9506172839506173,0.14420647334857417,0.8677574943525246,0.03145639000476612
ocwiki,False,9.0,0.016110635871114914,0.9300411522633745,0.16863193358199977,0.8426643873252335,0.03167262280148553
ocwiki,False,10.0,0.016222564780151216,0.9094650205761317,0.19239562026230297,0.8182428719702057,0.03187653252560219
ocwiki,False,11.0,0.016690691146347015,0.9053497942386831,0.21886656238719768,0.7913181512912876,0.032777115613825986
ocwiki,False,12.0,0.01705389971055308,0.897119341563786,0.24257008783539888,0.7671408510898101,0.03347151850145862
ocwiki,False,13.0,0.0172971225347559,0.8806584362139918,0.26681506437251834,0.7422919592160694,0.033927863654379706
ocwiki,False,14.0,0.01779089376053963,0.8683127572016461,0.2972566478161473,0.7112155809267965,0.0348673882508469
ocwiki,False,15.0,0.01835910049191848,0.8600823045267489,0.32565274936830707,0.6822760852310886,0.03595080416272469
ocwiki,False,16.0,0.018828067597354885,0.8436213991769548,0.3550114306340994,0.6522376213444044,0.03683406702003414
ocwiki,False,17.0,0.019373493975903613,0.8271604938271605,0.3853928528456263,0.6211612430551315,0.03786023733283104
ocwiki,False,18.0,0.02034207064062342,0.8271604938271605,0.4151125015040308,0.5910006715916722,0.039707625444488345
ocwiki,False,19.0,0.02118824531516184,0.8189300411522634,0.44429069907351704,0.5612674766469259,0.041307732226258435
ocwiki,False,20.0,0.02223719676549865,0.8148148148148148,0.4735290578751053,0.5315342817021796,0.0432928829124303
ocwiki,False,21.0,0.022936864506975643,0.7983539094650206,0.49987967753579593,0.5045485072348739,0.044592575566026894
ocwiki,False,22.0,0.023871689668034317,0.7901234567901234,0.5246059439297317,0.47933329263080776,0.04634322954380884
ocwiki,False,23.0,0.024479166666666666,0.7736625514403292,0.5459631813259536,0.4574149825996703,0.04745677142496529
ocwiki,False,24.0,0.0252594210813763,0.7613168724279835,0.5670196125616652,0.4358629952988583,0.04889652438218581
ocwiki,False,25.0,0.026165284529596797,0.7530864197530864,0.5866321742269281,0.41583735270773553,0.05057344203399199
ocwiki,False,26.0,0.027063397129186602,0.7448559670781894,0.6048008663217422,0.3972770010379144,0.05222911556773914
ocwiki,False,27.0,0.02809427189012018,0.7407407407407407,0.6215858500782097,0.38018194028939495,0.05413533834586466
ocwiki,False,28.0,0.028589993502274202,0.7242798353909465,0.6362050294790037,0.3651016545576653,0.055008595092983274
ocwiki,False,29.0,0.029401824940858398,0.7160493827160493,0.6502827577908795,0.3506929604981989,0.05648433695828599
ocwiki,False,30.0,0.030186030186030187,0.7078189300411523,0.6632775839249188,0.33738323462970876,0.0579027099814846
ocwiki,False,31.0,0.030584380120152924,0.691358024691358,0.6751293466490194,0.3251114231638073,0.058577405857740586
ocwiki,False,32.0,0.03153323262839879,0.6872427983539094,0.6868607869089159,0.3131448806398437,0.06029969308539448
ocwiki,False,33.0,0.032144257154057235,0.6748971193415638,0.6981710985440982,0.30148360705781796,0.061365762394761464
ocwiki,False,34.0,0.03313681642610287,0.6707818930041153,0.7090602815545662,0.2903718175712803,0.06315381635025184
ocwiki,False,35.0,0.03406223717409588,0.6666666666666666,0.7187462399229936,0.28048110385249403,0.06481296259251851
ocwiki,False,36.0,0.03512982762382719,0.6625514403292181,0.7290338106124413,0.2699798522498321,0.06672192291753004
ocwiki,False,37.0,0.03563373928732522,0.6502057613168725,0.7376368668030321,0.261065999145247,0.0675646782125294
ocwiki,False,38.0,0.03672514619883041,0.6460905349794238,0.7470821802430514,0.251419500580011,0.06949977866312529
ocwiki,False,39.0,0.037717601547388784,0.6419753086419753,0.75532426904103,0.2429940777825264,0.07124914364010049
ocwiki,False,40.0,0.038202247191011236,0.6296296296296297,0.7628444230537842,0.2351791928689175,0.07203389830508475
ocwiki,False,41.0,0.03818554587391081,0.6131687242798354,0.7685597401034773,0.22913486781854814,0.0718938480096502
ocwiki,False,42.0,0.03811777076761304,0.5967078189300411,0.7739742509926604,0.2233958117101166,0.07165801828514949
ocwiki,False,43.0,0.03902045209903122,0.5967078189300411,0.7792684394176392,0.2180230783320105,0.07325082091437231
ocwiki,False,44.0,0.03903654485049834,0.5802469135802469,0.7850439176994345,0.21191769949325356,0.07315175097276264
ocwiki,False,45.0,0.039988655700510495,0.5802469135802469,0.7902177836602093,0.20666707369192258,0.07482090740249403
ocwiki,False,46.0,0.040940766550522645,0.5802469135802469,0.7951510046925762,0.2016606630441419,0.07648494711147273
ocwiki,False,47.0,0.041716328963051254,0.5761316872427984,0.800324870653351,0.19634898345442334,0.07779938871908865
ocwiki,False,48.0,0.042150274893097125,0.5679012345679012,0.8050174467573096,0.1914646803834178,0.07847597384134206
ocwiki,False,49.0,0.0430411561420044,0.5637860082304527,0.8103717964143906,0.18596983942853654,0.07997664915353181
ocwiki,False,50.0,0.04377212745413582,0.5596707818930041,0.814823727589941,0.18139080529946883,0.08119402985074627
ocwiki,False,51.0,0.04472213087800066,0.5596707818930041,0.8187943689086753,0.17736125526588925,0.08282582216808769
ocwiki,False,52.0,0.045408678102926335,0.5555555555555556,0.8227650102274094,0.1732706514439221,0.08395522388059701
ocwiki,False,53.0,0.04597303836847563,0.5473251028806584,0.827337263867164,0.1685084559496917,0.08482142857142858
ocwiki,False,54.0,0.046511627906976744,0.5432098765432098,0.8305258091685718,0.16521155137676294,0.08568646543330087
ocwiki,False,55.0,0.04691447130999639,0.5349794238683128,0.8343159667909998,0.16124305513157092,0.08626410086264101
ocwiki,False,56.0,0.04781319495922906,0.5308641975308642,0.8385874142702443,0.15684718236766593,0.08772526351581095
ocwiki,False,57.0,0.048873615883925164,0.5267489711934157,0.8432198291421008,0.1520849868734355,0.08944793850454229
ocwiki,False,58.0,0.050393700787401574,0.5267489711934157,0.8479725664781614,0.1472617375908175,0.09198706431908013
ocwiki,False,59.0,0.049777418049372725,0.5061728395061729,0.8515220791721815,0.14335429513401307,0.09064112011790715
ocwiki,False,60.0,0.0506434205064342,0.5020576131687243,0.8551317530983035,0.13963001404237133,0.09200603318250376
ocwiki,False,61.0,0.051709401709401706,0.49794238683127573,0.8591625556491397,0.1354783564320166,0.09368950832365466
ocwiki,False,62.0,0.05267817618415228,0.4897119341563786,0.8637949705209963,0.13065510714939862,0.09512390087929656
ocwiki,False,63.0,0.05354691075514874,0.48148148148148145,0.8680062567681386,0.1262592343854936,0.09637561779242174
ocwiki,False,64.0,0.05357142857142857,0.4691358024691358,0.8710744796053423,0.12296232981256487,0.09616195698017714
ocwiki,False,65.0,0.05440539239287434,0.46502057613168724,0.874022379978342,0.1199096403931864,0.09741379310344829
ocwiki,False,66.0,0.055281342546890426,0.4609053497942387,0.8769702803513416,0.11685695097380792,0.0987219039224328
ocwiki,False,67.0,0.054989816700611,0.4444444444444444,0.8802189868848515,0.1133158312473289,0.0978704123244223
ocwiki,False,68.0,0.055031446540880505,0.43209876543209874,0.883227048489953,0.11007998046278772,0.09762900976290098
ocwiki,False,69.0,0.056338028169014086,0.4279835390946502,0.886836722416075,0.10635569937114597,0.09956917185256103
ocwiki,False,70.0,0.057400112549240295,0.41975308641975306,0.8907472025027072,0.10226509554917883,0.100990099009901
ocwiki,False,71.0,0.05807200929152149,0.411522633744856,0.893815425339911,0.09902924476463765,0.10178117048346055
ocwiki,False,72.0,0.05652435357787132,0.3868312757201646,0.8966430032487065,0.09579339398009647,0.09863588667366212
ocwiki,False,73.0,0.05628517823639775,0.37037037037037035,0.9000120322464205,0.0921301666768423,0.09771986970684038
ocwiki,False,74.0,0.0567741935483871,0.36213991769547327,0.902719287691012,0.08926063862262654,0.098159509202454
ocwiki,False,75.0,0.0588628762541806,0.36213991769547327,0.9060281554566237,0.08590268026131022,0.10126582278481013
ocwiki,False,76.0,0.05960729312762973,0.3497942386831276,0.9098183130790518,0.08187313022773063,0.10185739964050329
ocwiki,False,77.0,0.06,0.3333333333333333,0.9139092768619901,0.07747725746382562,0.10169491525423728
ocwiki,False,78.0,0.061430793157076204,0.32510288065843623,0.9175189507881122,0.07369192258379632,0.10333551340745585
ocwiki,False,79.0,0.06157635467980296,0.30864197530864196,0.9211286247142342,0.06978448012699189,0.10266940451745381
ocwiki,False,80.0,0.05754141238012206,0.2716049382716049,0.924317170015642,0.06599914524696257,0.09496402877697842
ocwiki,False,81.0,0.05581395348837209,0.24691358024691357,0.927926843941764,0.06196959521338299,0.09104704097116843
ocwiki,False,82.0,0.057057057057057055,0.2345679012345679,0.9321381301889062,0.05751266866109042,0.09178743961352656
ocwiki,False,83.0,0.06037321624588365,0.22633744855967078,0.9371916736854771,0.052262042859759446,0.0953206239168111
ocwiki,False,84.0,0.05997552019583843,0.20164609053497942,0.9421248947178438,0.04688930948165334,0.09245283018867925
ocwiki,False,85.0,0.06685633001422475,0.1934156378600823,0.9487426302490675,0.04005128518224556,0.09936575052854123
ocwiki,False,86.0,0.07640067911714771,0.18518518518518517,0.9553603657802912,0.03321326088283778,0.10817307692307693
ocwiki,False,87.0,0.08176100628930817,0.16049382716049382,0.9613764889904945,0.02674155931375542,0.10833333333333332
ocwiki,False,88.0,0.09045226130653267,0.14814814814814814,0.9657682589339429,0.02210147139630014,0.11232449297971919
ocwiki,False,89.0,0.08536585365853659,0.11522633744855967,0.9690169654674528,0.018316136516270835,0.0980735551663748
ocwiki,False,90.0,0.0796812749003984,0.0823045267489712,0.9726868006256768,0.014103425117528543,0.08097165991902834
ocwiki,False,91.0,0.07291666666666667,0.05761316872427984,0.9755143785344724,0.010867574332987361,0.06436781609195402
ocwiki,False,92.0,0.07142857142857142,0.037037037037037035,0.9788834075321863,0.007143293241345625,0.04878048780487805
ocwiki,False,93.0,0.08333333333333333,0.02880658436213992,0.9811695343520636,0.0047011417058428475,0.04281345565749235
ocwiki,False,94.0,0.10416666666666667,0.0205761316872428,0.9830946937793286,0.0026253129006654865,0.034364261168384876
ocwiki,False,95.0,0.125,0.01646090534979424,0.9839369510287571,0.0017095060748519445,0.02909090909090909
ocwiki,False,96.0,0.0,0.0,0.9844784021176753,0.0009158068258135417,0.02909090909090909
ocwiki,False,97.0,0.0,0.0,0.9850198532065937,0.0003663227303254167,0.02909090909090909
ocwiki,False,98.0,0.0,0.0,0.9852003369028998,0.00018316136516270836,0.02909090909090909
ocwiki,False,99.0,0.0,0.0,0.9853206593671039,6.105378838756945e-05,0.02909090909090909
