wiki_db,user_is_anonymous_or_bot,threshold,precision,recall,accuracy,fpr,F1
olowiki,True,0.0,0.2,1.0,0.2,1.0,0.33333333333333337
olowiki,True,1.0,0.2,1.0,0.2,1.0,0.33333333333333337
olowiki,True,2.0,0.2,1.0,0.2,1.0,0.33333333333333337
olowiki,True,3.0,0.2,1.0,0.2,1.0,0.33333333333333337
olowiki,True,4.0,0.2,1.0,0.2,1.0,0.33333333333333337
olowiki,True,5.0,0.2,1.0,0.2,1.0,0.33333333333333337
olowiki,True,6.0,0.2,1.0,0.2,1.0,0.33333333333333337
olowiki,True,7.0,0.2,1.0,0.2,1.0,0.33333333333333337
olowiki,True,8.0,0.2,1.0,0.2,1.0,0.33333333333333337
olowiki,True,9.0,0.2,1.0,0.2,1.0,0.33333333333333337
olowiki,True,10.0,0.2,1.0,0.2,1.0,0.33333333333333337
olowiki,True,11.0,0.2,1.0,0.2,1.0,0.33333333333333337
olowiki,True,12.0,0.2,1.0,0.2,1.0,0.33333333333333337
olowiki,True,13.0,0.2,1.0,0.2,1.0,0.33333333333333337
olowiki,True,14.0,0.2,1.0,0.2,1.0,0.33333333333333337
olowiki,True,15.0,0.2,1.0,0.2,1.0,0.33333333333333337
olowiki,True,16.0,0.2,1.0,0.2,1.0,0.33333333333333337
olowiki,True,17.0,0.2,1.0,0.2,1.0,0.33333333333333337
olowiki,True,18.0,0.2,1.0,0.2,1.0,0.33333333333333337
olowiki,True,19.0,0.2,1.0,0.2,1.0,0.33333333333333337
olowiki,True,20.0,0.2,1.0,0.2,1.0,0.33333333333333337
olowiki,True,21.0,0.2,1.0,0.2,1.0,0.33333333333333337
olowiki,True,22.0,0.2,1.0,0.2,1.0,0.33333333333333337
olowiki,True,23.0,0.2,1.0,0.2,1.0,0.33333333333333337
olowiki,True,24.0,0.2,1.0,0.2,1.0,0.33333333333333337
olowiki,True,25.0,0.2,1.0,0.2,1.0,0.33333333333333337
olowiki,True,26.0,0.2,1.0,0.2,1.0,0.33333333333333337
olowiki,True,27.0,0.2,1.0,0.2,1.0,0.33333333333333337
olowiki,True,28.0,0.2,1.0,0.2,1.0,0.33333333333333337
olowiki,True,29.0,0.2,1.0,0.2,1.0,0.33333333333333337
olowiki,True,30.0,0.21875,1.0,0.2857142857142857,0.8928571428571429,0.358974358974359
olowiki,True,31.0,0.22580645161290322,1.0,0.3142857142857143,0.8571428571428571,0.3684210526315789
olowiki,True,32.0,0.23333333333333334,1.0,0.34285714285714286,0.8214285714285714,0.37837837837837834
olowiki,True,33.0,0.23333333333333334,1.0,0.34285714285714286,0.8214285714285714,0.37837837837837834
olowiki,True,34.0,0.23333333333333334,1.0,0.34285714285714286,0.8214285714285714,0.37837837837837834
olowiki,True,35.0,0.25,1.0,0.4,0.75,0.4
olowiki,True,36.0,0.25,1.0,0.4,0.75,0.4
olowiki,True,37.0,0.25925925925925924,1.0,0.42857142857142855,0.7142857142857143,0.4117647058823529
olowiki,True,38.0,0.25925925925925924,1.0,0.42857142857142855,0.7142857142857143,0.4117647058823529
olowiki,True,39.0,0.25925925925925924,1.0,0.42857142857142855,0.7142857142857143,0.4117647058823529
olowiki,True,40.0,0.2692307692307692,1.0,0.45714285714285713,0.6785714285714286,0.42424242424242425
olowiki,True,41.0,0.2692307692307692,1.0,0.45714285714285713,0.6785714285714286,0.42424242424242425
olowiki,True,42.0,0.2692307692307692,1.0,0.45714285714285713,0.6785714285714286,0.42424242424242425
olowiki,True,43.0,0.28,1.0,0.4857142857142857,0.6428571428571429,0.43750000000000006
olowiki,True,44.0,0.2916666666666667,1.0,0.5142857142857142,0.6071428571428571,0.45161290322580644
olowiki,True,45.0,0.30434782608695654,1.0,0.5428571428571428,0.5714285714285714,0.4666666666666667
olowiki,True,46.0,0.30434782608695654,1.0,0.5428571428571428,0.5714285714285714,0.4666666666666667
olowiki,True,47.0,0.30434782608695654,1.0,0.5428571428571428,0.5714285714285714,0.4666666666666667
olowiki,True,48.0,0.30434782608695654,1.0,0.5428571428571428,0.5714285714285714,0.4666666666666667
olowiki,True,49.0,0.30434782608695654,1.0,0.5428571428571428,0.5714285714285714,0.4666666666666667
olowiki,True,50.0,0.30434782608695654,1.0,0.5428571428571428,0.5714285714285714,0.4666666666666667
olowiki,True,51.0,0.30434782608695654,1.0,0.5428571428571428,0.5714285714285714,0.4666666666666667
olowiki,True,52.0,0.30434782608695654,1.0,0.5428571428571428,0.5714285714285714,0.4666666666666667
olowiki,True,53.0,0.30434782608695654,1.0,0.5428571428571428,0.5714285714285714,0.4666666666666667
olowiki,True,54.0,0.3181818181818182,1.0,0.5714285714285714,0.5357142857142857,0.4827586206896552
olowiki,True,55.0,0.3684210526315789,1.0,0.6571428571428571,0.42857142857142855,0.5384615384615384
olowiki,True,56.0,0.3684210526315789,1.0,0.6571428571428571,0.42857142857142855,0.5384615384615384
olowiki,True,57.0,0.3684210526315789,1.0,0.6571428571428571,0.42857142857142855,0.5384615384615384
olowiki,True,58.0,0.3684210526315789,1.0,0.6571428571428571,0.42857142857142855,0.5384615384615384
olowiki,True,59.0,0.3684210526315789,1.0,0.6571428571428571,0.42857142857142855,0.5384615384615384
olowiki,True,60.0,0.3684210526315789,1.0,0.6571428571428571,0.42857142857142855,0.5384615384615384
olowiki,True,61.0,0.3888888888888889,1.0,0.6857142857142857,0.39285714285714285,0.56
olowiki,True,62.0,0.3888888888888889,1.0,0.6857142857142857,0.39285714285714285,0.56
olowiki,True,63.0,0.3888888888888889,1.0,0.6857142857142857,0.39285714285714285,0.56
olowiki,True,64.0,0.3888888888888889,1.0,0.6857142857142857,0.39285714285714285,0.56
olowiki,True,65.0,0.3888888888888889,1.0,0.6857142857142857,0.39285714285714285,0.56
olowiki,True,66.0,0.3888888888888889,1.0,0.6857142857142857,0.39285714285714285,0.56
olowiki,True,67.0,0.3888888888888889,1.0,0.6857142857142857,0.39285714285714285,0.56
olowiki,True,68.0,0.4117647058823529,1.0,0.7142857142857143,0.35714285714285715,0.5833333333333334
olowiki,True,69.0,0.4117647058823529,1.0,0.7142857142857143,0.35714285714285715,0.5833333333333334
olowiki,True,70.0,0.4117647058823529,1.0,0.7142857142857143,0.35714285714285715,0.5833333333333334
olowiki,True,71.0,0.4375,1.0,0.7428571428571429,0.32142857142857145,0.6086956521739131
olowiki,True,72.0,0.4375,1.0,0.7428571428571429,0.32142857142857145,0.6086956521739131
olowiki,True,73.0,0.4375,1.0,0.7428571428571429,0.32142857142857145,0.6086956521739131
olowiki,True,74.0,0.4375,1.0,0.7428571428571429,0.32142857142857145,0.6086956521739131
olowiki,True,75.0,0.4,0.8571428571428571,0.7142857142857143,0.32142857142857145,0.5454545454545455
olowiki,True,76.0,0.42857142857142855,0.8571428571428571,0.7428571428571429,0.2857142857142857,0.5714285714285714
olowiki,True,77.0,0.42857142857142855,0.8571428571428571,0.7428571428571429,0.2857142857142857,0.5714285714285714
olowiki,True,78.0,0.42857142857142855,0.8571428571428571,0.7428571428571429,0.2857142857142857,0.5714285714285714
olowiki,True,79.0,0.5,0.8571428571428571,0.8,0.21428571428571427,0.631578947368421
olowiki,True,80.0,0.5,0.8571428571428571,0.8,0.21428571428571427,0.631578947368421
olowiki,True,81.0,0.5,0.8571428571428571,0.8,0.21428571428571427,0.631578947368421
olowiki,True,82.0,0.5454545454545454,0.8571428571428571,0.8285714285714286,0.17857142857142858,0.6666666666666665
olowiki,True,83.0,0.5454545454545454,0.8571428571428571,0.8285714285714286,0.17857142857142858,0.6666666666666665
olowiki,True,84.0,0.5555555555555556,0.7142857142857143,0.8285714285714286,0.14285714285714285,0.6250000000000001
olowiki,True,85.0,0.625,0.7142857142857143,0.8571428571428571,0.10714285714285714,0.6666666666666666
olowiki,True,86.0,0.625,0.7142857142857143,0.8571428571428571,0.10714285714285714,0.6666666666666666
olowiki,True,87.0,0.7142857142857143,0.7142857142857143,0.8857142857142857,0.07142857142857142,0.7142857142857143
olowiki,True,88.0,0.8,0.5714285714285714,0.8857142857142857,0.03571428571428571,0.6666666666666666
olowiki,True,89.0,1.0,0.42857142857142855,0.8857142857142857,0.0,0.6
olowiki,True,90.0,1.0,0.2857142857142857,0.8571428571428571,0.0,0.4444444444444445
olowiki,True,91.0,1.0,0.2857142857142857,0.8571428571428571,0.0,0.4444444444444445
olowiki,True,92.0,1.0,0.2857142857142857,0.8571428571428571,0.0,0.4444444444444445
olowiki,True,93.0,1.0,0.2857142857142857,0.8571428571428571,0.0,0.4444444444444445
olowiki,True,94.0,1.0,0.2857142857142857,0.8571428571428571,0.0,0.4444444444444445
olowiki,True,95.0,1.0,0.0,0.8,0.0,0.0
olowiki,True,96.0,1.0,0.0,0.8,0.0,0.0
olowiki,True,97.0,1.0,0.0,0.8,0.0,0.0
olowiki,True,98.0,1.0,0.0,0.8,0.0,0.0
olowiki,True,99.0,1.0,0.0,0.8,0.0,0.0
olowiki,False,0.0,0.0648854961832061,1.0,0.0648854961832061,1.0,0.1218637992831541
olowiki,False,1.0,0.0648854961832061,1.0,0.0648854961832061,1.0,0.1218637992831541
olowiki,False,2.0,0.0648854961832061,1.0,0.0648854961832061,1.0,0.1218637992831541
olowiki,False,3.0,0.0648854961832061,1.0,0.0648854961832061,1.0,0.1218637992831541
olowiki,False,4.0,0.0648854961832061,1.0,0.0648854961832061,1.0,0.1218637992831541
olowiki,False,5.0,0.06538461538461539,1.0,0.07251908396946564,0.9918367346938776,0.12274368231046932
olowiki,False,6.0,0.06563706563706563,1.0,0.07633587786259542,0.9877551020408163,0.12318840579710143
olowiki,False,7.0,0.06451612903225806,0.9411764705882353,0.11068702290076336,0.9469387755102041,0.12075471698113208
olowiki,False,8.0,0.06302521008403361,0.8823529411764706,0.14122137404580154,0.9102040816326531,0.11764705882352941
olowiki,False,9.0,0.06167400881057269,0.8235294117647058,0.17557251908396945,0.8693877551020408,0.11475409836065574
olowiki,False,10.0,0.05855855855855856,0.7647058823529411,0.18702290076335878,0.8530612244897959,0.1087866108786611
olowiki,False,11.0,0.061611374407582936,0.7647058823529411,0.22900763358778625,0.8081632653061225,0.11403508771929824
olowiki,False,12.0,0.06467661691542288,0.7647058823529411,0.26717557251908397,0.7673469387755102,0.11926605504587155
olowiki,False,13.0,0.06153846153846154,0.7058823529411765,0.2824427480916031,0.746938775510204,0.11320754716981132
olowiki,False,14.0,0.06315789473684211,0.7058823529411765,0.3015267175572519,0.726530612244898,0.11594202898550725
olowiki,False,15.0,0.06077348066298342,0.6470588235294118,0.3282442748091603,0.6938775510204082,0.11111111111111112
olowiki,False,16.0,0.058823529411764705,0.5882352941176471,0.36259541984732824,0.6530612244897959,0.10695187165775401
olowiki,False,17.0,0.06097560975609756,0.5882352941176471,0.38549618320610685,0.6285714285714286,0.11049723756906077
olowiki,False,18.0,0.06329113924050633,0.5882352941176471,0.4083969465648855,0.6040816326530613,0.1142857142857143
olowiki,False,19.0,0.06756756756756757,0.5882352941176471,0.44656488549618323,0.563265306122449,0.12121212121212122
olowiki,False,20.0,0.06944444444444445,0.5882352941176471,0.4618320610687023,0.5469387755102041,0.12422360248447205
olowiki,False,21.0,0.07194244604316546,0.5882352941176471,0.48091603053435117,0.5265306122448979,0.1282051282051282
olowiki,False,22.0,0.06870229007633588,0.5294117647058824,0.5038167938931297,0.49795918367346936,0.12162162162162163
olowiki,False,23.0,0.06976744186046512,0.5294117647058824,0.5114503816793893,0.4897959183673469,0.1232876712328767
olowiki,False,24.0,0.07258064516129033,0.5294117647058824,0.5305343511450382,0.46938775510204084,0.1276595744680851
olowiki,False,25.0,0.0743801652892562,0.5294117647058824,0.5419847328244275,0.45714285714285713,0.13043478260869565
olowiki,False,26.0,0.07758620689655173,0.5294117647058824,0.5610687022900763,0.43673469387755104,0.13533834586466167
olowiki,False,27.0,0.07964601769911504,0.5294117647058824,0.5725190839694656,0.42448979591836733,0.13846153846153844
olowiki,False,28.0,0.08256880733944955,0.5294117647058824,0.5877862595419847,0.40816326530612246,0.14285714285714285
olowiki,False,29.0,0.08411214953271028,0.5294117647058824,0.5954198473282443,0.4,0.14516129032258063
olowiki,False,30.0,0.09090909090909091,0.5294117647058824,0.6259541984732825,0.3673469387755102,0.15517241379310345
olowiki,False,31.0,0.09574468085106383,0.5294117647058824,0.6450381679389313,0.3469387755102041,0.16216216216216217
olowiki,False,32.0,0.09782608695652174,0.5294117647058824,0.6526717557251909,0.33877551020408164,0.1651376146788991
olowiki,False,33.0,0.10112359550561797,0.5294117647058824,0.6641221374045801,0.32653061224489793,0.16981132075471697
olowiki,False,34.0,0.10344827586206896,0.5294117647058824,0.6717557251908397,0.3183673469387755,0.17307692307692307
olowiki,False,35.0,0.10714285714285714,0.5294117647058824,0.683206106870229,0.30612244897959184,0.17821782178217824
olowiki,False,36.0,0.10843373493975904,0.5294117647058824,0.6870229007633588,0.3020408163265306,0.18
olowiki,False,37.0,0.10975609756097561,0.5294117647058824,0.6908396946564885,0.2979591836734694,0.18181818181818182
olowiki,False,38.0,0.1125,0.5294117647058824,0.6984732824427481,0.2897959183673469,0.18556701030927836
olowiki,False,39.0,0.11392405063291139,0.5294117647058824,0.7022900763358778,0.2857142857142857,0.18749999999999997
olowiki,False,40.0,0.11688311688311688,0.5294117647058824,0.7099236641221374,0.27755102040816326,0.19148936170212763
olowiki,False,41.0,0.11842105263157894,0.5294117647058824,0.7137404580152672,0.27346938775510204,0.1935483870967742
olowiki,False,42.0,0.11842105263157894,0.5294117647058824,0.7137404580152672,0.27346938775510204,0.1935483870967742
olowiki,False,43.0,0.125,0.5294117647058824,0.7290076335877863,0.2571428571428571,0.20224719101123595
olowiki,False,44.0,0.12857142857142856,0.5294117647058824,0.7366412213740458,0.24897959183673468,0.20689655172413793
olowiki,False,45.0,0.13432835820895522,0.5294117647058824,0.7480916030534351,0.23673469387755103,0.21428571428571425
olowiki,False,46.0,0.13846153846153847,0.5294117647058824,0.7557251908396947,0.22857142857142856,0.21951219512195122
olowiki,False,47.0,0.140625,0.5294117647058824,0.7595419847328244,0.22448979591836735,0.2222222222222222
olowiki,False,48.0,0.14285714285714285,0.5294117647058824,0.7633587786259542,0.22040816326530613,0.22499999999999998
olowiki,False,49.0,0.14285714285714285,0.5294117647058824,0.7633587786259542,0.22040816326530613,0.22499999999999998
olowiki,False,50.0,0.14285714285714285,0.5294117647058824,0.7633587786259542,0.22040816326530613,0.22499999999999998
olowiki,False,51.0,0.14516129032258066,0.5294117647058824,0.767175572519084,0.2163265306122449,0.2278481012658228
olowiki,False,52.0,0.14516129032258066,0.5294117647058824,0.767175572519084,0.2163265306122449,0.2278481012658228
olowiki,False,53.0,0.13559322033898305,0.47058823529411764,0.7709923664122137,0.20816326530612245,0.21052631578947367
olowiki,False,54.0,0.13793103448275862,0.47058823529411764,0.7748091603053435,0.20408163265306123,0.21333333333333335
olowiki,False,55.0,0.14814814814814814,0.47058823529411764,0.7900763358778626,0.18775510204081633,0.22535211267605632
olowiki,False,56.0,0.14814814814814814,0.47058823529411764,0.7900763358778626,0.18775510204081633,0.22535211267605632
olowiki,False,57.0,0.14814814814814814,0.47058823529411764,0.7900763358778626,0.18775510204081633,0.22535211267605632
olowiki,False,58.0,0.1509433962264151,0.47058823529411764,0.7938931297709924,0.1836734693877551,0.2285714285714286
olowiki,False,59.0,0.15384615384615385,0.47058823529411764,0.7977099236641222,0.17959183673469387,0.23188405797101452
olowiki,False,60.0,0.16,0.47058823529411764,0.8053435114503816,0.17142857142857143,0.23880597014925375
olowiki,False,61.0,0.16326530612244897,0.47058823529411764,0.8091603053435115,0.1673469387755102,0.24242424242424243
olowiki,False,62.0,0.17391304347826086,0.47058823529411764,0.8206106870229007,0.15510204081632653,0.25396825396825395
olowiki,False,63.0,0.17391304347826086,0.47058823529411764,0.8206106870229007,0.15510204081632653,0.25396825396825395
olowiki,False,64.0,0.17391304347826086,0.47058823529411764,0.8206106870229007,0.15510204081632653,0.25396825396825395
olowiki,False,65.0,0.17777777777777778,0.47058823529411764,0.8244274809160306,0.1510204081632653,0.25806451612903225
olowiki,False,66.0,0.18181818181818182,0.47058823529411764,0.8282442748091603,0.1469387755102041,0.26229508196721313
olowiki,False,67.0,0.18181818181818182,0.47058823529411764,0.8282442748091603,0.1469387755102041,0.26229508196721313
olowiki,False,68.0,0.2,0.47058823529411764,0.8435114503816794,0.1306122448979592,0.2807017543859649
olowiki,False,69.0,0.20512820512820512,0.47058823529411764,0.8473282442748091,0.12653061224489795,0.28571428571428564
olowiki,False,70.0,0.21621621621621623,0.47058823529411764,0.8549618320610687,0.11836734693877551,0.29629629629629634
olowiki,False,71.0,0.23529411764705882,0.47058823529411764,0.8664122137404581,0.10612244897959183,0.3137254901960785
olowiki,False,72.0,0.23529411764705882,0.47058823529411764,0.8664122137404581,0.10612244897959183,0.3137254901960785
olowiki,False,73.0,0.23529411764705882,0.47058823529411764,0.8664122137404581,0.10612244897959183,0.3137254901960785
olowiki,False,74.0,0.25806451612903225,0.47058823529411764,0.8778625954198473,0.09387755102040816,0.3333333333333333
olowiki,False,75.0,0.25925925925925924,0.4117647058823529,0.8854961832061069,0.08163265306122448,0.3181818181818182
olowiki,False,76.0,0.2692307692307692,0.4117647058823529,0.8893129770992366,0.07755102040816327,0.3255813953488372
olowiki,False,77.0,0.2692307692307692,0.4117647058823529,0.8893129770992366,0.07755102040816327,0.3255813953488372
olowiki,False,78.0,0.2692307692307692,0.4117647058823529,0.8893129770992366,0.07755102040816327,0.3255813953488372
olowiki,False,79.0,0.2916666666666667,0.4117647058823529,0.8969465648854962,0.06938775510204082,0.34146341463414637
olowiki,False,80.0,0.3181818181818182,0.4117647058823529,0.9045801526717557,0.061224489795918366,0.358974358974359
olowiki,False,81.0,0.3181818181818182,0.4117647058823529,0.9045801526717557,0.061224489795918366,0.358974358974359
olowiki,False,82.0,0.3333333333333333,0.4117647058823529,0.9083969465648855,0.05714285714285714,0.36842105263157887
olowiki,False,83.0,0.35,0.4117647058823529,0.9122137404580153,0.053061224489795916,0.37837837837837834
olowiki,False,84.0,0.35294117647058826,0.35294117647058826,0.916030534351145,0.044897959183673466,0.35294117647058826
olowiki,False,85.0,0.42857142857142855,0.35294117647058826,0.9274809160305344,0.0326530612244898,0.3870967741935484
olowiki,False,86.0,0.42857142857142855,0.35294117647058826,0.9274809160305344,0.0326530612244898,0.3870967741935484
olowiki,False,87.0,0.46153846153846156,0.35294117647058826,0.9312977099236641,0.02857142857142857,0.4000000000000001
olowiki,False,88.0,0.45454545454545453,0.29411764705882354,0.9312977099236641,0.024489795918367346,0.35714285714285715
olowiki,False,89.0,0.5,0.23529411764705882,0.9351145038167938,0.0163265306122449,0.31999999999999995
olowiki,False,90.0,0.42857142857142855,0.17647058823529413,0.9312977099236641,0.0163265306122449,0.25
olowiki,False,91.0,0.42857142857142855,0.17647058823529413,0.9312977099236641,0.0163265306122449,0.25
olowiki,False,92.0,0.5,0.17647058823529413,0.9351145038167938,0.012244897959183673,0.2608695652173913
olowiki,False,93.0,0.5,0.17647058823529413,0.9351145038167938,0.012244897959183673,0.2608695652173913
olowiki,False,94.0,0.6,0.17647058823529413,0.9389312977099237,0.00816326530612245,0.2727272727272727
olowiki,False,95.0,0.5,0.058823529411764705,0.9351145038167938,0.004081632653061225,0.10526315789473684
olowiki,False,96.0,0.5,0.0,0.9351145038167938,0.0,0.0
olowiki,False,97.0,0.5,0.0,0.9351145038167938,0.0,0.0
olowiki,False,98.0,0.5,0.0,0.9351145038167938,0.0,0.0
olowiki,False,99.0,0.5,0.0,0.9351145038167938,0.0,0.0
