wiki_db,user_is_anonymous_or_bot,threshold,precision,recall,accuracy,fpr,F1
orwiki,True,0.0,0.06323825986747335,1.0,0.06323825986747335,1.0,0.11895407126405634
orwiki,True,1.0,0.06323825986747335,1.0,0.06323825986747335,1.0,0.11895407126405634
orwiki,True,2.0,0.06323825986747335,1.0,0.06323825986747335,1.0,0.11895407126405634
orwiki,True,3.0,0.06323825986747335,1.0,0.06323825986747335,1.0,0.11895407126405634
orwiki,True,4.0,0.06325648414985591,1.0,0.06352636127917027,0.9996924496386284,0.11898631250846997
orwiki,True,5.0,0.06364163525659612,1.0,0.06957649092480553,0.9932338920498232,0.11966743900776886
orwiki,True,6.0,0.06467295226870949,1.0,0.08542206856813599,0.976318622174381,0.12148886121488861
orwiki,True,7.0,0.06540524433849822,1.0,0.09636992221261884,0.9646317084422574,0.12278003076492798
orwiki,True,8.0,0.06682904551682144,1.0,0.11696917314894843,0.9426418576041827,0.1252853881278539
orwiki,True,9.0,0.06820305200872002,0.9977220956719818,0.13785652549697494,0.9201906812240505,0.12767818102317446
orwiki,True,10.0,0.06952380952380953,0.9977220956719818,0.15543071161048688,0.9014301091803782,0.12998961270218137
orwiki,True,11.0,0.07066623544631306,0.9954441913439636,0.17185249207721118,0.883745963401507,0.13196436660123811
orwiki,True,12.0,0.07185332011892963,0.9908883826879271,0.19000288101411697,0.8640627402737199,0.1339904512551979
orwiki,True,13.0,0.07367886178861789,0.9908883826879271,0.21161048689138576,0.8409964631708442,0.1371590729938515
orwiki,True,14.0,0.07624890446976336,0.9908883826879271,0.24027657735522903,0.8103952022143626,0.14160156249999997
orwiki,True,15.0,0.07942898975109809,0.9886104783599089,0.2747046960530107,0.7734891588497617,0.14704387599525665
orwiki,True,16.0,0.0838984692888975,0.9863325740318907,0.3180639585133967,0.7270490542826388,0.15464285714285714
orwiki,True,17.0,0.08876474239602732,0.9772209567198178,0.3641601843849035,0.6772258957404275,0.1627465857359636
orwiki,True,18.0,0.09578030810448761,0.9772209567198178,0.4151541342552579,0.622789481777641,0.1744611630744205
orwiki,True,19.0,0.10290556900726393,0.9681093394077449,0.46427542494958224,0.5697370444410272,0.1860363318012694
orwiki,True,20.0,0.11134453781512606,0.9658314350797267,0.510371650821089,0.5203752114408734,0.1996703555450907
orwiki,True,21.0,0.12050256996002284,0.9612756264236902,0.5538749639873235,0.4736275565123789,0.21415884293326565
orwiki,True,22.0,0.13099341899091194,0.9521640091116174,0.5975223278594065,0.42641857604182687,0.2303030303030303
orwiki,True,23.0,0.14173497267759563,0.9453302961275627,0.6345433592624604,0.38643702906350913,0.2465102465102465
orwiki,True,24.0,0.1555806087936866,0.9430523917995444,0.672716796312302,0.3455328310010764,0.2670967741935484
orwiki,True,25.0,0.17049728374425407,0.929384965831435,0.7095937770095073,0.3052437336613871,0.288135593220339
orwiki,True,26.0,0.18579990779160904,0.9179954441913439,0.7404206280610774,0.27156696909118866,0.3090490797546013
orwiki,True,27.0,0.20273003033367037,0.9134396355353075,0.7673581100547393,0.24250345994156544,0.33181630119983446
orwiki,True,28.0,0.22092376182526433,0.9043280182232346,0.7922788821665226,0.21528525296017223,0.3550983899821109
orwiki,True,29.0,0.24411400247831475,0.89749430523918,0.8177758571016998,0.18760572043672152,0.3838285435947394
orwiki,True,30.0,0.2661235573659199,0.8929384965831435,0.8375108038029386,0.16623097032139011,0.4100418410041841
orwiki,True,31.0,0.2856093979441997,0.8861047835990888,0.8526361279170268,0.1496232508073197,0.43198223209328146
orwiki,True,32.0,0.30623520126282555,0.8838268792710706,0.8660328435609335,0.13516838382285098,0.45486518171160606
orwiki,True,33.0,0.327688399661304,0.8815489749430524,0.878133102852204,0.12209749346455483,0.4777777777777778
orwiki,True,34.0,0.34774774774774775,0.8792710706150342,0.8880726015557476,0.11133323081654621,0.4983860555196901
orwiki,True,35.0,0.369377990430622,0.8792710706150342,0.8974358974358975,0.10133784407196679,0.5202156334231807
orwiki,True,36.0,0.3898989898989899,0.8792710706150342,0.9053586862575627,0.09288020913424573,0.5402379286214135
orwiki,True,37.0,0.4059196617336152,0.8747152619589977,0.911120714491501,0.08642165154544057,0.5545126353790614
orwiki,True,38.0,0.42572062084257206,0.8747152619589977,0.9174589455488332,0.07965554359526372,0.5727069351230425
orwiki,True,39.0,0.4516509433962264,0.8724373576309795,0.924949582252953,0.07150545901891435,0.5951825951825951
orwiki,True,40.0,0.4687116564417178,0.8701594533029613,0.9294151541342552,0.06658465323696755,0.6092503987240829
orwiki,True,41.0,0.4897172236503856,0.8678815489749431,0.9344569288389513,0.06104874673227741,0.6261298274445358
orwiki,True,42.0,0.5053050397877984,0.8678815489749431,0.9379141457793143,0.05735814239581732,0.6387259010896899
orwiki,True,43.0,0.5155615696887687,0.8678815489749431,0.9400749063670412,0.055051514685529754,0.6468590831918506
orwiki,True,44.0,0.5277008310249307,0.8678815489749431,0.942523768366465,0.05243733661387052,0.656330749354005
orwiki,True,45.0,0.5321229050279329,0.8678815489749431,0.9433880726015558,0.0515146855297555,0.6597402597402597
orwiki,True,46.0,0.5427350427350427,0.8678815489749431,0.9454047824834342,0.049361833000153774,0.6678352322524101
orwiki,True,47.0,0.5459770114942529,0.8656036446469249,0.945980985306828,0.048592957096724586,0.669603524229075
orwiki,True,48.0,0.5491329479768786,0.8656036446469249,0.9465571881302218,0.04797785637398124,0.6719717064544651
orwiki,True,49.0,0.5523255813953488,0.8656036446469249,0.9471333909536157,0.04736275565123789,0.6743566992014196
orwiki,True,50.0,0.5555555555555556,0.8656036446469249,0.9477095937770095,0.04674765492849454,0.6767586821015138
orwiki,True,51.0,0.5589970501474927,0.8633257403189066,0.9482857966004034,0.04597877902506536,0.6786034019695614
orwiki,True,52.0,0.5589970501474927,0.8633257403189066,0.9482857966004034,0.04597877902506536,0.6786034019695614
orwiki,True,53.0,0.5614814814814815,0.8633257403189066,0.9487179487179487,0.04551745348300784,0.6804308797127467
orwiki,True,54.0,0.5623145400593472,0.8633257403189066,0.9488619994237972,0.045363678302322005,0.6810422282120395
orwiki,True,55.0,0.5623145400593472,0.8633257403189066,0.9488619994237972,0.045363678302322005,0.6810422282120395
orwiki,True,56.0,0.5656716417910448,0.8633257403189066,0.949438202247191,0.044748577579578654,0.6834986474301172
orwiki,True,57.0,0.5673652694610778,0.8633257403189066,0.9497263036588879,0.04444102721820698,0.6847335140018067
orwiki,True,58.0,0.5690690690690691,0.8633257403189066,0.9500144050705849,0.04413347685683531,0.685972850678733
orwiki,True,59.0,0.5699248120300752,0.8633257403189066,0.9501584557764333,0.04397970167614947,0.6865942028985507
orwiki,True,60.0,0.5716440422322775,0.8633257403189066,0.9504465571881302,0.04367215131477779,0.6878402903811253
orwiki,True,61.0,0.573373676248109,0.8633257403189066,0.9507346585998271,0.04336460095340612,0.6890909090909092
orwiki,True,62.0,0.5759878419452887,0.8633257403189066,0.9511668107173725,0.042903275411348606,0.690975387420237
orwiki,True,63.0,0.5812883435582822,0.8633257403189066,0.9520311149524633,0.04198062432723358,0.694775435380385
orwiki,True,64.0,0.5848765432098766,0.8633257403189066,0.952607317775857,0.04136552360449024,0.6973321067157313
orwiki,True,65.0,0.5878693623639192,0.8610478359908884,0.9530394698934025,0.040750422881746885,0.6987060998151572
orwiki,True,66.0,0.5897035881435257,0.8610478359908884,0.9533275713050994,0.04044287252037521,0.7000000000000001
orwiki,True,67.0,0.5918367346938775,0.8587699316628702,0.9536156727167963,0.0399815469783177,0.7007434944237919
orwiki,True,68.0,0.5980861244019139,0.8542141230068337,0.954479976951887,0.038751345532831,0.7035647279549719
orwiki,True,69.0,0.6055194805194806,0.8496583143507973,0.9554883318928262,0.03736736890665847,0.7071090047393365
orwiki,True,70.0,0.6089108910891089,0.8405466970387244,0.9557764333045232,0.036444717822543445,0.7062200956937799
orwiki,True,71.0,0.6134453781512605,0.8314350797266514,0.9562085854220685,0.03536829155774258,0.7059961315280464
orwiki,True,72.0,0.6169491525423729,0.8291571753986332,0.956640737539614,0.03475319083499923,0.7074829931972789
orwiki,True,73.0,0.6209262435677531,0.8246013667425968,0.9570728896571593,0.033984314931570045,0.7084148727984345
orwiki,True,74.0,0.6300174520069808,0.8223234624145785,0.958225295303947,0.032600338305397505,0.7134387351778656
orwiki,True,75.0,0.6341030195381883,0.8132118451025057,0.958513396715644,0.03167768722128249,0.7125748502994013
orwiki,True,76.0,0.6396396396396397,0.8086560364464692,0.9590895995390377,0.03075503613716746,0.7142857142857143
orwiki,True,77.0,0.6470588235294118,0.8018223234624146,0.95980985306828,0.02952483469168076,0.71617497456765
orwiki,True,78.0,0.651685393258427,0.7927107061503417,0.9600979544799769,0.02860218360756574,0.7153134635149025
orwiki,True,79.0,0.6596958174904943,0.7904328018223234,0.9609622587150677,0.027525757342764877,0.7191709844559586
orwiki,True,80.0,0.66600790513834,0.7676537585421412,0.9609622587150677,0.025988005535906505,0.7132275132275132
orwiki,True,81.0,0.6880165289256198,0.7585421412300684,0.9629789685969461,0.023220052283561433,0.7215601300108342
orwiki,True,82.0,0.7108695652173913,0.744874715261959,0.9647075770671276,0.02045209903121636,0.7274749721913237
orwiki,True,83.0,0.7264367816091954,0.7198177676537585,0.9651397291846731,0.01829924650161464,0.7231121281464531
orwiki,True,84.0,0.7362110311750599,0.6993166287015945,0.9651397291846731,0.016915269875442104,0.7172897196261682
orwiki,True,85.0,0.7518610421836228,0.6902050113895216,0.9660040334197637,0.01537751806858373,0.7197149643705463
orwiki,True,86.0,0.7622739018087855,0.6719817767653758,0.9660040334197637,0.014147316623097032,0.7142857142857142
orwiki,True,87.0,0.7849462365591398,0.6651480637813212,0.9673004897723999,0.012302014454866984,0.720098643649815
orwiki,True,88.0,0.8073654390934845,0.6492027334851936,0.9680207433016422,0.010456712286636936,0.7196969696969697
orwiki,True,89.0,0.8224852071005917,0.6332574031890661,0.9681647940074907,0.009226510841150238,0.7155727155727155
orwiki,True,90.0,0.8392282958199357,0.5945330296127562,0.9671564390665515,0.007688759034291865,0.6960000000000001
orwiki,True,91.0,0.8798586572438163,0.5671981776765376,0.9677326418899452,0.005228356143318468,0.6897506925207756
orwiki,True,92.0,0.9176954732510288,0.5079726651480638,0.9660040334197637,0.003075503613716746,0.653958944281525
orwiki,True,93.0,0.9423076923076923,0.44646924829157175,0.9632670700086431,0.0018453021682300476,0.6058732612055642
orwiki,True,94.0,0.9513888888888888,0.3120728929384966,0.9554883318928262,0.001076426264800861,0.46998284734133794
orwiki,True,95.0,0.946236559139785,0.20045558086560364,0.9487179487179487,0.0007688759034291865,0.3308270676691729
orwiki,True,96.0,0.9512195121951219,0.0888382687927107,0.9420916162489196,0.00030755036137167463,0.16249999999999998
orwiki,True,97.0,0.8571428571428571,0.02733485193621868,0.9382022471910112,0.00030755036137167463,0.052980132450331126
orwiki,True,98.0,0.75,0.01366742596810934,0.9373379429559204,0.00030755036137167463,0.026845637583892617
orwiki,True,99.0,1.0,0.004555808656036446,0.9370498415442235,0.0,0.009070294784580499
orwiki,False,0.0,0.036780383795309166,1.0,0.036780383795309166,1.0,0.07095115681233934
orwiki,False,1.0,0.036785285885645745,1.0,0.0369136460554371,0.9998616491422246,0.07096027767065177
orwiki,False,2.0,0.037334786755688784,0.9927536231884058,0.05823560767590618,0.9774488101826231,0.07196323046618516
orwiki,False,3.0,0.038461538461538464,0.9873188405797102,0.09168443496801706,0.9425152185943553,0.07403885341665535
orwiki,False,4.0,0.03959746226208707,0.9836956521739131,0.1218683368869936,0.9110403984504704,0.07613038906414299
orwiki,False,5.0,0.04093299794191631,0.9728260869565217,0.16064765458422176,0.8703652462645268,0.07856045644064076
orwiki,False,6.0,0.04252763094666026,0.9619565217391305,0.20202558635394458,0.8269922523519646,0.08145421076852277
orwiki,False,7.0,0.04459356153911492,0.9510869565217391,0.24873400852878466,0.7780852241283895,0.08519269776876268
orwiki,False,8.0,0.04631447438872033,0.9402173913043478,0.2857142857142857,0.7392778085224129,0.08828031978227589
orwiki,False,9.0,0.04810549777117385,0.9384057971014492,0.31476545842217485,0.7090481460985059,0.09151943462897527
orwiki,False,10.0,0.04943367248992129,0.9329710144927537,0.3376865671641791,0.685044272274488,0.09389243391066546
orwiki,False,11.0,0.050679361301200036,0.9257246376811594,0.35947494669509594,0.6621472053126729,0.09609779031499766
orwiki,False,12.0,0.05202668034889687,0.9184782608695652,0.3814632196162047,0.6390426120641948,0.0984752840633194
orwiki,False,13.0,0.053740555496435034,0.9148550724637681,0.404384328358209,0.6151079136690647,0.1015177404764298
orwiki,False,14.0,0.056199821587867974,0.9130434782608695,0.43283582089552236,0.5855008301051466,0.10588235294117647
orwiki,False,15.0,0.05889253871421868,0.9094202898550725,0.4621535181236674,0.5549252905368013,0.11062141912736888
orwiki,False,16.0,0.06253120319520719,0.907608695652174,0.49613539445628996,0.5195766463752075,0.1170014012143858
orwiki,False,17.0,0.06631902660783527,0.8985507246376812,0.5309834754797441,0.4830520199225235,0.12352135475034243
orwiki,False,18.0,0.07165559086969084,0.8985507246376812,0.5680970149253731,0.4445213060320974,0.13272678619213274
orwiki,False,19.0,0.07653779934262013,0.8858695652173914,0.6026785714285714,0.4081350304371887,0.14090188733611872
orwiki,False,20.0,0.08216635734773073,0.8822463768115942,0.6331956289978679,0.37631433314886553,0.15033184133353913
orwiki,False,21.0,0.08804802619610697,0.8768115942028986,0.6614472281449894,0.3467764250138351,0.1600264506530005
orwiki,False,22.0,0.09461856889414548,0.8695652173913043,0.6891657782515992,0.31772274488101826,0.1706666666666667
orwiki,False,23.0,0.10156082959161856,0.8605072463768116,0.71488539445629,0.29067515218594353,0.18167909734174795
orwiki,False,24.0,0.10936051899907322,0.855072463768116,0.7385394456289979,0.2659103486441616,0.19391947411668037
orwiki,False,25.0,0.11735079325107026,0.8442028985507246,0.7607276119402985,0.24245987825124515,0.20605792615520674
orwiki,False,26.0,0.12527233115468409,0.8333333333333334,0.7798507462686567,0.22219147758716104,0.2178030303030303
orwiki,False,27.0,0.13360679753882215,0.8260869565217391,0.7965751599147122,0.20455174322080796,0.2300126103404792
orwiki,False,28.0,0.14204545454545456,0.8152173913043478,0.8121002132196162,0.18801881571665743,0.24193548387096775
orwiki,False,29.0,0.15384615384615385,0.8079710144927537,0.8294909381663113,0.16968732706142778,0.25847580411474935
orwiki,False,30.0,0.16660412757973733,0.8043478260869565,0.8448160980810234,0.15363862755949087,0.27603357165060616
orwiki,False,31.0,0.1756,0.7952898550724637,0.8551439232409381,0.14257055893746542,0.28768020969855834
orwiki,False,32.0,0.18646232439335889,0.7934782608695652,0.8650719616204691,0.13219424460431656,0.3019648397104447
orwiki,False,33.0,0.19881710646041856,0.7916666666666666,0.875,0.12181793027116768,0.31781818181818183
orwiki,False,34.0,0.21004345726702076,0.7880434782608695,0.8831956289978679,0.1131710016602103,0.3316812809759817
orwiki,False,35.0,0.223535457348407,0.7880434782608695,0.8915245202558635,0.1045240730492529,0.3482786228983186
orwiki,False,36.0,0.23702894593118515,0.7862318840579711,0.8990538379530917,0.09663807415605977,0.36424674779689475
orwiki,False,37.0,0.24728105323411562,0.782608695652174,0.9043843283582089,0.09096568898727173,0.37581557198782084
orwiki,False,38.0,0.2585278276481149,0.782608695652174,0.9094482942430704,0.08570835639180963,0.38866396761133604
orwiki,False,39.0,0.2722678458622868,0.7807971014492754,0.9151785714285714,0.07969009407858328,0.4037470725995317
orwiki,False,40.0,0.28298153034300794,0.7771739130434783,0.9193763326226013,0.07519369120088544,0.41489361702127664
orwiki,False,41.0,0.29476584022038566,0.7753623188405797,0.9235074626865671,0.07083563918096292,0.42714570858283435
orwiki,False,42.0,0.30902527075812275,0.7753623188405797,0.9279717484008528,0.06620088544548976,0.44192049561177077
orwiki,False,43.0,0.3191648023862789,0.7753623188405797,0.9309035181236673,0.06315716657443277,0.4521922873745378
orwiki,False,44.0,0.33229813664596275,0.7753623188405797,0.9344349680170576,0.05949086884338683,0.4652173913043479
orwiki,False,45.0,0.3424,0.7753623188405797,0.9369669509594882,0.056862202545655785,0.4750277469478358
orwiki,False,46.0,0.3563696919233972,0.7753623188405797,0.9402318763326226,0.053472606530160484,0.48830576155162586
orwiki,False,47.0,0.3687392055267703,0.7735507246376812,0.9429637526652452,0.050567238516878804,0.4994152046783625
orwiki,False,48.0,0.38125,0.7735507246376812,0.9454957356076759,0.04793857221914776,0.5107655502392344
orwiki,False,49.0,0.39444444444444443,0.7717391304347826,0.9480277185501066,0.04524073049252905,0.5220588235294118
orwiki,False,50.0,0.4049429657794677,0.7717391304347826,0.9498933901918977,0.0433038184836746,0.5311720698254364
orwiki,False,51.0,0.4158512720156556,0.769927536231884,0.9517590618336887,0.041297731045932484,0.5400254129606099
orwiki,False,52.0,0.423728813559322,0.769927536231884,0.9530250533049041,0.03998339789706696,0.5466237942122186
orwiki,False,53.0,0.4323499491353001,0.769927536231884,0.9543576759061834,0.03859988931931378,0.5537459283387622
orwiki,False,54.0,0.4376930998970134,0.769927536231884,0.9551572494669509,0.03776978417266187,0.5581089954038082
orwiki,False,55.0,0.4440961337513062,0.769927536231884,0.9560900852878464,0.03680132816823464,0.5632869449966865
orwiki,False,56.0,0.4535752401280683,0.769927536231884,0.9574227078891258,0.03541781959048146,0.5708529214237744
orwiki,False,57.0,0.45748116254036597,0.769927536231884,0.9579557569296375,0.034864416159380185,0.573936529372046
orwiki,False,58.0,0.4624591947769314,0.769927536231884,0.9586220682302772,0.0341726618705036,0.5778382053025153
orwiki,False,59.0,0.4649890590809628,0.769927536231884,0.9589552238805971,0.033826784726065304,0.5798090040927695
orwiki,False,60.0,0.46799116997792495,0.7681159420289855,0.9593550106609808,0.03334255672385169,0.5816186556927297
orwiki,False,61.0,0.4684385382059801,0.7663043478260869,0.9594216417910447,0.03320420586607637,0.5814432989690721
orwiki,False,62.0,0.4720982142857143,0.7663043478260869,0.9598880597014925,0.032719977863862756,0.5842541436464087
orwiki,False,63.0,0.4768361581920904,0.7644927536231884,0.9604877398720683,0.032028223574986164,0.5873347251217815
orwiki,False,64.0,0.4833524684270953,0.7626811594202898,0.9612873134328358,0.031128942999446598,0.5917076598735067
orwiki,False,65.0,0.4889406286379511,0.7608695652173914,0.9619536247334755,0.030368013281682347,0.5953224663359319
orwiki,False,66.0,0.4935370152761457,0.7608695652173914,0.9624866737739872,0.029814609850581073,0.5987170349251603
orwiki,False,67.0,0.4958481613285884,0.7572463768115942,0.9627531982942431,0.029399557277255118,0.5992831541218638
orwiki,False,68.0,0.503030303030303,0.7518115942028986,0.9635527718550106,0.028361925843940233,0.6027596223674655
orwiki,False,69.0,0.5092478421701603,0.7481884057971014,0.9642190831556503,0.027531820697288323,0.6060161408657373
orwiki,False,70.0,0.5145018915510718,0.7391304347826086,0.9647521321961621,0.026632540121748753,0.6066914498141263
orwiki,False,71.0,0.5186136071887034,0.7318840579710145,0.9651519189765458,0.025940785832872165,0.6070623591284748
orwiki,False,72.0,0.5254901960784314,0.7282608695652174,0.9658182302771855,0.025110680686220254,0.6104783599088839
orwiki,False,73.0,0.5314591700133868,0.7192028985507246,0.9663512793176973,0.024211400110680688,0.611239414934565
orwiki,False,74.0,0.5402455661664393,0.717391304347826,0.9671508528784648,0.023312119535141118,0.6163424124513619
orwiki,False,75.0,0.5453277545327755,0.7083333333333334,0.9675506396588486,0.022551189817376867,0.616233254531127
orwiki,False,76.0,0.5519203413940256,0.7028985507246377,0.9680836886993603,0.02179026009961262,0.6183266932270917
orwiki,False,77.0,0.5607613469985359,0.6938405797101449,0.96875,0.02075262866629773,0.620242914979757
orwiki,False,78.0,0.5650224215246636,0.6847826086956522,0.9690165245202559,0.020130049806308798,0.6191646191646192
orwiki,False,79.0,0.5758039816232772,0.6811594202898551,0.9698160980810234,0.019161593801881573,0.6240663900414937
orwiki,False,80.0,0.5812101910828026,0.6612318840579711,0.9700159914712153,0.018193137797454344,0.6186440677966102
orwiki,False,81.0,0.6010016694490818,0.6521739130434783,0.9712819829424307,0.016532927504150526,0.6255430060816681
orwiki,False,82.0,0.6276595744680851,0.6413043478260869,0.9728144989339019,0.014526840066408411,0.6344086021505376
orwiki,False,83.0,0.638733705772812,0.6213768115942029,0.9731476545842217,0.013420033204205865,0.6299357208448118
orwiki,False,84.0,0.65234375,0.605072463768116,0.9736140724946695,0.01231322634200332,0.6278195488721804
orwiki,False,85.0,0.6728395061728395,0.592391304347826,0.9744136460554371,0.010998893193137797,0.630057803468208
orwiki,False,86.0,0.6824034334763949,0.5760869565217391,0.974546908315565,0.010237963475373547,0.6247544204322201
orwiki,False,87.0,0.7040358744394619,0.5688405797101449,0.9753464818763327,0.009131156613171001,0.6292585170340681
orwiki,False,88.0,0.738498789346247,0.552536231884058,0.9763459488272921,0.007470946319867183,0.6321243523316062
orwiki,False,89.0,0.7576530612244898,0.5380434782608695,0.976679104477612,0.006571665744327615,0.6292372881355931
orwiki,False,90.0,0.775,0.5054347826086957,0.9764125799573561,0.005603209739900387,0.611842105263158
orwiki,False,91.0,0.8173374613003096,0.4782608695652174,0.9768789978678039,0.004081350304371887,0.6034285714285714
orwiki,False,92.0,0.8489208633093526,0.427536231884058,0.9761460554371002,0.0029053680132816824,0.5686746987951807
orwiki,False,93.0,0.8851063829787233,0.37681159420289856,0.9752798507462687,0.0018677365799667958,0.5285895806861499
orwiki,False,94.0,0.9240506329113924,0.2644927536231884,0.9721481876332623,0.0008301051466519093,0.4112676056338028
orwiki,False,95.0,0.9108910891089109,0.16666666666666666,0.96875,0.0006225788599889319,0.28177641653905056
orwiki,False,96.0,0.9130434782608695,0.07608695652173914,0.9657515991471215,0.0002767017155506364,0.14046822742474915
orwiki,False,97.0,0.8333333333333334,0.02717391304347826,0.9640191897654584,0.00020752628666297732,0.05263157894736842
orwiki,False,98.0,0.75,0.010869565217391304,0.9634861407249466,0.0001383508577753182,0.021428571428571425
orwiki,False,99.0,1.0,0.0036231884057971015,0.9633528784648188,0.0,0.007220216606498195
