wiki_db,user_is_anonymous_or_bot,threshold,precision,recall,accuracy,fpr,F1
papwiki,True,0.0,0.102803738317757,1.0,0.102803738317757,1.0,0.1864406779661017
papwiki,True,1.0,0.102803738317757,1.0,0.102803738317757,1.0,0.1864406779661017
papwiki,True,2.0,0.102803738317757,1.0,0.102803738317757,1.0,0.1864406779661017
papwiki,True,3.0,0.102803738317757,1.0,0.102803738317757,1.0,0.1864406779661017
papwiki,True,4.0,0.102803738317757,1.0,0.102803738317757,1.0,0.1864406779661017
papwiki,True,5.0,0.102803738317757,1.0,0.102803738317757,1.0,0.1864406779661017
papwiki,True,6.0,0.102803738317757,1.0,0.102803738317757,1.0,0.1864406779661017
papwiki,True,7.0,0.102803738317757,1.0,0.102803738317757,1.0,0.1864406779661017
papwiki,True,8.0,0.102803738317757,1.0,0.102803738317757,1.0,0.1864406779661017
papwiki,True,9.0,0.102803738317757,1.0,0.102803738317757,1.0,0.1864406779661017
papwiki,True,10.0,0.102803738317757,1.0,0.102803738317757,1.0,0.1864406779661017
papwiki,True,11.0,0.10377358490566038,1.0,0.11214953271028037,0.9895833333333334,0.18803418803418803
papwiki,True,12.0,0.10377358490566038,1.0,0.11214953271028037,0.9895833333333334,0.18803418803418803
papwiki,True,13.0,0.10377358490566038,1.0,0.11214953271028037,0.9895833333333334,0.18803418803418803
papwiki,True,14.0,0.10377358490566038,1.0,0.11214953271028037,0.9895833333333334,0.18803418803418803
papwiki,True,15.0,0.10377358490566038,1.0,0.11214953271028037,0.9895833333333334,0.18803418803418803
papwiki,True,16.0,0.10377358490566038,1.0,0.11214953271028037,0.9895833333333334,0.18803418803418803
papwiki,True,17.0,0.10377358490566038,1.0,0.11214953271028037,0.9895833333333334,0.18803418803418803
papwiki,True,18.0,0.10377358490566038,1.0,0.11214953271028037,0.9895833333333334,0.18803418803418803
papwiki,True,19.0,0.10377358490566038,1.0,0.11214953271028037,0.9895833333333334,0.18803418803418803
papwiki,True,20.0,0.10377358490566038,1.0,0.11214953271028037,0.9895833333333334,0.18803418803418803
papwiki,True,21.0,0.10377358490566038,1.0,0.11214953271028037,0.9895833333333334,0.18803418803418803
papwiki,True,22.0,0.10377358490566038,1.0,0.11214953271028037,0.9895833333333334,0.18803418803418803
papwiki,True,23.0,0.10377358490566038,1.0,0.11214953271028037,0.9895833333333334,0.18803418803418803
papwiki,True,24.0,0.10377358490566038,1.0,0.11214953271028037,0.9895833333333334,0.18803418803418803
papwiki,True,25.0,0.10476190476190476,1.0,0.12149532710280374,0.9791666666666666,0.1896551724137931
papwiki,True,26.0,0.10576923076923077,1.0,0.1308411214953271,0.96875,0.19130434782608693
papwiki,True,27.0,0.10576923076923077,1.0,0.1308411214953271,0.96875,0.19130434782608693
papwiki,True,28.0,0.10891089108910891,1.0,0.1588785046728972,0.9375,0.1964285714285714
papwiki,True,29.0,0.11,1.0,0.16822429906542055,0.9270833333333334,0.19819819819819817
papwiki,True,30.0,0.11224489795918367,1.0,0.18691588785046728,0.90625,0.20183486238532108
papwiki,True,31.0,0.11458333333333333,1.0,0.205607476635514,0.8854166666666666,0.205607476635514
papwiki,True,32.0,0.11827956989247312,1.0,0.2336448598130841,0.8541666666666666,0.21153846153846156
papwiki,True,33.0,0.12359550561797752,1.0,0.27102803738317754,0.8125,0.21999999999999997
papwiki,True,34.0,0.125,1.0,0.2803738317757009,0.8020833333333334,0.2222222222222222
papwiki,True,35.0,0.13095238095238096,1.0,0.3177570093457944,0.7604166666666666,0.23157894736842108
papwiki,True,36.0,0.13414634146341464,1.0,0.3364485981308411,0.7395833333333334,0.23655913978494622
papwiki,True,37.0,0.14285714285714285,1.0,0.38317757009345793,0.6875,0.25
papwiki,True,38.0,0.14666666666666667,1.0,0.40186915887850466,0.6666666666666666,0.2558139534883721
papwiki,True,39.0,0.1527777777777778,1.0,0.42990654205607476,0.6354166666666666,0.26506024096385544
papwiki,True,40.0,0.15714285714285714,1.0,0.4485981308411215,0.6145833333333334,0.271604938271605
papwiki,True,41.0,0.16417910447761194,1.0,0.4766355140186916,0.5833333333333334,0.28205128205128205
papwiki,True,42.0,0.16666666666666666,1.0,0.48598130841121495,0.5729166666666666,0.2857142857142857
papwiki,True,43.0,0.16923076923076924,1.0,0.4953271028037383,0.5625,0.2894736842105263
papwiki,True,44.0,0.1746031746031746,1.0,0.514018691588785,0.5416666666666666,0.29729729729729726
papwiki,True,45.0,0.18333333333333332,1.0,0.5420560747663551,0.5104166666666666,0.30985915492957744
papwiki,True,46.0,0.1864406779661017,1.0,0.5514018691588785,0.5,0.3142857142857143
papwiki,True,47.0,0.1896551724137931,1.0,0.5607476635514018,0.4895833333333333,0.3188405797101449
papwiki,True,48.0,0.19642857142857142,1.0,0.5794392523364486,0.46875,0.3283582089552239
papwiki,True,49.0,0.18867924528301888,0.9090909090909091,0.5887850467289719,0.4479166666666667,0.3125
papwiki,True,50.0,0.18867924528301888,0.9090909090909091,0.5887850467289719,0.4479166666666667,0.3125
papwiki,True,51.0,0.19230769230769232,0.9090909090909091,0.5981308411214953,0.4375,0.31746031746031744
papwiki,True,52.0,0.19607843137254902,0.9090909090909091,0.6074766355140186,0.4270833333333333,0.3225806451612903
papwiki,True,53.0,0.20408163265306123,0.9090909090909091,0.6261682242990654,0.40625,0.33333333333333337
papwiki,True,54.0,0.20408163265306123,0.9090909090909091,0.6261682242990654,0.40625,0.33333333333333337
papwiki,True,55.0,0.20833333333333334,0.9090909090909091,0.6355140186915887,0.3958333333333333,0.3389830508474576
papwiki,True,56.0,0.2127659574468085,0.9090909090909091,0.6448598130841121,0.3854166666666667,0.3448275862068965
papwiki,True,57.0,0.21739130434782608,0.9090909090909091,0.6542056074766355,0.375,0.3508771929824562
papwiki,True,58.0,0.2222222222222222,0.9090909090909091,0.6635514018691588,0.3645833333333333,0.3571428571428571
papwiki,True,59.0,0.2222222222222222,0.9090909090909091,0.6635514018691588,0.3645833333333333,0.3571428571428571
papwiki,True,60.0,0.23255813953488372,0.9090909090909091,0.6822429906542056,0.34375,0.3703703703703703
papwiki,True,61.0,0.23255813953488372,0.9090909090909091,0.6822429906542056,0.34375,0.3703703703703703
papwiki,True,62.0,0.23255813953488372,0.9090909090909091,0.6822429906542056,0.34375,0.3703703703703703
papwiki,True,63.0,0.23255813953488372,0.9090909090909091,0.6822429906542056,0.34375,0.3703703703703703
papwiki,True,64.0,0.23809523809523808,0.9090909090909091,0.6915887850467289,0.3333333333333333,0.3773584905660377
papwiki,True,65.0,0.23809523809523808,0.9090909090909091,0.6915887850467289,0.3333333333333333,0.3773584905660377
papwiki,True,66.0,0.23809523809523808,0.9090909090909091,0.6915887850467289,0.3333333333333333,0.3773584905660377
papwiki,True,67.0,0.25,0.9090909090909091,0.7102803738317757,0.3125,0.392156862745098
papwiki,True,68.0,0.25,0.9090909090909091,0.7102803738317757,0.3125,0.392156862745098
papwiki,True,69.0,0.25,0.9090909090909091,0.7102803738317757,0.3125,0.392156862745098
papwiki,True,70.0,0.25,0.9090909090909091,0.7102803738317757,0.3125,0.392156862745098
papwiki,True,71.0,0.2564102564102564,0.9090909090909091,0.719626168224299,0.3020833333333333,0.3999999999999999
papwiki,True,72.0,0.2564102564102564,0.9090909090909091,0.719626168224299,0.3020833333333333,0.3999999999999999
papwiki,True,73.0,0.2631578947368421,0.9090909090909091,0.7289719626168224,0.2916666666666667,0.4081632653061224
papwiki,True,74.0,0.2631578947368421,0.9090909090909091,0.7289719626168224,0.2916666666666667,0.4081632653061224
papwiki,True,75.0,0.2631578947368421,0.9090909090909091,0.7289719626168224,0.2916666666666667,0.4081632653061224
papwiki,True,76.0,0.2631578947368421,0.9090909090909091,0.7289719626168224,0.2916666666666667,0.4081632653061224
papwiki,True,77.0,0.2631578947368421,0.9090909090909091,0.7289719626168224,0.2916666666666667,0.4081632653061224
papwiki,True,78.0,0.2702702702702703,0.9090909090909091,0.7383177570093458,0.28125,0.4166666666666667
papwiki,True,79.0,0.2647058823529412,0.8181818181818182,0.7476635514018691,0.2604166666666667,0.39999999999999997
papwiki,True,80.0,0.2727272727272727,0.8181818181818182,0.7570093457943925,0.25,0.4090909090909091
papwiki,True,81.0,0.2727272727272727,0.8181818181818182,0.7570093457943925,0.25,0.4090909090909091
papwiki,True,82.0,0.2857142857142857,0.7272727272727273,0.7850467289719626,0.20833333333333334,0.4102564102564102
papwiki,True,83.0,0.2962962962962963,0.7272727272727273,0.794392523364486,0.19791666666666666,0.42105263157894735
papwiki,True,84.0,0.3076923076923077,0.7272727272727273,0.8037383177570093,0.1875,0.43243243243243246
papwiki,True,85.0,0.3076923076923077,0.7272727272727273,0.8037383177570093,0.1875,0.43243243243243246
papwiki,True,86.0,0.30434782608695654,0.6363636363636364,0.8130841121495327,0.16666666666666666,0.411764705882353
papwiki,True,87.0,0.3181818181818182,0.6363636363636364,0.822429906542056,0.15625,0.4242424242424242
papwiki,True,88.0,0.3888888888888889,0.6363636363636364,0.8598130841121495,0.11458333333333333,0.4827586206896552
papwiki,True,89.0,0.4375,0.6363636363636364,0.8785046728971962,0.09375,0.5185185185185185
papwiki,True,90.0,0.5,0.6363636363636364,0.897196261682243,0.07291666666666667,0.56
papwiki,True,91.0,0.4166666666666667,0.45454545454545453,0.8785046728971962,0.07291666666666667,0.43478260869565216
papwiki,True,92.0,0.4166666666666667,0.45454545454545453,0.8785046728971962,0.07291666666666667,0.43478260869565216
papwiki,True,93.0,0.4,0.36363636363636365,0.8785046728971962,0.0625,0.380952380952381
papwiki,True,94.0,0.3333333333333333,0.2727272727272727,0.8691588785046729,0.0625,0.3
papwiki,True,95.0,0.375,0.2727272727272727,0.8785046728971962,0.052083333333333336,0.3157894736842105
papwiki,True,96.0,0.3333333333333333,0.18181818181818182,0.8785046728971962,0.041666666666666664,0.23529411764705885
papwiki,True,97.0,0.6666666666666666,0.18181818181818182,0.9065420560747663,0.010416666666666666,0.28571428571428575
papwiki,True,98.0,1.0,0.09090909090909091,0.9065420560747663,0.0,0.16666666666666669
papwiki,True,99.0,1.0,0.0,0.897196261682243,0.0,0.0
papwiki,False,0.0,0.008155583437892095,1.0,0.008155583437892095,1.0,0.016179215930304913
papwiki,False,1.0,0.008155583437892095,1.0,0.008155583437892095,1.0,0.016179215930304913
papwiki,False,2.0,0.008248730964467006,1.0,0.01944792973651192,0.9886148007590133,0.016362492133417245
papwiki,False,3.0,0.00816326530612245,0.9743589743589743,0.034295273943956504,0.9734345351043643,0.016190881976991908
papwiki,False,4.0,0.00805047867711053,0.9487179487179487,0.04621497281472187,0.9612059877714527,0.015965480043149946
papwiki,False,5.0,0.008231368186874305,0.9487179487179487,0.06733584274362192,0.9399114484503479,0.016321129245699163
papwiki,False,6.0,0.008602650546384562,0.9487179487179487,0.10790464240903387,0.8990090659919882,0.017050691244239632
papwiki,False,7.0,0.008862629246676515,0.9230769230769231,0.15746549560853199,0.8488298545224542,0.017556693489392834
papwiki,False,8.0,0.009283819628647215,0.8974358974358975,0.2181095775826014,0.7874762808349146,0.018377526909950117
papwiki,False,9.0,0.009892347977887692,0.8717948717948718,0.28732747804265996,0.7174783892051444,0.01956271576524741
papwiki,False,10.0,0.010890454836643177,0.8717948717948718,0.35319949811794227,0.6510647269660552,0.021512179689971527
papwiki,False,11.0,0.011595221363316937,0.8461538461538461,0.4104976997072355,0.5930845456462155,0.022876949740034663
papwiki,False,12.0,0.011755783086841108,0.7948717948717948,0.4533667921371811,0.5494412818890997,0.023168908819133038
papwiki,False,13.0,0.012622149837133551,0.7948717948717948,0.49121706398996234,0.5112797807294961,0.024849699398797595
papwiki,False,14.0,0.013584574934268186,0.7948717948717948,0.527603513174404,0.4745941387307611,0.026712623869021974
papwiki,False,15.0,0.014499532273152479,0.7948717948717948,0.5577164366373902,0.44423360742146323,0.02847955902618282
papwiki,False,16.0,0.015052684395383844,0.7692307692307693,0.587620242576328,0.4138730761121653,0.02952755905511811
papwiki,False,17.0,0.014965259219668627,0.717948717948718,0.6122961104140527,0.38857263335441705,0.029319371727748695
papwiki,False,18.0,0.015517241379310345,0.6923076923076923,0.6392722710163111,0.3611638203668564,0.030354131534569985
papwiki,False,19.0,0.016383495145631068,0.6923076923076923,0.6585110832287746,0.34176681425258276,0.032009484291641965
papwiki,False,20.0,0.017578125,0.6923076923076923,0.6819322459222082,0.3181530676786844,0.03428571428571429
papwiki,False,21.0,0.01813110181311018,0.6666666666666666,0.7028439983270598,0.2968585283575796,0.035302104548540394
papwiki,False,22.0,0.019230769230769232,0.6666666666666666,0.7199916352990381,0.27956989247311825,0.037383177570093455
papwiki,False,23.0,0.019546520719311962,0.6410256410256411,0.7348389795064827,0.26438962681846934,0.03793626707132018
papwiki,False,24.0,0.0205761316872428,0.6410256410256411,0.7482225010455876,0.25089605734767023,0.03987240829346092
papwiki,False,25.0,0.01916376306620209,0.5641025641025641,0.760978670012547,0.23740248787687118,0.03706823925863521
papwiki,False,26.0,0.019408502772643253,0.5384615384615384,0.774362191551652,0.22369808138309086,0.03746654772524531
papwiki,False,27.0,0.020388349514563107,0.5384615384615384,0.7852363028021748,0.21273455618806664,0.03928905519176801
papwiki,False,28.0,0.021806853582554516,0.5384615384615384,0.7992471769134254,0.19860847564832385,0.041916167664670656
papwiki,False,29.0,0.023333333333333334,0.5384615384615384,0.8124215809284818,0.18532574320050602,0.04472843450479234
papwiki,False,30.0,0.02358490566037736,0.5128205128205128,0.8228774571309075,0.174573055028463,0.04509582863585118
papwiki,False,31.0,0.02518891687657431,0.5128205128205128,0.8341698034295274,0.16318785578747627,0.04801920768307323
papwiki,False,32.0,0.025503355704697986,0.48717948717948717,0.8439983270598076,0.15306767868437698,0.04846938775510203
papwiki,False,33.0,0.028148148148148148,0.48717948717948717,0.8586365537432037,0.13830908707569048,0.053221288515406154
papwiki,False,34.0,0.0304,0.48717948717948717,0.8690924299456294,0.12776723592662872,0.0572289156626506
papwiki,False,35.0,0.03225806451612903,0.48717948717948717,0.876620660811376,0.12017710309930424,0.06050955414012738
papwiki,False,36.0,0.03512014787430684,0.48717948717948717,0.8866583019657047,0.11005692599620494,0.06551724137931034
papwiki,False,37.0,0.03815261044176707,0.48717948717948717,0.8956503554997909,0.1009909340080118,0.0707635009310987
papwiki,False,38.0,0.04051172707889126,0.48717948717948717,0.9017147636971978,0.09487666034155598,0.07480314960629922
papwiki,False,39.0,0.04387990762124711,0.48717948717948717,0.9092429945629443,0.0872865275142315,0.0805084745762712
papwiki,False,40.0,0.04871794871794872,0.48717948717948717,0.9182350480970305,0.07822053552603837,0.08857808857808858
papwiki,False,41.0,0.05413105413105413,0.48717948717948717,0.9263906315349226,0.06999789162977019,0.09743589743589742
papwiki,False,42.0,0.05828220858895705,0.48717948717948717,0.9316185696361355,0.0647269660552393,0.10410958904109589
papwiki,False,43.0,0.061488673139158574,0.48717948717948717,0.9351735675449603,0.06114273666455829,0.10919540229885058
papwiki,False,44.0,0.06506849315068493,0.48717948717948717,0.938728565453785,0.05755850727387729,0.11480362537764349
papwiki,False,45.0,0.06859205776173286,0.48717948717948717,0.9418653283145128,0.05439595192915876,0.12025316455696203
papwiki,False,46.0,0.07335907335907337,0.48717948717948717,0.945629443747386,0.05060088551549652,0.12751677852348994
papwiki,False,47.0,0.07755102040816327,0.48717948717948717,0.9485570890840652,0.04764916719375922,0.13380281690140844
papwiki,False,48.0,0.0811965811965812,0.48717948717948717,0.9508573818485989,0.045329959940965635,0.1391941391941392
papwiki,False,49.0,0.07929515418502203,0.46153846153846156,0.9519029694688415,0.04406493780307822,0.13533834586466165
papwiki,False,50.0,0.08333333333333333,0.46153846153846156,0.9542032622333751,0.04174573055028463,0.1411764705882353
papwiki,False,51.0,0.08737864077669903,0.46153846153846156,0.9562944374738603,0.03963736032047228,0.1469387755102041
papwiki,False,52.0,0.08673469387755102,0.4358974358974359,0.9579673776662484,0.037739827113641156,0.14468085106382977
papwiki,False,53.0,0.09042553191489362,0.4358974358974359,0.9596403178586366,0.036053130929791274,0.14977973568281935
papwiki,False,54.0,0.09497206703910614,0.4358974358974359,0.9615223755750731,0.03415559772296015,0.1559633027522936
papwiki,False,55.0,0.09826589595375723,0.4358974358974359,0.9627770807193643,0.03289057558507274,0.16037735849056603
papwiki,False,56.0,0.0975609756097561,0.41025641025641024,0.9642409033877039,0.031203879401222854,0.15763546798029557
papwiki,False,57.0,0.10191082802547771,0.41025641025641024,0.9657047260560435,0.029728020240354206,0.163265306122449
papwiki,False,58.0,0.10596026490066225,0.41025641025641024,0.9669594312003346,0.028462998102466792,0.16842105263157894
papwiki,False,59.0,0.10273972602739725,0.38461538461538464,0.9675867837724801,0.02761965001054185,0.16216216216216217
papwiki,False,60.0,0.10714285714285714,0.38461538461538464,0.9688414889167712,0.026354627872654437,0.16759776536312848
papwiki,False,61.0,0.11029411764705882,0.38461538461538464,0.9696779590129653,0.025511279780729496,0.17142857142857143
papwiki,False,62.0,0.11194029850746269,0.38461538461538464,0.9700961940610623,0.025089605734767026,0.17341040462427745
papwiki,False,63.0,0.11904761904761904,0.38461538461538464,0.9717691342534505,0.02340290955091714,0.18181818181818182
papwiki,False,64.0,0.125,0.38461538461538464,0.9730238393977415,0.022137887413029727,0.18867924528301888
papwiki,False,65.0,0.12173913043478261,0.358974358974359,0.973651191969887,0.021294539321104786,0.18181818181818182
papwiki,False,66.0,0.125,0.358974358974359,0.9742785445420327,0.02066202825216108,0.18543046357615894
papwiki,False,67.0,0.12844036697247707,0.358974358974359,0.9749058971141782,0.020029517183217372,0.1891891891891892
papwiki,False,68.0,0.13333333333333333,0.358974358974359,0.9757423672103722,0.01918616909129243,0.19444444444444442
papwiki,False,69.0,0.13861386138613863,0.358974358974359,0.9765788373065662,0.018342820999367487,0.2
papwiki,False,70.0,0.14736842105263157,0.358974358974359,0.9778335424508574,0.017077798861480076,0.208955223880597
papwiki,False,71.0,0.15555555555555556,0.358974358974359,0.9788791300711,0.0160236137465739,0.2170542635658915
papwiki,False,72.0,0.15476190476190477,0.3333333333333333,0.979715600167294,0.014969428631667722,0.2113821138211382
papwiki,False,73.0,0.16049382716049382,0.3333333333333333,0.9803429527394396,0.014336917562724014,0.21666666666666665
papwiki,False,74.0,0.16666666666666666,0.3333333333333333,0.9809703053115851,0.013704406493780307,0.2222222222222222
papwiki,False,75.0,0.18055555555555555,0.3333333333333333,0.9822250104558762,0.012439384355892895,0.23423423423423426
papwiki,False,76.0,0.18840579710144928,0.3333333333333333,0.9828523630280217,0.011806873286949189,0.24074074074074076
papwiki,False,77.0,0.19696969696969696,0.3333333333333333,0.9834797156001673,0.011174362218005482,0.2476190476190476
papwiki,False,78.0,0.21311475409836064,0.3333333333333333,0.9845253032204099,0.010120177103099304,0.26
papwiki,False,79.0,0.21052631578947367,0.3076923076923077,0.9849435382685069,0.009487666034155597,0.25
papwiki,False,80.0,0.23076923076923078,0.3076923076923077,0.9859891258887494,0.00843348091924942,0.2637362637362637
papwiki,False,81.0,0.24,0.3076923076923077,0.9864073609368466,0.00801180687328695,0.26966292134831465
papwiki,False,82.0,0.24444444444444444,0.28205128205128205,0.9870347135089921,0.007168458781362007,0.2619047619047619
papwiki,False,83.0,0.25,0.28205128205128205,0.9872438310330406,0.006957621758380772,0.26506024096385544
papwiki,False,84.0,0.2558139534883721,0.28205128205128205,0.9874529485570891,0.006746784735399536,0.2682926829268293
papwiki,False,85.0,0.2619047619047619,0.28205128205128205,0.9876620660811376,0.006535947712418301,0.2716049382716049
papwiki,False,86.0,0.2631578947368421,0.2564102564102564,0.9880803011292346,0.0059034366434745945,0.2597402597402597
papwiki,False,87.0,0.29411764705882354,0.2564102564102564,0.9889167712254286,0.005060088551549652,0.273972602739726
papwiki,False,88.0,0.3448275862068966,0.2564102564102564,0.9899623588456713,0.004005903436643475,0.29411764705882354
papwiki,False,89.0,0.37037037037037035,0.2564102564102564,0.9903805938937683,0.0035842293906810036,0.30303030303030304
papwiki,False,90.0,0.43478260869565216,0.2564102564102564,0.9912170639899623,0.0027408812987560617,0.3225806451612903
papwiki,False,91.0,0.42105263157894735,0.20512820512820512,0.9912170639899623,0.0023192072527935905,0.2758620689655173
papwiki,False,92.0,0.3888888888888889,0.1794871794871795,0.9910079464659138,0.0023192072527935905,0.24561403508771928
papwiki,False,93.0,0.42857142857142855,0.15384615384615385,0.9914261815140109,0.001686696183849884,0.22641509433962267
papwiki,False,94.0,0.4166666666666667,0.1282051282051282,0.9914261815140109,0.0014758591608686486,0.196078431372549
papwiki,False,95.0,0.4444444444444444,0.10256410256410256,0.9916352990380594,0.0010541851149061775,0.16666666666666666
papwiki,False,96.0,0.42857142857142855,0.07692307692307693,0.9916352990380594,0.000843348091924942,0.13043478260869565
papwiki,False,97.0,0.75,0.07692307692307693,0.9922626516102049,0.0002108370229812355,0.13953488372093026
papwiki,False,98.0,1.0,0.05128205128205128,0.9922626516102049,0.0,0.09756097560975609
papwiki,False,99.0,1.0,0.02564102564102564,0.9920535340861564,0.0,0.05
