wiki_db,user_is_anonymous_or_bot,threshold,precision,recall,accuracy,fpr,F1
pntwiki,True,0.0,0.25,1.0,0.25,1.0,0.4
pntwiki,True,1.0,0.25,1.0,0.25,1.0,0.4
pntwiki,True,2.0,0.25,1.0,0.25,1.0,0.4
pntwiki,True,3.0,0.25,1.0,0.25,1.0,0.4
pntwiki,True,4.0,0.25,1.0,0.25,1.0,0.4
pntwiki,True,5.0,0.25,1.0,0.25,1.0,0.4
pntwiki,True,6.0,0.25,1.0,0.25,1.0,0.4
pntwiki,True,7.0,0.25,1.0,0.25,1.0,0.4
pntwiki,True,8.0,0.25,1.0,0.25,1.0,0.4
pntwiki,True,9.0,0.25,1.0,0.25,1.0,0.4
pntwiki,True,10.0,0.25,1.0,0.25,1.0,0.4
pntwiki,True,11.0,0.25,1.0,0.25,1.0,0.4
pntwiki,True,12.0,0.25,1.0,0.25,1.0,0.4
pntwiki,True,13.0,0.25,1.0,0.25,1.0,0.4
pntwiki,True,14.0,0.25,1.0,0.25,1.0,0.4
pntwiki,True,15.0,0.25,1.0,0.25,1.0,0.4
pntwiki,True,16.0,0.25,1.0,0.25,1.0,0.4
pntwiki,True,17.0,0.25,1.0,0.25,1.0,0.4
pntwiki,True,18.0,0.25,1.0,0.25,1.0,0.4
pntwiki,True,19.0,0.25,1.0,0.25,1.0,0.4
pntwiki,True,20.0,0.25,1.0,0.25,1.0,0.4
pntwiki,True,21.0,0.25,1.0,0.25,1.0,0.4
pntwiki,True,22.0,0.25,1.0,0.25,1.0,0.4
pntwiki,True,23.0,0.25,1.0,0.25,1.0,0.4
pntwiki,True,24.0,0.25,1.0,0.25,1.0,0.4
pntwiki,True,25.0,0.25,1.0,0.25,1.0,0.4
pntwiki,True,26.0,0.25,1.0,0.25,1.0,0.4
pntwiki,True,27.0,0.25,1.0,0.25,1.0,0.4
pntwiki,True,28.0,0.25,1.0,0.25,1.0,0.4
pntwiki,True,29.0,0.25,1.0,0.25,1.0,0.4
pntwiki,True,30.0,0.25,1.0,0.25,1.0,0.4
pntwiki,True,31.0,0.25,1.0,0.25,1.0,0.4
pntwiki,True,32.0,0.25,1.0,0.25,1.0,0.4
pntwiki,True,33.0,0.25,1.0,0.25,1.0,0.4
pntwiki,True,34.0,0.25,1.0,0.25,1.0,0.4
pntwiki,True,35.0,0.25,1.0,0.25,1.0,0.4
pntwiki,True,36.0,0.25,1.0,0.25,1.0,0.4
pntwiki,True,37.0,0.25,1.0,0.25,1.0,0.4
pntwiki,True,38.0,0.25,1.0,0.25,1.0,0.4
pntwiki,True,39.0,0.25,1.0,0.25,1.0,0.4
pntwiki,True,40.0,0.25,1.0,0.25,1.0,0.4
pntwiki,True,41.0,0.25,1.0,0.25,1.0,0.4
pntwiki,True,42.0,0.25,1.0,0.25,1.0,0.4
pntwiki,True,43.0,0.25,1.0,0.25,1.0,0.4
pntwiki,True,44.0,0.25,1.0,0.25,1.0,0.4
pntwiki,True,45.0,0.2727272727272727,1.0,0.3333333333333333,0.8888888888888888,0.42857142857142855
pntwiki,True,46.0,0.2727272727272727,1.0,0.3333333333333333,0.8888888888888888,0.42857142857142855
pntwiki,True,47.0,0.3,1.0,0.4166666666666667,0.7777777777777778,0.4615384615384615
pntwiki,True,48.0,0.3,1.0,0.4166666666666667,0.7777777777777778,0.4615384615384615
pntwiki,True,49.0,0.3,1.0,0.4166666666666667,0.7777777777777778,0.4615384615384615
pntwiki,True,50.0,0.3,1.0,0.4166666666666667,0.7777777777777778,0.4615384615384615
pntwiki,True,51.0,0.3,1.0,0.4166666666666667,0.7777777777777778,0.4615384615384615
pntwiki,True,52.0,0.3,1.0,0.4166666666666667,0.7777777777777778,0.4615384615384615
pntwiki,True,53.0,0.3,1.0,0.4166666666666667,0.7777777777777778,0.4615384615384615
pntwiki,True,54.0,0.3,1.0,0.4166666666666667,0.7777777777777778,0.4615384615384615
pntwiki,True,55.0,0.3,1.0,0.4166666666666667,0.7777777777777778,0.4615384615384615
pntwiki,True,56.0,0.3,1.0,0.4166666666666667,0.7777777777777778,0.4615384615384615
pntwiki,True,57.0,0.3,1.0,0.4166666666666667,0.7777777777777778,0.4615384615384615
pntwiki,True,58.0,0.3,1.0,0.4166666666666667,0.7777777777777778,0.4615384615384615
pntwiki,True,59.0,0.3333333333333333,1.0,0.5,0.6666666666666666,0.5
pntwiki,True,60.0,0.3333333333333333,1.0,0.5,0.6666666666666666,0.5
pntwiki,True,61.0,0.3333333333333333,1.0,0.5,0.6666666666666666,0.5
pntwiki,True,62.0,0.3333333333333333,1.0,0.5,0.6666666666666666,0.5
pntwiki,True,63.0,0.3333333333333333,1.0,0.5,0.6666666666666666,0.5
pntwiki,True,64.0,0.3333333333333333,1.0,0.5,0.6666666666666666,0.5
pntwiki,True,65.0,0.3333333333333333,1.0,0.5,0.6666666666666666,0.5
pntwiki,True,66.0,0.3333333333333333,1.0,0.5,0.6666666666666666,0.5
pntwiki,True,67.0,0.3333333333333333,1.0,0.5,0.6666666666666666,0.5
pntwiki,True,68.0,0.3333333333333333,1.0,0.5,0.6666666666666666,0.5
pntwiki,True,69.0,0.3333333333333333,1.0,0.5,0.6666666666666666,0.5
pntwiki,True,70.0,0.3333333333333333,1.0,0.5,0.6666666666666666,0.5
pntwiki,True,71.0,0.3333333333333333,1.0,0.5,0.6666666666666666,0.5
pntwiki,True,72.0,0.3333333333333333,1.0,0.5,0.6666666666666666,0.5
pntwiki,True,73.0,0.3333333333333333,1.0,0.5,0.6666666666666666,0.5
pntwiki,True,74.0,0.3333333333333333,1.0,0.5,0.6666666666666666,0.5
pntwiki,True,75.0,0.3333333333333333,1.0,0.5,0.6666666666666666,0.5
pntwiki,True,76.0,0.3333333333333333,1.0,0.5,0.6666666666666666,0.5
pntwiki,True,77.0,0.3333333333333333,1.0,0.5,0.6666666666666666,0.5
pntwiki,True,78.0,0.3333333333333333,1.0,0.5,0.6666666666666666,0.5
pntwiki,True,79.0,0.3333333333333333,1.0,0.5,0.6666666666666666,0.5
pntwiki,True,80.0,0.3333333333333333,1.0,0.5,0.6666666666666666,0.5
pntwiki,True,81.0,0.3333333333333333,1.0,0.5,0.6666666666666666,0.5
pntwiki,True,82.0,0.3333333333333333,1.0,0.5,0.6666666666666666,0.5
pntwiki,True,83.0,0.375,1.0,0.5833333333333334,0.5555555555555556,0.5454545454545454
pntwiki,True,84.0,0.375,1.0,0.5833333333333334,0.5555555555555556,0.5454545454545454
pntwiki,True,85.0,0.42857142857142855,1.0,0.6666666666666666,0.4444444444444444,0.6
pntwiki,True,86.0,0.42857142857142855,1.0,0.6666666666666666,0.4444444444444444,0.6
pntwiki,True,87.0,0.42857142857142855,1.0,0.6666666666666666,0.4444444444444444,0.6
pntwiki,True,88.0,0.5,1.0,0.75,0.3333333333333333,0.6666666666666666
pntwiki,True,89.0,0.6,1.0,0.8333333333333334,0.2222222222222222,0.7499999999999999
pntwiki,True,90.0,0.6,1.0,0.8333333333333334,0.2222222222222222,0.7499999999999999
pntwiki,True,91.0,0.6,1.0,0.8333333333333334,0.2222222222222222,0.7499999999999999
pntwiki,True,92.0,0.6,1.0,0.8333333333333334,0.2222222222222222,0.7499999999999999
pntwiki,True,93.0,0.5,0.6666666666666666,0.75,0.2222222222222222,0.5714285714285715
pntwiki,True,94.0,0.5,0.6666666666666666,0.75,0.2222222222222222,0.5714285714285715
pntwiki,True,95.0,1.0,0.3333333333333333,0.8333333333333334,0.0,0.5
pntwiki,True,96.0,1.0,0.3333333333333333,0.8333333333333334,0.0,0.5
pntwiki,True,97.0,1.0,0.0,0.75,0.0,0.0
pntwiki,True,98.0,1.0,0.0,0.75,0.0,0.0
pntwiki,True,99.0,1.0,0.0,0.75,0.0,0.0
pntwiki,False,0.0,0.05357142857142857,1.0,0.05357142857142857,1.0,0.10169491525423728
pntwiki,False,1.0,0.05357142857142857,1.0,0.05357142857142857,1.0,0.10169491525423728
pntwiki,False,2.0,0.05357142857142857,1.0,0.05357142857142857,1.0,0.10169491525423728
pntwiki,False,3.0,0.05357142857142857,1.0,0.05357142857142857,1.0,0.10169491525423728
pntwiki,False,4.0,0.05357142857142857,1.0,0.05357142857142857,1.0,0.10169491525423728
pntwiki,False,5.0,0.05357142857142857,1.0,0.05357142857142857,1.0,0.10169491525423728
pntwiki,False,6.0,0.05357142857142857,1.0,0.05357142857142857,1.0,0.10169491525423728
pntwiki,False,7.0,0.05357142857142857,1.0,0.05357142857142857,1.0,0.10169491525423728
pntwiki,False,8.0,0.05357142857142857,1.0,0.05357142857142857,1.0,0.10169491525423728
pntwiki,False,9.0,0.05357142857142857,1.0,0.05357142857142857,1.0,0.10169491525423728
pntwiki,False,10.0,0.05357142857142857,1.0,0.05357142857142857,1.0,0.10169491525423728
pntwiki,False,11.0,0.05454545454545454,1.0,0.07142857142857142,0.9811320754716981,0.10344827586206896
pntwiki,False,12.0,0.05454545454545454,1.0,0.07142857142857142,0.9811320754716981,0.10344827586206896
pntwiki,False,13.0,0.05555555555555555,1.0,0.08928571428571429,0.9622641509433962,0.10526315789473684
pntwiki,False,14.0,0.05555555555555555,1.0,0.08928571428571429,0.9622641509433962,0.10526315789473684
pntwiki,False,15.0,0.05660377358490566,1.0,0.10714285714285714,0.9433962264150944,0.10714285714285715
pntwiki,False,16.0,0.05660377358490566,1.0,0.10714285714285714,0.9433962264150944,0.10714285714285715
pntwiki,False,17.0,0.058823529411764705,1.0,0.14285714285714285,0.9056603773584906,0.1111111111111111
pntwiki,False,18.0,0.058823529411764705,1.0,0.14285714285714285,0.9056603773584906,0.1111111111111111
pntwiki,False,19.0,0.058823529411764705,1.0,0.14285714285714285,0.9056603773584906,0.1111111111111111
pntwiki,False,20.0,0.058823529411764705,1.0,0.14285714285714285,0.9056603773584906,0.1111111111111111
pntwiki,False,21.0,0.058823529411764705,1.0,0.14285714285714285,0.9056603773584906,0.1111111111111111
pntwiki,False,22.0,0.058823529411764705,1.0,0.14285714285714285,0.9056603773584906,0.1111111111111111
pntwiki,False,23.0,0.058823529411764705,1.0,0.14285714285714285,0.9056603773584906,0.1111111111111111
pntwiki,False,24.0,0.058823529411764705,1.0,0.14285714285714285,0.9056603773584906,0.1111111111111111
pntwiki,False,25.0,0.058823529411764705,1.0,0.14285714285714285,0.9056603773584906,0.1111111111111111
pntwiki,False,26.0,0.058823529411764705,1.0,0.14285714285714285,0.9056603773584906,0.1111111111111111
pntwiki,False,27.0,0.058823529411764705,1.0,0.14285714285714285,0.9056603773584906,0.1111111111111111
pntwiki,False,28.0,0.058823529411764705,1.0,0.14285714285714285,0.9056603773584906,0.1111111111111111
pntwiki,False,29.0,0.06,1.0,0.16071428571428573,0.8867924528301887,0.11320754716981131
pntwiki,False,30.0,0.06,1.0,0.16071428571428573,0.8867924528301887,0.11320754716981131
pntwiki,False,31.0,0.06,1.0,0.16071428571428573,0.8867924528301887,0.11320754716981131
pntwiki,False,32.0,0.06,1.0,0.16071428571428573,0.8867924528301887,0.11320754716981131
pntwiki,False,33.0,0.06,1.0,0.16071428571428573,0.8867924528301887,0.11320754716981131
pntwiki,False,34.0,0.06,1.0,0.16071428571428573,0.8867924528301887,0.11320754716981131
pntwiki,False,35.0,0.06,1.0,0.16071428571428573,0.8867924528301887,0.11320754716981131
pntwiki,False,36.0,0.06,1.0,0.16071428571428573,0.8867924528301887,0.11320754716981131
pntwiki,False,37.0,0.06,1.0,0.16071428571428573,0.8867924528301887,0.11320754716981131
pntwiki,False,38.0,0.06,1.0,0.16071428571428573,0.8867924528301887,0.11320754716981131
pntwiki,False,39.0,0.06,1.0,0.16071428571428573,0.8867924528301887,0.11320754716981131
pntwiki,False,40.0,0.06,1.0,0.16071428571428573,0.8867924528301887,0.11320754716981131
pntwiki,False,41.0,0.061224489795918366,1.0,0.17857142857142858,0.8679245283018868,0.11538461538461538
pntwiki,False,42.0,0.0625,1.0,0.19642857142857142,0.8490566037735849,0.11764705882352941
pntwiki,False,43.0,0.0625,1.0,0.19642857142857142,0.8490566037735849,0.11764705882352941
pntwiki,False,44.0,0.06382978723404255,1.0,0.21428571428571427,0.8301886792452831,0.12
pntwiki,False,45.0,0.06666666666666667,1.0,0.25,0.7924528301886793,0.125
pntwiki,False,46.0,0.06666666666666667,1.0,0.25,0.7924528301886793,0.125
pntwiki,False,47.0,0.06976744186046512,1.0,0.2857142857142857,0.7547169811320755,0.13043478260869565
pntwiki,False,48.0,0.07142857142857142,1.0,0.30357142857142855,0.7358490566037735,0.13333333333333333
pntwiki,False,49.0,0.07317073170731707,1.0,0.32142857142857145,0.7169811320754716,0.13636363636363635
pntwiki,False,50.0,0.07317073170731707,1.0,0.32142857142857145,0.7169811320754716,0.13636363636363635
pntwiki,False,51.0,0.075,1.0,0.3392857142857143,0.6981132075471698,0.13953488372093023
pntwiki,False,52.0,0.07692307692307693,1.0,0.35714285714285715,0.6792452830188679,0.14285714285714288
pntwiki,False,53.0,0.07692307692307693,1.0,0.35714285714285715,0.6792452830188679,0.14285714285714288
pntwiki,False,54.0,0.07894736842105263,1.0,0.375,0.660377358490566,0.14634146341463414
pntwiki,False,55.0,0.08571428571428572,1.0,0.42857142857142855,0.6037735849056604,0.15789473684210528
pntwiki,False,56.0,0.09090909090909091,1.0,0.4642857142857143,0.5660377358490566,0.16666666666666669
pntwiki,False,57.0,0.09375,1.0,0.48214285714285715,0.5471698113207547,0.17142857142857143
pntwiki,False,58.0,0.09375,1.0,0.48214285714285715,0.5471698113207547,0.17142857142857143
pntwiki,False,59.0,0.0967741935483871,1.0,0.5,0.5283018867924528,0.17647058823529413
pntwiki,False,60.0,0.1,1.0,0.5178571428571429,0.5094339622641509,0.18181818181818182
pntwiki,False,61.0,0.10714285714285714,1.0,0.5535714285714286,0.4716981132075472,0.19354838709677416
pntwiki,False,62.0,0.1111111111111111,1.0,0.5714285714285714,0.4528301886792453,0.19999999999999998
pntwiki,False,63.0,0.12,1.0,0.6071428571428571,0.41509433962264153,0.21428571428571425
pntwiki,False,64.0,0.13636363636363635,1.0,0.6607142857142857,0.3584905660377358,0.24000000000000002
pntwiki,False,65.0,0.14285714285714285,1.0,0.6785714285714286,0.33962264150943394,0.25
pntwiki,False,66.0,0.14285714285714285,1.0,0.6785714285714286,0.33962264150943394,0.25
pntwiki,False,67.0,0.14285714285714285,1.0,0.6785714285714286,0.33962264150943394,0.25
pntwiki,False,68.0,0.15,1.0,0.6964285714285714,0.32075471698113206,0.2608695652173913
pntwiki,False,69.0,0.15,1.0,0.6964285714285714,0.32075471698113206,0.2608695652173913
pntwiki,False,70.0,0.15,1.0,0.6964285714285714,0.32075471698113206,0.2608695652173913
pntwiki,False,71.0,0.15,1.0,0.6964285714285714,0.32075471698113206,0.2608695652173913
pntwiki,False,72.0,0.15,1.0,0.6964285714285714,0.32075471698113206,0.2608695652173913
pntwiki,False,73.0,0.15789473684210525,1.0,0.7142857142857143,0.3018867924528302,0.2727272727272727
pntwiki,False,74.0,0.16666666666666666,1.0,0.7321428571428571,0.2830188679245283,0.2857142857142857
pntwiki,False,75.0,0.17647058823529413,1.0,0.75,0.2641509433962264,0.3
pntwiki,False,76.0,0.1875,1.0,0.7678571428571429,0.24528301886792453,0.3157894736842105
pntwiki,False,77.0,0.1875,1.0,0.7678571428571429,0.24528301886792453,0.3157894736842105
pntwiki,False,78.0,0.1875,1.0,0.7678571428571429,0.24528301886792453,0.3157894736842105
pntwiki,False,79.0,0.1875,1.0,0.7678571428571429,0.24528301886792453,0.3157894736842105
pntwiki,False,80.0,0.21428571428571427,1.0,0.8035714285714286,0.20754716981132076,0.35294117647058826
pntwiki,False,81.0,0.21428571428571427,1.0,0.8035714285714286,0.20754716981132076,0.35294117647058826
pntwiki,False,82.0,0.23076923076923078,1.0,0.8214285714285714,0.18867924528301888,0.375
pntwiki,False,83.0,0.2727272727272727,1.0,0.8571428571428571,0.1509433962264151,0.42857142857142855
pntwiki,False,84.0,0.2727272727272727,1.0,0.8571428571428571,0.1509433962264151,0.42857142857142855
pntwiki,False,85.0,0.3,1.0,0.875,0.1320754716981132,0.4615384615384615
pntwiki,False,86.0,0.3,1.0,0.875,0.1320754716981132,0.4615384615384615
pntwiki,False,87.0,0.3,1.0,0.875,0.1320754716981132,0.4615384615384615
pntwiki,False,88.0,0.3333333333333333,1.0,0.8928571428571429,0.11320754716981132,0.5
pntwiki,False,89.0,0.42857142857142855,1.0,0.9285714285714286,0.07547169811320754,0.6
pntwiki,False,90.0,0.42857142857142855,1.0,0.9285714285714286,0.07547169811320754,0.6
pntwiki,False,91.0,0.42857142857142855,1.0,0.9285714285714286,0.07547169811320754,0.6
pntwiki,False,92.0,0.5,1.0,0.9464285714285714,0.05660377358490566,0.6666666666666666
pntwiki,False,93.0,0.4,0.6666666666666666,0.9285714285714286,0.05660377358490566,0.5
pntwiki,False,94.0,0.5,0.6666666666666666,0.9464285714285714,0.03773584905660377,0.5714285714285715
pntwiki,False,95.0,1.0,0.3333333333333333,0.9642857142857143,0.0,0.5
pntwiki,False,96.0,1.0,0.3333333333333333,0.9642857142857143,0.0,0.5
pntwiki,False,97.0,1.0,0.0,0.9464285714285714,0.0,0.0
pntwiki,False,98.0,1.0,0.0,0.9464285714285714,0.0,0.0
pntwiki,False,99.0,1.0,0.0,0.9464285714285714,0.0,0.0
