wiki_db,user_is_anonymous_or_bot,threshold,precision,recall,accuracy,fpr,F1
quwiki,True,0.0,0.14285714285714285,1.0,0.14285714285714285,1.0,0.25
quwiki,True,1.0,0.14285714285714285,1.0,0.14285714285714285,1.0,0.25
quwiki,True,2.0,0.14285714285714285,1.0,0.14285714285714285,1.0,0.25
quwiki,True,3.0,0.14285714285714285,1.0,0.14285714285714285,1.0,0.25
quwiki,True,4.0,0.14285714285714285,1.0,0.14285714285714285,1.0,0.25
quwiki,True,5.0,0.14285714285714285,1.0,0.14285714285714285,1.0,0.25
quwiki,True,6.0,0.14545454545454545,1.0,0.16071428571428573,0.9791666666666666,0.25396825396825395
quwiki,True,7.0,0.15384615384615385,1.0,0.21428571428571427,0.9166666666666666,0.2666666666666667
quwiki,True,8.0,0.1568627450980392,1.0,0.23214285714285715,0.8958333333333334,0.2711864406779661
quwiki,True,9.0,0.1568627450980392,1.0,0.23214285714285715,0.8958333333333334,0.2711864406779661
quwiki,True,10.0,0.1568627450980392,1.0,0.23214285714285715,0.8958333333333334,0.2711864406779661
quwiki,True,11.0,0.16,1.0,0.25,0.875,0.2758620689655173
quwiki,True,12.0,0.16,1.0,0.25,0.875,0.2758620689655173
quwiki,True,13.0,0.16,1.0,0.25,0.875,0.2758620689655173
quwiki,True,14.0,0.16666666666666666,1.0,0.2857142857142857,0.8333333333333334,0.2857142857142857
quwiki,True,15.0,0.16666666666666666,1.0,0.2857142857142857,0.8333333333333334,0.2857142857142857
quwiki,True,16.0,0.16666666666666666,1.0,0.2857142857142857,0.8333333333333334,0.2857142857142857
quwiki,True,17.0,0.16666666666666666,1.0,0.2857142857142857,0.8333333333333334,0.2857142857142857
quwiki,True,18.0,0.16666666666666666,1.0,0.2857142857142857,0.8333333333333334,0.2857142857142857
quwiki,True,19.0,0.16666666666666666,1.0,0.2857142857142857,0.8333333333333334,0.2857142857142857
quwiki,True,20.0,0.16666666666666666,1.0,0.2857142857142857,0.8333333333333334,0.2857142857142857
quwiki,True,21.0,0.16666666666666666,1.0,0.2857142857142857,0.8333333333333334,0.2857142857142857
quwiki,True,22.0,0.1702127659574468,1.0,0.30357142857142855,0.8125,0.2909090909090909
quwiki,True,23.0,0.1702127659574468,1.0,0.30357142857142855,0.8125,0.2909090909090909
quwiki,True,24.0,0.1702127659574468,1.0,0.30357142857142855,0.8125,0.2909090909090909
quwiki,True,25.0,0.1702127659574468,1.0,0.30357142857142855,0.8125,0.2909090909090909
quwiki,True,26.0,0.1702127659574468,1.0,0.30357142857142855,0.8125,0.2909090909090909
quwiki,True,27.0,0.1702127659574468,1.0,0.30357142857142855,0.8125,0.2909090909090909
quwiki,True,28.0,0.1702127659574468,1.0,0.30357142857142855,0.8125,0.2909090909090909
quwiki,True,29.0,0.1702127659574468,1.0,0.30357142857142855,0.8125,0.2909090909090909
quwiki,True,30.0,0.1702127659574468,1.0,0.30357142857142855,0.8125,0.2909090909090909
quwiki,True,31.0,0.1702127659574468,1.0,0.30357142857142855,0.8125,0.2909090909090909
quwiki,True,32.0,0.1702127659574468,1.0,0.30357142857142855,0.8125,0.2909090909090909
quwiki,True,33.0,0.17391304347826086,1.0,0.32142857142857145,0.7916666666666666,0.29629629629629634
quwiki,True,34.0,0.17391304347826086,1.0,0.32142857142857145,0.7916666666666666,0.29629629629629634
quwiki,True,35.0,0.17391304347826086,1.0,0.32142857142857145,0.7916666666666666,0.29629629629629634
quwiki,True,36.0,0.17391304347826086,1.0,0.32142857142857145,0.7916666666666666,0.29629629629629634
quwiki,True,37.0,0.17777777777777778,1.0,0.3392857142857143,0.7708333333333334,0.3018867924528302
quwiki,True,38.0,0.17777777777777778,1.0,0.3392857142857143,0.7708333333333334,0.3018867924528302
quwiki,True,39.0,0.17777777777777778,1.0,0.3392857142857143,0.7708333333333334,0.3018867924528302
quwiki,True,40.0,0.17777777777777778,1.0,0.3392857142857143,0.7708333333333334,0.3018867924528302
quwiki,True,41.0,0.17777777777777778,1.0,0.3392857142857143,0.7708333333333334,0.3018867924528302
quwiki,True,42.0,0.17777777777777778,1.0,0.3392857142857143,0.7708333333333334,0.3018867924528302
quwiki,True,43.0,0.17777777777777778,1.0,0.3392857142857143,0.7708333333333334,0.3018867924528302
quwiki,True,44.0,0.18181818181818182,1.0,0.35714285714285715,0.75,0.3076923076923077
quwiki,True,45.0,0.18181818181818182,1.0,0.35714285714285715,0.75,0.3076923076923077
quwiki,True,46.0,0.18181818181818182,1.0,0.35714285714285715,0.75,0.3076923076923077
quwiki,True,47.0,0.18181818181818182,1.0,0.35714285714285715,0.75,0.3076923076923077
quwiki,True,48.0,0.18181818181818182,1.0,0.35714285714285715,0.75,0.3076923076923077
quwiki,True,49.0,0.18181818181818182,1.0,0.35714285714285715,0.75,0.3076923076923077
quwiki,True,50.0,0.18181818181818182,1.0,0.35714285714285715,0.75,0.3076923076923077
quwiki,True,51.0,0.18181818181818182,1.0,0.35714285714285715,0.75,0.3076923076923077
quwiki,True,52.0,0.18604651162790697,1.0,0.375,0.7291666666666666,0.3137254901960785
quwiki,True,53.0,0.18604651162790697,1.0,0.375,0.7291666666666666,0.3137254901960785
quwiki,True,54.0,0.19047619047619047,1.0,0.39285714285714285,0.7083333333333334,0.32
quwiki,True,55.0,0.19047619047619047,1.0,0.39285714285714285,0.7083333333333334,0.32
quwiki,True,56.0,0.1951219512195122,1.0,0.4107142857142857,0.6875,0.326530612244898
quwiki,True,57.0,0.1951219512195122,1.0,0.4107142857142857,0.6875,0.326530612244898
quwiki,True,58.0,0.1951219512195122,1.0,0.4107142857142857,0.6875,0.326530612244898
quwiki,True,59.0,0.2,1.0,0.42857142857142855,0.6666666666666666,0.33333333333333337
quwiki,True,60.0,0.1794871794871795,0.875,0.4107142857142857,0.6666666666666666,0.2978723404255319
quwiki,True,61.0,0.1794871794871795,0.875,0.4107142857142857,0.6666666666666666,0.2978723404255319
quwiki,True,62.0,0.18421052631578946,0.875,0.42857142857142855,0.6458333333333334,0.30434782608695654
quwiki,True,63.0,0.18421052631578946,0.875,0.42857142857142855,0.6458333333333334,0.30434782608695654
quwiki,True,64.0,0.18421052631578946,0.875,0.42857142857142855,0.6458333333333334,0.30434782608695654
quwiki,True,65.0,0.18421052631578946,0.875,0.42857142857142855,0.6458333333333334,0.30434782608695654
quwiki,True,66.0,0.1891891891891892,0.875,0.44642857142857145,0.625,0.3111111111111111
quwiki,True,67.0,0.1891891891891892,0.875,0.44642857142857145,0.625,0.3111111111111111
quwiki,True,68.0,0.1891891891891892,0.875,0.44642857142857145,0.625,0.3111111111111111
quwiki,True,69.0,0.19444444444444445,0.875,0.4642857142857143,0.6041666666666666,0.3181818181818182
quwiki,True,70.0,0.2,0.875,0.48214285714285715,0.5833333333333334,0.32558139534883723
quwiki,True,71.0,0.20588235294117646,0.875,0.5,0.5625,0.33333333333333337
quwiki,True,72.0,0.20588235294117646,0.875,0.5,0.5625,0.33333333333333337
quwiki,True,73.0,0.20588235294117646,0.875,0.5,0.5625,0.33333333333333337
quwiki,True,74.0,0.21212121212121213,0.875,0.5178571428571429,0.5416666666666666,0.3414634146341463
quwiki,True,75.0,0.21212121212121213,0.875,0.5178571428571429,0.5416666666666666,0.3414634146341463
quwiki,True,76.0,0.21212121212121213,0.875,0.5178571428571429,0.5416666666666666,0.3414634146341463
quwiki,True,77.0,0.21212121212121213,0.875,0.5178571428571429,0.5416666666666666,0.3414634146341463
quwiki,True,78.0,0.22580645161290322,0.875,0.5535714285714286,0.5,0.358974358974359
quwiki,True,79.0,0.2413793103448276,0.875,0.5892857142857143,0.4583333333333333,0.3783783783783784
quwiki,True,80.0,0.23076923076923078,0.75,0.6071428571428571,0.4166666666666667,0.3529411764705882
quwiki,True,81.0,0.23076923076923078,0.75,0.6071428571428571,0.4166666666666667,0.3529411764705882
quwiki,True,82.0,0.24,0.75,0.625,0.3958333333333333,0.36363636363636365
quwiki,True,83.0,0.24,0.75,0.625,0.3958333333333333,0.36363636363636365
quwiki,True,84.0,0.25,0.75,0.6428571428571429,0.375,0.375
quwiki,True,85.0,0.22727272727272727,0.625,0.6428571428571429,0.3541666666666667,0.3333333333333333
quwiki,True,86.0,0.23809523809523808,0.625,0.6607142857142857,0.3333333333333333,0.3448275862068965
quwiki,True,87.0,0.2777777777777778,0.625,0.7142857142857143,0.2708333333333333,0.3846153846153846
quwiki,True,88.0,0.2777777777777778,0.625,0.7142857142857143,0.2708333333333333,0.3846153846153846
quwiki,True,89.0,0.29411764705882354,0.625,0.7321428571428571,0.25,0.4
quwiki,True,90.0,0.2857142857142857,0.5,0.75,0.20833333333333334,0.36363636363636365
quwiki,True,91.0,0.4,0.5,0.8214285714285714,0.125,0.4444444444444445
quwiki,True,92.0,0.6666666666666666,0.5,0.8928571428571429,0.041666666666666664,0.5714285714285715
quwiki,True,93.0,0.8,0.5,0.9107142857142857,0.020833333333333332,0.6153846153846154
quwiki,True,94.0,1.0,0.125,0.875,0.0,0.2222222222222222
quwiki,True,95.0,1.0,0.125,0.875,0.0,0.2222222222222222
quwiki,True,96.0,1.0,0.125,0.875,0.0,0.2222222222222222
quwiki,True,97.0,1.0,0.125,0.875,0.0,0.2222222222222222
quwiki,True,98.0,1.0,0.0,0.8571428571428571,0.0,0.0
quwiki,True,99.0,1.0,0.0,0.8571428571428571,0.0,0.0
quwiki,False,0.0,0.050595238095238096,1.0,0.050595238095238096,1.0,0.09631728045325778
quwiki,False,1.0,0.050595238095238096,1.0,0.050595238095238096,1.0,0.09631728045325778
quwiki,False,2.0,0.050595238095238096,1.0,0.050595238095238096,1.0,0.09631728045325778
quwiki,False,3.0,0.050746268656716415,1.0,0.05357142857142857,0.9968652037617555,0.09659090909090909
quwiki,False,4.0,0.051515151515151514,1.0,0.06845238095238096,0.9811912225705329,0.09798270893371758
quwiki,False,5.0,0.05198776758409786,1.0,0.07738095238095238,0.9717868338557993,0.09883720930232558
quwiki,False,6.0,0.052795031055900624,1.0,0.09226190476190477,0.9561128526645768,0.10029498525073746
quwiki,False,7.0,0.05379746835443038,1.0,0.11011904761904762,0.9373040752351097,0.1021021021021021
quwiki,False,8.0,0.054313099041533544,1.0,0.11904761904761904,0.9278996865203761,0.10303030303030303
quwiki,False,9.0,0.05501618122977346,1.0,0.13095238095238096,0.9153605015673981,0.10429447852760737
quwiki,False,10.0,0.056105610561056105,1.0,0.1488095238095238,0.896551724137931,0.10625000000000001
quwiki,False,11.0,0.057432432432432436,1.0,0.16964285714285715,0.8746081504702194,0.1086261980830671
quwiki,False,12.0,0.05821917808219178,1.0,0.18154761904761904,0.8620689655172413,0.11003236245954692
quwiki,False,13.0,0.06007067137809187,1.0,0.20833333333333334,0.8338557993730408,0.11333333333333333
quwiki,False,14.0,0.06093189964157706,1.0,0.22023809523809523,0.8213166144200627,0.11486486486486486
quwiki,False,15.0,0.06227106227106227,1.0,0.23809523809523808,0.8025078369905956,0.11724137931034483
quwiki,False,16.0,0.06343283582089553,1.0,0.25297619047619047,0.786833855799373,0.1192982456140351
quwiki,False,17.0,0.06367041198501873,1.0,0.25595238095238093,0.7836990595611285,0.11971830985915494
quwiki,False,18.0,0.06367041198501873,1.0,0.25595238095238093,0.7836990595611285,0.11971830985915494
quwiki,False,19.0,0.06390977443609022,1.0,0.25892857142857145,0.780564263322884,0.12014134275618375
quwiki,False,20.0,0.06463878326996197,1.0,0.26785714285714285,0.7711598746081505,0.12142857142857143
quwiki,False,21.0,0.06513409961685823,1.0,0.27380952380952384,0.7648902821316614,0.12230215827338127
quwiki,False,22.0,0.06589147286821706,1.0,0.28273809523809523,0.7554858934169278,0.12363636363636363
quwiki,False,23.0,0.06640625,1.0,0.28869047619047616,0.7492163009404389,0.12454212454212454
quwiki,False,24.0,0.068,1.0,0.30654761904761907,0.7304075235109718,0.12734082397003746
quwiki,False,25.0,0.06938775510204082,1.0,0.32142857142857145,0.7147335423197492,0.1297709923664122
quwiki,False,26.0,0.07083333333333333,1.0,0.33630952380952384,0.6990595611285266,0.13229571984435798
quwiki,False,27.0,0.07142857142857142,1.0,0.34226190476190477,0.6927899686520376,0.13333333333333333
quwiki,False,28.0,0.07264957264957266,1.0,0.3541666666666667,0.6802507836990596,0.1354581673306773
quwiki,False,29.0,0.0735930735930736,1.0,0.3630952380952381,0.670846394984326,0.1370967741935484
quwiki,False,30.0,0.07488986784140969,1.0,0.375,0.658307210031348,0.13934426229508198
quwiki,False,31.0,0.07623318385650224,1.0,0.3869047619047619,0.64576802507837,0.14166666666666666
quwiki,False,32.0,0.0776255707762557,1.0,0.39880952380952384,0.6332288401253918,0.1440677966101695
quwiki,False,33.0,0.07981220657276995,1.0,0.4166666666666667,0.6144200626959248,0.14782608695652175
quwiki,False,34.0,0.08133971291866028,1.0,0.42857142857142855,0.6018808777429467,0.15044247787610618
quwiki,False,35.0,0.0821256038647343,1.0,0.43452380952380953,0.5956112852664577,0.1517857142857143
quwiki,False,36.0,0.0825242718446602,1.0,0.4375,0.5924764890282131,0.1524663677130045
quwiki,False,37.0,0.08292682926829269,1.0,0.44047619047619047,0.5893416927899686,0.15315315315315314
quwiki,False,38.0,0.08333333333333333,1.0,0.44345238095238093,0.5862068965517241,0.15384615384615385
quwiki,False,39.0,0.08415841584158416,1.0,0.4494047619047619,0.5799373040752351,0.1552511415525114
quwiki,False,40.0,0.08542713567839195,1.0,0.4583333333333333,0.5705329153605015,0.15740740740740738
quwiki,False,41.0,0.08585858585858586,1.0,0.46130952380952384,0.567398119122257,0.15813953488372093
quwiki,False,42.0,0.08808290155440414,1.0,0.47619047619047616,0.5517241379310345,0.16190476190476188
quwiki,False,43.0,0.08421052631578947,0.9411764705882353,0.4791666666666667,0.5454545454545454,0.1545893719806763
quwiki,False,44.0,0.08602150537634409,0.9411764705882353,0.49107142857142855,0.5329153605015674,0.1576354679802956
quwiki,False,45.0,0.08648648648648649,0.9411764705882353,0.49404761904761907,0.5297805642633229,0.15841584158415842
quwiki,False,46.0,0.08695652173913043,0.9411764705882353,0.49702380952380953,0.5266457680250783,0.15920398009950248
quwiki,False,47.0,0.08888888888888889,0.9411764705882353,0.5089285714285714,0.5141065830721003,0.1624365482233503
quwiki,False,48.0,0.08522727272727272,0.8823529411764706,0.5148809523809523,0.5047021943573667,0.15544041450777202
quwiki,False,49.0,0.08771929824561403,0.8823529411764706,0.5297619047619048,0.4890282131661442,0.15957446808510636
quwiki,False,50.0,0.08823529411764706,0.8823529411764706,0.5327380952380952,0.48589341692789967,0.16042780748663102
quwiki,False,51.0,0.08928571428571429,0.8823529411764706,0.5386904761904762,0.47962382445141066,0.16216216216216217
quwiki,False,52.0,0.09146341463414634,0.8823529411764706,0.5505952380952381,0.4670846394984326,0.16574585635359118
quwiki,False,53.0,0.09316770186335403,0.8823529411764706,0.5595238095238095,0.45768025078369906,0.16853932584269662
quwiki,False,54.0,0.0949367088607595,0.8823529411764706,0.5684523809523809,0.4482758620689655,0.17142857142857143
quwiki,False,55.0,0.09868421052631579,0.8823529411764706,0.5863095238095238,0.42946708463949845,0.17751479289940827
quwiki,False,56.0,0.10273972602739725,0.8823529411764706,0.6041666666666666,0.4106583072100313,0.18404907975460122
quwiki,False,57.0,0.1048951048951049,0.8823529411764706,0.6130952380952381,0.4012539184952978,0.1875
quwiki,False,58.0,0.10948905109489052,0.8823529411764706,0.6309523809523809,0.3824451410658307,0.19480519480519481
quwiki,False,59.0,0.11363636363636363,0.8823529411764706,0.6458333333333334,0.3667711598746082,0.20134228187919462
quwiki,False,60.0,0.10852713178294573,0.8235294117647058,0.6488095238095238,0.3605015673981191,0.19178082191780824
quwiki,False,61.0,0.10317460317460317,0.7647058823529411,0.6517857142857143,0.3542319749216301,0.1818181818181818
quwiki,False,62.0,0.1092436974789916,0.7647058823529411,0.6726190476190477,0.3322884012539185,0.1911764705882353
quwiki,False,63.0,0.11403508771929824,0.7647058823529411,0.6875,0.3166144200626959,0.19847328244274806
quwiki,False,64.0,0.11926605504587157,0.7647058823529411,0.7023809523809523,0.30094043887147337,0.20634920634920637
quwiki,False,65.0,0.1188118811881188,0.7058823529411765,0.7202380952380952,0.27899686520376177,0.20338983050847456
quwiki,False,66.0,0.125,0.7058823529411765,0.7351190476190477,0.26332288401253917,0.21238938053097345
quwiki,False,67.0,0.1276595744680851,0.7058823529411765,0.7410714285714286,0.25705329153605017,0.2162162162162162
quwiki,False,68.0,0.13793103448275862,0.7058823529411765,0.7619047619047619,0.23510971786833856,0.23076923076923078
quwiki,False,69.0,0.14285714285714285,0.7058823529411765,0.7708333333333334,0.22570532915360503,0.2376237623762376
quwiki,False,70.0,0.14634146341463414,0.7058823529411765,0.7767857142857143,0.219435736677116,0.2424242424242424
quwiki,False,71.0,0.15789473684210525,0.7058823529411765,0.7946428571428571,0.2006269592476489,0.25806451612903225
quwiki,False,72.0,0.14666666666666667,0.6470588235294118,0.7916666666666666,0.2006269592476489,0.23913043478260873
quwiki,False,73.0,0.1506849315068493,0.6470588235294118,0.7976190476190477,0.19435736677115986,0.24444444444444444
quwiki,False,74.0,0.15942028985507245,0.6470588235294118,0.8095238095238095,0.18181818181818182,0.2558139534883721
quwiki,False,75.0,0.16417910447761194,0.6470588235294118,0.8154761904761905,0.1755485893416928,0.2619047619047619
quwiki,False,76.0,0.16417910447761194,0.6470588235294118,0.8154761904761905,0.1755485893416928,0.2619047619047619
quwiki,False,77.0,0.15625,0.5882352941176471,0.8184523809523809,0.16927899686520376,0.2469135802469136
quwiki,False,78.0,0.16393442622950818,0.5882352941176471,0.8273809523809523,0.15987460815047022,0.25641025641025644
quwiki,False,79.0,0.17857142857142858,0.5882352941176471,0.8422619047619048,0.14420062695924765,0.273972602739726
quwiki,False,80.0,0.17307692307692307,0.5294117647058824,0.8482142857142857,0.13479623824451412,0.2608695652173913
quwiki,False,81.0,0.1836734693877551,0.5294117647058824,0.8571428571428571,0.12539184952978055,0.27272727272727276
quwiki,False,82.0,0.1875,0.5294117647058824,0.8601190476190477,0.12225705329153605,0.27692307692307694
quwiki,False,83.0,0.1956521739130435,0.5294117647058824,0.8660714285714286,0.11598746081504702,0.28571428571428575
quwiki,False,84.0,0.21428571428571427,0.5294117647058824,0.8779761904761905,0.10344827586206896,0.30508474576271183
quwiki,False,85.0,0.22857142857142856,0.47058823529411764,0.8928571428571429,0.08463949843260188,0.3076923076923077
quwiki,False,86.0,0.24242424242424243,0.47058823529411764,0.8988095238095238,0.07836990595611286,0.32
quwiki,False,87.0,0.25,0.4117647058823529,0.9077380952380952,0.06583072100313479,0.3111111111111111
quwiki,False,88.0,0.23076923076923078,0.35294117647058826,0.9077380952380952,0.06269592476489028,0.2790697674418605
quwiki,False,89.0,0.2727272727272727,0.35294117647058826,0.9196428571428571,0.050156739811912224,0.30769230769230765
quwiki,False,90.0,0.29411764705882354,0.29411764705882354,0.9285714285714286,0.03761755485893417,0.29411764705882354
quwiki,False,91.0,0.3333333333333333,0.23529411764705882,0.9375,0.025078369905956112,0.27586206896551724
quwiki,False,92.0,0.5714285714285714,0.23529411764705882,0.9523809523809523,0.009404388714733543,0.3333333333333333
quwiki,False,93.0,0.6666666666666666,0.23529411764705882,0.9553571428571429,0.006269592476489028,0.3478260869565218
quwiki,False,94.0,0.5,0.058823529411764705,0.9494047619047619,0.003134796238244514,0.10526315789473684
quwiki,False,95.0,1.0,0.058823529411764705,0.9523809523809523,0.0,0.1111111111111111
quwiki,False,96.0,1.0,0.058823529411764705,0.9523809523809523,0.0,0.1111111111111111
quwiki,False,97.0,1.0,0.058823529411764705,0.9523809523809523,0.0,0.1111111111111111
quwiki,False,98.0,1.0,0.0,0.9494047619047619,0.0,0.0
quwiki,False,99.0,1.0,0.0,0.9494047619047619,0.0,0.0
