wiki_db,user_is_anonymous_or_bot,threshold,precision,recall,accuracy,fpr,F1
sawiki,True,0.0,0.09615384615384616,1.0,0.09615384615384616,1.0,0.17543859649122806
sawiki,True,1.0,0.09615384615384616,1.0,0.09615384615384616,1.0,0.17543859649122806
sawiki,True,2.0,0.09615384615384616,1.0,0.09615384615384616,1.0,0.17543859649122806
sawiki,True,3.0,0.09615384615384616,1.0,0.09615384615384616,1.0,0.17543859649122806
sawiki,True,4.0,0.09615384615384616,1.0,0.09615384615384616,1.0,0.17543859649122806
sawiki,True,5.0,0.09615384615384616,1.0,0.09615384615384616,1.0,0.17543859649122806
sawiki,True,6.0,0.09615384615384616,1.0,0.09615384615384616,1.0,0.17543859649122806
sawiki,True,7.0,0.09615384615384616,1.0,0.09615384615384616,1.0,0.17543859649122806
sawiki,True,8.0,0.09615384615384616,1.0,0.09615384615384616,1.0,0.17543859649122806
sawiki,True,9.0,0.09615384615384616,1.0,0.09615384615384616,1.0,0.17543859649122806
sawiki,True,10.0,0.09615384615384616,1.0,0.09615384615384616,1.0,0.17543859649122806
sawiki,True,11.0,0.09615384615384616,1.0,0.09615384615384616,1.0,0.17543859649122806
sawiki,True,12.0,0.09615384615384616,1.0,0.09615384615384616,1.0,0.17543859649122806
sawiki,True,13.0,0.09615384615384616,1.0,0.09615384615384616,1.0,0.17543859649122806
sawiki,True,14.0,0.09615384615384616,1.0,0.09615384615384616,1.0,0.17543859649122806
sawiki,True,15.0,0.09615384615384616,1.0,0.09615384615384616,1.0,0.17543859649122806
sawiki,True,16.0,0.09615384615384616,1.0,0.09615384615384616,1.0,0.17543859649122806
sawiki,True,17.0,0.09615384615384616,1.0,0.09615384615384616,1.0,0.17543859649122806
sawiki,True,18.0,0.09615384615384616,1.0,0.09615384615384616,1.0,0.17543859649122806
sawiki,True,19.0,0.09615384615384616,1.0,0.09615384615384616,1.0,0.17543859649122806
sawiki,True,20.0,0.09615384615384616,1.0,0.09615384615384616,1.0,0.17543859649122806
sawiki,True,21.0,0.09615384615384616,1.0,0.09615384615384616,1.0,0.17543859649122806
sawiki,True,22.0,0.09615384615384616,1.0,0.09615384615384616,1.0,0.17543859649122806
sawiki,True,23.0,0.09615384615384616,1.0,0.09615384615384616,1.0,0.17543859649122806
sawiki,True,24.0,0.09615384615384616,1.0,0.09615384615384616,1.0,0.17543859649122806
sawiki,True,25.0,0.09615384615384616,1.0,0.09615384615384616,1.0,0.17543859649122806
sawiki,True,26.0,0.09615384615384616,1.0,0.09615384615384616,1.0,0.17543859649122806
sawiki,True,27.0,0.09615384615384616,1.0,0.09615384615384616,1.0,0.17543859649122806
sawiki,True,28.0,0.09615384615384616,1.0,0.09615384615384616,1.0,0.17543859649122806
sawiki,True,29.0,0.09615384615384616,1.0,0.09615384615384616,1.0,0.17543859649122806
sawiki,True,30.0,0.09615384615384616,1.0,0.09615384615384616,1.0,0.17543859649122806
sawiki,True,31.0,0.09615384615384616,1.0,0.09615384615384616,1.0,0.17543859649122806
sawiki,True,32.0,0.09615384615384616,1.0,0.09615384615384616,1.0,0.17543859649122806
sawiki,True,33.0,0.09615384615384616,1.0,0.09615384615384616,1.0,0.17543859649122806
sawiki,True,34.0,0.09615384615384616,1.0,0.09615384615384616,1.0,0.17543859649122806
sawiki,True,35.0,0.09615384615384616,1.0,0.09615384615384616,1.0,0.17543859649122806
sawiki,True,36.0,0.09615384615384616,1.0,0.09615384615384616,1.0,0.17543859649122806
sawiki,True,37.0,0.09803921568627451,1.0,0.11538461538461539,0.9787234042553191,0.17857142857142855
sawiki,True,38.0,0.09803921568627451,1.0,0.11538461538461539,0.9787234042553191,0.17857142857142855
sawiki,True,39.0,0.09803921568627451,1.0,0.11538461538461539,0.9787234042553191,0.17857142857142855
sawiki,True,40.0,0.09803921568627451,1.0,0.11538461538461539,0.9787234042553191,0.17857142857142855
sawiki,True,41.0,0.09803921568627451,1.0,0.11538461538461539,0.9787234042553191,0.17857142857142855
sawiki,True,42.0,0.09803921568627451,1.0,0.11538461538461539,0.9787234042553191,0.17857142857142855
sawiki,True,43.0,0.09803921568627451,1.0,0.11538461538461539,0.9787234042553191,0.17857142857142855
sawiki,True,44.0,0.09803921568627451,1.0,0.11538461538461539,0.9787234042553191,0.17857142857142855
sawiki,True,45.0,0.09803921568627451,1.0,0.11538461538461539,0.9787234042553191,0.17857142857142855
sawiki,True,46.0,0.1,1.0,0.1346153846153846,0.9574468085106383,0.18181818181818182
sawiki,True,47.0,0.1,1.0,0.1346153846153846,0.9574468085106383,0.18181818181818182
sawiki,True,48.0,0.1,1.0,0.1346153846153846,0.9574468085106383,0.18181818181818182
sawiki,True,49.0,0.1,1.0,0.1346153846153846,0.9574468085106383,0.18181818181818182
sawiki,True,50.0,0.1,1.0,0.1346153846153846,0.9574468085106383,0.18181818181818182
sawiki,True,51.0,0.1,1.0,0.1346153846153846,0.9574468085106383,0.18181818181818182
sawiki,True,52.0,0.1,1.0,0.1346153846153846,0.9574468085106383,0.18181818181818182
sawiki,True,53.0,0.1,1.0,0.1346153846153846,0.9574468085106383,0.18181818181818182
sawiki,True,54.0,0.1,1.0,0.1346153846153846,0.9574468085106383,0.18181818181818182
sawiki,True,55.0,0.1,1.0,0.1346153846153846,0.9574468085106383,0.18181818181818182
sawiki,True,56.0,0.1,1.0,0.1346153846153846,0.9574468085106383,0.18181818181818182
sawiki,True,57.0,0.10204081632653061,1.0,0.15384615384615385,0.9361702127659575,0.1851851851851852
sawiki,True,58.0,0.10204081632653061,1.0,0.15384615384615385,0.9361702127659575,0.1851851851851852
sawiki,True,59.0,0.10204081632653061,1.0,0.15384615384615385,0.9361702127659575,0.1851851851851852
sawiki,True,60.0,0.10204081632653061,1.0,0.15384615384615385,0.9361702127659575,0.1851851851851852
sawiki,True,61.0,0.10204081632653061,1.0,0.15384615384615385,0.9361702127659575,0.1851851851851852
sawiki,True,62.0,0.10204081632653061,1.0,0.15384615384615385,0.9361702127659575,0.1851851851851852
sawiki,True,63.0,0.10204081632653061,1.0,0.15384615384615385,0.9361702127659575,0.1851851851851852
sawiki,True,64.0,0.10204081632653061,1.0,0.15384615384615385,0.9361702127659575,0.1851851851851852
sawiki,True,65.0,0.10416666666666667,1.0,0.17307692307692307,0.9148936170212766,0.18867924528301885
sawiki,True,66.0,0.10416666666666667,1.0,0.17307692307692307,0.9148936170212766,0.18867924528301885
sawiki,True,67.0,0.10416666666666667,1.0,0.17307692307692307,0.9148936170212766,0.18867924528301885
sawiki,True,68.0,0.10638297872340426,1.0,0.19230769230769232,0.8936170212765957,0.1923076923076923
sawiki,True,69.0,0.10869565217391304,1.0,0.21153846153846154,0.8723404255319149,0.19607843137254902
sawiki,True,70.0,0.10869565217391304,1.0,0.21153846153846154,0.8723404255319149,0.19607843137254902
sawiki,True,71.0,0.10869565217391304,1.0,0.21153846153846154,0.8723404255319149,0.19607843137254902
sawiki,True,72.0,0.1111111111111111,1.0,0.23076923076923078,0.851063829787234,0.19999999999999998
sawiki,True,73.0,0.1111111111111111,1.0,0.23076923076923078,0.851063829787234,0.19999999999999998
sawiki,True,74.0,0.1111111111111111,1.0,0.23076923076923078,0.851063829787234,0.19999999999999998
sawiki,True,75.0,0.11363636363636363,1.0,0.25,0.8297872340425532,0.20408163265306123
sawiki,True,76.0,0.11627906976744186,1.0,0.2692307692307692,0.8085106382978723,0.20833333333333334
sawiki,True,77.0,0.125,1.0,0.3269230769230769,0.7446808510638298,0.2222222222222222
sawiki,True,78.0,0.11428571428571428,0.8,0.38461538461538464,0.6595744680851063,0.19999999999999998
sawiki,True,79.0,0.11428571428571428,0.8,0.38461538461538464,0.6595744680851063,0.19999999999999998
sawiki,True,80.0,0.12121212121212122,0.8,0.4230769230769231,0.6170212765957447,0.2105263157894737
sawiki,True,81.0,0.12121212121212122,0.8,0.4230769230769231,0.6170212765957447,0.2105263157894737
sawiki,True,82.0,0.13333333333333333,0.8,0.4807692307692308,0.5531914893617021,0.2285714285714286
sawiki,True,83.0,0.13333333333333333,0.8,0.4807692307692308,0.5531914893617021,0.2285714285714286
sawiki,True,84.0,0.13333333333333333,0.8,0.4807692307692308,0.5531914893617021,0.2285714285714286
sawiki,True,85.0,0.13793103448275862,0.8,0.5,0.5319148936170213,0.2352941176470588
sawiki,True,86.0,0.14285714285714285,0.8,0.5192307692307693,0.5106382978723404,0.24242424242424243
sawiki,True,87.0,0.15384615384615385,0.8,0.5576923076923077,0.46808510638297873,0.25806451612903225
sawiki,True,88.0,0.16666666666666666,0.8,0.5961538461538461,0.425531914893617,0.27586206896551724
sawiki,True,89.0,0.13043478260869565,0.6,0.5769230769230769,0.425531914893617,0.21428571428571427
sawiki,True,90.0,0.16666666666666666,0.6,0.6730769230769231,0.3191489361702128,0.2608695652173913
sawiki,True,91.0,0.16666666666666666,0.6,0.6730769230769231,0.3191489361702128,0.2608695652173913
sawiki,True,92.0,0.13333333333333333,0.4,0.6923076923076923,0.2765957446808511,0.2
sawiki,True,93.0,0.0,0.0,0.6730769230769231,0.2553191489361702,0.2
sawiki,True,94.0,0.0,0.0,0.7884615384615384,0.1276595744680851,0.2
sawiki,True,95.0,0.0,0.0,0.8269230769230769,0.0851063829787234,0.2
sawiki,True,96.0,0.0,0.0,0.8653846153846154,0.0425531914893617,0.2
sawiki,True,97.0,0.0,0.0,0.8846153846153846,0.02127659574468085,0.2
sawiki,True,98.0,0.0,0.0,0.8846153846153846,0.02127659574468085,0.2
sawiki,True,99.0,0.0,0.0,0.9038461538461539,0.0,0.2
sawiki,False,0.0,0.025711662075298437,1.0,0.025711662075298437,1.0,0.050134288272157566
sawiki,False,1.0,0.025711662075298437,1.0,0.025711662075298437,1.0,0.050134288272157566
sawiki,False,2.0,0.025806451612903226,1.0,0.02938475665748393,0.9962299717247879,0.05031446540880503
sawiki,False,3.0,0.026046511627906978,1.0,0.03856749311294766,0.9868049010367578,0.05077062556663645
sawiki,False,4.0,0.026615969581749048,1.0,0.05968778696051423,0.9651272384542884,0.05185185185185186
sawiki,False,5.0,0.02729044834307992,1.0,0.08356290174471992,0.94062205466541,0.05313092979127135
sawiki,False,6.0,0.027777777777777776,1.0,0.10009182736455463,0.9236569274269557,0.05405405405405406
sawiki,False,7.0,0.028311425682507583,1.0,0.11753902662993572,0.9057492931196984,0.05506391347099311
sawiki,False,8.0,0.028747433264887063,1.0,0.13131313131313133,0.8916116870876531,0.0558882235528942
sawiki,False,9.0,0.029411764705882353,1.0,0.15151515151515152,0.8708765315739868,0.05714285714285715
sawiki,False,10.0,0.03007518796992481,1.0,0.17079889807162535,0.8510838831291234,0.058394160583941604
sawiki,False,11.0,0.030634573304157548,1.0,0.18640955004591367,0.8350612629594723,0.059447983014861996
sawiki,False,12.0,0.03178206583427923,1.0,0.21671258034894397,0.8039585296889726,0.06160616061606161
sawiki,False,13.0,0.03297997644287397,1.0,0.2460973370064279,0.7737983034872762,0.06385404789053592
sawiki,False,14.0,0.033532934131736525,1.0,0.25895316804407714,0.760603204524034,0.06488991888760139
sawiki,False,15.0,0.034912718204488775,1.0,0.2892561983471074,0.7295004712535345,0.06746987951807228
sawiki,False,16.0,0.03534031413612566,0.9642857142857143,0.32231404958677684,0.6946277097078228,0.06818181818181818
sawiki,False,17.0,0.03648648648648649,0.9642857142857143,0.3443526170798898,0.6720075400565504,0.0703125
sawiki,False,18.0,0.037921348314606744,0.9642857142857143,0.37006427915518825,0.6456173421300659,0.07297297297297298
sawiki,False,19.0,0.038348082595870206,0.9285714285714286,0.39944903581267216,0.6145146088595664,0.07365439093484419
sawiki,False,20.0,0.038461538461538464,0.8928571428571429,0.4233241505968779,0.589066918001885,0.07374631268436578
sawiki,False,21.0,0.039936102236421724,0.8928571428571429,0.44536271808999084,0.5664467483506126,0.0764525993883792
sawiki,False,22.0,0.041666666666666664,0.8928571428571429,0.4692378328741965,0.5419415645617343,0.07961783439490445
sawiki,False,23.0,0.042662116040955635,0.8928571428571429,0.4820936639118457,0.528746465598492,0.08143322475570033
sawiki,False,24.0,0.043936731107205626,0.8928571428571429,0.49770431588613406,0.5127238454288408,0.08375209380234507
sawiki,False,25.0,0.04293381037567084,0.8571428571428571,0.5050505050505051,0.5042412818096136,0.08177172061328791
sawiki,False,26.0,0.0423572744014733,0.8214285714285714,0.5179063360881543,0.49010367577756836,0.08056042031523643
sawiki,False,27.0,0.04275092936802974,0.8214285714285714,0.5224977043158862,0.48539114043355325,0.0812720848056537
sawiki,False,28.0,0.04397705544933078,0.8214285714285714,0.5362718089990818,0.471253534401508,0.08348457350272231
sawiki,False,29.0,0.04448742746615087,0.8214285714285714,0.54178145087236,0.4655984919886899,0.08440366972477065
sawiki,False,30.0,0.045454545454545456,0.8214285714285714,0.55188246097337,0.45523091423185674,0.08614232209737828
sawiki,False,31.0,0.043912175648702596,0.7857142857142857,0.5546372819100092,0.4514608859566447,0.08317580340264649
sawiki,False,32.0,0.044534412955465584,0.7857142857142857,0.5610651974288338,0.4448633364750236,0.0842911877394636
sawiki,False,33.0,0.04536082474226804,0.7857142857142857,0.5693296602387512,0.4363807728557964,0.08576998050682262
sawiki,False,34.0,0.04583333333333333,0.7857142857142857,0.573921028466483,0.43166823751178135,0.08661417322834646
sawiki,False,35.0,0.046908315565031986,0.7857142857142857,0.5840220385674931,0.4213006597549482,0.08853118712273643
sawiki,False,36.0,0.04741379310344827,0.7857142857142857,0.588613406795225,0.41658812441093307,0.08943089430894308
sawiki,False,37.0,0.04814004376367615,0.7857142857142857,0.5950413223140496,0.40999057492931196,0.09072164948453608
sawiki,False,38.0,0.048672566371681415,0.7857142857142857,0.5996326905417815,0.4052780395852969,0.09166666666666667
sawiki,False,39.0,0.04719101123595506,0.75,0.6042240587695134,0.3996229971724788,0.08879492600422834
sawiki,False,40.0,0.04827586206896552,0.75,0.6134067952249771,0.3901979264844486,0.09071274298056156
sawiki,False,41.0,0.04895104895104895,0.75,0.6189164370982553,0.38454288407163056,0.09190371991247265
sawiki,False,42.0,0.04964539007092199,0.75,0.6244260789715336,0.37888784165881245,0.09312638580931264
sawiki,False,43.0,0.0498812351543943,0.75,0.6262626262626263,0.3770028275212064,0.0935412026726058
sawiki,False,44.0,0.050724637681159424,0.75,0.6326905417814509,0.3704052780395853,0.09502262443438915
sawiki,False,45.0,0.04938271604938271,0.7142857142857143,0.6391184573002755,0.36286522148916117,0.09237875288683602
sawiki,False,46.0,0.05037783375314862,0.7142857142857143,0.6464646464646465,0.35532516493873706,0.09411764705882353
sawiki,False,47.0,0.05115089514066496,0.7142857142857143,0.6519742883379247,0.34967012252591895,0.09546539379474941
sawiki,False,48.0,0.05263157894736842,0.7142857142857143,0.6620752984389348,0.3393025447690858,0.0980392156862745
sawiki,False,49.0,0.05333333333333334,0.7142857142857143,0.6666666666666666,0.33459000942507067,0.09925558312655088
sawiki,False,50.0,0.05449591280653951,0.7142857142857143,0.6740128558310376,0.32704995287464655,0.10126582278481013
sawiki,False,51.0,0.05337078651685393,0.6785714285714286,0.682277318640955,0.3176248821866164,0.09895833333333334
sawiki,False,52.0,0.05413105413105413,0.6785714285714286,0.6868686868686869,0.31291234684260133,0.10026385224274406
sawiki,False,53.0,0.05278592375366569,0.6428571428571429,0.6942148760330579,0.30442978322337416,0.0975609756097561
sawiki,False,54.0,0.05421686746987952,0.6428571428571429,0.7024793388429752,0.29594721960414705,0.1
sawiki,False,55.0,0.056074766355140186,0.6428571428571429,0.7125803489439853,0.2855796418473139,0.10315186246418338
sawiki,False,56.0,0.056782334384858045,0.6428571428571429,0.7162534435261708,0.28180961357210177,0.10434782608695652
sawiki,False,57.0,0.059602649006622516,0.6428571428571429,0.7300275482093664,0.26767200754005654,0.10909090909090909
sawiki,False,58.0,0.060810810810810814,0.6428571428571429,0.7355371900826446,0.26201696512723843,0.1111111111111111
sawiki,False,59.0,0.059027777777777776,0.6071428571428571,0.7410468319559229,0.2554194156456173,0.10759493670886076
sawiki,False,60.0,0.05434782608695652,0.5357142857142857,0.7483930211202938,0.24599434495758718,0.09868421052631579
sawiki,False,61.0,0.056179775280898875,0.5357142857142857,0.7566574839302111,0.23751178133836004,0.10169491525423728
sawiki,False,62.0,0.053231939163498096,0.5,0.758494031221304,0.23468426013195098,0.09621993127147765
sawiki,False,63.0,0.047058823529411764,0.42857142857142855,0.7621671258034894,0.2290292177191329,0.08480565371024734
sawiki,False,64.0,0.04780876494023904,0.42857142857142855,0.7658402203856749,0.22525918944392084,0.08602150537634408
sawiki,False,65.0,0.0502092050209205,0.42857142857142855,0.7768595041322314,0.21394910461828465,0.0898876404494382
sawiki,False,66.0,0.05150214592274678,0.42857142857142855,0.7823691460055097,0.20829406220546653,0.09195402298850575
sawiki,False,67.0,0.048458149779735685,0.39285714285714285,0.7860422405876951,0.20358152686145145,0.08627450980392157
sawiki,False,68.0,0.05,0.39285714285714285,0.7924701561065197,0.19698397737983034,0.08870967741935484
sawiki,False,69.0,0.051643192488262914,0.39285714285714285,0.7988980716253443,0.19038642789820923,0.0912863070539419
sawiki,False,70.0,0.04784688995215311,0.35714285714285715,0.800734618916437,0.1875589066918002,0.08438818565400845
sawiki,False,71.0,0.045,0.32142857142857145,0.8071625344352618,0.18001885014137606,0.07894736842105263
sawiki,False,72.0,0.046153846153846156,0.32142857142857145,0.8117539026629935,0.17530631479736097,0.08071748878923767
sawiki,False,73.0,0.0481283422459893,0.32142857142857145,0.8191000918273645,0.16776625824693686,0.08372093023255814
sawiki,False,74.0,0.04918032786885246,0.32142857142857145,0.82277318640955,0.16399622997172478,0.08530805687203791
sawiki,False,75.0,0.05084745762711865,0.32142857142857145,0.8282828282828283,0.1583411875589067,0.08780487804878048
sawiki,False,76.0,0.05325443786982249,0.32142857142857145,0.8356290174471993,0.15080113100848255,0.09137055837563453
sawiki,False,77.0,0.05732484076433121,0.32142857142857145,0.8466483011937558,0.13949104618284638,0.0972972972972973
sawiki,False,78.0,0.05517241379310345,0.2857142857142857,0.8558310376492194,0.1291234684260132,0.09248554913294797
sawiki,False,79.0,0.05755395683453238,0.2857142857142857,0.8613406795224977,0.1234684260131951,0.09580838323353295
sawiki,False,80.0,0.061068702290076333,0.2857142857142857,0.8686868686868687,0.11592836946277098,0.10062893081761005
sawiki,False,81.0,0.0625,0.2857142857142857,0.8714416896235078,0.11310084825636192,0.10256410256410256
sawiki,False,82.0,0.06140350877192982,0.25,0.8824609733700642,0.10084825636192271,0.09859154929577466
sawiki,False,83.0,0.05825242718446602,0.21428571428571427,0.8907254361799817,0.09142318567389256,0.0916030534351145
sawiki,False,84.0,0.05102040816326531,0.17857142857142858,0.8934802571166207,0.08765315739868049,0.07936507936507936
sawiki,False,85.0,0.05747126436781609,0.17857142857142858,0.9035812672176309,0.07728557964184732,0.08695652173913042
sawiki,False,86.0,0.06097560975609756,0.17857142857142858,0.9081726354453628,0.07257304429783223,0.09090909090909091
sawiki,False,87.0,0.07246376811594203,0.17857142857142858,0.9201101928374655,0.060320452403393024,0.10309278350515463
sawiki,False,88.0,0.08064516129032258,0.17857142857142858,0.9265381083562901,0.05372290292177191,0.1111111111111111
sawiki,False,89.0,0.06779661016949153,0.14285714285714285,0.9274563820018366,0.051837888784165884,0.09195402298850575
sawiki,False,90.0,0.08,0.14285714285714285,0.9357208448117539,0.043355325164938736,0.10256410256410256
sawiki,False,91.0,0.10256410256410256,0.14285714285714285,0.945821854912764,0.03298774740810556,0.11940298507462686
sawiki,False,92.0,0.0967741935483871,0.10714285714285714,0.9513314967860422,0.02639019792648445,0.10169491525423728
sawiki,False,93.0,0.045454545454545456,0.03571428571428571,0.9559228650137741,0.019792648444863337,0.04
sawiki,False,94.0,0.06666666666666667,0.03571428571428571,0.9623507805325987,0.013195098963242224,0.046511627906976744
sawiki,False,95.0,0.1,0.03571428571428571,0.9669421487603306,0.008482563619227144,0.05263157894736841
sawiki,False,96.0,0.0,0.0,0.9715335169880625,0.002827521206409048,0.05263157894736841
sawiki,False,97.0,0.0,0.0,0.9733700642791552,0.000942507068803016,0.05263157894736841
sawiki,False,98.0,0.0,0.0,0.9733700642791552,0.000942507068803016,0.05263157894736841
sawiki,False,99.0,0.0,0.0,0.9742883379247016,0.0,0.05263157894736841
