wiki_db,user_is_anonymous_or_bot,threshold,precision,recall,accuracy,fpr,F1
scwiki,True,0.0,0.09259259259259259,1.0,0.09259259259259259,1.0,0.1694915254237288
scwiki,True,1.0,0.09259259259259259,1.0,0.09259259259259259,1.0,0.1694915254237288
scwiki,True,2.0,0.09259259259259259,1.0,0.09259259259259259,1.0,0.1694915254237288
scwiki,True,3.0,0.09259259259259259,1.0,0.09259259259259259,1.0,0.1694915254237288
scwiki,True,4.0,0.09293680297397769,1.0,0.0962962962962963,0.9959183673469387,0.17006802721088435
scwiki,True,5.0,0.09293680297397769,1.0,0.0962962962962963,0.9959183673469387,0.17006802721088435
scwiki,True,6.0,0.09328358208955224,1.0,0.1,0.9918367346938776,0.1706484641638225
scwiki,True,7.0,0.09328358208955224,1.0,0.1,0.9918367346938776,0.1706484641638225
scwiki,True,8.0,0.09363295880149813,1.0,0.1037037037037037,0.9877551020408163,0.17123287671232879
scwiki,True,9.0,0.09433962264150944,1.0,0.1111111111111111,0.9795918367346939,0.1724137931034483
scwiki,True,10.0,0.09541984732824428,1.0,0.12222222222222222,0.9673469387755103,0.17421602787456444
scwiki,True,11.0,0.09578544061302682,1.0,0.1259259259259259,0.963265306122449,0.17482517482517484
scwiki,True,12.0,0.09765625,1.0,0.14444444444444443,0.9428571428571428,0.17793594306049823
scwiki,True,13.0,0.1,1.0,0.16666666666666666,0.9183673469387755,0.18181818181818182
scwiki,True,14.0,0.1037344398340249,1.0,0.2,0.8816326530612245,0.18796992481203006
scwiki,True,15.0,0.1111111111111111,1.0,0.25925925925925924,0.8163265306122449,0.19999999999999998
scwiki,True,16.0,0.12437810945273632,1.0,0.34814814814814815,0.7183673469387755,0.22123893805309736
scwiki,True,17.0,0.13966480446927373,1.0,0.42962962962962964,0.6285714285714286,0.2450980392156863
scwiki,True,18.0,0.15337423312883436,1.0,0.4888888888888889,0.563265306122449,0.26595744680851063
scwiki,True,19.0,0.17482517482517482,1.0,0.562962962962963,0.4816326530612245,0.2976190476190476
scwiki,True,20.0,0.1893939393939394,1.0,0.6037037037037037,0.43673469387755104,0.3184713375796178
scwiki,True,21.0,0.20491803278688525,1.0,0.6407407407407407,0.39591836734693875,0.3401360544217687
scwiki,True,22.0,0.22935779816513763,1.0,0.6888888888888889,0.34285714285714286,0.373134328358209
scwiki,True,23.0,0.24509803921568626,1.0,0.7148148148148148,0.3142857142857143,0.39370078740157477
scwiki,True,24.0,0.25773195876288657,1.0,0.7333333333333333,0.2938775510204082,0.40983606557377045
scwiki,True,25.0,0.26595744680851063,1.0,0.7444444444444445,0.2816326530612245,0.42016806722689076
scwiki,True,26.0,0.2777777777777778,1.0,0.7592592592592593,0.2653061224489796,0.4347826086956522
scwiki,True,27.0,0.2840909090909091,1.0,0.7666666666666667,0.2571428571428571,0.4424778761061947
scwiki,True,28.0,0.29411764705882354,1.0,0.7777777777777778,0.24489795918367346,0.45454545454545453
scwiki,True,29.0,0.30864197530864196,1.0,0.7925925925925926,0.22857142857142856,0.4716981132075471
scwiki,True,30.0,0.32051282051282054,1.0,0.8037037037037037,0.2163265306122449,0.48543689320388356
scwiki,True,31.0,0.3333333333333333,1.0,0.8148148148148148,0.20408163265306123,0.5
scwiki,True,32.0,0.352112676056338,1.0,0.8296296296296296,0.18775510204081633,0.5208333333333333
scwiki,True,33.0,0.36764705882352944,1.0,0.8407407407407408,0.17551020408163265,0.5376344086021506
scwiki,True,34.0,0.373134328358209,1.0,0.8444444444444444,0.17142857142857143,0.5434782608695653
scwiki,True,35.0,0.3787878787878788,1.0,0.8481481481481481,0.1673469387755102,0.5494505494505494
scwiki,True,36.0,0.38461538461538464,1.0,0.8518518518518519,0.16326530612244897,0.5555555555555556
scwiki,True,37.0,0.38461538461538464,1.0,0.8518518518518519,0.16326530612244897,0.5555555555555556
scwiki,True,38.0,0.390625,1.0,0.8555555555555555,0.15918367346938775,0.5617977528089888
scwiki,True,39.0,0.390625,1.0,0.8555555555555555,0.15918367346938775,0.5617977528089888
scwiki,True,40.0,0.4032258064516129,1.0,0.8629629629629629,0.1510204081632653,0.5747126436781609
scwiki,True,41.0,0.4166666666666667,1.0,0.8703703703703703,0.14285714285714285,0.5882352941176471
scwiki,True,42.0,0.4166666666666667,1.0,0.8703703703703703,0.14285714285714285,0.5882352941176471
scwiki,True,43.0,0.4166666666666667,1.0,0.8703703703703703,0.14285714285714285,0.5882352941176471
scwiki,True,44.0,0.4166666666666667,1.0,0.8703703703703703,0.14285714285714285,0.5882352941176471
scwiki,True,45.0,0.423728813559322,1.0,0.8740740740740741,0.13877551020408163,0.5952380952380952
scwiki,True,46.0,0.423728813559322,1.0,0.8740740740740741,0.13877551020408163,0.5952380952380952
scwiki,True,47.0,0.423728813559322,1.0,0.8740740740740741,0.13877551020408163,0.5952380952380952
scwiki,True,48.0,0.423728813559322,1.0,0.8740740740740741,0.13877551020408163,0.5952380952380952
scwiki,True,49.0,0.43103448275862066,1.0,0.8777777777777778,0.1346938775510204,0.6024096385542169
scwiki,True,50.0,0.43103448275862066,1.0,0.8777777777777778,0.1346938775510204,0.6024096385542169
scwiki,True,51.0,0.43103448275862066,1.0,0.8777777777777778,0.1346938775510204,0.6024096385542169
scwiki,True,52.0,0.43859649122807015,1.0,0.8814814814814815,0.1306122448979592,0.6097560975609756
scwiki,True,53.0,0.43859649122807015,1.0,0.8814814814814815,0.1306122448979592,0.6097560975609756
scwiki,True,54.0,0.43859649122807015,1.0,0.8814814814814815,0.1306122448979592,0.6097560975609756
scwiki,True,55.0,0.43859649122807015,1.0,0.8814814814814815,0.1306122448979592,0.6097560975609756
scwiki,True,56.0,0.44642857142857145,1.0,0.8851851851851852,0.12653061224489795,0.617283950617284
scwiki,True,57.0,0.44642857142857145,1.0,0.8851851851851852,0.12653061224489795,0.617283950617284
scwiki,True,58.0,0.46296296296296297,1.0,0.8925925925925926,0.11836734693877551,0.6329113924050632
scwiki,True,59.0,0.46296296296296297,1.0,0.8925925925925926,0.11836734693877551,0.6329113924050632
scwiki,True,60.0,0.4716981132075472,1.0,0.8962962962962963,0.11428571428571428,0.641025641025641
scwiki,True,61.0,0.4716981132075472,1.0,0.8962962962962963,0.11428571428571428,0.641025641025641
scwiki,True,62.0,0.4716981132075472,1.0,0.8962962962962963,0.11428571428571428,0.641025641025641
scwiki,True,63.0,0.4716981132075472,1.0,0.8962962962962963,0.11428571428571428,0.641025641025641
scwiki,True,64.0,0.4716981132075472,1.0,0.8962962962962963,0.11428571428571428,0.641025641025641
scwiki,True,65.0,0.4807692307692308,1.0,0.9,0.11020408163265306,0.6493506493506493
scwiki,True,66.0,0.49019607843137253,1.0,0.9037037037037037,0.10612244897959183,0.6578947368421052
scwiki,True,67.0,0.5,1.0,0.9074074074074074,0.10204081632653061,0.6666666666666666
scwiki,True,68.0,0.5,1.0,0.9074074074074074,0.10204081632653061,0.6666666666666666
scwiki,True,69.0,0.4897959183673469,0.96,0.9037037037037037,0.10204081632653061,0.6486486486486486
scwiki,True,70.0,0.4897959183673469,0.96,0.9037037037037037,0.10204081632653061,0.6486486486486486
scwiki,True,71.0,0.4791666666666667,0.92,0.9,0.10204081632653061,0.6301369863013699
scwiki,True,72.0,0.48936170212765956,0.92,0.9037037037037037,0.09795918367346938,0.6388888888888888
scwiki,True,73.0,0.48936170212765956,0.92,0.9037037037037037,0.09795918367346938,0.6388888888888888
scwiki,True,74.0,0.4888888888888889,0.88,0.9037037037037037,0.09387755102040816,0.6285714285714286
scwiki,True,75.0,0.4888888888888889,0.88,0.9037037037037037,0.09387755102040816,0.6285714285714286
scwiki,True,76.0,0.4888888888888889,0.88,0.9037037037037037,0.09387755102040816,0.6285714285714286
scwiki,True,77.0,0.4888888888888889,0.88,0.9037037037037037,0.09387755102040816,0.6285714285714286
scwiki,True,78.0,0.4888888888888889,0.88,0.9037037037037037,0.09387755102040816,0.6285714285714286
scwiki,True,79.0,0.46511627906976744,0.8,0.8962962962962963,0.09387755102040816,0.5882352941176471
scwiki,True,80.0,0.46511627906976744,0.8,0.8962962962962963,0.09387755102040816,0.5882352941176471
scwiki,True,81.0,0.46153846153846156,0.72,0.8962962962962963,0.08571428571428572,0.5625
scwiki,True,82.0,0.46153846153846156,0.72,0.8962962962962963,0.08571428571428572,0.5625
scwiki,True,83.0,0.43243243243243246,0.64,0.8888888888888888,0.08571428571428572,0.5161290322580645
scwiki,True,84.0,0.45714285714285713,0.64,0.8962962962962963,0.07755102040816327,0.5333333333333333
scwiki,True,85.0,0.48484848484848486,0.64,0.9037037037037037,0.06938775510204082,0.5517241379310344
scwiki,True,86.0,0.46875,0.6,0.9,0.06938775510204082,0.5263157894736842
scwiki,True,87.0,0.46875,0.6,0.9,0.06938775510204082,0.5263157894736842
scwiki,True,88.0,0.43333333333333335,0.52,0.8925925925925926,0.06938775510204082,0.4727272727272728
scwiki,True,89.0,0.4444444444444444,0.48,0.8962962962962963,0.061224489795918366,0.4615384615384615
scwiki,True,90.0,0.47619047619047616,0.4,0.9037037037037037,0.044897959183673466,0.43478260869565216
scwiki,True,91.0,0.47368421052631576,0.36,0.9037037037037037,0.04081632653061224,0.40909090909090906
scwiki,True,92.0,0.5,0.32,0.9074074074074074,0.0326530612244898,0.39024390243902435
scwiki,True,93.0,0.5,0.28,0.9074074074074074,0.02857142857142857,0.358974358974359
scwiki,True,94.0,0.5555555555555556,0.2,0.9111111111111111,0.0163265306122449,0.29411764705882354
scwiki,True,95.0,0.5714285714285714,0.16,0.9111111111111111,0.012244897959183673,0.25
scwiki,True,96.0,0.8,0.16,0.9185185185185185,0.004081632653061225,0.26666666666666666
scwiki,True,97.0,1.0,0.08,0.9148148148148149,0.0,0.14814814814814814
scwiki,True,98.0,1.0,0.04,0.9111111111111111,0.0,0.07692307692307693
scwiki,True,99.0,1.0,0.0,0.9074074074074074,0.0,0.0
scwiki,False,0.0,0.029061102831594635,1.0,0.029061102831594635,1.0,0.05648081100651702
scwiki,False,1.0,0.029061102831594635,1.0,0.029061102831594635,1.0,0.05648081100651702
scwiki,False,2.0,0.029257314328582147,1.0,0.03576751117734724,0.9930928626247122,0.05685131195335277
scwiki,False,3.0,0.0297029702970297,1.0,0.05067064083457526,0.977743668457406,0.05769230769230769
scwiki,False,4.0,0.030373831775700934,1.0,0.07228017883755589,0.955487336914812,0.05895691609977324
scwiki,False,5.0,0.03064516129032258,0.9743589743589743,0.10357675111773472,0.9224865694551037,0.05942142298670836
scwiki,False,6.0,0.031799163179916316,0.9743589743589743,0.13710879284649777,0.8879508825786646,0.06158833063209076
scwiki,False,7.0,0.032034632034632034,0.9487179487179487,0.16542473919523099,0.8580199539524175,0.061976549413735336
scwiki,False,8.0,0.032520325203252036,0.9230769230769231,0.19970193740685543,0.8219493476592479,0.06282722513089006
scwiki,False,9.0,0.03389830508474576,0.9230769230769231,0.23323397913561847,0.7874136607828089,0.0653950953678474
scwiki,False,10.0,0.03519061583577713,0.9230769230769231,0.26229508196721313,0.7574827321565618,0.06779661016949154
scwiki,False,11.0,0.036290322580645164,0.9230769230769231,0.28539493293591656,0.7336914811972371,0.06983511154219205
scwiki,False,12.0,0.037815126050420166,0.9230769230769231,0.3152011922503726,0.7029930928626247,0.07265388496468214
scwiki,False,13.0,0.039045553145336226,0.9230769230769231,0.3375558867362146,0.6799693016116654,0.07492195629552549
scwiki,False,14.0,0.04049493813273341,0.9230769230769231,0.3621460506706408,0.6546431312356101,0.07758620689655173
scwiki,False,15.0,0.04230317273795535,0.9230769230769231,0.39046199701937406,0.6254796623177283,0.08089887640449439
scwiki,False,16.0,0.0449438202247191,0.9230769230769231,0.4277198211624441,0.5871066768994628,0.0857142857142857
scwiki,False,17.0,0.046052631578947366,0.8974358974358975,0.45678092399403875,0.5564082885648504,0.08760951188986232
scwiki,False,18.0,0.04847645429362881,0.8974358974358975,0.485096870342772,0.5272448196469686,0.09198423127463863
scwiki,False,19.0,0.050724637681159424,0.8974358974358975,0.5089418777943369,0.5026861089792786,0.09602194787379972
scwiki,False,20.0,0.052870090634441085,0.8974358974358975,0.529806259314456,0.48119723714504986,0.09985734664764621
scwiki,False,21.0,0.055205047318611984,0.8974358974358975,0.5506706408345753,0.45970836531082115,0.10401188707280831
scwiki,False,22.0,0.056572379367720464,0.8717948717948718,0.5737704918032787,0.4351496546431312,0.10625000000000001
scwiki,False,23.0,0.058925476603119586,0.8717948717948718,0.5916542473919523,0.4167306216423638,0.1103896103896104
scwiki,False,24.0,0.060714285714285714,0.8717948717948718,0.6043219076005961,0.4036838066001535,0.11352253756260433
scwiki,False,25.0,0.06367041198501873,0.8717948717948718,0.6236959761549925,0.3837298541826554,0.11867364746945899
scwiki,False,26.0,0.06666666666666667,0.8717948717948718,0.6415797317436661,0.36531082118188796,0.12386156648451731
scwiki,False,27.0,0.06882591093117409,0.8717948717948718,0.6535022354694486,0.35303146584804296,0.1275797373358349
scwiki,False,28.0,0.07264957264957266,0.8717948717948718,0.672876304023845,0.33307751343054487,0.13412228796844183
scwiki,False,29.0,0.07623318385650224,0.8717948717948718,0.6892697466467959,0.31619339984650807,0.1402061855670103
scwiki,False,30.0,0.08076009501187649,0.8717948717948718,0.7078986587183308,0.29700690713737526,0.14782608695652175
scwiki,False,31.0,0.08229426433915212,0.8461538461538461,0.7213114754098361,0.28242517267843437,0.15
scwiki,False,32.0,0.08549222797927461,0.8461538461538461,0.732488822652757,0.2709132770529547,0.15529411764705883
scwiki,False,33.0,0.08967391304347826,0.8461538461538461,0.7459016393442623,0.25709900230237914,0.16216216216216214
scwiki,False,34.0,0.0896358543417367,0.8205128205128205,0.7526080476900149,0.24942440521872603,0.16161616161616163
scwiki,False,35.0,0.0935672514619883,0.8205128205128205,0.763785394932936,0.23791250959324636,0.1679790026246719
scwiki,False,36.0,0.09422492401215805,0.7948717948717948,0.7719821162444114,0.22870299309286263,0.16847826086956522
scwiki,False,37.0,0.0981012658227848,0.7948717948717948,0.7816691505216096,0.21872601688411358,0.17464788732394365
scwiki,False,38.0,0.10299003322259136,0.7948717948717948,0.7928464977645305,0.20721412125863392,0.18235294117647055
scwiki,False,39.0,0.10580204778156997,0.7948717948717948,0.7988077496274217,0.20107444359171142,0.18674698795180722
scwiki,False,40.0,0.11071428571428571,0.7948717948717948,0.8084947839046199,0.1910974673829624,0.1943573667711599
scwiki,False,41.0,0.11439114391143912,0.7948717948717948,0.8152011922503726,0.1841903300076746,0.19999999999999998
scwiki,False,42.0,0.11742424242424243,0.7948717948717948,0.8204172876304023,0.17881811204911743,0.20462046204620463
scwiki,False,43.0,0.11923076923076924,0.7948717948717948,0.823397913561848,0.17574827321565617,0.2073578595317726
scwiki,False,44.0,0.12301587301587301,0.7948717948717948,0.8293591654247392,0.1696085955487337,0.21305841924398625
scwiki,False,45.0,0.12704918032786885,0.7948717948717948,0.8353204172876304,0.1634689178818112,0.21908127208480566
scwiki,False,46.0,0.12987012987012986,0.7692307692307693,0.8435171385991058,0.15425940138142746,0.2222222222222222
scwiki,False,47.0,0.13215859030837004,0.7692307692307693,0.8464977645305514,0.15118956254796623,0.22556390977443608
scwiki,False,48.0,0.13574660633484162,0.7692307692307693,0.8509687034277198,0.14658480429777437,0.23076923076923078
scwiki,False,49.0,0.13953488372093023,0.7692307692307693,0.8554396423248882,0.1419800460475825,0.23622047244094488
scwiki,False,50.0,0.14084507042253522,0.7692307692307693,0.856929955290611,0.14044512663085187,0.2380952380952381
scwiki,False,51.0,0.14492753623188406,0.7692307692307693,0.8614008941877794,0.13584036838066002,0.24390243902439027
scwiki,False,52.0,0.1507537688442211,0.7692307692307693,0.8673621460506706,0.12970069071373752,0.25210084033613445
scwiki,False,53.0,0.15463917525773196,0.7692307692307693,0.8710879284649776,0.12586339217191098,0.2575107296137339
scwiki,False,54.0,0.16216216216216217,0.7692307692307693,0.8777943368107303,0.11895625479662318,0.26785714285714285
scwiki,False,55.0,0.16759776536312848,0.7692307692307693,0.8822652757078987,0.11435149654643131,0.27522935779816515
scwiki,False,56.0,0.17142857142857143,0.7692307692307693,0.8852459016393442,0.11128165771297006,0.28037383177570097
scwiki,False,57.0,0.17647058823529413,0.7692307692307693,0.8889716840536512,0.10744435917114352,0.28708133971291866
scwiki,False,58.0,0.18404907975460122,0.7692307692307693,0.8941877794336811,0.10207214121258634,0.297029702970297
scwiki,False,59.0,0.189873417721519,0.7692307692307693,0.8979135618479881,0.09823484267075978,0.30456852791878175
scwiki,False,60.0,0.19736842105263158,0.7692307692307693,0.9023845007451565,0.09363008442056792,0.3141361256544503
scwiki,False,61.0,0.2,0.7692307692307693,0.9038748137108793,0.0920951650038373,0.31746031746031744
scwiki,False,62.0,0.20689655172413793,0.7692307692307693,0.9076005961251863,0.08825786646201074,0.32608695652173914
scwiki,False,63.0,0.2127659574468085,0.7692307692307693,0.910581222056632,0.0851880276285495,0.33333333333333337
scwiki,False,64.0,0.21739130434782608,0.7692307692307693,0.912816691505216,0.08288564850345356,0.3389830508474576
scwiki,False,65.0,0.22388059701492538,0.7692307692307693,0.9157973174366617,0.07981580966999233,0.3468208092485549
scwiki,False,66.0,0.23076923076923078,0.7692307692307693,0.9187779433681073,0.07674597083653108,0.3550295857988166
scwiki,False,67.0,0.234375,0.7692307692307693,0.9202682563338301,0.07521105141980046,0.3592814371257485
scwiki,False,68.0,0.24390243902439024,0.7692307692307693,0.9239940387481371,0.0713737528779739,0.37037037037037035
scwiki,False,69.0,0.24786324786324787,0.7435897435897436,0.9269746646795827,0.06753645433614736,0.3717948717948718
scwiki,False,70.0,0.25,0.7435897435897436,0.9277198211624441,0.06676899462778205,0.3741935483870968
scwiki,False,71.0,0.25,0.717948717948718,0.9292101341281669,0.0644666155026861,0.3708609271523179
scwiki,False,72.0,0.25925925925925924,0.717948717948718,0.9321907600596125,0.06139677666922486,0.38095238095238093
scwiki,False,73.0,0.2621359223300971,0.6923076923076923,0.9344262295081968,0.05832693783576362,0.38028169014084506
scwiki,False,74.0,0.26262626262626265,0.6666666666666666,0.9359165424739195,0.056024558710667687,0.37681159420289856
scwiki,False,75.0,0.26804123711340205,0.6666666666666666,0.9374068554396423,0.05448963929393707,0.3823529411764705
scwiki,False,76.0,0.2765957446808511,0.6666666666666666,0.9396423248882265,0.052187260168841135,0.3909774436090226
scwiki,False,77.0,0.29213483146067415,0.6666666666666666,0.9433681073025335,0.04834996162701458,0.40625
scwiki,False,78.0,0.2840909090909091,0.6410256410256411,0.9426229508196722,0.04834996162701458,0.3937007874015749
scwiki,False,79.0,0.26744186046511625,0.5897435897435898,0.9411326378539493,0.04834996162701458,0.368
scwiki,False,80.0,0.27058823529411763,0.5897435897435898,0.9418777943368107,0.047582501918649274,0.3709677419354838
scwiki,False,81.0,0.25925925925925924,0.5384615384615384,0.9418777943368107,0.04604758250191865,0.35000000000000003
scwiki,False,82.0,0.2777777777777778,0.5128205128205128,0.9470938897168405,0.039907904834996163,0.3603603603603604
scwiki,False,83.0,0.2608695652173913,0.46153846153846156,0.9463487332339792,0.039140445126630855,0.33333333333333337
scwiki,False,84.0,0.28125,0.46153846153846156,0.9500745156482862,0.035303146584804296,0.34951456310679613
scwiki,False,85.0,0.3,0.46153846153846156,0.9530551415797317,0.03223330775134305,0.3636363636363637
scwiki,False,86.0,0.2727272727272727,0.38461538461538464,0.9523099850968704,0.03069838833461243,0.3191489361702128
scwiki,False,87.0,0.2830188679245283,0.38461538461538464,0.9538002980625931,0.02916346891788181,0.32608695652173914
scwiki,False,88.0,0.2549019607843137,0.3333333333333333,0.9523099850968704,0.02916346891788181,0.2888888888888889
scwiki,False,89.0,0.3,0.3076923076923077,0.9590163934426229,0.021488871834228703,0.3037974683544304
scwiki,False,90.0,0.3333333333333333,0.2564102564102564,0.9634873323397913,0.015349194167306216,0.2898550724637681
scwiki,False,91.0,0.36,0.23076923076923078,0.9657228017883756,0.012279355333844973,0.28125
scwiki,False,92.0,0.38095238095238093,0.20512820512820512,0.9672131147540983,0.009976976208749041,0.26666666666666666
scwiki,False,93.0,0.3684210526315789,0.1794871794871795,0.9672131147540983,0.00920951650038373,0.2413793103448276
scwiki,False,94.0,0.38461538461538464,0.1282051282051282,0.9687034277198212,0.0061396776669224865,0.19230769230769232
scwiki,False,95.0,0.4444444444444444,0.10256410256410256,0.970193740685544,0.003837298541826554,0.16666666666666666
scwiki,False,96.0,0.8,0.10256410256410256,0.9731743666169895,0.0007674597083653108,0.18181818181818182
scwiki,False,97.0,1.0,0.05128205128205128,0.9724292101341282,0.0,0.09756097560975609
scwiki,False,98.0,1.0,0.02564102564102564,0.9716840536512668,0.0,0.05
scwiki,False,99.0,1.0,0.0,0.9709388971684053,0.0,0.0
