wiki_db,user_is_anonymous_or_bot,threshold,precision,recall,accuracy,fpr,F1
shnwiki,True,0.0,0.01694915254237288,1.0,0.01694915254237288,1.0,0.03333333333333333
shnwiki,True,1.0,0.01694915254237288,1.0,0.01694915254237288,1.0,0.03333333333333333
shnwiki,True,2.0,0.01694915254237288,1.0,0.01694915254237288,1.0,0.03333333333333333
shnwiki,True,3.0,0.01694915254237288,1.0,0.01694915254237288,1.0,0.03333333333333333
shnwiki,True,4.0,0.01694915254237288,1.0,0.01694915254237288,1.0,0.03333333333333333
shnwiki,True,5.0,0.01694915254237288,1.0,0.01694915254237288,1.0,0.03333333333333333
shnwiki,True,6.0,0.01694915254237288,1.0,0.01694915254237288,1.0,0.03333333333333333
shnwiki,True,7.0,0.01694915254237288,1.0,0.01694915254237288,1.0,0.03333333333333333
shnwiki,True,8.0,0.01694915254237288,1.0,0.01694915254237288,1.0,0.03333333333333333
shnwiki,True,9.0,0.01694915254237288,1.0,0.01694915254237288,1.0,0.03333333333333333
shnwiki,True,10.0,0.01694915254237288,1.0,0.01694915254237288,1.0,0.03333333333333333
shnwiki,True,11.0,0.017241379310344827,1.0,0.03389830508474576,0.9827586206896551,0.03389830508474576
shnwiki,True,12.0,0.017391304347826087,1.0,0.0423728813559322,0.9741379310344828,0.03418803418803419
shnwiki,True,13.0,0.01818181818181818,1.0,0.0847457627118644,0.9310344827586207,0.03571428571428572
shnwiki,True,14.0,0.01834862385321101,1.0,0.09322033898305085,0.9224137931034483,0.03603603603603604
shnwiki,True,15.0,0.018691588785046728,1.0,0.11016949152542373,0.9051724137931034,0.03669724770642201
shnwiki,True,16.0,0.018867924528301886,1.0,0.11864406779661017,0.896551724137931,0.037037037037037035
shnwiki,True,17.0,0.019230769230769232,1.0,0.13559322033898305,0.8793103448275862,0.03773584905660378
shnwiki,True,18.0,0.019417475728155338,1.0,0.1440677966101695,0.8706896551724138,0.03809523809523809
shnwiki,True,19.0,0.02040816326530612,1.0,0.1864406779661017,0.8275862068965517,0.039999999999999994
shnwiki,True,20.0,0.02197802197802198,1.0,0.2457627118644068,0.7672413793103449,0.043010752688172046
shnwiki,True,21.0,0.024096385542168676,1.0,0.3135593220338983,0.6982758620689655,0.047058823529411764
shnwiki,True,22.0,0.02666666666666667,1.0,0.3813559322033898,0.6293103448275862,0.05194805194805195
shnwiki,True,23.0,0.027777777777777776,1.0,0.4067796610169492,0.603448275862069,0.05405405405405406
shnwiki,True,24.0,0.03125,1.0,0.4745762711864407,0.5344827586206896,0.06060606060606061
shnwiki,True,25.0,0.038461538461538464,1.0,0.576271186440678,0.43103448275862066,0.07407407407407407
shnwiki,True,26.0,0.04,1.0,0.5932203389830508,0.41379310344827586,0.07692307692307693
shnwiki,True,27.0,0.043478260869565216,1.0,0.6271186440677966,0.3793103448275862,0.08333333333333333
shnwiki,True,28.0,0.045454545454545456,1.0,0.6440677966101694,0.3620689655172414,0.08695652173913045
shnwiki,True,29.0,0.05128205128205128,1.0,0.6864406779661016,0.31896551724137934,0.09756097560975609
shnwiki,True,30.0,0.058823529411764705,1.0,0.7288135593220338,0.27586206896551724,0.1111111111111111
shnwiki,True,31.0,0.06451612903225806,1.0,0.7542372881355932,0.25,0.12121212121212122
shnwiki,True,32.0,0.07407407407407407,1.0,0.788135593220339,0.21551724137931033,0.13793103448275862
shnwiki,True,33.0,0.07692307692307693,1.0,0.7966101694915254,0.20689655172413793,0.14285714285714288
shnwiki,True,34.0,0.08,1.0,0.8050847457627118,0.19827586206896552,0.14814814814814814
shnwiki,True,35.0,0.08333333333333333,1.0,0.8135593220338984,0.1896551724137931,0.15384615384615385
shnwiki,True,36.0,0.08695652173913043,1.0,0.8220338983050848,0.1810344827586207,0.16
shnwiki,True,37.0,0.08695652173913043,1.0,0.8220338983050848,0.1810344827586207,0.16
shnwiki,True,38.0,0.09523809523809523,1.0,0.8389830508474576,0.16379310344827586,0.17391304347826084
shnwiki,True,39.0,0.10526315789473684,1.0,0.8559322033898306,0.14655172413793102,0.1904761904761905
shnwiki,True,40.0,0.1111111111111111,1.0,0.864406779661017,0.13793103448275862,0.19999999999999998
shnwiki,True,41.0,0.125,1.0,0.8813559322033898,0.1206896551724138,0.2222222222222222
shnwiki,True,42.0,0.14285714285714285,1.0,0.8983050847457628,0.10344827586206896,0.25
shnwiki,True,43.0,0.14285714285714285,1.0,0.8983050847457628,0.10344827586206896,0.25
shnwiki,True,44.0,0.15384615384615385,1.0,0.9067796610169492,0.09482758620689655,0.2666666666666667
shnwiki,True,45.0,0.15384615384615385,1.0,0.9067796610169492,0.09482758620689655,0.2666666666666667
shnwiki,True,46.0,0.15384615384615385,1.0,0.9067796610169492,0.09482758620689655,0.2666666666666667
shnwiki,True,47.0,0.18181818181818182,1.0,0.923728813559322,0.07758620689655173,0.3076923076923077
shnwiki,True,48.0,0.18181818181818182,1.0,0.923728813559322,0.07758620689655173,0.3076923076923077
shnwiki,True,49.0,0.18181818181818182,1.0,0.923728813559322,0.07758620689655173,0.3076923076923077
shnwiki,True,50.0,0.18181818181818182,1.0,0.923728813559322,0.07758620689655173,0.3076923076923077
shnwiki,True,51.0,0.18181818181818182,1.0,0.923728813559322,0.07758620689655173,0.3076923076923077
shnwiki,True,52.0,0.18181818181818182,1.0,0.923728813559322,0.07758620689655173,0.3076923076923077
shnwiki,True,53.0,0.18181818181818182,1.0,0.923728813559322,0.07758620689655173,0.3076923076923077
shnwiki,True,54.0,0.2,1.0,0.9322033898305084,0.06896551724137931,0.33333333333333337
shnwiki,True,55.0,0.2,1.0,0.9322033898305084,0.06896551724137931,0.33333333333333337
shnwiki,True,56.0,0.2,1.0,0.9322033898305084,0.06896551724137931,0.33333333333333337
shnwiki,True,57.0,0.2,1.0,0.9322033898305084,0.06896551724137931,0.33333333333333337
shnwiki,True,58.0,0.2,1.0,0.9322033898305084,0.06896551724137931,0.33333333333333337
shnwiki,True,59.0,0.2,1.0,0.9322033898305084,0.06896551724137931,0.33333333333333337
shnwiki,True,60.0,0.2,1.0,0.9322033898305084,0.06896551724137931,0.33333333333333337
shnwiki,True,61.0,0.2,1.0,0.9322033898305084,0.06896551724137931,0.33333333333333337
shnwiki,True,62.0,0.2,1.0,0.9322033898305084,0.06896551724137931,0.33333333333333337
shnwiki,True,63.0,0.2,1.0,0.9322033898305084,0.06896551724137931,0.33333333333333337
shnwiki,True,64.0,0.2,1.0,0.9322033898305084,0.06896551724137931,0.33333333333333337
shnwiki,True,65.0,0.2,1.0,0.9322033898305084,0.06896551724137931,0.33333333333333337
shnwiki,True,66.0,0.2,1.0,0.9322033898305084,0.06896551724137931,0.33333333333333337
shnwiki,True,67.0,0.2,1.0,0.9322033898305084,0.06896551724137931,0.33333333333333337
shnwiki,True,68.0,0.2,1.0,0.9322033898305084,0.06896551724137931,0.33333333333333337
shnwiki,True,69.0,0.2,1.0,0.9322033898305084,0.06896551724137931,0.33333333333333337
shnwiki,True,70.0,0.2,1.0,0.9322033898305084,0.06896551724137931,0.33333333333333337
shnwiki,True,71.0,0.2,1.0,0.9322033898305084,0.06896551724137931,0.33333333333333337
shnwiki,True,72.0,0.2222222222222222,1.0,0.940677966101695,0.0603448275862069,0.3636363636363636
shnwiki,True,73.0,0.2222222222222222,1.0,0.940677966101695,0.0603448275862069,0.3636363636363636
shnwiki,True,74.0,0.2222222222222222,1.0,0.940677966101695,0.0603448275862069,0.3636363636363636
shnwiki,True,75.0,0.2222222222222222,1.0,0.940677966101695,0.0603448275862069,0.3636363636363636
shnwiki,True,76.0,0.25,1.0,0.9491525423728814,0.05172413793103448,0.4
shnwiki,True,77.0,0.25,1.0,0.9491525423728814,0.05172413793103448,0.4
shnwiki,True,78.0,0.25,1.0,0.9491525423728814,0.05172413793103448,0.4
shnwiki,True,79.0,0.14285714285714285,0.5,0.940677966101695,0.05172413793103448,0.22222222222222224
shnwiki,True,80.0,0.14285714285714285,0.5,0.940677966101695,0.05172413793103448,0.22222222222222224
shnwiki,True,81.0,0.14285714285714285,0.5,0.940677966101695,0.05172413793103448,0.22222222222222224
shnwiki,True,82.0,0.16666666666666666,0.5,0.9491525423728814,0.04310344827586207,0.25
shnwiki,True,83.0,0.16666666666666666,0.5,0.9491525423728814,0.04310344827586207,0.25
shnwiki,True,84.0,0.16666666666666666,0.5,0.9491525423728814,0.04310344827586207,0.25
shnwiki,True,85.0,0.16666666666666666,0.5,0.9491525423728814,0.04310344827586207,0.25
shnwiki,True,86.0,0.0,0.0,0.940677966101695,0.04310344827586207,0.25
shnwiki,True,87.0,0.0,0.0,0.940677966101695,0.04310344827586207,0.25
shnwiki,True,88.0,0.0,0.0,0.9491525423728814,0.034482758620689655,0.25
shnwiki,True,89.0,0.0,0.0,0.9491525423728814,0.034482758620689655,0.25
shnwiki,True,90.0,0.0,0.0,0.9491525423728814,0.034482758620689655,0.25
shnwiki,True,91.0,0.0,0.0,0.9576271186440678,0.02586206896551724,0.25
shnwiki,True,92.0,0.0,0.0,0.9576271186440678,0.02586206896551724,0.25
shnwiki,True,93.0,0.0,0.0,0.9745762711864406,0.008620689655172414,0.25
shnwiki,True,94.0,0.0,0.0,0.9830508474576272,0.0,0.25
shnwiki,True,95.0,0.0,0.0,0.9830508474576272,0.0,0.25
shnwiki,True,96.0,0.0,0.0,0.9830508474576272,0.0,0.25
shnwiki,True,97.0,0.0,0.0,0.9830508474576272,0.0,0.25
shnwiki,True,98.0,0.0,0.0,0.9830508474576272,0.0,0.25
shnwiki,True,99.0,0.0,0.0,0.9830508474576272,0.0,0.25
shnwiki,False,0.0,0.016679904686258934,1.0,0.016679904686258934,1.0,0.032812499999999994
shnwiki,False,1.0,0.016679904686258934,1.0,0.016679904686258934,1.0,0.032812499999999994
shnwiki,False,2.0,0.016693163751987282,1.0,0.017474185861795076,0.9991922455573505,0.0328381548084441
shnwiki,False,3.0,0.0168,1.0,0.023828435266084195,0.9927302100161551,0.03304484657749803
shnwiki,False,4.0,0.01710097719869707,1.0,0.04130262112787927,0.9749596122778675,0.03362690152121698
shnwiki,False,5.0,0.017412935323383085,1.0,0.05877680698967434,0.9571890145395799,0.034229828850855744
shnwiki,False,6.0,0.017167381974248927,0.9523809523809523,0.08975377283558379,0.9248788368336026,0.03372681281618887
shnwiki,False,7.0,0.017163504968383016,0.9047619047619048,0.13423351866560762,0.8788368336025848,0.03368794326241135
shnwiki,False,8.0,0.017142857142857144,0.8571428571428571,0.17791898332009531,0.8336025848142165,0.03361344537815126
shnwiki,False,9.0,0.01627670396744659,0.7619047619047619,0.22795869737887212,0.7810985460420032,0.03187250996015936
shnwiki,False,10.0,0.016357688113413305,0.7142857142857143,0.27879269261318507,0.72859450726979,0.031982942430703626
shnwiki,False,11.0,0.015046296296296295,0.6190476190476191,0.3177124702144559,0.6873990306946688,0.029378531073446325
shnwiki,False,12.0,0.014545454545454545,0.5714285714285714,0.3471008737092931,0.6567043618739903,0.028368794326241138
shnwiki,False,13.0,0.014193548387096775,0.5238095238095238,0.3852263701350278,0.617124394184168,0.02763819095477387
shnwiki,False,14.0,0.01476510067114094,0.5238095238095238,0.409054805401112,0.592891760904685,0.028720626631853787
shnwiki,False,15.0,0.015193370165745856,0.5238095238095238,0.4257347100873709,0.5759289176090469,0.02953020134228188
shnwiki,False,16.0,0.015514809590973202,0.5238095238095238,0.43764892772041303,0.5638126009693053,0.03013698630136986
shnwiki,False,17.0,0.015873015873015872,0.5238095238095238,0.45035742652899124,0.5508885298869144,0.030812324929971983
shnwiki,False,18.0,0.01601164483260553,0.5238095238095238,0.4551231135822081,0.5460420032310178,0.031073446327683614
shnwiki,False,19.0,0.016442451420029897,0.5238095238095238,0.4694201747418586,0.531502423263328,0.03188405797101449
shnwiki,False,20.0,0.01669195751138088,0.5238095238095238,0.47736298649722003,0.5234248788368336,0.03235294117647059
shnwiki,False,21.0,0.017133956386292833,0.5238095238095238,0.4908657664813344,0.5096930533117933,0.033182503770739065
shnwiki,False,22.0,0.017543859649122806,0.5238095238095238,0.5027799841143765,0.4975767366720517,0.033950617283950615
shnwiki,False,23.0,0.017828200972447326,0.5238095238095238,0.5107227958697379,0.4894991922455573,0.034482758620689655
shnwiki,False,24.0,0.01658374792703151,0.47619047619047616,0.5202541699761716,0.4789983844911147,0.032051282051282055
shnwiki,False,25.0,0.017123287671232876,0.47619047619047616,0.5353455123113582,0.46365105008077545,0.03305785123966942
shnwiki,False,26.0,0.017391304347826087,0.47619047619047616,0.5424940428911835,0.45638126009693053,0.033557046979865765
shnwiki,False,27.0,0.017761989342806393,0.47619047619047616,0.5520254169976172,0.4466882067851373,0.03424657534246575
shnwiki,False,28.0,0.018115942028985508,0.47619047619047616,0.5607625099285147,0.4378029079159935,0.034904013961605584
shnwiki,False,29.0,0.018726591760299626,0.47619047619047616,0.5750595710881652,0.42326332794830374,0.036036036036036036
shnwiki,False,30.0,0.017578125,0.42857142857142855,0.5909451945988881,0.4063004846526656,0.03377110694183865
shnwiki,False,31.0,0.01616161616161616,0.38095238095238093,0.6028594122319301,0.39337641357027464,0.031007751937984496
shnwiki,False,32.0,0.016632016632016633,0.38095238095238093,0.613979348689436,0.38206785137318255,0.03187250996015937
shnwiki,False,33.0,0.017241379310344827,0.38095238095238093,0.6274821286735505,0.3683360258481422,0.032989690721649485
shnwiki,False,34.0,0.017699115044247787,0.38095238095238093,0.6370135027799841,0.35864297253634897,0.03382663847780126
shnwiki,False,35.0,0.018433179723502304,0.38095238095238093,0.6513105639396346,0.3441033925686591,0.035164835164835165
shnwiki,False,36.0,0.012254901960784314,0.23809523809523808,0.6671961874503575,0.3255250403877221,0.02331002331002331
shnwiki,False,37.0,0.01282051282051282,0.23809523809523808,0.6814932486100079,0.31098546042003233,0.024330900243309
shnwiki,False,38.0,0.01358695652173913,0.23809523809523808,0.698967434471803,0.29321486268174474,0.025706940874035987
shnwiki,False,39.0,0.011594202898550725,0.19047619047619047,0.715647339158062,0.2754442649434572,0.021857923497267756
shnwiki,False,40.0,0.009404388714733543,0.14285714285714285,0.7347100873709294,0.2552504038772213,0.01764705882352941
shnwiki,False,41.0,0.010638297872340425,0.14285714285714285,0.7640984908657665,0.22536348949919224,0.019801980198019802
shnwiki,False,42.0,0.012396694214876033,0.14285714285714285,0.795869737887212,0.19305331179321486,0.022813688212927757
shnwiki,False,43.0,0.013888888888888888,0.14285714285714285,0.8165210484511517,0.17205169628432956,0.02531645569620253
shnwiki,False,44.0,0.014705882352941176,0.14285714285714285,0.8260524225575854,0.16235864297253635,0.026666666666666665
shnwiki,False,45.0,0.015151515151515152,0.14285714285714285,0.8308181096108023,0.15751211631663975,0.027397260273972608
shnwiki,False,46.0,0.016042780748663103,0.14285714285714285,0.8395552025416998,0.14862681744749595,0.028846153846153848
shnwiki,False,47.0,0.017045454545454544,0.14285714285714285,0.8482922954725973,0.13974151857835218,0.03045685279187817
shnwiki,False,48.0,0.017964071856287425,0.14285714285714285,0.8554408260524226,0.13247172859450726,0.031914893617021274
shnwiki,False,49.0,0.01935483870967742,0.14285714285714285,0.8649722001588562,0.12277867528271405,0.034090909090909095
shnwiki,False,50.0,0.020689655172413793,0.14285714285714285,0.8729150119142176,0.1147011308562197,0.03614457831325302
shnwiki,False,51.0,0.02158273381294964,0.14285714285714285,0.8776806989674345,0.1098546042003231,0.0375
shnwiki,False,52.0,0.022900763358778626,0.14285714285714285,0.8840349483717236,0.10339256865912763,0.039473684210526314
shnwiki,False,53.0,0.01639344262295082,0.09523809523809523,0.8895949166004765,0.09693053311793215,0.027972027972027972
shnwiki,False,54.0,0.017857142857142856,0.09523809523809523,0.897537728355838,0.0888529886914378,0.03007518796992481
shnwiki,False,55.0,0.01834862385321101,0.09523809523809523,0.8999205718824463,0.0864297253634895,0.03076923076923077
shnwiki,False,56.0,0.019801980198019802,0.09523809523809523,0.9062748212867355,0.07996768982229402,0.03278688524590164
shnwiki,False,57.0,0.021505376344086023,0.09523809523809523,0.9126290706910246,0.07350565428109855,0.03508771929824561
shnwiki,False,58.0,0.02247191011235955,0.09523809523809523,0.9158061953931692,0.07027463651050081,0.03636363636363636
shnwiki,False,59.0,0.023255813953488372,0.09523809523809523,0.9181890389197777,0.06785137318255251,0.037383177570093455
shnwiki,False,60.0,0.024390243902439025,0.09523809523809523,0.9213661636219221,0.06462035541195477,0.03883495145631068
shnwiki,False,61.0,0.0273972602739726,0.09523809523809523,0.9285146942017474,0.05735056542810985,0.0425531914893617
shnwiki,False,62.0,0.0273972602739726,0.09523809523809523,0.9285146942017474,0.05735056542810985,0.0425531914893617
shnwiki,False,63.0,0.028985507246376812,0.09523809523809523,0.931691818903892,0.05411954765751212,0.044444444444444446
shnwiki,False,64.0,0.030303030303030304,0.09523809523809523,0.9340746624305004,0.051696284329563816,0.04597701149425287
shnwiki,False,65.0,0.03076923076923077,0.09523809523809523,0.9348689436060366,0.05088852988691438,0.046511627906976744
shnwiki,False,66.0,0.03278688524590164,0.09523809523809523,0.938046068308181,0.04765751211631664,0.04878048780487805
shnwiki,False,67.0,0.034482758620689655,0.09523809523809523,0.9404289118347895,0.045234248788368334,0.050632911392405056
shnwiki,False,68.0,0.03636363636363636,0.09523809523809523,0.9428117553613979,0.04281098546042003,0.05263157894736841
shnwiki,False,69.0,0.038461538461538464,0.09523809523809523,0.9451945988880064,0.04038772213247173,0.05479452054794521
shnwiki,False,70.0,0.04,0.09523809523809523,0.9467831612390787,0.03877221324717286,0.056338028169014086
shnwiki,False,71.0,0.041666666666666664,0.09523809523809523,0.9483717235901509,0.03715670436187399,0.057971014492753624
shnwiki,False,72.0,0.045454545454545456,0.09523809523809523,0.9515488482922955,0.033925686591276254,0.061538461538461535
shnwiki,False,73.0,0.046511627906976744,0.09523809523809523,0.9523431294678316,0.033117932148626815,0.0625
shnwiki,False,74.0,0.05,0.09523809523809523,0.9547259729944401,0.030694668820678513,0.0655737704918033
shnwiki,False,75.0,0.05128205128205128,0.09523809523809523,0.9555202541699762,0.02988691437802908,0.06666666666666667
shnwiki,False,76.0,0.05555555555555555,0.09523809523809523,0.9579030976965845,0.027463651050080775,0.07017543859649122
shnwiki,False,77.0,0.0625,0.09523809523809523,0.9610802223987291,0.024232633279483037,0.07547169811320754
shnwiki,False,78.0,0.06666666666666667,0.09523809523809523,0.9626687847498014,0.022617124394184167,0.0784313725490196
shnwiki,False,79.0,0.034482758620689655,0.047619047619047616,0.9618745035742653,0.022617124394184167,0.04
shnwiki,False,80.0,0.04,0.047619047619047616,0.9650516282764099,0.01938610662358643,0.043478260869565216
shnwiki,False,81.0,0.045454545454545456,0.047619047619047616,0.9674344718030182,0.016962843295638127,0.046511627906976744
shnwiki,False,82.0,0.05555555555555555,0.047619047619047616,0.9706115965051628,0.013731825525040387,0.05128205128205128
shnwiki,False,83.0,0.06666666666666667,0.047619047619047616,0.9729944400317713,0.011308562197092083,0.05555555555555555
shnwiki,False,84.0,0.08333333333333333,0.047619047619047616,0.9753772835583797,0.008885298869143781,0.060606060606060615
shnwiki,False,85.0,0.08333333333333333,0.047619047619047616,0.9753772835583797,0.008885298869143781,0.060606060606060615
shnwiki,False,86.0,0.0,0.0,0.9761715647339158,0.007269789983844911,0.060606060606060615
shnwiki,False,87.0,0.0,0.0,0.977760127084988,0.005654281098546042,0.060606060606060615
shnwiki,False,88.0,0.0,0.0,0.9785544082605242,0.004846526655896607,0.060606060606060615
shnwiki,False,89.0,0.0,0.0,0.9785544082605242,0.004846526655896607,0.060606060606060615
shnwiki,False,90.0,0.0,0.0,0.9793486894360603,0.004038772213247173,0.060606060606060615
shnwiki,False,91.0,0.0,0.0,0.9801429706115965,0.0032310177705977385,0.060606060606060615
shnwiki,False,92.0,0.0,0.0,0.9809372517871326,0.0024232633279483036,0.060606060606060615
shnwiki,False,93.0,0.0,0.0,0.982525814138205,0.0008077544426494346,0.060606060606060615
shnwiki,False,94.0,0.0,0.0,0.9833200953137411,0.0,0.060606060606060615
shnwiki,False,95.0,0.0,0.0,0.9833200953137411,0.0,0.060606060606060615
shnwiki,False,96.0,0.0,0.0,0.9833200953137411,0.0,0.060606060606060615
shnwiki,False,97.0,0.0,0.0,0.9833200953137411,0.0,0.060606060606060615
shnwiki,False,98.0,0.0,0.0,0.9833200953137411,0.0,0.060606060606060615
shnwiki,False,99.0,0.0,0.0,0.9833200953137411,0.0,0.060606060606060615
