wiki_db,user_is_anonymous_or_bot,threshold,precision,recall,accuracy,fpr,F1
tgwiki,True,0.0,0.07848518111964874,1.0,0.07848518111964874,1.0,0.1455470737913486
tgwiki,True,1.0,0.07848518111964874,1.0,0.07848518111964874,1.0,0.1455470737913486
tgwiki,True,2.0,0.07848518111964874,1.0,0.07848518111964874,1.0,0.1455470737913486
tgwiki,True,3.0,0.07848518111964874,1.0,0.07848518111964874,1.0,0.1455470737913486
tgwiki,True,4.0,0.07848518111964874,1.0,0.07848518111964874,1.0,0.1455470737913486
tgwiki,True,5.0,0.07857142857142857,1.0,0.07958287596048298,0.9988088147706968,0.1456953642384106
tgwiki,True,6.0,0.07857142857142857,1.0,0.07958287596048298,0.9988088147706968,0.1456953642384106
tgwiki,True,7.0,0.07891832229580574,1.0,0.08397365532381998,0.9940440738534843,0.1462915601023018
tgwiki,True,8.0,0.07953281423804227,1.0,0.09165751920965971,0.9857057772483622,0.14734672849046884
tgwiki,True,9.0,0.08097395243488109,1.0,0.10922063666300769,0.9666468135795117,0.1498166579360922
tgwiki,True,10.0,0.08333333333333333,1.0,0.13666300768386389,0.9368671828469327,0.15384615384615385
tgwiki,True,11.0,0.08714198659354053,1.0,0.1778265642151482,0.8921977367480644,0.16031390134529147
tgwiki,True,12.0,0.09190231362467867,1.0,0.22447859495060374,0.8415723645026801,0.16833431430253093
tgwiki,True,13.0,0.09727891156462586,1.0,0.2716794731064764,0.7903513996426444,0.17730936143831372
tgwiki,True,14.0,0.1029517638588913,1.0,0.31613611416026344,0.7421083978558666,0.18668407310704963
tgwiki,True,15.0,0.11051004636785162,1.0,0.36827661909989023,0.6855270994639666,0.19902574808629087
tgwiki,True,16.0,0.11721311475409836,1.0,0.4088913282107574,0.6414532459797498,0.2098312545854732
tgwiki,True,17.0,0.1223267750213858,1.0,0.43688254665203075,0.6110780226325193,0.21798780487804875
tgwiki,True,18.0,0.12779267202859695,1.0,0.4643249176728869,0.5812983918999405,0.2266244057052298
tgwiki,True,19.0,0.13427230046948357,1.0,0.49396267837541163,0.5491363907087552,0.2367549668874172
tgwiki,True,20.0,0.13803088803088803,1.0,0.5098792535675082,0.5318642048838594,0.24257845631891434
tgwiki,True,21.0,0.14343029087261785,1.0,0.531284302963776,0.5086360929124479,0.25087719298245614
tgwiki,True,22.0,0.1475748194014448,1.0,0.5466520307354555,0.4919594997022037,0.25719424460431656
tgwiki,True,23.0,0.15310492505353318,1.0,0.5658616904500549,0.47111375818939843,0.26555246053853293
tgwiki,True,24.0,0.1599552572706935,1.0,0.5878155872667399,0.4472900536033353,0.2757955641272903
tgwiki,True,25.0,0.16151202749140894,0.986013986013986,0.5971459934138309,0.43597379392495533,0.27755905511811024
tgwiki,True,26.0,0.16414435389988358,0.986013986013986,0.6048298572996706,0.42763549731983325,0.28143712574850294
tgwiki,True,27.0,0.16766467065868262,0.9790209790209791,0.6169045005488474,0.41393686718284695,0.2862985685071574
tgwiki,True,28.0,0.17220172201722017,0.9790209790209791,0.6289791437980241,0.40083382966051223,0.2928870292887029
tgwiki,True,29.0,0.17506297229219145,0.972027972027972,0.6383095499451152,0.3901131625967838,0.29669156883671294
tgwiki,True,30.0,0.1782051282051282,0.972027972027972,0.645993413830955,0.3817748659916617,0.3011917659804984
tgwiki,True,31.0,0.18169934640522875,0.972027972027972,0.6542261251372119,0.37284097677188804,0.30616740088105726
tgwiki,True,32.0,0.18508655126498003,0.972027972027972,0.6619099890230515,0.36450268016676596,0.31096196868008946
tgwiki,True,33.0,0.18733153638814015,0.972027972027972,0.6668496158068057,0.35914234663490174,0.3141242937853107
tgwiki,True,34.0,0.18860244233378562,0.972027972027972,0.6695938529088913,0.3561643835616438,0.31590909090909086
tgwiki,True,35.0,0.19119669876203577,0.972027972027972,0.6750823271130626,0.35020845741512807,0.3195402298850574
tgwiki,True,36.0,0.1919889502762431,0.972027972027972,0.676728869374314,0.3484216795711733,0.3206459054209919
tgwiki,True,37.0,0.1952247191011236,0.972027972027972,0.6833150384193194,0.3412745681953544,0.3251461988304093
tgwiki,True,38.0,0.1971631205673759,0.972027972027972,0.6871569703622393,0.33710541989279336,0.3278301886792453
tgwiki,True,39.0,0.19828815977175462,0.972027972027972,0.6893523600439078,0.334723049434187,0.3293838862559242
tgwiki,True,40.0,0.1994261119081779,0.972027972027972,0.6915477497255763,0.33234067897558073,0.330952380952381
tgwiki,True,41.0,0.20262390670553937,0.972027972027972,0.6975850713501647,0.32578916021441334,0.3353437876960193
tgwiki,True,42.0,0.20381231671554254,0.972027972027972,0.6997804610318331,0.323406789755807,0.33696969696969703
tgwiki,True,43.0,0.20471281296023564,0.972027972027972,0.7014270032930845,0.3216200119118523,0.3381995133819951
tgwiki,True,44.0,0.20562130177514792,0.972027972027972,0.7030735455543359,0.31983323406789754,0.3394383394383394
tgwiki,True,45.0,0.20715350223546944,0.972027972027972,0.7058177826564215,0.31685527099463967,0.34152334152334146
tgwiki,True,46.0,0.20808383233532934,0.972027972027972,0.7074643249176729,0.3150684931506849,0.34278668310727495
tgwiki,True,47.0,0.2109256449165402,0.972027972027972,0.712403951701427,0.3097081596188207,0.3466334164588528
tgwiki,True,48.0,0.21100917431192662,0.965034965034965,0.7140504939626784,0.3073257891602144,0.34629861982434124
tgwiki,True,49.0,0.2123076923076923,0.965034965034965,0.7162458836443468,0.3049434187016081,0.3480453972257251
tgwiki,True,50.0,0.21362229102167182,0.965034965034965,0.7184412733260154,0.3025610482430018,0.34980988593155893
tgwiki,True,51.0,0.21528861154446177,0.965034965034965,0.721185510428101,0.2995830851697439,0.35204081632653056
tgwiki,True,52.0,0.21664050235478807,0.965034965034965,0.7233809001097695,0.29720071471113757,0.35384615384615387
tgwiki,True,53.0,0.21904761904761905,0.965034965034965,0.7272228320526893,0.2930315664085765,0.3570504527813712
tgwiki,True,54.0,0.22009569377990432,0.965034965034965,0.7288693743139407,0.2912447885646218,0.35844155844155845
tgwiki,True,55.0,0.22009569377990432,0.965034965034965,0.7288693743139407,0.2912447885646218,0.35844155844155845
tgwiki,True,56.0,0.22150882825040127,0.965034965034965,0.7310647639956093,0.2888624181060155,0.360313315926893
tgwiki,True,57.0,0.22294022617124395,0.965034965034965,0.7332601536772777,0.2864800476474092,0.36220472440944884
tgwiki,True,58.0,0.2247557003257329,0.965034965034965,0.7360043907793633,0.28350208457415127,0.3645970937912813
tgwiki,True,59.0,0.2273476112026359,0.965034965034965,0.7398463227222832,0.2793329362715902,0.368
tgwiki,True,60.0,0.22847682119205298,0.965034965034965,0.7414928649835346,0.27754615842763547,0.3694779116465864
tgwiki,True,61.0,0.2303839732888147,0.965034965034965,0.7442371020856202,0.2745681953543776,0.3719676549865229
tgwiki,True,62.0,0.2319327731092437,0.965034965034965,0.7464324917672887,0.2721858248957713,0.3739837398373984
tgwiki,True,63.0,0.233502538071066,0.965034965034965,0.7486278814489572,0.26980345443716497,0.3760217983651226
tgwiki,True,64.0,0.23509369676320271,0.965034965034965,0.7508232711306256,0.2674210839785587,0.37808219178082186
tgwiki,True,65.0,0.23539518900343642,0.958041958041958,0.752469813391877,0.26503871351995234,0.37793103448275867
tgwiki,True,66.0,0.2378472222222222,0.958041958041958,0.7557628979143798,0.2614651578320429,0.3810848400556328
tgwiki,True,67.0,0.23992994746059546,0.958041958041958,0.7585071350164654,0.258487194758785,0.3837535014005602
tgwiki,True,68.0,0.24377224199288255,0.958041958041958,0.7634467618002195,0.2531268612269208,0.38865248226950355
tgwiki,True,69.0,0.24416517055655296,0.951048951048951,0.7650933040614709,0.25074449076831445,0.3885714285714286
tgwiki,True,70.0,0.24363636363636362,0.9370629370629371,0.7667398463227223,0.24776652769505658,0.3867243867243867
tgwiki,True,71.0,0.24632352941176472,0.9370629370629371,0.7700329308452251,0.24419297200714712,0.3901018922852984
tgwiki,True,72.0,0.2514177693761815,0.9300699300699301,0.7771679473106476,0.235854675402025,0.3958333333333333
tgwiki,True,73.0,0.25430210325047803,0.9300699300699301,0.7804610318331504,0.23228111971411555,0.39939939939939945
tgwiki,True,74.0,0.25338491295938104,0.916083916083916,0.7815587266739846,0.22989874925550924,0.396969696969697
tgwiki,True,75.0,0.2554027504911591,0.9090909090909091,0.7848518111964874,0.2257296009529482,0.3987730061349693
tgwiki,True,76.0,0.2585858585858586,0.8951048951048951,0.7903402854006586,0.21858248957712925,0.4012539184952978
tgwiki,True,77.0,0.2587268993839836,0.8811188811188811,0.7925356750823271,0.21500893388921977,0.39999999999999997
tgwiki,True,78.0,0.26260504201680673,0.8741258741258742,0.7974753018660812,0.209053007742704,0.4038772213247173
tgwiki,True,79.0,0.2650862068965517,0.8601398601398601,0.8018660812294183,0.2030970815961882,0.4052718286655683
tgwiki,True,80.0,0.2636363636363636,0.8111888111888111,0.8073545554335895,0.19297200714711138,0.3979416809605489
tgwiki,True,81.0,0.26252983293556087,0.7692307692307693,0.8122941822173436,0.1840381179273377,0.3914590747330961
tgwiki,True,82.0,0.2628992628992629,0.7482517482517482,0.8155872667398463,0.1786777843954735,0.3890909090909091
tgwiki,True,83.0,0.2706185567010309,0.7342657342657343,0.8238199780461032,0.16855270994639668,0.39548022598870053
tgwiki,True,84.0,0.27472527472527475,0.6993006993006993,0.8315038419319429,0.15723645026801666,0.39447731755424065
tgwiki,True,85.0,0.2782608695652174,0.6713286713286714,0.8375411635565313,0.148302561048243,0.39344262295081966
tgwiki,True,86.0,0.2804878048780488,0.6433566433566433,0.8424807903402854,0.1405598570577725,0.39065817409766457
tgwiki,True,87.0,0.2809364548494983,0.5874125874125874,0.849615806805708,0.12805241215008933,0.3800904977375566
tgwiki,True,88.0,0.2819548872180451,0.5244755244755245,0.8578485181119648,0.11375818939845146,0.36674816625916873
tgwiki,True,89.0,0.3070539419087137,0.5174825174825175,0.8704720087815587,0.09946396664681358,0.3854166666666667
tgwiki,True,90.0,0.3383084577114428,0.4755244755244755,0.8858397365532382,0.07921381774865992,0.39534883720930236
tgwiki,True,91.0,0.3389830508474576,0.4195804195804196,0.8902305159165752,0.06968433591423466,0.375
tgwiki,True,92.0,0.3288590604026846,0.34265734265734266,0.893523600439078,0.05955926146515783,0.3356164383561644
tgwiki,True,93.0,0.30833333333333335,0.25874125874125875,0.8962678375411636,0.049434187016081,0.2813688212927757
tgwiki,True,94.0,0.29213483146067415,0.18181818181818182,0.9012074643249177,0.03752233472304944,0.22413793103448273
tgwiki,True,95.0,0.29850746268656714,0.13986013986013987,0.9066959385290889,0.02799285288862418,0.19047619047619047
tgwiki,True,96.0,0.30434782608695654,0.0979020979020979,0.9116355653128431,0.019058963668850508,0.14814814814814817
tgwiki,True,97.0,0.25806451612903225,0.055944055944055944,0.9132821075740944,0.0136986301369863,0.09195402298850575
tgwiki,True,98.0,0.3157894736842105,0.04195804195804196,0.9176728869374314,0.007742703990470518,0.07407407407407407
tgwiki,True,99.0,0.3,0.02097902097902098,0.9193194291986828,0.004169148302561048,0.0392156862745098
tgwiki,False,0.0,0.01802519183437093,1.0,0.01802519183437093,1.0,0.03541207423736045
tgwiki,False,1.0,0.0180343304121098,1.0,0.01853192413493557,0.9994839660892001,0.03542970973249858
tgwiki,False,2.0,0.018350652221976564,1.0,0.03576082235413349,0.9819388131220051,0.03603994789405124
tgwiki,False,3.0,0.018803548411555085,0.9959839357429718,0.0631243665846243,0.9539992628086988,0.036910254502158055
tgwiki,False,4.0,0.019415148609779484,0.9759036144578314,0.11111915448096134,0.90475488389237,0.03807285546415982
tgwiki,False,5.0,0.020320765807372576,0.9718875502008032,0.15491530331547707,0.8600810910431257,0.03980917914130614
tgwiki,False,6.0,0.021075002213760737,0.9558232931726908,0.19892862313594903,0.8149649834131957,0.04124068618956853
tgwiki,False,7.0,0.02153043154068413,0.927710843373494,0.2387433038945997,0.7739034279395504,0.04208416833667335
tgwiki,False,8.0,0.02258947780168199,0.927710843373494,0.275155639206602,0.7368227054920752,0.044105011933174225
tgwiki,False,9.0,0.02310129817029541,0.9076305220883534,0.30650065151295786,0.7045337265020273,0.04505582137161084
tgwiki,False,10.0,0.024116956568135738,0.9076305220883534,0.33632546691761983,0.6741614448949502,0.04698544698544699
tgwiki,False,11.0,0.025210084033613446,0.9036144578313253,0.3684667728391487,0.6413564319941024,0.04905166775670373
tgwiki,False,12.0,0.026402252992255338,0.9036144578313253,0.3976400752859418,0.6116476225580538,0.05130543837646791
tgwiki,False,13.0,0.027607361963190184,0.9036144578313253,0.42456927754452006,0.5842241061555473,0.05357780688177164
tgwiki,False,14.0,0.028853552192869968,0.9036144578313253,0.4500506732300565,0.5582749723553262,0.055921461414191624
tgwiki,False,15.0,0.029993275050437123,0.8955823293172691,0.47603880121615755,0.5316623663840767,0.058042686100989074
tgwiki,False,16.0,0.031302876480541454,0.891566265060241,0.5007239032865209,0.5064504238849982,0.06048222313036371
tgwiki,False,17.0,0.03254307171256074,0.8875502008032129,0.5223686115534965,0.4843346848507188,0.0627840909090909
tgwiki,False,18.0,0.033942558746736295,0.8875502008032129,0.5426379035760822,0.4636933284187247,0.06538461538461539
tgwiki,False,19.0,0.03521012493915301,0.8714859437751004,0.5672506153177935,0.43833394765941763,0.06768558951965066
tgwiki,False,20.0,0.036527353041114506,0.8634538152610441,0.5870131750398146,0.4180611868779948,0.07008964955175223
tgwiki,False,21.0,0.038399714234684766,0.8634538152610441,0.6077891993629652,0.39690379653520086,0.07352941176470587
tgwiki,False,22.0,0.03997758266392677,0.8594377510040161,0.6254524395540756,0.37884260965720606,0.07640128525526597
tgwiki,False,23.0,0.04139008199921906,0.8514056224899599,0.6418850441581004,0.3619609288610394,0.07894246881400113
tgwiki,False,24.0,0.042609582059123345,0.8393574297188755,0.657159403503692,0.3461850350165868,0.08110205665502522
tgwiki,False,25.0,0.043533658950945,0.8232931726907631,0.6707687852902852,0.332030962034648,0.08269463493344091
tgwiki,False,26.0,0.045474711623779945,0.8232931726907631,0.6853192413493557,0.3172134168816808,0.0861887744376708
tgwiki,False,27.0,0.04698767155152361,0.8112449799196787,0.7000144780657305,0.3020272760781423,0.08883025505716799
tgwiki,False,28.0,0.04846566000974184,0.7991967871485943,0.7135514695236717,0.288020641356432,0.09138920780711825
tgwiki,False,29.0,0.04996156802459646,0.7831325301204819,0.7276675836108296,0.27335053446369334,0.09393063583815028
tgwiki,False,30.0,0.051419389394750936,0.7710843373493976,0.7394672071811206,0.2611131588647254,0.09640974140095405
tgwiki,False,31.0,0.0539780714084903,0.7710843373493976,0.7522802953525409,0.24806487283450054,0.10089332632685234
tgwiki,False,32.0,0.056011730205278595,0.7670682730923695,0.7627768930070943,0.23730187983781792,0.1044001093194862
tgwiki,False,33.0,0.05876923076923077,0.7670682730923695,0.7743593455914289,0.22550681901953556,0.10917404972849384
tgwiki,False,34.0,0.060771704180064307,0.7590361445783133,0.7842044302881135,0.21533357906376704,0.11253349211074724
tgwiki,False,35.0,0.06296048225050234,0.7550200803212851,0.7930360503836688,0.2062661260597125,0.11622874806800618
tgwiki,False,36.0,0.0655280585569885,0.7550200803212851,0.8015057188359636,0.19764098783634354,0.12059012187299552
tgwiki,False,37.0,0.06782734856728329,0.751004016064257,0.8094686549876936,0.18945816439366014,0.12441783100465735
tgwiki,False,38.0,0.07061503416856492,0.7469879518072289,0.8182278847545967,0.18046443051971986,0.12903225806451613
tgwiki,False,39.0,0.07240704500978473,0.7429718875502008,0.8238019400608079,0.17471433837080722,0.13195435092724678
tgwiki,False,40.0,0.07449392712550608,0.7389558232931727,0.8298103373389315,0.168521931441209,0.1353438764251563
tgwiki,False,41.0,0.07698779974758098,0.7349397590361446,0.8363978572462719,0.16173977147069665,0.13937547600913938
tgwiki,False,42.0,0.07917760279965004,0.7269076305220884,0.8426958158390039,0.1551787688905271,0.1428007889546351
tgwiki,False,43.0,0.08208616780045351,0.7269076305220884,0.8485594324598233,0.14920751935127166,0.14751426242868784
tgwiki,False,44.0,0.08557919621749409,0.7269076305220884,0.8550745620385116,0.14257279764098785,0.15313028764805414
tgwiki,False,45.0,0.08797653958944282,0.7228915662650602,0.8599247140582018,0.13755989679321784,0.1568627450980392
tgwiki,False,46.0,0.09013091641490432,0.7188755020080321,0.8641233531200232,0.13321046811647622,0.16017897091722594
tgwiki,False,47.0,0.09213250517598344,0.714859437751004,0.867887650209932,0.1293033542204202,0.1632278771205869
tgwiki,False,48.0,0.09516129032258064,0.7108433734939759,0.8729549732155784,0.12406929598230741,0.16785206258890467
tgwiki,False,49.0,0.09811529933481153,0.7108433734939759,0.8770088316200956,0.11994102469590859,0.17243058938139308
tgwiki,False,50.0,0.1010332950631458,0.7068273092369478,0.8813522513392211,0.11544415775893845,0.17679558011049723
tgwiki,False,51.0,0.10391923990498812,0.7028112449799196,0.8854061097437382,0.11124216734242535,0.1810657009829281
tgwiki,False,52.0,0.10642201834862386,0.6987951807228916,0.8888084551903865,0.10770364909694066,0.18471337579617836
tgwiki,False,53.0,0.10804020100502512,0.6907630522088354,0.8916316780078182,0.10468116476225581,0.1868549701249321
tgwiki,False,54.0,0.1121251629726206,0.6907630522088354,0.8958303170696394,0.10040545521562845,0.19293325855300056
tgwiki,False,55.0,0.1145902731512325,0.6907630522088354,0.8982191979151586,0.09797272392185773,0.19657142857142856
tgwiki,False,56.0,0.11668928086838534,0.6907630522088354,0.900173736788765,0.09598230740877257,0.1996517701683111
tgwiki,False,57.0,0.12076271186440678,0.6867469879518072,0.9042275951932822,0.0917803169922595,0.20540540540540542
tgwiki,False,58.0,0.125366568914956,0.6867469879518072,0.907991892283191,0.08794692222631773,0.2120272783632982
tgwiki,False,59.0,0.1286903860711582,0.6827309236947792,0.9109598957579268,0.08485071876151862,0.2165605095541401
tgwiki,False,60.0,0.13229571984435798,0.6827309236947792,0.913565947589402,0.08219683007740508,0.2216427640156454
tgwiki,False,61.0,0.13354531001589826,0.6746987951807228,0.9152309251484002,0.08035385182454848,0.22295952222959523
tgwiki,False,62.0,0.13714285714285715,0.6746987951807228,0.9176198059939192,0.07792112053077774,0.22795115332428767
tgwiki,False,63.0,0.14152542372881355,0.6706827309236948,0.9207325901259592,0.0746774788057501,0.23372988103568926
tgwiki,False,64.0,0.14335360556038226,0.6626506024096386,0.9225423483422615,0.07268706229266494,0.23571428571428568
tgwiki,False,65.0,0.1447602131438721,0.6546184738955824,0.9240625452439554,0.07099152230003686,0.23709090909090907
tgwiki,False,66.0,0.14940421631530706,0.6546184738955824,0.9265962067467787,0.0684113527460376,0.24328358208955225
tgwiki,False,67.0,0.15479582146248813,0.6546184738955824,0.9293470392355582,0.06561002580169555,0.250384024577573
tgwiki,False,68.0,0.15996074582924436,0.6546184738955824,0.9318083104097292,0.06310357537781054,0.25709779179810727
tgwiki,False,69.0,0.1643002028397566,0.6506024096385542,0.9340524105979441,0.06074456321415407,0.2623481781376518
tgwiki,False,70.0,0.16649214659685863,0.6385542168674698,0.9358621688142464,0.058680427570954666,0.26411960132890366
tgwiki,False,71.0,0.17263843648208468,0.6385542168674698,0.9383234399884175,0.05617397714706966,0.2717948717948718
tgwiki,False,72.0,0.1793416572077185,0.6345381526104418,0.941074272477197,0.05329893107261334,0.279646017699115
tgwiki,False,73.0,0.18414918414918416,0.6345381526104418,0.9427392500361952,0.05160339107998525,0.2854561878952123
tgwiki,False,74.0,0.18742442563482467,0.6224899598393574,0.9445490082524974,0.04953925543678585,0.28810408921933084
tgwiki,False,75.0,0.1925,0.6184738955823293,0.9463587664687998,0.04762255805381496,0.29361296472831266
tgwiki,False,76.0,0.19921363040629095,0.6104417670682731,0.9487476473143188,0.045042388499815705,0.30039525691699603
tgwiki,False,77.0,0.20161290322580644,0.6024096385542169,0.9498335022441002,0.0437891632878732,0.3021148036253777
tgwiki,False,78.0,0.2053072625698324,0.5903614457831325,0.9514260894744462,0.041946185035016584,0.30466321243523314
tgwiki,False,79.0,0.20875912408759123,0.5742971887550201,0.9530910670334444,0.03995576852193144,0.30620985010706636
tgwiki,False,80.0,0.21020092735703247,0.5461847389558233,0.9548284349210946,0.037670475488389234,0.3035714285714286
tgwiki,False,81.0,0.21044045676998369,0.5180722891566265,0.9562762414941364,0.03568005897530409,0.29930394431554525
tgwiki,False,82.0,0.21428571428571427,0.5060240963855421,0.9576516577385261,0.03405823811279027,0.30107526881720426
tgwiki,False,83.0,0.22404371584699453,0.4939759036144578,0.9600405385840451,0.031404349428676745,0.30827067669172936
tgwiki,False,84.0,0.23306772908366533,0.46987951807228917,0.9625742000868684,0.02838186509399189,0.3115845539280959
tgwiki,False,85.0,0.23880597014925373,0.4497991967871486,0.9642391776458665,0.02631772945079248,0.31197771587743733
tgwiki,False,86.0,0.2471395881006865,0.43373493975903615,0.9659765455335168,0.02425359380759307,0.314868804664723
tgwiki,False,87.0,0.25125628140703515,0.40160642570281124,0.9676415230925148,0.021968300774050865,0.3091190108191653
tgwiki,False,88.0,0.2579710144927536,0.357429718875502,0.9698856232807297,0.01887209730925175,0.2996632996632997
tgwiki,False,89.0,0.28,0.3373493975903614,0.9724192847835529,0.015923332104681165,0.30601092896174864
tgwiki,False,90.0,0.3031496062992126,0.3092369477911647,0.9747357753004199,0.013048286030224843,0.3061630218687873
tgwiki,False,91.0,0.31627906976744186,0.27309236947791166,0.9762559722021138,0.010836712126796905,0.29310344827586204
tgwiki,False,92.0,0.3149171270718232,0.2289156626506024,0.9771246561459389,0.009141172134168816,0.2651162790697674
tgwiki,False,93.0,0.3103448275862069,0.18072289156626506,0.977993340089764,0.007371913011426466,0.2284263959390863
tgwiki,False,94.0,0.29245283018867924,0.12449799196787148,0.978789633704937,0.0055289347585698485,0.17464788732394365
tgwiki,False,95.0,0.3026315789473684,0.09236947791164658,0.9798030983060663,0.0039071138960560265,0.14153846153846153
tgwiki,False,96.0,0.3076923076923077,0.0642570281124498,0.9805270015925872,0.0026538886841135276,0.10631229235880398
tgwiki,False,97.0,0.29411764705882354,0.040160642570281124,0.9809613435644998,0.0017692591227423517,0.0706713780918728
tgwiki,False,98.0,0.38095238095238093,0.0321285140562249,0.9816128565223686,0.0009583486914854404,0.059259259259259255
tgwiki,False,99.0,0.4166666666666667,0.020080321285140562,0.9818300275083249,0.0005160339107998526,0.038314176245210725
