wiki_db,user_is_anonymous_or_bot,threshold,precision,recall,accuracy,fpr,F1
zeawiki,True,0.0,0.46078431372549017,1.0,0.46078431372549017,1.0,0.6308724832214765
zeawiki,True,1.0,0.46078431372549017,1.0,0.46078431372549017,1.0,0.6308724832214765
zeawiki,True,2.0,0.46078431372549017,1.0,0.46078431372549017,1.0,0.6308724832214765
zeawiki,True,3.0,0.46078431372549017,1.0,0.46078431372549017,1.0,0.6308724832214765
zeawiki,True,4.0,0.46078431372549017,1.0,0.46078431372549017,1.0,0.6308724832214765
zeawiki,True,5.0,0.46078431372549017,1.0,0.46078431372549017,1.0,0.6308724832214765
zeawiki,True,6.0,0.46078431372549017,1.0,0.46078431372549017,1.0,0.6308724832214765
zeawiki,True,7.0,0.46078431372549017,1.0,0.46078431372549017,1.0,0.6308724832214765
zeawiki,True,8.0,0.46078431372549017,1.0,0.46078431372549017,1.0,0.6308724832214765
zeawiki,True,9.0,0.46078431372549017,1.0,0.46078431372549017,1.0,0.6308724832214765
zeawiki,True,10.0,0.46078431372549017,1.0,0.46078431372549017,1.0,0.6308724832214765
zeawiki,True,11.0,0.46078431372549017,1.0,0.46078431372549017,1.0,0.6308724832214765
zeawiki,True,12.0,0.46078431372549017,1.0,0.46078431372549017,1.0,0.6308724832214765
zeawiki,True,13.0,0.46078431372549017,1.0,0.46078431372549017,1.0,0.6308724832214765
zeawiki,True,14.0,0.46078431372549017,1.0,0.46078431372549017,1.0,0.6308724832214765
zeawiki,True,15.0,0.46078431372549017,1.0,0.46078431372549017,1.0,0.6308724832214765
zeawiki,True,16.0,0.46078431372549017,1.0,0.46078431372549017,1.0,0.6308724832214765
zeawiki,True,17.0,0.46078431372549017,1.0,0.46078431372549017,1.0,0.6308724832214765
zeawiki,True,18.0,0.46078431372549017,1.0,0.46078431372549017,1.0,0.6308724832214765
zeawiki,True,19.0,0.46078431372549017,1.0,0.46078431372549017,1.0,0.6308724832214765
zeawiki,True,20.0,0.46078431372549017,1.0,0.46078431372549017,1.0,0.6308724832214765
zeawiki,True,21.0,0.46078431372549017,1.0,0.46078431372549017,1.0,0.6308724832214765
zeawiki,True,22.0,0.46078431372549017,1.0,0.46078431372549017,1.0,0.6308724832214765
zeawiki,True,23.0,0.46078431372549017,1.0,0.46078431372549017,1.0,0.6308724832214765
zeawiki,True,24.0,0.46078431372549017,1.0,0.46078431372549017,1.0,0.6308724832214765
zeawiki,True,25.0,0.45544554455445546,0.9787234042553191,0.45098039215686275,1.0,0.6216216216216216
zeawiki,True,26.0,0.45544554455445546,0.9787234042553191,0.45098039215686275,1.0,0.6216216216216216
zeawiki,True,27.0,0.45544554455445546,0.9787234042553191,0.45098039215686275,1.0,0.6216216216216216
zeawiki,True,28.0,0.46,0.9787234042553191,0.46078431372549017,0.9818181818181818,0.6258503401360545
zeawiki,True,29.0,0.46938775510204084,0.9787234042553191,0.4803921568627451,0.9454545454545454,0.6344827586206897
zeawiki,True,30.0,0.4742268041237113,0.9787234042553191,0.49019607843137253,0.9272727272727272,0.6388888888888888
zeawiki,True,31.0,0.4842105263157895,0.9787234042553191,0.5098039215686274,0.8909090909090909,0.647887323943662
zeawiki,True,32.0,0.4842105263157895,0.9787234042553191,0.5098039215686274,0.8909090909090909,0.647887323943662
zeawiki,True,33.0,0.48936170212765956,0.9787234042553191,0.5196078431372549,0.8727272727272727,0.652482269503546
zeawiki,True,34.0,0.4946236559139785,0.9787234042553191,0.5294117647058824,0.8545454545454545,0.6571428571428571
zeawiki,True,35.0,0.5054945054945055,0.9787234042553191,0.5490196078431373,0.8181818181818182,0.6666666666666667
zeawiki,True,36.0,0.5111111111111111,0.9787234042553191,0.5588235294117647,0.8,0.6715328467153284
zeawiki,True,37.0,0.5111111111111111,0.9787234042553191,0.5588235294117647,0.8,0.6715328467153284
zeawiki,True,38.0,0.5111111111111111,0.9787234042553191,0.5588235294117647,0.8,0.6715328467153284
zeawiki,True,39.0,0.5227272727272727,0.9787234042553191,0.5784313725490197,0.7636363636363637,0.6814814814814814
zeawiki,True,40.0,0.5227272727272727,0.9787234042553191,0.5784313725490197,0.7636363636363637,0.6814814814814814
zeawiki,True,41.0,0.5287356321839081,0.9787234042553191,0.5882352941176471,0.7454545454545455,0.6865671641791046
zeawiki,True,42.0,0.5641025641025641,0.9361702127659575,0.6372549019607843,0.6181818181818182,0.7040000000000001
zeawiki,True,43.0,0.5945945945945946,0.9361702127659575,0.6764705882352942,0.5454545454545454,0.7272727272727273
zeawiki,True,44.0,0.5945945945945946,0.9361702127659575,0.6764705882352942,0.5454545454545454,0.7272727272727273
zeawiki,True,45.0,0.5945945945945946,0.9361702127659575,0.6764705882352942,0.5454545454545454,0.7272727272727273
zeawiki,True,46.0,0.6027397260273972,0.9361702127659575,0.6862745098039216,0.5272727272727272,0.7333333333333333
zeawiki,True,47.0,0.6111111111111112,0.9361702127659575,0.696078431372549,0.509090909090909,0.7394957983193278
zeawiki,True,48.0,0.6197183098591549,0.9361702127659575,0.7058823529411765,0.4909090909090909,0.7457627118644067
zeawiki,True,49.0,0.6197183098591549,0.9361702127659575,0.7058823529411765,0.4909090909090909,0.7457627118644067
zeawiki,True,50.0,0.6285714285714286,0.9361702127659575,0.7156862745098039,0.4727272727272727,0.7521367521367521
zeawiki,True,51.0,0.6376811594202898,0.9361702127659575,0.7254901960784313,0.45454545454545453,0.7586206896551724
zeawiki,True,52.0,0.6567164179104478,0.9361702127659575,0.7450980392156863,0.41818181818181815,0.7719298245614035
zeawiki,True,53.0,0.6567164179104478,0.9361702127659575,0.7450980392156863,0.41818181818181815,0.7719298245614035
zeawiki,True,54.0,0.676923076923077,0.9361702127659575,0.7647058823529411,0.38181818181818183,0.7857142857142858
zeawiki,True,55.0,0.6984126984126984,0.9361702127659575,0.7843137254901961,0.34545454545454546,0.8
zeawiki,True,56.0,0.7096774193548387,0.9361702127659575,0.7941176470588235,0.32727272727272727,0.8073394495412844
zeawiki,True,57.0,0.7457627118644068,0.9361702127659575,0.8235294117647058,0.2727272727272727,0.8301886792452831
zeawiki,True,58.0,0.7857142857142857,0.9361702127659575,0.8529411764705882,0.21818181818181817,0.854368932038835
zeawiki,True,59.0,0.7857142857142857,0.9361702127659575,0.8529411764705882,0.21818181818181817,0.854368932038835
zeawiki,True,60.0,0.8,0.9361702127659575,0.8627450980392157,0.2,0.8627450980392157
zeawiki,True,61.0,0.8,0.9361702127659575,0.8627450980392157,0.2,0.8627450980392157
zeawiki,True,62.0,0.8,0.9361702127659575,0.8627450980392157,0.2,0.8627450980392157
zeawiki,True,63.0,0.8,0.9361702127659575,0.8627450980392157,0.2,0.8627450980392157
zeawiki,True,64.0,0.8,0.9361702127659575,0.8627450980392157,0.2,0.8627450980392157
zeawiki,True,65.0,0.8235294117647058,0.8936170212765957,0.8627450980392157,0.16363636363636364,0.8571428571428571
zeawiki,True,66.0,0.8235294117647058,0.8936170212765957,0.8627450980392157,0.16363636363636364,0.8571428571428571
zeawiki,True,67.0,0.8043478260869565,0.7872340425531915,0.8137254901960784,0.16363636363636364,0.795698924731183
zeawiki,True,68.0,0.8,0.7659574468085106,0.803921568627451,0.16363636363636364,0.7826086956521738
zeawiki,True,69.0,0.8181818181818182,0.7659574468085106,0.8137254901960784,0.14545454545454545,0.7912087912087913
zeawiki,True,70.0,0.8181818181818182,0.7659574468085106,0.8137254901960784,0.14545454545454545,0.7912087912087913
zeawiki,True,71.0,0.813953488372093,0.7446808510638298,0.803921568627451,0.14545454545454545,0.7777777777777778
zeawiki,True,72.0,0.813953488372093,0.7446808510638298,0.803921568627451,0.14545454545454545,0.7777777777777778
zeawiki,True,73.0,0.813953488372093,0.7446808510638298,0.803921568627451,0.14545454545454545,0.7777777777777778
zeawiki,True,74.0,0.8333333333333334,0.7446808510638298,0.8137254901960784,0.12727272727272726,0.7865168539325842
zeawiki,True,75.0,0.8333333333333334,0.7446808510638298,0.8137254901960784,0.12727272727272726,0.7865168539325842
zeawiki,True,76.0,0.8333333333333334,0.7446808510638298,0.8137254901960784,0.12727272727272726,0.7865168539325842
zeawiki,True,77.0,0.8333333333333334,0.7446808510638298,0.8137254901960784,0.12727272727272726,0.7865168539325842
zeawiki,True,78.0,0.825,0.7021276595744681,0.7941176470588235,0.12727272727272726,0.7586206896551724
zeawiki,True,79.0,0.8205128205128205,0.6808510638297872,0.7843137254901961,0.12727272727272726,0.7441860465116279
zeawiki,True,80.0,0.8157894736842105,0.6595744680851063,0.7745098039215687,0.12727272727272726,0.7294117647058823
zeawiki,True,81.0,0.8235294117647058,0.5957446808510638,0.7549019607843137,0.10909090909090909,0.691358024691358
zeawiki,True,82.0,0.8333333333333334,0.5319148936170213,0.7352941176470589,0.09090909090909091,0.6493506493506493
zeawiki,True,83.0,0.8333333333333334,0.5319148936170213,0.7352941176470589,0.09090909090909091,0.6493506493506493
zeawiki,True,84.0,0.92,0.48936170212765956,0.7450980392156863,0.03636363636363636,0.6388888888888888
zeawiki,True,85.0,0.9565217391304348,0.46808510638297873,0.7450980392156863,0.01818181818181818,0.6285714285714286
zeawiki,True,86.0,0.9545454545454546,0.44680851063829785,0.7352941176470589,0.01818181818181818,0.6086956521739131
zeawiki,True,87.0,1.0,0.425531914893617,0.7352941176470589,0.0,0.5970149253731344
zeawiki,True,88.0,1.0,0.3829787234042553,0.7156862745098039,0.0,0.5538461538461539
zeawiki,True,89.0,1.0,0.3617021276595745,0.7058823529411765,0.0,0.53125
zeawiki,True,90.0,1.0,0.2553191489361702,0.6568627450980392,0.0,0.4067796610169491
zeawiki,True,91.0,1.0,0.19148936170212766,0.6274509803921569,0.0,0.32142857142857145
zeawiki,True,92.0,1.0,0.1276595744680851,0.5980392156862745,0.0,0.22641509433962262
zeawiki,True,93.0,1.0,0.0851063829787234,0.5784313725490197,0.0,0.1568627450980392
zeawiki,True,94.0,1.0,0.0425531914893617,0.5588235294117647,0.0,0.08163265306122448
zeawiki,True,95.0,1.0,0.0,0.5392156862745098,0.0,0.0
zeawiki,True,96.0,1.0,0.0,0.5392156862745098,0.0,0.0
zeawiki,True,97.0,1.0,0.0,0.5392156862745098,0.0,0.0
zeawiki,True,98.0,1.0,0.0,0.5392156862745098,0.0,0.0
zeawiki,True,99.0,1.0,0.0,0.5392156862745098,0.0,0.0
zeawiki,False,0.0,0.0248802348941431,1.0,0.0248802348941431,1.0,0.04855247285886611
zeawiki,False,1.0,0.0248802348941431,1.0,0.0248802348941431,1.0,0.04855247285886611
zeawiki,False,2.0,0.024895623936910468,1.0,0.025498377375985166,0.9993660855784469,0.04858177429088714
zeawiki,False,3.0,0.024899474172595113,1.0,0.02565291299644568,0.9992076069730587,0.04858910517579598
zeawiki,False,4.0,0.024949635828296915,1.0,0.02766187606243239,0.997147385103011,0.04868460840641064
zeawiki,False,5.0,0.025034986782770954,1.0,0.031061659712563746,0.993660855784469,0.048847087378640776
zeawiki,False,6.0,0.02515625,1.0,0.03585226394683975,0.9887480190174327,0.049077884468830976
zeawiki,False,7.0,0.02519809825673534,0.9875776397515528,0.049142327306444133,0.9748019017432646,0.04914232730644414
zeawiki,False,8.0,0.025197867872718462,0.968944099378882,0.06660485241848246,0.9564183835182251,0.0491183879093199
zeawiki,False,9.0,0.025657894736842105,0.968944099378882,0.08375830628959975,0.9388272583201268,0.04999198846338728
zeawiki,False,10.0,0.026085493099966342,0.9627329192546584,0.10477515067222995,0.9171156893819334,0.05079469113550713
zeawiki,False,11.0,0.026138133979574173,0.937888198757764,0.129037243084531,0.8916006339144216,0.050858875042101716
zeawiki,False,12.0,0.026329930145083287,0.9130434782608695,0.157780868490187,0.8614896988906497,0.05118384401114206
zeawiki,False,13.0,0.026688753911282902,0.9006211180124224,0.18034306907742234,0.8380348652931854,0.05184125849124062
zeawiki,False,14.0,0.02646002646002646,0.8695652173913043,0.20074177097821047,0.8163232963549921,0.05135730007336757
zeawiki,False,15.0,0.026790914385556204,0.8571428571428571,0.22175861536084068,0.7944532488114104,0.0519578313253012
zeawiki,False,16.0,0.02723267921505807,0.84472049689441,0.24540256529129964,0.7698890649762282,0.052764306498545105
zeawiki,False,17.0,0.02696629213483146,0.8198757763975155,0.2594653067532066,0.7548335974643423,0.05221518987341772
zeawiki,False,18.0,0.027388668199874556,0.8136645962732919,0.2764642250038634,0.7372424722662441,0.052993527508090624
zeawiki,False,19.0,0.027873070325900515,0.8074534161490683,0.2945448925977438,0.7185419968304279,0.05388601036269431
zeawiki,False,20.0,0.028521281263712155,0.8074534161490683,0.3109256683665585,0.701743264659271,0.05509641873278237
zeawiki,False,21.0,0.027289129454217412,0.7515527950310559,0.3273064441353732,0.6835182250396197,0.052665941240478784
zeawiki,False,22.0,0.025883984284723827,0.6956521739130435,0.34106011435635913,0.6679873217115689,0.049910873440285206
zeawiki,False,23.0,0.02613447374673319,0.6832298136645962,0.358677175088858,0.6496038034865294,0.050343249427917625
zeawiki,False,24.0,0.026702596766291033,0.6770186335403726,0.3779941276464225,0.629635499207607,0.05137874145651661
zeawiki,False,25.0,0.026781202627589692,0.6583850931677019,0.3962293308607634,0.6104595879556259,0.05146880310755038
zeawiki,False,26.0,0.027182435964453737,0.6459627329192547,0.41600989027970947,0.5898573692551505,0.05216955104088287
zeawiki,False,27.0,0.027837837837837838,0.639751552795031,0.4351723072168135,0.5700475435816165,0.05335405335405335
zeawiki,False,28.0,0.02893258426966292,0.639751552795031,0.45680729408128573,0.5478605388272583,0.05536146197258801
zeawiki,False,29.0,0.029463243873978997,0.6273291925465838,0.4765878535002318,0.5272583201267829,0.05628308721092227
zeawiki,False,30.0,0.030146163215590743,0.6149068322981367,0.49822284036470404,0.5047543581616482,0.05747460087082729
zeawiki,False,31.0,0.03008233058898037,0.5900621118012422,0.516458043579045,0.4854199683042789,0.05724615848147033
zeawiki,False,32.0,0.03071334214002642,0.577639751552795,0.53592953175707,0.46513470681458,0.058325493885230485
zeawiki,False,33.0,0.029958677685950414,0.5403726708074534,0.5532375212486478,0.44643423137876387,0.0567699836867863
zeawiki,False,34.0,0.02972779369627507,0.515527950310559,0.5693092257765415,0.42931854199683045,0.05621401964104301
zeawiki,False,35.0,0.030803906836964687,0.5093167701863354,0.5890897851954876,0.40887480190174325,0.05809422600070846
zeawiki,False,36.0,0.0308300395256917,0.484472049689441,0.6082522021325916,0.38858954041204435,0.05797101449275362
zeawiki,False,37.0,0.03166666666666667,0.4720496894409938,0.6277236903106166,0.36830427892234546,0.059351815696993375
zeawiki,False,38.0,0.03245614035087719,0.45962732919254656,0.6456498222840364,0.3496038034865293,0.06063088897992625
zeawiki,False,39.0,0.03367158671586716,0.453416149068323,0.6626487405346932,0.33201267828843106,0.06268784886217262
zeawiki,False,40.0,0.034735812133072405,0.4409937888198758,0.6811930149899552,0.3126782884310618,0.06439909297052154
zeawiki,False,41.0,0.03435710567412806,0.40993788819875776,0.6986555401019935,0.29397781299524567,0.06340057636887608
zeawiki,False,42.0,0.03513664249860569,0.391304347826087,0.7175088857981765,0.27416798732171155,0.06448311156601842
zeawiki,False,43.0,0.036505086774386596,0.37888198757763975,0.7357440890125174,0.2551505546751189,0.0665938864628821
zeawiki,False,44.0,0.03750794659885569,0.36645962732919257,0.7502704373358059,0.23993660855784468,0.06805074971164936
zeawiki,False,45.0,0.03969883641341547,0.36024844720496896,0.7672693555864627,0.22234548335974644,0.07151664611590629
zeawiki,False,46.0,0.04194260485651214,0.35403726708074534,0.7827229176325143,0.2063391442155309,0.075
zeawiki,False,47.0,0.04477611940298507,0.35403726708074534,0.7960129809921187,0.19270998415213947,0.0794979079497908
zeawiki,False,48.0,0.047979797979797977,0.35403726708074534,0.8091485087312625,0.1792393026941363,0.08450704225352111
zeawiki,False,49.0,0.05114155251141553,0.34782608695652173,0.8232112501931695,0.1646592709984152,0.08917197452229302
zeawiki,False,50.0,0.05533596837944664,0.34782608695652173,0.8360377066913923,0.1515055467511886,0.09548167092924126
zeawiki,False,51.0,0.058386411889596604,0.3416149068322981,0.8465461288827074,0.1405705229793978,0.09972801450589301
zeawiki,False,52.0,0.06292906178489703,0.3416149068322981,0.8570545510740225,0.12979397781299526,0.10628019323671499
zeawiki,False,53.0,0.06775407779171895,0.33540372670807456,0.8686447226085613,0.11774960380348654,0.1127348643006263
zeawiki,False,54.0,0.07489597780859916,0.33540372670807456,0.8803894297635605,0.10570522979397781,0.12244897959183672
zeawiki,False,55.0,0.08095952023988005,0.33540372670807456,0.8887343532684284,0.09714738510301109,0.13043478260869562
zeawiki,False,56.0,0.08695652173913043,0.33540372670807456,0.8958429918096121,0.08985736925515056,0.1381074168797954
zeawiki,False,57.0,0.09557522123893805,0.33540372670807456,0.904496986555401,0.0809825673534073,0.1487603305785124
zeawiki,False,58.0,0.10371819960861056,0.32919254658385094,0.9125328388193479,0.07258320126782884,0.15773809523809523
zeawiki,False,59.0,0.11134903640256959,0.32298136645962733,0.9190233348786896,0.06576862123613313,0.16560509554140126
zeawiki,False,60.0,0.12009237875288684,0.32298136645962733,0.9242775459743471,0.060380348652931855,0.1750841750841751
zeawiki,False,61.0,0.12903225806451613,0.32298136645962733,0.9289136145881626,0.055625990491283674,0.18439716312056736
zeawiki,False,62.0,0.13404825737265416,0.3105590062111801,0.932931540720136,0.05118858954041204,0.18726591760299627
zeawiki,False,63.0,0.14326647564469913,0.3105590062111801,0.9366403956111884,0.0473851030110935,0.19607843137254902
zeawiki,False,64.0,0.1524390243902439,0.3105590062111801,0.9398856436408592,0.044057052297939776,0.20449897750511248
zeawiki,False,65.0,0.15789473684210525,0.2981366459627329,0.9429763560500696,0.04057052297939778,0.2064516129032258
zeawiki,False,66.0,0.1672473867595819,0.2981366459627329,0.9456034615978983,0.03787638668779715,0.2142857142857143
zeawiki,False,67.0,0.1634980988593156,0.2670807453416149,0.9477669602843456,0.03486529318541997,0.20283018867924527
zeawiki,False,68.0,0.17573221757322174,0.2608695652173913,0.9511667439344769,0.0312202852614897,0.21000000000000002
zeawiki,False,69.0,0.1917808219178082,0.2608695652173913,0.9542574563436872,0.028050713153724247,0.22105263157894736
zeawiki,False,70.0,0.21212121212121213,0.2608695652173913,0.957502704373358,0.024722662440570524,0.23398328690807801
zeawiki,False,71.0,0.2122905027932961,0.2360248447204969,0.9592025961984237,0.022345483359746433,0.22352941176470587
zeawiki,False,72.0,0.2360248447204969,0.2360248447204969,0.961984237366713,0.019492868462757527,0.2360248447204969
zeawiki,False,73.0,0.2585034013605442,0.2360248447204969,0.9641477360531603,0.01727416798732171,0.24675324675324678
zeawiki,False,74.0,0.2857142857142857,0.2360248447204969,0.9663112347396074,0.015055467511885896,0.2585034013605442
zeawiki,False,75.0,0.29838709677419356,0.22981366459627328,0.9673929840828311,0.013787638668779715,0.2596491228070175
zeawiki,False,76.0,0.3076923076923077,0.2236024844720497,0.9681656621851337,0.01283676703645008,0.2589928057553957
zeawiki,False,77.0,0.32142857142857145,0.2236024844720497,0.9689383402874363,0.012044374009508717,0.26373626373626374
zeawiki,False,78.0,0.35051546391752575,0.2111801242236025,0.9706382321125019,0.009984152139461173,0.2635658914728682
zeawiki,False,79.0,0.358695652173913,0.20496894409937888,0.9711018389738835,0.009350237717908083,0.2608695652173913
zeawiki,False,80.0,0.3764705882352941,0.19875776397515527,0.9718745170761861,0.008399366085578447,0.2601626016260163
zeawiki,False,81.0,0.3670886075949367,0.18012422360248448,0.9718745170761861,0.00792393026941363,0.2416666666666667
zeawiki,False,82.0,0.3611111111111111,0.16149068322981366,0.9720290526966465,0.007290015847860539,0.22317596566523604
zeawiki,False,83.0,0.4,0.16149068322981366,0.9731108020398702,0.006180665610142631,0.23008849557522124
zeawiki,False,84.0,0.42857142857142855,0.14906832298136646,0.9738834801421727,0.005071315372424723,0.22119815668202764
zeawiki,False,85.0,0.46938775510204084,0.14285714285714285,0.9746561582444754,0.004120443740095087,0.21904761904761905
zeawiki,False,86.0,0.4888888888888889,0.13664596273291926,0.9749652294853964,0.0036450079239302696,0.21359223300970878
zeawiki,False,87.0,0.525,0.13043478260869565,0.9754288363467779,0.003011093502377179,0.20895522388059704
zeawiki,False,88.0,0.5588235294117647,0.11801242236024845,0.975737907587699,0.002377179080824089,0.19487179487179487
zeawiki,False,89.0,0.6,0.11180124223602485,0.97604697882862,0.001901743264659271,0.18848167539267013
zeawiki,False,90.0,0.5909090909090909,0.08074534161490683,0.975737907587699,0.0014263074484944533,0.14207650273224043
zeawiki,False,91.0,0.625,0.062111801242236024,0.975737907587699,0.0009508716323296355,0.11299435028248586
zeawiki,False,92.0,0.7,0.043478260869565216,0.975737907587699,0.00047543581616481777,0.08187134502923976
zeawiki,False,93.0,0.625,0.031055900621118012,0.9754288363467779,0.00047543581616481777,0.05917159763313609
zeawiki,False,94.0,0.6,0.018633540372670808,0.9752743007263174,0.0003169572107765452,0.03614457831325301
zeawiki,False,95.0,0.3333333333333333,0.006211180124223602,0.9749652294853964,0.0003169572107765452,0.012195121951219511
zeawiki,False,96.0,0.5,0.006211180124223602,0.9751197651058569,0.0001584786053882726,0.012269938650306747
zeawiki,False,97.0,0.5,0.006211180124223602,0.9751197651058569,0.0001584786053882726,0.012269938650306747
zeawiki,False,98.0,0.5,0.006211180124223602,0.9751197651058569,0.0001584786053882726,0.012269938650306747
zeawiki,False,99.0,0.5,0.006211180124223602,0.9751197651058569,0.0001584786053882726,0.012269938650306747
