wiki_db,user_is_bot,threshold,precision,recall,accuracy,fpr,F1
alswiki,True,0.0,0.040625,1.0,0.040625,1.0,0.07807807807807808
alswiki,True,1.0,0.040625,1.0,0.040625,1.0,0.07807807807807808
alswiki,True,2.0,0.04102795311091073,1.0,0.05044642857142857,0.9897626803164262,0.07882200086617583
alswiki,True,3.0,0.041723979825768,1.0,0.06696428571428571,0.9725453699395068,0.0801056338028169
alswiki,True,4.0,0.043107531975367125,1.0,0.09821428571428571,0.9399720800372267,0.08265213442325159
alswiki,True,5.0,0.04534005037783375,0.989010989010989,0.15357142857142858,0.8818054909260121,0.08670520231213871
alswiki,True,6.0,0.047114875595553204,0.978021978021978,0.19553571428571428,0.8375988832014891,0.08989898989898991
alswiki,True,7.0,0.04997160704145372,0.967032967032967,0.2517857142857143,0.7785016286644951,0.09503239740820735
alswiki,True,8.0,0.05343047965998786,0.967032967032967,0.3026785714285714,0.7254536993950674,0.10126582278481013
alswiki,True,9.0,0.05689993459777633,0.9560439560439561,0.35446428571428573,0.6710097719869706,0.10740740740740741
alswiki,True,10.0,0.060266292922214436,0.945054945054945,0.3991071428571429,0.6240111679851094,0.11330698287220027
alswiki,True,11.0,0.06446776611694154,0.945054945054945,0.440625,0.5807352256863657,0.12070175438596492
alswiki,True,12.0,0.06735340729001585,0.9340659340659341,0.471875,0.5476966030711959,0.12564671101256467
alswiki,True,13.0,0.07148864592094197,0.9340659340659341,0.5044642857142857,0.5137273150302466,0.1328125
alswiki,True,14.0,0.0763016157989228,0.9340659340659341,0.5379464285714286,0.4788273615635179,0.14107883817427389
alswiki,True,15.0,0.08069164265129683,0.9230769230769231,0.5696428571428571,0.44532340623545835,0.14840989399293286
alswiki,True,16.0,0.08571428571428572,0.9230769230769231,0.596875,0.4169381107491857,0.15686274509803924
alswiki,True,17.0,0.08860759493670886,0.9230769230769231,0.6111607142857143,0.40204746393671476,0.1616939364773821
alswiki,True,18.0,0.09312638580931264,0.9230769230769231,0.6316964285714286,0.3806421591437878,0.16918429003021151
alswiki,True,19.0,0.09733487833140209,0.9230769230769231,0.6491071428571429,0.3624941833410889,0.1761006289308176
alswiki,True,20.0,0.10206561360874848,0.9230769230769231,0.6669642857142857,0.3438808748255002,0.1838074398249453
alswiki,True,21.0,0.10727969348659004,0.9230769230769231,0.6848214285714286,0.3252675663099116,0.19221967963386727
alswiki,True,22.0,0.11413043478260869,0.9230769230769231,0.7058035714285714,0.3033969288040949,0.20314389359129384
alswiki,True,23.0,0.11830985915492957,0.9230769230769231,0.7174107142857142,0.2912982782689623,0.20973782771535576
alswiki,True,24.0,0.12296296296296297,0.9120879120879121,0.7321428571428571,0.275476966030712,0.21671018276762402
alswiki,True,25.0,0.12828438948995363,0.9120879120879121,0.7446428571428572,0.2624476500697999,0.22493224932249323
alswiki,True,26.0,0.13268608414239483,0.9010989010989011,0.7566964285714286,0.24941833410888786,0.231311706629055
alswiki,True,27.0,0.13781512605042018,0.9010989010989011,0.7669642857142858,0.23871568171242438,0.239067055393586
alswiki,True,28.0,0.14487632508833923,0.9010989010989011,0.7799107142857142,0.22522103303862262,0.24961948249619484
alswiki,True,29.0,0.14917127071823205,0.8901098901098901,0.7892857142857143,0.21498371335504887,0.2555205047318612
alswiki,True,30.0,0.15606936416184972,0.8901098901098901,0.8,0.20381572824569566,0.2655737704918033
alswiki,True,31.0,0.16463414634146342,0.8901098901098901,0.8120535714285714,0.19125174499767333,0.2778730703259006
alswiki,True,32.0,0.16875,0.8901098901098901,0.8174107142857143,0.18566775244299674,0.28371278458844135
alswiki,True,33.0,0.17419354838709677,0.8901098901098901,0.8241071428571428,0.178687761749651,0.2913669064748201
alswiki,True,34.0,0.17802197802197803,0.8901098901098901,0.8285714285714286,0.17403443462075385,0.2967032967032967
alswiki,True,35.0,0.18243243243243243,0.8901098901098901,0.8334821428571428,0.16891577477896697,0.302803738317757
alswiki,True,36.0,0.18793503480278423,0.8901098901098901,0.8392857142857143,0.16286644951140064,0.3103448275862069
alswiki,True,37.0,0.19148936170212766,0.8901098901098901,0.8428571428571429,0.15914378780828292,0.3151750972762646
alswiki,True,38.0,0.19464720194647203,0.8791208791208791,0.8473214285714286,0.15402512796649603,0.3187250996015936
alswiki,True,39.0,0.19704433497536947,0.8791208791208791,0.8495535714285715,0.15169846440204746,0.3219315895372234
alswiki,True,40.0,0.20460358056265984,0.8791208791208791,0.85625,0.14471847370870172,0.33195020746887965
alswiki,True,41.0,0.2077922077922078,0.8791208791208791,0.8589285714285714,0.1419264774313634,0.33613445378151263
alswiki,True,42.0,0.21220159151193635,0.8791208791208791,0.8625,0.1382038157282457,0.3418803418803419
alswiki,True,43.0,0.21680216802168023,0.8791208791208791,0.8660714285714286,0.13448115402512797,0.34782608695652173
alswiki,True,44.0,0.21703296703296704,0.8681318681318682,0.8674107142857143,0.1326198231735691,0.34725274725274724
alswiki,True,45.0,0.22191011235955055,0.8681318681318682,0.8709821428571428,0.12889716147045138,0.35346756152125275
alswiki,True,46.0,0.22965116279069767,0.8681318681318682,0.8763392857142858,0.12331316891577478,0.36321839080459767
alswiki,True,47.0,0.23511904761904762,0.8681318681318682,0.8799107142857143,0.11959050721265704,0.3700234192037471
alswiki,True,48.0,0.24148606811145512,0.8571428571428571,0.8848214285714285,0.11400651465798045,0.37681159420289856
alswiki,True,49.0,0.24290220820189273,0.8461538461538461,0.8866071428571428,0.11167985109353187,0.37745098039215685
alswiki,True,50.0,0.24838709677419354,0.8461538461538461,0.8897321428571429,0.10842252210330386,0.38403990024937656
alswiki,True,51.0,0.25245901639344265,0.8461538461538461,0.8919642857142858,0.10609585853885528,0.3888888888888889
alswiki,True,52.0,0.2558139534883721,0.8461538461538461,0.89375,0.10423452768729642,0.3928571428571428
alswiki,True,53.0,0.2646048109965636,0.8461538461538461,0.8982142857142857,0.09958120055839925,0.4031413612565445
alswiki,True,54.0,0.27598566308243727,0.8461538461538461,0.9035714285714286,0.09399720800372266,0.41621621621621624
alswiki,True,55.0,0.28,0.8461538461538461,0.9053571428571429,0.0921358771521638,0.4207650273224044
alswiki,True,56.0,0.2857142857142857,0.8351648351648352,0.9084821428571429,0.08841321544904607,0.4257703081232493
alswiki,True,57.0,0.296875,0.8351648351648352,0.9129464285714286,0.08375988832014891,0.4380403458213256
alswiki,True,58.0,0.30522088353413657,0.8351648351648352,0.9160714285714285,0.0805025593299209,0.44705882352941184
alswiki,True,59.0,0.31666666666666665,0.8351648351648352,0.9200892857142857,0.07631456491391345,0.4592145015105741
alswiki,True,60.0,0.3206751054852321,0.8351648351648352,0.9214285714285714,0.0749185667752443,0.4634146341463415
alswiki,True,61.0,0.33043478260869563,0.8351648351648352,0.9245535714285714,0.07166123778501629,0.4735202492211838
alswiki,True,62.0,0.34080717488789236,0.8351648351648352,0.9276785714285715,0.06840390879478828,0.48407643312101906
alswiki,True,63.0,0.3470319634703196,0.8351648351648352,0.9294642857142857,0.0665425779432294,0.4903225806451613
alswiki,True,64.0,0.36018957345971564,0.8351648351648352,0.9330357142857143,0.06281991624011168,0.5033112582781457
alswiki,True,65.0,0.3712871287128713,0.8241758241758241,0.9361607142857142,0.05909725453699395,0.5119453924914675
alswiki,True,66.0,0.3787878787878788,0.8241758241758241,0.9379464285714286,0.057235923685435085,0.5190311418685122
alswiki,True,67.0,0.38144329896907214,0.8131868131868132,0.9388392857142858,0.05583992554676594,0.519298245614035
alswiki,True,68.0,0.3862433862433862,0.8021978021978022,0.9401785714285714,0.05397859469520707,0.5214285714285714
alswiki,True,69.0,0.3901098901098901,0.7802197802197802,0.9415178571428572,0.05165193113075849,0.5201465201465201
alswiki,True,70.0,0.4166666666666667,0.7692307692307693,0.946875,0.04560260586319218,0.5405405405405406
alswiki,True,71.0,0.4294478527607362,0.7692307692307693,0.9491071428571428,0.043275942298743604,0.5511811023622047
alswiki,True,72.0,0.4394904458598726,0.7582417582417582,0.9508928571428571,0.04094927873429502,0.5564516129032258
alswiki,True,73.0,0.46621621621621623,0.7582417582417582,0.9549107142857143,0.036761284318287575,0.5774058577405857
alswiki,True,74.0,0.48905109489051096,0.7362637362637363,0.9580357142857143,0.03257328990228013,0.5877192982456141
alswiki,True,75.0,0.5234375,0.7362637362637363,0.9620535714285714,0.028385295486272687,0.6118721461187215
alswiki,True,76.0,0.5365853658536586,0.7252747252747253,0.9633928571428572,0.02652396463471382,0.616822429906542
alswiki,True,77.0,0.5508474576271186,0.7142857142857143,0.9647321428571428,0.024662633783154957,0.6220095693779905
alswiki,True,78.0,0.5607476635514018,0.6593406593406593,0.9651785714285714,0.021870637505816658,0.6060606060606061
alswiki,True,79.0,0.594059405940594,0.6593406593406593,0.9678571428571429,0.01907864122847836,0.625
alswiki,True,80.0,0.5894736842105263,0.6153846153846154,0.9669642857142857,0.01814797580269893,0.6021505376344085
alswiki,True,81.0,0.5957446808510638,0.6153846153846154,0.9674107142857142,0.017682643089809214,0.6054054054054053
alswiki,True,82.0,0.5913978494623656,0.6043956043956044,0.9669642857142857,0.017682643089809214,0.5978260869565217
alswiki,True,83.0,0.5955056179775281,0.5824175824175825,0.9669642857142857,0.01675197766402978,0.5888888888888889
alswiki,True,84.0,0.6233766233766234,0.5274725274725275,0.9678571428571429,0.013494648673801768,0.5714285714285714
alswiki,True,85.0,0.6376811594202898,0.4835164835164835,0.9678571428571429,0.011633317822242903,0.55
alswiki,True,86.0,0.6461538461538462,0.46153846153846156,0.9678571428571429,0.010702652396463471,0.5384615384615385
alswiki,True,87.0,0.65,0.42857142857142855,0.9674107142857142,0.009771986970684038,0.5165562913907286
alswiki,True,88.0,0.6551724137931034,0.4175824175824176,0.9674107142857142,0.009306654257794323,0.5100671140939597
alswiki,True,89.0,0.6666666666666666,0.4175824175824176,0.9678571428571429,0.008841321544904607,0.5135135135135136
alswiki,True,90.0,0.6981132075471698,0.4065934065934066,0.96875,0.007445323406235459,0.5138888888888888
alswiki,True,91.0,0.725,0.31868131868131866,0.9674107142857142,0.005118659841786877,0.44274809160305345
alswiki,True,92.0,0.7272727272727273,0.26373626373626374,0.9660714285714286,0.004187994416007445,0.3870967741935484
alswiki,True,93.0,0.7142857142857143,0.21978021978021978,0.9647321428571428,0.0037226617031177293,0.3361344537815126
alswiki,True,94.0,0.7142857142857143,0.10989010989010989,0.9620535714285714,0.0018613308515588647,0.1904761904761905
alswiki,True,95.0,0.8181818181818182,0.0989010989010989,0.9625,0.0009306654257794323,0.17647058823529413
alswiki,True,96.0,0.8,0.08791208791208792,0.9620535714285714,0.0009306654257794323,0.15841584158415845
alswiki,True,97.0,1.0,0.08791208791208792,0.9629464285714285,0.0,0.16161616161616163
alswiki,True,98.0,1.0,0.04395604395604396,0.9611607142857143,0.0,0.08421052631578947
alswiki,True,99.0,1.0,0.0,0.959375,0.0,0.0
alswiki,False,0.0,0.02441373059929761,1.0,0.02441373059929761,1.0,0.0476638097871164
alswiki,False,1.0,0.02441373059929761,1.0,0.02441373059929761,1.0,0.0476638097871164
alswiki,False,2.0,0.024600456621004567,1.0,0.03200407839583097,0.9922197062068164,0.04801960893543535
alswiki,False,3.0,0.02502903600464576,1.0,0.0489973943582191,0.974801138013122,0.04883576001359697
alswiki,False,4.0,0.02589485121023722,0.9953596287703016,0.08575960122351875,0.937002845032805,0.05047652665019414
alswiki,False,5.0,0.02747464372833483,0.9930394431554525,0.14166761073977568,0.8796376937815712,0.05346992316821788
alswiki,False,6.0,0.02878138395590937,0.9814385150812065,0.19100487141724254,0.8287754746559832,0.0559227921734532
alswiki,False,7.0,0.030680237240975326,0.9721577726218097,0.2494618783278577,0.7686233524937583,0.059483248154457706
alswiki,False,8.0,0.032538811353300924,0.962877030162413,0.3001586042823156,0.7164257098066539,0.06295032233598785
alswiki,False,9.0,0.03452040987737275,0.9535962877030162,0.34773988897700236,0.6674214712883935,0.06662884007457243
alswiki,False,10.0,0.0367580323107642,0.9396751740139211,0.3973603715871757,0.6162108807989317,0.07074853699013015
alswiki,False,11.0,0.03932420623361491,0.9396751740139211,0.4380876855103659,0.5744643790280439,0.0754892823858341
alswiki,False,12.0,0.04191866527632951,0.9327146171693735,0.47790868924889546,0.5334726818788829,0.08023151382097594
alswiki,False,13.0,0.044841048522030115,0.9327146171693735,0.513311430837204,0.4971839981420194,0.0855683269476373
alswiki,False,14.0,0.047840057122456266,0.9327146171693735,0.5451455760734111,0.46455321372583175,0.09101199909440796
alswiki,False,15.0,0.05028571428571429,0.9187935034802784,0.5743740795287187,0.43424490506880337,0.09535275704310138
alswiki,False,16.0,0.05386289445048966,0.9187935034802784,0.6039990936898153,0.403878534517796,0.10176024669150713
alswiki,False,17.0,0.05737467400753405,0.9187935034802784,0.6294890676333975,0.3777506822272543,0.10800490931405973
alswiki,False,18.0,0.06160547604231487,0.9187935034802784,0.6563385068539708,0.35022934448121695,0.11546872721971133
alswiki,False,19.0,0.06540049545829893,0.9187935034802784,0.6774668630338734,0.32857225802705686,0.12210915818686402
alswiki,False,20.0,0.06919447842040888,0.9187935034802784,0.6962727993655828,0.30929570922603494,0.12869678258043546
alswiki,False,21.0,0.07251483679525222,0.9071925754060325,0.7144556474453382,0.29036753178888697,0.13429503692254852
alswiki,False,22.0,0.07686259091802634,0.9071925754060325,0.7317321853404327,0.27265865412529755,0.1417180137731062
alswiki,False,23.0,0.08052434456928839,0.8979118329466357,0.747196102866206,0.2565755094931197,0.14779453885812488
alswiki,False,24.0,0.08426596445029624,0.8909512761020881,0.7609606887957403,0.2422922835742902,0.15396952686447474
alswiki,False,25.0,0.08884775566867191,0.8909512761020881,0.7742721196329444,0.2286477384892295,0.16158215863665054
alswiki,False,26.0,0.09164026322203266,0.8723897911832946,0.785770930100827,0.2163966788596644,0.16585796206440226
alswiki,False,27.0,0.09601634320735444,0.8723897911832946,0.7963634303840489,0.20553910468559483,0.17299286864504257
alswiki,False,28.0,0.1004026845637584,0.8677494199535963,0.8069559306672709,0.1945654067235673,0.17998075072184794
alswiki,False,29.0,0.10345797019960641,0.8538283062645011,0.8157924549677127,0.1851593798989723,0.18455366098294884
alswiki,False,30.0,0.10812407680945348,0.8491879350348028,0.82530871190665,0.17528885792254542,0.1918238993710692
alswiki,False,31.0,0.11362930766842595,0.8491879350348028,0.8345983912994223,0.16576670730999246,0.2004381161007667
alswiki,False,32.0,0.11734364925854288,0.8445475638051044,0.841112495751671,0.15897346571445162,0.20605717520520803
alswiki,False,33.0,0.12080536912751678,0.8352668213457076,0.8475699558173785,0.15212216222493177,0.21108179419525067
alswiki,False,34.0,0.12377622377622377,0.8213457076566125,0.8536875495638382,0.14550310631132787,0.2151321786690975
alswiki,False,35.0,0.12666426772220224,0.8167053364269141,0.8580491673275178,0.14091621668698834,0.2193146417445483
alswiki,False,36.0,0.13119642191576594,0.8167053364269141,0.8634870284354821,0.1353422748650061,0.22607578676942838
alswiki,False,37.0,0.1340007701193685,0.8074245939675174,0.867905290585703,0.1305811995587296,0.2298546895640687
alswiki,False,38.0,0.1362365161805833,0.7911832946635731,0.8724368415090065,0.1255298147825582,0.23244717109747787
alswiki,False,39.0,0.13967861557478367,0.7865429234338747,0.8765152373399796,0.12123323462811357,0.2372288313505948
alswiki,False,40.0,0.14480991029474582,0.7865429234338747,0.8813866545825308,0.11623991174592115,0.24458874458874455
alswiki,False,41.0,0.14894551845342707,0.7865429234338747,0.8850685397077149,0.11246588863728735,0.2504617657923901
alswiki,False,42.0,0.15381125226860254,0.7865429234338747,0.8891469355386881,0.10828543227080067,0.2573055028462998
alswiki,False,43.0,0.1584852734922861,0.7865429234338747,0.8928288206638723,0.10451140916216688,0.2638132295719844
alswiki,False,44.0,0.16138328530259366,0.7795823665893271,0.8957176843774782,0.10137606688730186,0.26740947075208915
alswiki,False,45.0,0.1689291101055807,0.7795823665893271,0.9009856123258185,0.09597631074725657,0.27768595041322314
alswiki,False,46.0,0.17582417582417584,0.7795823665893271,0.9054038744760394,0.09144748301689601,0.28693424423569597
alswiki,False,47.0,0.1811320754716981,0.7795823665893271,0.9085759601223519,0.08819601695407304,0.29396325459317585
alswiki,False,48.0,0.18559556786703602,0.777262180974478,0.911294890676334,0.08535098414910294,0.29964221824686943
alswiki,False,49.0,0.18792710706150342,0.765661252900232,0.9135040217514444,0.08279626081402776,0.30178326474622774
alswiki,False,50.0,0.19320843091334894,0.765661252900232,0.9162229523054265,0.08000928990303664,0.3085553997194951
alswiki,False,51.0,0.19855159927579963,0.7633410672853829,0.9189985272459499,0.07710619520408755,0.31513409961685823
alswiki,False,52.0,0.20134638922888617,0.7633410672853829,0.9203013481363996,0.07577077164257098,0.3186440677966102
alswiki,False,53.0,0.20968769917144678,0.7633410672853829,0.9239832332615838,0.07199674853393717,0.329
alswiki,False,54.0,0.2165016501650165,0.7610208816705336,0.9269287413617311,0.06891946815305115,0.3371017471736896
alswiki,False,55.0,0.21866666666666668,0.7610208816705336,0.9277784071598505,0.06804853974336643,0.33972035214914553
alswiki,False,56.0,0.2296243798724309,0.7517401392111369,0.9323666024696953,0.06311327875515299,0.3517915309446254
alswiki,False,57.0,0.23684210526315788,0.7517401392111369,0.9348023110909709,0.060616617314056785,0.3602001111728738
alswiki,False,58.0,0.2434259954921112,0.7517401392111369,0.9368981533929988,0.05846832723683446,0.3677639046538025
alswiki,False,59.0,0.2541176470588235,0.7517401392111369,0.9400702390393112,0.0552168611740115,0.37983587338804214
alswiki,False,60.0,0.25887096774193546,0.7447795823665894,0.9417129262490087,0.053358880566684086,0.38420107719928187
alswiki,False,61.0,0.26572847682119205,0.7447795823665894,0.9435255466183301,0.05150089995935667,0.3917022574740695
alswiki,False,62.0,0.2748287671232877,0.7447795823665894,0.9457913220799818,0.04917842420019741,0.40150093808630394
alswiki,False,63.0,0.28257042253521125,0.7447795823665894,0.9476039424493032,0.04732044359287,0.4097000638162094
alswiki,False,64.0,0.29064486830154407,0.7424593967517401,0.9494732072051659,0.04534633919758463,0.4177545691906005
alswiki,False,65.0,0.2987747408105561,0.7354988399071926,0.9513991163475699,0.043198049120362306,0.4249329758713136
alswiki,False,66.0,0.30480769230769234,0.7354988399071926,0.9525886484649371,0.04197874934680369,0.43099932019034676
alswiki,False,67.0,0.3077679449360865,0.7262180974477959,0.9534383142630566,0.040875573361203045,0.4323204419889503
alswiki,False,68.0,0.31129196337741605,0.7099767981438515,0.9545712019938825,0.03930790222377054,0.4328147100424328
alswiki,False,69.0,0.31452455590386624,0.6983758700696056,0.9554775121785432,0.03808860245021192,0.43371757925072046
alswiki,False,70.0,0.32847533632286996,0.679814385150812,0.9582530871190665,0.03477907449340997,0.44293272864701433
alswiki,False,71.0,0.33643771827706637,0.6705336426914154,0.9596691967825989,0.03309527956801951,0.4480620155038759
alswiki,False,72.0,0.34264884568651277,0.654292343387471,0.9609153732865073,0.031411484642629044,0.44976076555023925
alswiki,False,73.0,0.3560606060606061,0.654292343387471,0.9626713492692874,0.029611565929280614,0.4611610793131643
alswiki,False,74.0,0.36884154460719043,0.642691415313225,0.9644273252520675,0.027521337746037277,0.4686971235194585
alswiki,False,75.0,0.3884180790960452,0.6380510440835266,0.966636456327178,0.02514080009289903,0.48287971905179977
alswiki,False,76.0,0.4020771513353116,0.62877030162413,0.9681092103772516,0.023398943273529583,0.49049773755656106
alswiki,False,77.0,0.40062111801242234,0.5986078886310905,0.9683357879234168,0.022411891075886894,0.48000000000000004
alswiki,False,78.0,0.41833333333333333,0.5823665893271461,0.9700351195196556,0.020263600998664578,0.4869059165858389
alswiki,False,79.0,0.4418604651162791,0.5730858468677494,0.9719043842755183,0.01811531092144226,0.49898989898989904
alswiki,False,80.0,0.4540337711069418,0.5614849187935035,0.972810694460179,0.016896011147883645,0.5020746887966804
alswiki,False,81.0,0.46168958742632615,0.5452436194895591,0.9733771383255919,0.015908958950240956,0.4999999999999999
alswiki,False,82.0,0.4613821138211382,0.5266821345707656,0.9734337827121332,0.015386401904430122,0.49187432286023836
alswiki,False,83.0,0.48358862144420134,0.5127610208816705,0.974736603602583,0.013702606979039656,0.49774774774774777
alswiki,False,84.0,0.49764150943396224,0.4895591647331787,0.9754729806276198,0.012367183417523079,0.4935672514619883
alswiki,False,85.0,0.5038167938931297,0.4593967517401392,0.9757562025603262,0.01132206932590141,0.48058252427184467
alswiki,False,86.0,0.5013192612137203,0.4408352668213457,0.9756429137872437,0.010973697962027521,0.4691358024691358
alswiki,False,87.0,0.4930747922437673,0.41299303944315546,0.9753030474679959,0.010625326598153632,0.4494949494949495
alswiki,False,88.0,0.5119047619047619,0.3990719257540603,0.9760394244930327,0.00952215061255298,0.4485006518904824
alswiki,False,89.0,0.5379746835443038,0.39443155452436196,0.9769457346776934,0.008477036520931312,0.45515394912985274
alswiki,False,90.0,0.5897435897435898,0.37354988399071926,0.9783618443412258,0.006502932125645938,0.4573863636363636
alswiki,False,91.0,0.6050420168067226,0.33410672853828305,0.978418488727767,0.00545781803402427,0.43049327354260086
alswiki,False,92.0,0.6381909547738693,0.29466357308584684,0.9787017106604735,0.004180456366486675,0.40317460317460313
alswiki,False,93.0,0.6423841059602649,0.22505800464037123,0.978021978021978,0.003135342274865006,0.33333333333333337
alswiki,False,94.0,0.6451612903225806,0.13921113689095127,0.9771156678373173,0.0019160425013063926,0.22900763358778625
alswiki,False,95.0,0.6923076923076923,0.08352668213457076,0.9767191571315282,0.0009289903036637055,0.14906832298136644
alswiki,False,96.0,0.8571428571428571,0.06960556844547564,0.9770023790642347,0.00029030946989490797,0.12875536480686695
alswiki,False,97.0,0.9565217391304348,0.05104408352668213,0.9767758015180695,5.806189397898159e-05,0.09691629955947137
alswiki,False,98.0,1.0,0.025522041763341066,0.9762093576526566,0.0,0.049773755656108594
alswiki,False,99.0,1.0,0.004640371229698376,0.975699558173785,0.0,0.009237875288683603
