wiki_db,user_is_bot,threshold,precision,recall,accuracy,fpr,F1
amwiki,True,0.0,0.16968325791855204,1.0,0.16968325791855204,1.0,0.2901353965183752
amwiki,True,1.0,0.16968325791855204,1.0,0.16968325791855204,1.0,0.2901353965183752
amwiki,True,2.0,0.16968325791855204,1.0,0.16968325791855204,1.0,0.2901353965183752
amwiki,True,3.0,0.16968325791855204,1.0,0.16968325791855204,1.0,0.2901353965183752
amwiki,True,4.0,0.17006802721088435,1.0,0.17194570135746606,0.997275204359673,0.29069767441860467
amwiki,True,5.0,0.17006802721088435,1.0,0.17194570135746606,0.997275204359673,0.29069767441860467
amwiki,True,6.0,0.17006802721088435,1.0,0.17194570135746606,0.997275204359673,0.29069767441860467
amwiki,True,7.0,0.17045454545454544,1.0,0.17420814479638008,0.9945504087193461,0.2912621359223301
amwiki,True,8.0,0.17123287671232876,1.0,0.17873303167420815,0.989100817438692,0.29239766081871343
amwiki,True,9.0,0.17162471395881007,1.0,0.18099547511312217,0.9863760217983651,0.29296875
amwiki,True,10.0,0.17162471395881007,1.0,0.18099547511312217,0.9863760217983651,0.29296875
amwiki,True,11.0,0.1720183486238532,1.0,0.1832579185520362,0.9836512261580381,0.2935420743639922
amwiki,True,12.0,0.1724137931034483,1.0,0.18552036199095023,0.9809264305177112,0.29411764705882354
amwiki,True,13.0,0.1724137931034483,1.0,0.18552036199095023,0.9809264305177112,0.29411764705882354
amwiki,True,14.0,0.1736111111111111,1.0,0.19230769230769232,0.9727520435967303,0.29585798816568043
amwiki,True,15.0,0.1736111111111111,1.0,0.19230769230769232,0.9727520435967303,0.29585798816568043
amwiki,True,16.0,0.17523364485981308,1.0,0.20135746606334842,0.9618528610354223,0.2982107355864811
amwiki,True,17.0,0.1756440281030445,1.0,0.20361990950226244,0.9591280653950953,0.29880478087649404
amwiki,True,18.0,0.17647058823529413,1.0,0.2081447963800905,0.9536784741144414,0.3
amwiki,True,19.0,0.17814726840855108,1.0,0.2171945701357466,0.9427792915531336,0.3024193548387097
amwiki,True,20.0,0.18115942028985507,1.0,0.2330316742081448,0.9237057220708447,0.3067484662576687
amwiki,True,21.0,0.17955112219451372,0.96,0.248868778280543,0.896457765667575,0.3025210084033614
amwiki,True,22.0,0.18556701030927836,0.96,0.27828054298642535,0.8610354223433242,0.31101511879049676
amwiki,True,23.0,0.18882978723404256,0.9466666666666667,0.3009049773755656,0.8310626702997275,0.31485587583148555
amwiki,True,24.0,0.18579234972677597,0.9066666666666666,0.30995475113122173,0.8119891008174387,0.30839002267573695
amwiki,True,25.0,0.18028169014084508,0.8533333333333334,0.3167420814479638,0.7929155313351499,0.29767441860465116
amwiki,True,26.0,0.18208092485549132,0.84,0.332579185520362,0.771117166212534,0.2992874109263658
amwiki,True,27.0,0.17507418397626112,0.7866666666666666,0.334841628959276,0.7574931880108992,0.2864077669902913
amwiki,True,28.0,0.16300940438871472,0.6933333333333334,0.3438914027149321,0.7275204359673024,0.2639593908629442
amwiki,True,29.0,0.1498371335504886,0.6133333333333333,0.3438914027149321,0.7111716621253406,0.2408376963350785
amwiki,True,30.0,0.13013698630136986,0.5066666666666667,0.3416289592760181,0.6920980926430518,0.20708446866485014
amwiki,True,31.0,0.12903225806451613,0.48,0.36199095022624433,0.662125340599455,0.20338983050847456
amwiki,True,32.0,0.13333333333333333,0.48,0.38235294117647056,0.6376021798365122,0.20869565217391306
amwiki,True,33.0,0.12355212355212356,0.4266666666666667,0.3891402714932127,0.6185286103542235,0.19161676646706588
amwiki,True,34.0,0.12549019607843137,0.4266666666666667,0.39819004524886875,0.6076294277929155,0.1939393939393939
amwiki,True,35.0,0.12345679012345678,0.4,0.416289592760181,0.5803814713896458,0.18867924528301885
amwiki,True,36.0,0.11790393013100436,0.36,0.4343891402714932,0.5504087193460491,0.17763157894736842
amwiki,True,37.0,0.10909090909090909,0.32,0.4411764705882353,0.5340599455040872,0.16271186440677968
amwiki,True,38.0,0.08780487804878048,0.24,0.4479638009049774,0.5095367847411444,0.1285714285714286
amwiki,True,39.0,0.08376963350785341,0.21333333333333335,0.47058823529411764,0.4768392370572207,0.12030075187969926
amwiki,True,40.0,0.08602150537634409,0.21333333333333335,0.4819004524886878,0.46321525885558584,0.12260536398467435
amwiki,True,41.0,0.0903954802259887,0.21333333333333335,0.502262443438914,0.43869209809264303,0.12698412698412698
amwiki,True,42.0,0.08620689655172414,0.2,0.504524886877828,0.4332425068119891,0.12048192771084339
amwiki,True,43.0,0.09090909090909091,0.2,0.5248868778280543,0.4087193460490463,0.12500000000000003
amwiki,True,44.0,0.09803921568627451,0.2,0.5520361990950227,0.3760217983651226,0.13157894736842105
amwiki,True,45.0,0.10273972602739725,0.2,0.5678733031674208,0.3569482288828338,0.13574660633484162
amwiki,True,46.0,0.10344827586206896,0.2,0.5701357466063348,0.3542234332425068,0.13636363636363635
amwiki,True,47.0,0.09154929577464789,0.17333333333333334,0.5678733031674208,0.35149863760217986,0.11981566820276497
amwiki,True,48.0,0.09352517985611511,0.17333333333333334,0.5746606334841629,0.34332425068119893,0.12149532710280375
amwiki,True,49.0,0.09701492537313433,0.17333333333333334,0.5859728506787331,0.329700272479564,0.1244019138755981
amwiki,True,50.0,0.1,0.17333333333333334,0.5950226244343891,0.3188010899182561,0.12682926829268296
amwiki,True,51.0,0.10077519379844961,0.17333333333333334,0.5972850678733032,0.31607629427792916,0.12745098039215685
amwiki,True,52.0,0.0967741935483871,0.16,0.6040723981900452,0.30517711171662126,0.12060301507537688
amwiki,True,53.0,0.09836065573770492,0.16,0.6085972850678733,0.2997275204359673,0.12182741116751268
amwiki,True,54.0,0.09836065573770492,0.16,0.6085972850678733,0.2997275204359673,0.12182741116751268
amwiki,True,55.0,0.1,0.16,0.6131221719457014,0.29427792915531337,0.12307692307692307
amwiki,True,56.0,0.1,0.16,0.6131221719457014,0.29427792915531337,0.12307692307692307
amwiki,True,57.0,0.10084033613445378,0.16,0.6153846153846154,0.29155313351498635,0.12371134020618556
amwiki,True,58.0,0.10434782608695652,0.16,0.6244343891402715,0.28065395095367845,0.12631578947368421
amwiki,True,59.0,0.10434782608695652,0.16,0.6244343891402715,0.28065395095367845,0.12631578947368421
amwiki,True,60.0,0.10434782608695652,0.16,0.6244343891402715,0.28065395095367845,0.12631578947368421
amwiki,True,61.0,0.10526315789473684,0.16,0.6266968325791855,0.2779291553133515,0.12698412698412698
amwiki,True,62.0,0.10619469026548672,0.16,0.6289592760180995,0.27520435967302453,0.12765957446808512
amwiki,True,63.0,0.11009174311926606,0.16,0.6380090497737556,0.26430517711171664,0.13043478260869565
amwiki,True,64.0,0.11009174311926606,0.16,0.6380090497737556,0.26430517711171664,0.13043478260869565
amwiki,True,65.0,0.11009174311926606,0.16,0.6380090497737556,0.26430517711171664,0.13043478260869565
amwiki,True,66.0,0.11009174311926606,0.16,0.6380090497737556,0.26430517711171664,0.13043478260869565
amwiki,True,67.0,0.1111111111111111,0.16,0.6402714932126696,0.2615803814713896,0.13114754098360656
amwiki,True,68.0,0.09615384615384616,0.13333333333333333,0.6402714932126696,0.2561307901907357,0.111731843575419
amwiki,True,69.0,0.09,0.12,0.6447963800904978,0.24795640326975477,0.10285714285714286
amwiki,True,70.0,0.09,0.12,0.6447963800904978,0.24795640326975477,0.10285714285714286
amwiki,True,71.0,0.0851063829787234,0.10666666666666667,0.6538461538461539,0.23433242506811988,0.09467455621301775
amwiki,True,72.0,0.07777777777777778,0.09333333333333334,0.6583710407239819,0.22615803814713897,0.08484848484848485
amwiki,True,73.0,0.08235294117647059,0.09333333333333334,0.669683257918552,0.2125340599455041,0.08750000000000001
amwiki,True,74.0,0.08333333333333333,0.09333333333333334,0.6719457013574661,0.2098092643051771,0.0880503144654088
amwiki,True,75.0,0.0875,0.09333333333333334,0.6809954751131222,0.1989100817438692,0.09032258064516127
amwiki,True,76.0,0.08108108108108109,0.08,0.6900452488687783,0.18528610354223432,0.08053691275167785
amwiki,True,77.0,0.07246376811594203,0.06666666666666667,0.6968325791855203,0.17438692098092642,0.06944444444444443
amwiki,True,78.0,0.07462686567164178,0.06666666666666667,0.7013574660633484,0.16893732970027248,0.07042253521126761
amwiki,True,79.0,0.07936507936507936,0.06666666666666667,0.7104072398190046,0.15803814713896458,0.07246376811594203
amwiki,True,80.0,0.06779661016949153,0.05333333333333334,0.7149321266968326,0.14986376021798364,0.05970149253731344
amwiki,True,81.0,0.06896551724137931,0.05333333333333334,0.7171945701357466,0.14713896457765668,0.06015037593984963
amwiki,True,82.0,0.07017543859649122,0.05333333333333334,0.7194570135746606,0.1444141689373297,0.06060606060606061
amwiki,True,83.0,0.057692307692307696,0.04,0.7262443438914027,0.1335149863760218,0.04724409448818898
amwiki,True,84.0,0.041666666666666664,0.02666666666666667,0.7307692307692307,0.12534059945504086,0.032520325203252036
amwiki,True,85.0,0.044444444444444446,0.02666666666666667,0.7375565610859729,0.11716621253405994,0.03333333333333334
amwiki,True,86.0,0.05128205128205128,0.02666666666666667,0.751131221719457,0.1008174386920981,0.03508771929824561
amwiki,True,87.0,0.05555555555555555,0.02666666666666667,0.7579185520361991,0.09264305177111716,0.036036036036036036
amwiki,True,88.0,0.06666666666666667,0.02666666666666667,0.7714932126696833,0.07629427792915532,0.0380952380952381
amwiki,True,89.0,0.07142857142857142,0.02666666666666667,0.7760180995475113,0.07084468664850137,0.038834951456310676
amwiki,True,90.0,0.08,0.02666666666666667,0.7828054298642534,0.06267029972752043,0.04
amwiki,True,91.0,0.09523809523809523,0.02666666666666667,0.7918552036199095,0.051771117166212535,0.041666666666666664
amwiki,True,92.0,0.125,0.02666666666666667,0.8031674208144797,0.03814713896457766,0.04395604395604396
amwiki,True,93.0,0.09090909090909091,0.013333333333333334,0.8099547511312217,0.027247956403269755,0.023255813953488375
amwiki,True,94.0,0.1,0.013333333333333334,0.8122171945701357,0.02452316076294278,0.023529411764705882
amwiki,True,95.0,0.1111111111111111,0.013333333333333334,0.8144796380090498,0.021798365122615803,0.023809523809523808
amwiki,True,96.0,0.125,0.013333333333333334,0.8167420814479638,0.01907356948228883,0.024096385542168676
amwiki,True,97.0,0.16666666666666666,0.013333333333333334,0.8212669683257918,0.013623978201634877,0.02469135802469136
amwiki,True,98.0,0.0,0.0,0.8280542986425339,0.0027247956403269754,0.02469135802469136
amwiki,True,99.0,0.0,0.0,0.830316742081448,0.0,0.02469135802469136
amwiki,False,0.0,0.07579425113464448,1.0,0.07579425113464448,1.0,0.14090845169455773
amwiki,False,1.0,0.07579425113464448,1.0,0.07579425113464448,1.0,0.14090845169455773
amwiki,False,2.0,0.07579425113464448,1.0,0.07579425113464448,1.0,0.14090845169455773
amwiki,False,3.0,0.0758860951226901,1.0,0.07700453857791226,0.9986904567032248,0.14106715472335635
amwiki,False,4.0,0.07603581727120959,1.0,0.07897125567322238,0.996562448845965,0.14132581100141042
amwiki,False,5.0,0.076278928136419,1.0,0.0821482602118003,0.9931248976919299,0.14174565002121942
amwiki,False,6.0,0.07632063882063882,0.9920159680638723,0.08940998487140696,0.9846128662628908,0.14173677456152858
amwiki,False,7.0,0.07659115426105717,0.9920159680638723,0.09288956127080182,0.980847929284662,0.14220314735336193
amwiki,False,8.0,0.07701844103517744,0.9920159680638723,0.09833585476550681,0.9749549844491734,0.14293931550186942
amwiki,False,9.0,0.07778995147910471,0.9920159680638723,0.10801815431164902,0.9644786380749714,0.14426705370101595
amwiki,False,10.0,0.07816923560868197,0.9920159680638723,0.11270801815431165,0.9594041577999672,0.1449190844146377
amwiki,False,11.0,0.07867658698749407,0.9920159680638723,0.118910741301059,0.9526927484039941,0.1457905544147844
amwiki,False,12.0,0.07929164007657945,0.9920159680638723,0.12632375189107414,0.9446717957112457,0.14684591520165458
amwiki,False,13.0,0.07968574635241302,0.9920159680638723,0.13101361573373677,0.9395973154362416,0.1475215197387949
amwiki,False,14.0,0.08062946138870863,0.9920159680638723,0.14205748865355522,0.9276477328531675,0.14913728432108028
amwiki,False,15.0,0.08123569794050343,0.9920159680638723,0.14901664145234494,0.9201178588967097,0.15017374225713856
amwiki,False,16.0,0.08174342105263158,0.9920159680638723,0.15476550680786688,0.9138975282370273,0.15104087524692297
amwiki,False,17.0,0.08156498673740054,0.9820359281437125,0.1605143721633888,0.9068587330168604,0.1506199295882443
amwiki,False,18.0,0.08224674022066199,0.9820359281437125,0.1680786686838124,0.898674087412015,0.15178158260064786
amwiki,False,19.0,0.0831081081081081,0.9820359281437125,0.17745839636913768,0.8885251268620069,0.15324715776358822
amwiki,False,20.0,0.0841025641025641,0.9820359281437125,0.18804841149773072,0.8770666230152234,0.15493623051487954
amwiki,False,21.0,0.08352183748042456,0.9580838323353293,0.2,0.862170568014405,0.15364916773367476
amwiki,False,22.0,0.08456659619450317,0.9580838323353293,0.21074130105900152,0.8505483712555246,0.15541525012141816
amwiki,False,23.0,0.08506075768406005,0.9500998003992016,0.2216338880484115,0.8381077099361598,0.15614236509758897
amwiki,False,24.0,0.08414766558089033,0.9281437125748503,0.22889561270801814,0.8284498281224423,0.15430562468889994
amwiki,False,25.0,0.08232489915658232,0.8962075848303394,0.23494704992435703,0.8192830250450156,0.15079764903442486
amwiki,False,26.0,0.08291410471399292,0.8882235528942116,0.24689863842662632,0.8056965133409724,0.15167007498295842
amwiki,False,27.0,0.08088235294117647,0.8562874251497006,0.25158850226928897,0.7980029464724178,0.14780361757105945
amwiki,False,28.0,0.07877629063097515,0.8223552894211577,0.25763993948562786,0.7886724504828941,0.1437794451230152
amwiki,False,29.0,0.07710189848895777,0.7944111776447106,0.26369137670196674,0.7798330332296611,0.14056153981988345
amwiki,False,30.0,0.07499018453082057,0.7624750499001997,0.26913767019667173,0.771321001800622,0.136550491510277
amwiki,False,31.0,0.07425054595989676,0.7465069860279441,0.2753403933434191,0.7633000491078736,0.13506681112314914
amwiki,False,32.0,0.0752212389380531,0.7465069860279441,0.28517397881996975,0.7526600098215748,0.13667093002009867
amwiki,False,33.0,0.07291242362525459,0.7145708582834331,0.2897125567322239,0.745130135865117,0.13232304564775457
amwiki,False,34.0,0.07364739765480353,0.7145708582834331,0.29712556732223905,0.7371091831723686,0.13353226408056695
amwiki,False,35.0,0.07457059069962296,0.7105788423153693,0.3096822995461422,0.7231952856441316,0.13497630331753555
amwiki,False,36.0,0.07401908801696713,0.6966067864271457,0.31649016641452343,0.7146832542150925,0.13381901840490798
amwiki,False,37.0,0.07220912791943433,0.6726546906187625,0.3201210287443268,0.7087903093796039,0.13041795665634676
amwiki,False,38.0,0.06881627353386713,0.6347305389221557,0.32133131618759453,0.7043706007529874,0.12417024599765718
amwiki,False,39.0,0.06810193321616871,0.6187624750499002,0.32934947049924357,0.6943853331150761,0.12269938650306747
amwiki,False,40.0,0.06913470115967886,0.6187624750499002,0.33963691376701965,0.6832542150924865,0.12437311935807421
amwiki,False,41.0,0.06977267611973892,0.6187624750499002,0.345839636913767,0.6765428056965134,0.12540453074433658
amwiki,False,42.0,0.06924643584521385,0.6107784431137725,0.3482602118003026,0.6732689474545752,0.12439024390243902
amwiki,False,43.0,0.0700228832951945,0.6107784431137725,0.3556732223903177,0.6652479947618268,0.1256415520427017
amwiki,False,44.0,0.0712290502793296,0.6107784431137725,0.3668683812405446,0.6531347192666558,0.12757973733583491
amwiki,False,45.0,0.07194921232071479,0.6107784431137725,0.3733736762481089,0.6460959240464887,0.12873369793857803
amwiki,False,46.0,0.0727705112960761,0.6107784431137725,0.3806354009077156,0.6382386642658373,0.1300467488312792
amwiki,False,47.0,0.07259223766171538,0.6047904191616766,0.38441754916792736,0.6336552627271239,0.12962566844919785
amwiki,False,48.0,0.07347235693501455,0.6047904191616766,0.391981845688351,0.6254706171222786,0.13102702702702704
amwiki,False,49.0,0.0743740795287187,0.6047904191616766,0.3995461422087746,0.6172859715174333,0.13245901639344262
amwiki,False,50.0,0.07557994512347219,0.6047904191616766,0.40937972768532527,0.6066459322311344,0.13436807095343678
amwiki,False,51.0,0.07678661936137861,0.6047904191616766,0.418910741301059,0.5963332787690293,0.13627164380481221
amwiki,False,52.0,0.07722107438016529,0.5968063872255489,0.4288956127080182,0.5848747749222458,0.13674822776126228
amwiki,False,53.0,0.07858081471747701,0.5968063872255489,0.4390317700453858,0.5739073498117532,0.13887598699489084
amwiki,False,54.0,0.07941567065073041,0.5968063872255489,0.4450832072617247,0.5673596333278769,0.1401781528363807
amwiki,False,55.0,0.08070175438596491,0.5968063872255489,0.454160363086233,0.5575380586020625,0.1421778411792677
amwiki,False,56.0,0.08144919640424952,0.5968063872255489,0.459304084720121,0.5519724995907678,0.1433365292425695
amwiki,False,57.0,0.08294036061026352,0.5968063872255489,0.46928895612708016,0.541168767392372,0.1456405260594252
amwiki,False,58.0,0.08333333333333333,0.5888223552894212,0.4779122541603631,0.5311834997544607,0.14600346448898785
amwiki,False,59.0,0.08403118683222639,0.5808383233532934,0.48835098335854765,0.5192339171713864,0.14682139253279514
amwiki,False,60.0,0.08640142517814726,0.5808383233532934,0.5027231467473525,0.5036830905221804,0.15042646678728352
amwiki,False,61.0,0.08759783263094521,0.5808383233532934,0.5096822995461422,0.4961532165657227,0.1522364635103322
amwiki,False,62.0,0.0890452876376989,0.5808383233532934,0.5178517397881996,0.48731379931248975,0.15441761740514726
amwiki,False,63.0,0.09076731129132876,0.5808383233532934,0.527231467473525,0.47716483876248156,0.15700026975991366
amwiki,False,64.0,0.09329913433792883,0.5808383233532934,0.540393343419062,0.46292355541005076,0.16077348066298344
amwiki,False,65.0,0.09398619783108775,0.5708582834331337,0.5503782148260212,0.4513013586511704,0.1613995485327314
amwiki,False,66.0,0.0951114067176588,0.5708582834331337,0.5558245083207262,0.4454084138156818,0.1630558722919042
amwiki,False,67.0,0.09631147540983606,0.562874251497006,0.5665658093797277,0.4331314454084138,0.16447944006999124
amwiki,False,68.0,0.09483667017913593,0.5389221556886228,0.5751891074130105,0.42183663447372727,0.16129032258064518
amwiki,False,69.0,0.09644670050761421,0.530938123752495,0.5874432677760968,0.40792273694549025,0.1632402577477754
amwiki,False,70.0,0.09806114839671887,0.5249500998003992,0.5980332829046898,0.3959731543624161,0.16525290606346213
amwiki,False,71.0,0.1,0.5169660678642715,0.6107413010590015,0.38156817809788834,0.16758330637334198
amwiki,False,72.0,0.0940274414850686,0.46506986027944114,0.6198184568835098,0.36749058765755444,0.15642833165491773
amwiki,False,73.0,0.09415720891130727,0.4471057884231537,0.632072617246596,0.35275822556883285,0.15555555555555556
amwiki,False,74.0,0.09460043196544277,0.437125748502994,0.6402420574886536,0.3431003437551154,0.15553977272727273
amwiki,False,75.0,0.09651828999559277,0.437125748502994,0.6472012102874433,0.33557046979865773,0.15812274368231047
amwiki,False,76.0,0.09768518518518518,0.42115768463073855,0.6612708018154312,0.3190374856768702,0.15858699736940998
amwiki,False,77.0,0.09743092583616093,0.40119760479041916,0.6729198184568835,0.3047962023244393,0.15678627145085802
amwiki,False,78.0,0.09824561403508772,0.3912175648702595,0.6816944024205749,0.29448354886233424,0.15705128205128208
amwiki,False,79.0,0.10218978102189781,0.3912175648702595,0.6933434190620272,0.28187919463087246,0.16205043406366268
amwiki,False,80.0,0.0998896247240618,0.36127744510978044,0.7048411497730711,0.26698313963005404,0.15650670125378296
amwiki,False,81.0,0.10070257611241218,0.34331337325349304,0.7178517397881997,0.25143231298084795,0.15572657311000454
amwiki,False,82.0,0.1,0.32335329341317365,0.7281391830559758,0.23866426583728925,0.15275813295615276
amwiki,False,83.0,0.09687906371911574,0.29740518962075846,0.7366111951588502,0.2273694549026027,0.14615007356547327
amwiki,False,84.0,0.0992313067784766,0.2834331337325349,0.7506807866868381,0.2110001636929121,0.14699792960662528
amwiki,False,85.0,0.09743202416918428,0.25748502994011974,0.7629349470499244,0.1956130299558029,0.1413698630136986
amwiki,False,86.0,0.10367892976588629,0.24750499001996007,0.780786686838124,0.17547880176788344,0.14614024749558044
amwiki,False,87.0,0.09354536950420954,0.1996007984031936,0.7927382753403933,0.1586184318219021,0.12738853503184713
amwiki,False,88.0,0.10152838427947598,0.18562874251497005,0.8137670196671709,0.13471926665575382,0.13126323218066338
amwiki,False,89.0,0.11204819277108434,0.18562874251497005,0.8267776096822995,0.12064167621541987,0.13974455296769345
amwiki,False,90.0,0.11413043478260869,0.16766467065868262,0.8382753403933434,0.10672777868718285,0.13581244947453514
amwiki,False,91.0,0.12457912457912458,0.14770459081836326,0.856732223903177,0.08512031429039123,0.13515981735159818
amwiki,False,92.0,0.14587737843551796,0.1377245508982036,0.8735249621785174,0.0661319364871501,0.14168377823408623
amwiki,False,93.0,0.15833333333333333,0.11377245508982035,0.8869894099848714,0.04959895236536258,0.13240418118466896
amwiki,False,94.0,0.1970260223048327,0.10578842315369262,0.8995461422087746,0.03535766901293174,0.13766233766233768
amwiki,False,95.0,0.24651162790697675,0.10578842315369262,0.9077155824508321,0.026518251759698803,0.14804469273743018
amwiki,False,96.0,0.2662337662337662,0.08183632734530938,0.9133131618759456,0.018497299066950402,0.1251908396946565
amwiki,False,97.0,0.3592233009708738,0.07385229540918163,0.9198184568835098,0.01080373219839581,0.12251655629139072
amwiki,False,98.0,0.4461538461538462,0.05788423153692615,0.9231467473524962,0.005892944835488623,0.10247349823321555
amwiki,False,99.0,0.6,0.023952095808383235,0.9248108925869895,0.0013095432967752496,0.046065259117082535
