wiki_db,user_is_bot,threshold,precision,recall,accuracy,fpr,F1
arzwiki,True,0.0,0.008714567237864044,1.0,0.008714567237864044,1.0,0.017278559308857626
arzwiki,True,1.0,0.008722001556037836,1.0,0.009566931013085488,0.9991401429426372,0.017293172038645773
arzwiki,True,2.0,0.008796543788846239,1.0,0.0180337445136185,0.9905988961728336,0.01743967868051591
arzwiki,True,3.0,0.009199925996938965,0.9986958789775692,0.06268396851481862,0.9455446793191766,0.018231900826839797
arzwiki,True,4.0,0.010860634181429452,0.9963484611371936,0.20918143528967867,0.7977386905867435,0.021487050114888218
arzwiki,True,5.0,0.013724921089866851,0.986697965571205,0.3819839846529061,0.6233321639277353,0.02707325451578737
arzwiki,True,6.0,0.015600013326226013,0.9770474700052165,0.46251076819569364,0.5420126158227456,0.030709700691091236
arzwiki,True,7.0,0.017562274269192785,0.960093896713615,0.5316113312103793,0.4721555355304401,0.034493583406346784
arzwiki,True,8.0,0.019458356620779094,0.9353155972874283,0.5886992474196108,0.41434791880197835,0.03812358803986711
arzwiki,True,9.0,0.02261792950106381,0.9233176838810642,0.6516286967016931,0.35075976969588574,0.04415424049093529
arzwiki,True,10.0,0.027741230693171942,0.9074074074074074,0.7220498553254552,0.279579656011318,0.05383657141972873
arzwiki,True,11.0,0.030142443049454945,0.8841940532081377,0.7510643182339932,0.25010604903707473,0.05829750644883921
arzwiki,True,12.0,0.03260370576571825,0.8706311945748565,0.7737508324752871,0.22710086008635258,0.06285364590688698
arzwiki,True,13.0,0.03486867229600713,0.8573291601460615,0.7919595956840845,0.20861507982912922,0.06701188558846916
arzwiki,True,14.0,0.036847351596603996,0.838810641627543,0.8075226217345943,0.19275243683490056,0.07059365842415462
arzwiki,True,15.0,0.03906317732007283,0.8226395409494001,0.8221014517459819,0.17790327869228353,0.07458468814661542
arzwiki,True,16.0,0.04099148314399673,0.812206572769953,0.8327707732416871,0.16704844320013573,0.07804413478527837
arzwiki,True,17.0,0.041840889461634424,0.7960354720918101,0.839362386436733,0.16025671892304624,0.0795029761517121
arzwiki,True,18.0,0.043080622307461104,0.7850808555033907,0.846158566937832,0.153304487995249,0.08167917181118814
arzwiki,True,19.0,0.05226139445367859,0.7790818988002086,0.874952551749846,0.12420463222193942,0.09795208972109724
arzwiki,True,20.0,0.054957076372536294,0.7730829420970265,0.8821715046834548,0.11686947828459664,0.10261914241695085
arzwiki,True,21.0,0.05794084998414209,0.7623891497130934,0.889906421822331,0.10897255106977682,0.1076968424155337
arzwiki,True,22.0,0.06006274281677851,0.7540427751695358,0.895022877443727,0.1037377413045522,0.11126291685107856
arzwiki,True,23.0,0.0618792641851628,0.7475221700573813,0.8990392155525704,0.09962877104643457,0.11429710867397808
arzwiki,True,24.0,0.06443463219227968,0.7383933229003652,0.9042897764079345,0.09425179824772596,0.11852627171865186
arzwiki,True,25.0,0.12603174603174602,0.724830464267084,0.9537996104129305,0.04418748093983523,0.21472724462988715
arzwiki,True,26.0,0.13239545191751784,0.7167449139280125,0.9565999095357913,0.04129148237063737,0.22350549003660025
arzwiki,True,27.0,0.14300026364355392,0.7073552425665102,0.9605071450814064,0.037267351342179546,0.2379051712794421
arzwiki,True,28.0,0.15434470891884142,0.7018779342723005,0.9638893245414851,0.0338072865433517,0.2530443368282477
arzwiki,True,29.0,0.17030484312352828,0.6979655712050078,0.9677351898952843,0.029893217218236307,0.27380160638461143
arzwiki,True,30.0,0.21451665050113158,0.692227438706312,0.9752291722070312,0.022282909022537427,0.3275330124645193
arzwiki,True,31.0,0.23393110795454544,0.6872717788210746,0.9776612501789964,0.019785884127955903,0.34905285468273944
arzwiki,True,32.0,0.2511752854264607,0.6828377673448096,0.979495537023273,0.017896491553910744,0.3672581889598092
arzwiki,True,33.0,0.2757083731295766,0.6776212832550861,0.9816775882878398,0.01564939844400267,0.3919438787055895
arzwiki,True,34.0,0.3005712953247056,0.6724047991653626,0.9835096021620491,0.013755419965651577,0.41543791797598906
arzwiki,True,35.0,0.3138167564919157,0.6682316118935837,0.9843756037576741,0.012845117960923509,0.42707117852975496
arzwiki,True,36.0,0.3231924643584521,0.6622326551904016,0.9849711219152955,0.012191626597327794,0.43438836612489307
arzwiki,True,37.0,0.3318426936735499,0.6580594679186228,0.9854734483001594,0.011648196937074515,0.44119961528372825
arzwiki,True,38.0,0.3463872035300607,0.6551904016692749,0.9862212554522869,0.01086859320506559,0.4531841962836009
arzwiki,True,39.0,0.35516801361122924,0.6533646322378717,0.9866417549147295,0.010428346391695844,0.4601818682832737
arzwiki,True,40.0,0.36326649229875035,0.6520605112154408,0.987007703095558,0.010047716334303252,0.4665920119447555
arzwiki,True,41.0,0.37008815180038845,0.6460615545122588,0.9873327378151757,0.00966708627691066,0.4705994110382825
arzwiki,True,42.0,0.37738731856378915,0.6442357850808555,0.9876373158041881,0.009343780023342253,0.4759610752480971
arzwiki,True,43.0,0.3864704040087692,0.6437141366718832,0.987989626164613,0.008983786535326367,0.4829745596868884
arzwiki,True,44.0,0.39471153846153845,0.6424100156494522,0.98829875009376,0.00866048028175796,0.48898153662894583
arzwiki,True,45.0,0.40252087084629234,0.6413667188315075,0.9885783254120326,0.008369275358331098,0.4946193301820375
arzwiki,True,46.0,0.4113106225876825,0.6392801251956182,0.9888829034010451,0.008043676152609723,0.5005616256509751
arzwiki,True,47.0,0.4192940370116518,0.6382368283776735,0.9891442949587796,0.0077708148464066,0.5061013443640123
arzwiki,True,48.0,0.42707240293809023,0.6369327073552425,0.9893897757260435,0.007511711253121281,0.5113065326633166
arzwiki,True,49.0,0.4344422700587084,0.6369327073552425,0.9896102538225674,0.007289294894283441,0.5165520888418826
arzwiki,True,50.0,0.4424506072140656,0.6366718831507564,0.9898420967694277,0.007053120822527796,0.5220831996577906
arzwiki,True,51.0,0.44912280701754387,0.6343244653103808,0.9900330262550773,0.006839876272301826,0.5258946913179804
arzwiki,True,52.0,0.4551438781267632,0.6311945748565467,0.9902012260400542,0.006642682387146628,0.528903944924052
arzwiki,True,53.0,0.4603658536585366,0.6301512780386019,0.990339877214157,0.0064936404972037445,0.5320414005725611
arzwiki,True,54.0,0.46736596736596736,0.6275430359937402,0.9905217148195375,0.006287274803436676,0.5357381429525718
arzwiki,True,55.0,0.4712711530893349,0.6246739697443923,0.9906217255024968,0.006161162435023468,0.5372364288918797
arzwiki,True,56.0,0.47589641434262947,0.6231090245174752,0.9907353740058598,0.006032757114457292,0.5396430991642195
arzwiki,True,57.0,0.4789272030651341,0.6194574856546687,0.9908103820180792,0.005924988363267824,0.5402024337541226
arzwiki,True,58.0,0.481511746680286,0.6147626499739176,0.9908740251799624,0.005819512564231322,0.5400389506243556
arzwiki,True,59.0,0.48510550268928426,0.6116327595200834,0.990958125072451,0.005707157908735918,0.5410706045223812
arzwiki,True,60.0,0.490467211397444,0.6105894627021388,0.9910785924860156,0.0055764596360167755,0.5439758336237946
arzwiki,True,61.0,0.5045395590142672,0.6087636932707355,0.9913808975049607,0.005255446334601336,0.55177304964539
arzwiki,True,62.0,0.5087565674255692,0.6061554512258738,0.9914672703675166,0.0051453846312588996,0.5532016186622233
arzwiki,True,63.0,0.5107182320441989,0.6027647365675535,0.9915059108586599,0.005076596066669877,0.5529369541811221
arzwiki,True,64.0,0.5156880322725236,0.6001564945226917,0.9916036485715519,0.004955069602562603,0.554725168756027
arzwiki,True,65.0,0.5283761871670142,0.5949400104329682,0.9918423104286139,0.004668450583441675,0.5596859281069808
arzwiki,True,66.0,0.5299647473560517,0.5881585811163276,0.9918650401292866,0.004585904305934848,0.557547286438373
arzwiki,True,67.0,0.5345731998092513,0.5847678664580073,0.9919445940816405,0.004475842602592412,0.5585450921773791
arzwiki,True,68.0,0.5328027013989387,0.5761606677099634,0.9919036806204299,0.0044414483202979,0.5536340852130325
arzwiki,True,69.0,0.531441154881331,0.5665101721439749,0.9918695860694211,0.004391003372932617,0.5484156040903925
arzwiki,True,70.0,0.5311801242236025,0.557642149191445,0.9918559482490175,0.004326800712649529,0.5440895788268227
arzwiki,True,71.0,0.5295151971866365,0.5498174230568597,0.9918195807279414,0.004294699382507985,0.5394753678822778
arzwiki,True,72.0,0.5288144199035288,0.5432968179447053,0.9918013969674033,0.004255719195907539,0.5359578026501995
arzwiki,True,73.0,0.5293054479731474,0.5346896191966615,0.9918013969674033,0.004180051774859614,0.5319839107305047
arzwiki,True,74.0,0.5279307631785995,0.525039123630673,0.9917695753864617,0.004127313875341363,0.5264809729305611
arzwiki,True,75.0,0.5258760107816711,0.50886802295253,0.9917218430150493,0.004033302837069699,0.5172322375397668
arzwiki,True,76.0,0.5233333333333333,0.49139280125195617,0.9916672917334352,0.0039347058944920995,0.5068603712671509
arzwiki,True,77.0,0.5228513940787582,0.4744392279603547,0.9916468350028298,0.003806300573925924,0.4974702584438671
arzwiki,True,78.0,0.5201648513394171,0.46087636932707354,0.9915968296613502,0.003737512009336901,0.4887290831143687
arzwiki,True,79.0,0.5201834862385321,0.44366197183098594,0.991585464811014,0.0035976419280058882,0.4788851351351352
arzwiki,True,80.0,0.5242165242165242,0.431924882629108,0.9916331971824263,0.003446307085910038,0.47361647361647363
arzwiki,True,81.0,0.5279338842975206,0.41653625456442356,0.9916695647035024,0.0032743356744374813,0.4656655489138358
arzwiki,True,82.0,0.5198054204308548,0.3901930099113198,0.9915445513498032,0.00316885987540098,0.44576877234803336
arzwiki,True,83.0,0.5158437730287398,0.3651538862806468,0.9914809081879201,0.003012939128999195,0.42761148442272445
arzwiki,True,84.0,0.5123480987847903,0.34089723526343246,0.9914286298763731,0.0028524324782914757,0.40939702427564606
arzwiki,True,85.0,0.5033726812816189,0.3114241001564945,0.991321800283212,0.0027010976361956257,0.38478891395423787
arzwiki,True,86.0,0.49882903981264637,0.2777777777777778,0.9912740679117996,0.0024534588036751437,0.3568436924107891
arzwiki,True,87.0,0.5057232049947971,0.2535211267605634,0.9913354381036156,0.0021783045453190528,0.3377345378735233
arzwiki,True,88.0,0.5289408866995073,0.22404799165362546,0.9914990919484581,0.0017541083970200795,0.31476731403444486
arzwiki,True,89.0,0.5728527607361963,0.19483568075117372,0.9917172970749148,0.0012771743492028553,0.29077462047489294
arzwiki,True,90.0,0.6224677716390423,0.1763171622326552,0.9918900428000264,0.0009401103827166438,0.2747967479674797
arzwiki,True,91.0,0.6812428078250863,0.15440792905581638,0.992001418333322,0.0006351477463719765,0.25175419944716143
arzwiki,True,92.0,0.6935483870967742,0.13458528951486698,0.991940048141506,0.0005227930908765727,0.22542595019659242
arzwiki,True,93.0,0.7074303405572755,0.11919666145018258,0.9918945887401609,0.00043336795691084314,0.20401785714285714
arzwiki,True,94.0,0.707635009310987,0.099113197704747,0.9917923050871343,0.0003599934880158856,0.1738732555479295
arzwiki,True,95.0,0.6984924623115578,0.07250912884715702,0.9916445620327626,0.00027515425835609086,0.13137996219281664
arzwiki,True,96.0,0.7263157894736842,0.0539906103286385,0.9915786459008121,0.00017885026793145907,0.10050983248361253
arzwiki,True,97.0,0.7352941176470589,0.04564423578508085,0.9915400054096688,0.00014445598563694772,0.08595284872298624
arzwiki,True,98.0,0.7339901477832512,0.03886280646844027,0.9915013649185254,0.0001238194162602409,0.07381719098340352
arzwiki,True,99.0,0.722972972972973,0.027908189880020865,0.991435448786575,9.401103827166438e-05,0.053741838272225013
arzwiki,False,0.0,0.012469431082206875,1.0,0.012469431082206875,1.0,0.024631718646317188
arzwiki,False,1.0,0.012499831584053031,0.9997306034482759,0.015163526914084544,0.9972684845021362,0.024690947317994913
arzwiki,False,2.0,0.012642337160829905,0.9983836206896551,0.027700142431001586,0.9845565624404713,0.024968503035162067
arzwiki,False,3.0,0.013004359456001917,0.994073275862069,0.05913909865362393,0.9526662040438675,0.025672869204036695
arzwiki,False,4.0,0.015222114820597979,0.9927262931034483,0.19908091693316493,0.8109403488720167,0.029984458530314007
arzwiki,False,5.0,0.0190047550821238,0.986260775862069,0.3650197522238048,0.6428245843198084,0.0372909324261006
arzwiki,False,6.0,0.021821347100492255,0.9792564655172413,0.45237295423396306,0.5542799412196914,0.042691377163930185
arzwiki,False,7.0,0.024805273442875624,0.9711745689655172,0.5235481443659133,0.4821039812773832,0.04837497651700169
arzwiki,False,8.0,0.027154672526399318,0.9587823275862069,0.5711684716884792,0.4337258823849566,0.05281355730990681
arzwiki,False,9.0,0.029780842032422216,0.9507004310344828,0.6131755394910107,0.39108634718480423,0.05775257546374713
arzwiki,False,10.0,0.03464919670555121,0.9418103448275862,0.6720828518448846,0.3313229651400114,0.06683937328528139
arzwiki,False,11.0,0.03701000386415353,0.9288793103448276,0.6977372282389616,0.3051813753503687,0.07118378132870887
arzwiki,False,12.0,0.039405109952968094,0.9186422413793104,0.7197434898282766,0.2827679810596783,0.0755687043623752
arzwiki,False,13.0,0.04250483437554936,0.9119073275862069,0.7427507994947731,0.2593851198737312,0.0812237552489502
arzwiki,False,14.0,0.04600093738799592,0.8989762931034483,0.7662653516433313,0.23541037363594308,0.08752327746741154
arzwiki,False,15.0,0.049751844197378145,0.8884698275862069,0.7870085458600952,0.2142725936811168,0.09422722532535249
arzwiki,False,16.0,0.05319649139873859,0.8838900862068966,0.8023870629652522,0.19864206601899476,0.10035327042774778
arzwiki,False,17.0,0.05525407005426739,0.875,0.8118869420332697,0.1889099790459085,0.10394431554524361
arzwiki,False,18.0,0.05767619319296119,0.8714978448275862,0.8208493456236059,0.17979018695403706,0.10819217069948665
arzwiki,False,19.0,0.06727579948682647,0.8688038793103449,0.8481665367767596,0.1520940484937546,0.12488141106313772
arzwiki,False,20.0,0.0710778893361051,0.8658405172413793,0.8572263577974255,0.14288241216970093,0.1313713468219906
arzwiki,False,21.0,0.07532689027856737,0.8566810344827587,0.8670823143694069,0.1327863499061148,0.1384776171398711
arzwiki,False,22.0,0.07867345671345174,0.8531788793103449,0.8735824084276155,0.12615995863607912,0.14406259239884459
arzwiki,False,23.0,0.0820217996410083,0.8494073275862069,0.8795819784472333,0.1200370098239312,0.14959789338837093
arzwiki,False,24.0,0.08559099847061394,0.8442887931034483,0.8855849076885867,0.11389365118240945,0.15542551081134695
arzwiki,False,25.0,0.11854114951308001,0.8362068965517241,0.9204233963075434,0.07851321196288133,0.20764625213232096
arzwiki,False,26.0,0.12299593204115818,0.8308189655172413,0.9240211227862729,0.07480202465507388,0.2142708260960189
arzwiki,False,27.0,0.12961787482544115,0.8251616379310345,0.9287273924377201,0.06996489509347702,0.22404271660022673
arzwiki,False,28.0,0.13727166381715109,0.8219288793103449,0.933366477654457,0.06522641304052032,0.23525329632199862
arzwiki,False,29.0,0.14615681357893723,0.8165409482758621,0.938230630727473,0.06023280812039078,0.24793456032719838
arzwiki,False,30.0,0.16283958602846055,0.8138469827586207,0.9455067050065841,0.052830843334149724,0.2713798059647862
arzwiki,False,31.0,0.17381228273464658,0.8081896551724138,0.9497057321759694,0.04850736114512749,0.2860957467098989
arzwiki,False,32.0,0.18161925601750548,0.8049568965517241,0.952339362016608,0.04579965711486652,0.2963697679031938
arzwiki,False,33.0,0.1918728600038762,0.8001077586206896,0.9554869527827793,0.042551092606199145,0.3095200875410348
arzwiki,False,34.0,0.20096539533618873,0.7963362068965517,0.9579794953105265,0.03997945410509701,0.32093805982302803
arzwiki,False,35.0,0.2075698620445702,0.7904094827586207,0.9597598828303459,0.03810174980270498,0.32879475542107917
arzwiki,False,36.0,0.21424902780834984,0.7866379310344828,0.9613655908199188,0.03642814379405122,0.3367741191396113
arzwiki,False,37.0,0.22039823681410547,0.78125,0.962813415387923,0.03489400495278526,0.3438055720213396
arzwiki,False,38.0,0.22652369313253962,0.7739762931034483,0.964227647738572,0.03337007102620622,0.3504727050930161
arzwiki,False,39.0,0.23500491642084562,0.7726293103448276,0.9658031227325253,0.03175769450567393,0.36039205830610704
arzwiki,False,40.0,0.24308736217133164,0.7720905172413793,0.9671804036440838,0.030356219555337852,0.36975874080763765
arzwiki,False,41.0,0.2523704031900753,0.7672413793103449,0.9687558786380371,0.02869962173782894,0.3798092951923717
arzwiki,False,42.0,0.26099733676186976,0.765625,0.9700458197844724,0.02737298282853022,0.38928840490377375
arzwiki,False,43.0,0.2712562236690923,0.7632004310344828,0.9714802074655344,0.02588986856069883,0.40025430912687204
arzwiki,False,44.0,0.28173374613003094,0.7599676724137931,0.9728474107118863,0.024464582142759952,0.4110746812386157
arzwiki,False,45.0,0.29183122012055707,0.7564655172413793,0.9740735266453469,0.02317876289220889,0.4211789410529473
arzwiki,False,46.0,0.3023155161220515,0.7526939655172413,0.9752559726962458,0.021933763300405477,0.43137254901960786
arzwiki,False,47.0,0.313570784490532,0.7494612068965517,0.9764182634167317,0.02071597681443383,0.44214876033057854
arzwiki,False,48.0,0.3249706916764361,0.7467672413793104,0.9774999328155652,0.019586632922415435,0.4528671785655938
arzwiki,False,49.0,0.3383017715332926,0.7459590517241379,0.9786387089839026,0.01842327264810733,0.4654955030680004
arzwiki,False,50.0,0.351193499238192,0.7451508620689655,0.9796565531697616,0.01738237135004218,0.47739040386606835
arzwiki,False,51.0,0.363672391017173,0.7416487068965517,0.9805971352557039,0.016385691348953655,0.4880340365183478
arzwiki,False,52.0,0.37630422844590883,0.7384159482758621,0.9814772513504071,0.015453642474215582,0.4985449254274281
arzwiki,False,53.0,0.3867403314917127,0.7354525862068966,0.9821591733627153,0.014725691893215773,0.5069167208244361
arzwiki,False,54.0,0.4004424778761062,0.7314116379310345,0.9829956195748569,0.01382765940076741,0.5175371711780403
arzwiki,False,55.0,0.4127542437681603,0.7271012931034483,0.9836976969175781,0.013062290799248918,0.5265827724124476
arzwiki,False,56.0,0.42379826635145784,0.7244073275862069,0.9842822014995566,0.01243638936511824,0.5347519140896887
arzwiki,False,57.0,0.4341827625385489,0.720635775862069,0.9848062400902958,0.011858110866193159,0.5418819001316721
arzwiki,False,58.0,0.44522731085388356,0.7149784482758621,0.9853369971245062,0.011249217623207337,0.5487439263930528
arzwiki,False,59.0,0.4580006942034016,0.7109375,0.9859047055978071,0.01062331618907666,0.5571036521004855
arzwiki,False,60.0,0.4728251121076233,0.7101293103448276,0.9865127247319341,0.009997414754945982,0.5676752449660817
arzwiki,False,61.0,0.4787136853645167,0.7058189655172413,0.9867478702534197,0.009704873867254469,0.5704953728905825
arzwiki,False,62.0,0.4906621392190153,0.7007004310344828,0.9871980059659778,0.009184423218221896,0.5771663153223122
arzwiki,False,63.0,0.4998057498057498,0.6931573275862069,0.9875238504743221,0.008759218439600511,0.5808126410835215
arzwiki,False,64.0,0.5077751196172249,0.6861530172413793,0.9877925882131627,0.008398644787329579,0.5836388634280477
arzwiki,False,65.0,0.5180698151950719,0.6796875,0.9881217919432426,0.007983644923395107,0.5879748310417151
arzwiki,False,66.0,0.5247942603924879,0.669989224137931,0.9883199860256375,0.007660489291642855,0.5885694000709976
arzwiki,False,67.0,0.5339553048383597,0.6629849137931034,0.9885820053210073,0.007306718915829864,0.591515442855426
arzwiki,False,68.0,0.5382392174299688,0.6522090517241379,0.988686141194808,0.007065202601572918,0.5897685749086479
arzwiki,False,69.0,0.5440237226277372,0.642510775862069,0.9888272285076993,0.006799874819713174,0.5891798418972332
arzwiki,False,70.0,0.5516431924882629,0.6330818965517241,0.9890086264814167,0.006497129017334748,0.5895634721525338
arzwiki,False,71.0,0.5555022776312635,0.6241918103448276,0.9890858885813335,0.006306637276512368,0.5878472662691868
arzwiki,False,72.0,0.558578431372549,0.6139547413793104,0.989136276907366,0.006126350450376902,0.5849589322381931
arzwiki,False,73.0,0.5658993169744498,0.6026400862068966,0.9892807234419929,0.00583721120091436,0.5836921069797782
arzwiki,False,74.0,0.5712062256809338,0.5932112068965517,0.9893747816505872,0.005622907992489183,0.5820007929166114
arzwiki,False,75.0,0.575611066344346,0.5773168103448276,0.9894218107548843,0.005374588401774295,0.576462676529926
arzwiki,False,76.0,0.5811606391925989,0.5584590517241379,0.9894755583026524,0.0050820475140827825,0.5695837340293995
arzwiki,False,77.0,0.5871156661786238,0.5401400862068966,0.9895293058504205,0.004796309902849212,0.5626490809597305
arzwiki,False,78.0,0.5891826192646612,0.5223599137931034,0.9895024320765365,0.00459901488556889,0.5537626731400828
arzwiki,False,79.0,0.5985308208240179,0.5048491379310345,0.9896032087286017,0.004275859253816638,0.5477129913780505
arzwiki,False,80.0,0.6049548041513224,0.48679956896551724,0.9896368009459569,0.0040139331101858656,0.5394835050007464
arzwiki,False,81.0,0.6134513274336283,0.46686422413793105,0.989683830050254,0.003714588946036411,0.5302126357656418
arzwiki,False,82.0,0.6183864915572233,0.44396551724137934,0.9896502378328988,0.0034594660788635806,0.5168574564842403
arzwiki,False,83.0,0.6190095846645367,0.4175646551724138,0.9895326650721561,0.003245162870438403,0.4987129987129987
arzwiki,False,84.0,0.6247288503253796,0.3879310344827586,0.9894621214157104,0.0029424170680599775,0.47864384244640185
arzwiki,False,85.0,0.6268796992481203,0.359375,0.9893445486549676,0.0027009007538030317,0.45684931506849313
arzwiki,False,86.0,0.6295907660020986,0.3232758620689655,0.9891900244551343,0.0024015565896535773,0.42719829120683517
arzwiki,False,87.0,0.6333718244803695,0.29552801724137934,0.989082529359598,0.002160040275396631,0.40301249081557683
arzwiki,False,88.0,0.6552406064601186,0.2677801724137931,0.9891127623552175,0.0017790567937518709,0.3801874163319946
arzwiki,False,89.0,0.6869633099141296,0.23706896551724138,0.9891396361291016,0.0013640569298174002,0.3524934908872421
arzwiki,False,90.0,0.7174721189591078,0.20797413793103448,0.9891026846900111,0.001034098021607206,0.3224728487886383
arzwiki,False,91.0,0.7321237993596584,0.18480603448275862,0.9889918303727392,0.0008538111954717392,0.295117229511723
arzwiki,False,92.0,0.7464607464607464,0.15625,0.9888171508424928,0.0006701227311073013,0.25840944531075966
arzwiki,False,93.0,0.7769110764430577,0.1341594827586207,0.9887230926338986,0.00048643426674286336,0.22880771881461062
arzwiki,False,94.0,0.7965116279069767,0.11072198275862069,0.9885584907688587,0.00035717201404196264,0.1944181646168401
arzwiki,False,95.0,0.7855361596009975,0.08485991379310345,0.9882998306952245,0.00029254088769151224,0.15317286652078776
arzwiki,False,96.0,0.8,0.0668103448275862,0.9881553841605977,0.00021090157019620649,0.12332173048234708
arzwiki,False,97.0,0.7984496124031008,0.05549568965517242,0.9880478890650614,0.00017688518790649578,0.10377833753148616
arzwiki,False,98.0,0.8090909090909091,0.047952586206896554,0.9879874230738223,0.00014286880561678505,0.09053916581892167
arzwiki,False,99.0,0.7769784172661871,0.029094827586206896,0.9877892289914273,0.00010545078509810324,0.05608932744741626
