wiki_db,user_is_bot,threshold,precision,recall,accuracy,fpr,F1
aswiki,True,0.0,0.027298850574712645,1.0,0.027298850574712645,1.0,0.05314685314685315
aswiki,True,1.0,0.027298850574712645,1.0,0.027298850574712645,1.0,0.05314685314685315
aswiki,True,2.0,0.02745664739884393,1.0,0.033045977011494254,0.9940915805022157,0.05344585091420534
aswiki,True,3.0,0.028189910979228485,1.0,0.05890804597701149,0.9675036927621861,0.05483405483405483
aswiki,True,4.0,0.02909647779479326,1.0,0.08908045977011494,0.9364844903988183,0.05654761904761905
aswiki,True,5.0,0.02875399361022364,0.9473684210526315,0.125,0.8980797636632201,0.055813953488372085
aswiki,True,6.0,0.03,0.9473684210526315,0.16235632183908047,0.8596750369276218,0.058158319870759284
aswiki,True,7.0,0.031746031746031744,0.9473684210526315,0.20977011494252873,0.810930576070901,0.06143344709897611
aswiki,True,8.0,0.034482758620689655,0.9473684210526315,0.2744252873563218,0.7444608567208272,0.066543438077634
aswiki,True,9.0,0.03505154639175258,0.8947368421052632,0.32471264367816094,0.691285081240768,0.06746031746031746
aswiki,True,10.0,0.0368763557483731,0.8947368421052632,0.35919540229885055,0.6558345642540621,0.07083333333333333
aswiki,True,11.0,0.038636363636363635,0.8947368421052632,0.38936781609195403,0.6248153618906942,0.07407407407407407
aswiki,True,12.0,0.04066985645933014,0.8947368421052632,0.4209770114942529,0.5923190546528804,0.07780320366132723
aswiki,True,13.0,0.03636363636363636,0.7368421052631579,0.45977011494252873,0.5480059084194978,0.0693069306930693
aswiki,True,14.0,0.038461538461538464,0.7368421052631579,0.4899425287356322,0.51698670605613,0.0731070496083551
aswiki,True,15.0,0.03812316715542522,0.6842105263157895,0.5201149425287356,0.4844903988183161,0.07222222222222223
aswiki,True,16.0,0.04075235109717868,0.6842105263157895,0.5517241379310345,0.4519940915805022,0.07692307692307693
aswiki,True,17.0,0.04276315789473684,0.6842105263157895,0.5732758620689655,0.4298375184638109,0.0804953560371517
aswiki,True,18.0,0.04513888888888889,0.6842105263157895,0.5962643678160919,0.40620384047267355,0.08469055374592835
aswiki,True,19.0,0.04710144927536232,0.6842105263157895,0.6135057471264368,0.38847858197932056,0.08813559322033898
aswiki,True,20.0,0.049429657794676805,0.6842105263157895,0.632183908045977,0.36927621861152143,0.09219858156028368
aswiki,True,21.0,0.05220883534136546,0.6842105263157895,0.6522988505747126,0.34859675036927623,0.09701492537313432
aswiki,True,22.0,0.04602510460251046,0.5789473684210527,0.6609195402298851,0.33677991137370755,0.08527131782945738
aswiki,True,23.0,0.048034934497816595,0.5789473684210527,0.6752873563218391,0.32200886262924666,0.08870967741935484
aswiki,True,24.0,0.05045871559633028,0.5789473684210527,0.6910919540229885,0.30576070901033975,0.09282700421940929
aswiki,True,25.0,0.052132701421800945,0.5789473684210527,0.7011494252873564,0.29542097488921715,0.09565217391304347
aswiki,True,26.0,0.05527638190954774,0.5789473684210527,0.7183908045977011,0.2776957163958641,0.10091743119266056
aswiki,True,27.0,0.05759162303664921,0.5789473684210527,0.7298850574712644,0.2658788774002954,0.10476190476190476
aswiki,True,28.0,0.054945054945054944,0.5263157894736842,0.7399425287356322,0.25406203840472674,0.09950248756218905
aswiki,True,29.0,0.056818181818181816,0.5263157894736842,0.7485632183908046,0.24519940915805022,0.10256410256410256
aswiki,True,30.0,0.05952380952380952,0.5263157894736842,0.7600574712643678,0.23338257016248154,0.10695187165775401
aswiki,True,31.0,0.0625,0.5263157894736842,0.771551724137931,0.22156573116691286,0.11173184357541899
aswiki,True,32.0,0.06493506493506493,0.5263157894736842,0.7801724137931034,0.21270310192023634,0.11560693641618495
aswiki,True,33.0,0.06164383561643835,0.47368421052631576,0.7887931034482759,0.20236336779911374,0.1090909090909091
aswiki,True,34.0,0.06382978723404255,0.47368421052631576,0.7959770114942529,0.19497784342688332,0.11249999999999998
aswiki,True,35.0,0.06716417910447761,0.47368421052631576,0.8060344827586207,0.18463810930576072,0.1176470588235294
aswiki,True,36.0,0.06923076923076923,0.47368421052631576,0.8117816091954023,0.17872968980797638,0.12080536912751677
aswiki,True,37.0,0.07086614173228346,0.47368421052631576,0.8160919540229885,0.17429837518463812,0.12328767123287669
aswiki,True,38.0,0.075,0.47368421052631576,0.8261494252873564,0.16395864106351551,0.12949640287769784
aswiki,True,39.0,0.075,0.47368421052631576,0.8261494252873564,0.16395864106351551,0.12949640287769784
aswiki,True,40.0,0.07964601769911504,0.47368421052631576,0.8362068965517241,0.1536189069423929,0.13636363636363638
aswiki,True,41.0,0.08333333333333333,0.47368421052631576,0.8433908045977011,0.14623338257016247,0.14173228346456693
aswiki,True,42.0,0.08653846153846154,0.47368421052631576,0.8491379310344828,0.14032496307237813,0.14634146341463417
aswiki,True,43.0,0.09,0.47368421052631576,0.8548850574712644,0.1344165435745938,0.15126050420168066
aswiki,True,44.0,0.09574468085106383,0.47368421052631576,0.8635057471264368,0.1255539143279173,0.15929203539823006
aswiki,True,45.0,0.0967741935483871,0.47368421052631576,0.8649425287356322,0.1240768094534712,0.16071428571428573
aswiki,True,46.0,0.0898876404494382,0.42105263157894735,0.867816091954023,0.11964549483013294,0.14814814814814814
aswiki,True,47.0,0.09411764705882353,0.42105263157894735,0.8735632183908046,0.1137370753323486,0.15384615384615383
aswiki,True,48.0,0.09523809523809523,0.42105263157894735,0.875,0.11225997045790251,0.1553398058252427
aswiki,True,49.0,0.09876543209876543,0.42105263157894735,0.8793103448275862,0.10782865583456426,0.16
aswiki,True,50.0,0.10256410256410256,0.42105263157894735,0.8836206896551724,0.103397341211226,0.16494845360824742
aswiki,True,51.0,0.10526315789473684,0.42105263157894735,0.8864942528735632,0.10044313146233383,0.16842105263157894
aswiki,True,52.0,0.10810810810810811,0.42105263157894735,0.889367816091954,0.09748892171344166,0.17204301075268819
aswiki,True,53.0,0.11267605633802817,0.42105263157894735,0.8936781609195402,0.0930576070901034,0.17777777777777778
aswiki,True,54.0,0.11940298507462686,0.42105263157894735,0.8994252873563219,0.08714918759231906,0.18604651162790697
aswiki,True,55.0,0.12307692307692308,0.42105263157894735,0.9022988505747126,0.08419497784342689,0.19047619047619047
aswiki,True,56.0,0.11666666666666667,0.3684210526315789,0.9066091954022989,0.07828655834564253,0.17721518987341772
aswiki,True,57.0,0.12280701754385964,0.3684210526315789,0.9109195402298851,0.07385524372230429,0.18421052631578946
aswiki,True,58.0,0.125,0.3684210526315789,0.9123563218390804,0.0723781388478582,0.18666666666666668
aswiki,True,59.0,0.12962962962962962,0.3684210526315789,0.9152298850574713,0.06942392909896603,0.19178082191780824
aswiki,True,60.0,0.13725490196078433,0.3684210526315789,0.9195402298850575,0.06499261447562776,0.2
aswiki,True,61.0,0.14285714285714285,0.3684210526315789,0.9224137931034483,0.0620384047267356,0.20588235294117646
aswiki,True,62.0,0.14285714285714285,0.3684210526315789,0.9224137931034483,0.0620384047267356,0.20588235294117646
aswiki,True,63.0,0.15217391304347827,0.3684210526315789,0.9267241379310345,0.05760709010339734,0.21538461538461537
aswiki,True,64.0,0.1590909090909091,0.3684210526315789,0.9295977011494253,0.05465288035450517,0.22222222222222218
aswiki,True,65.0,0.16279069767441862,0.3684210526315789,0.9310344827586207,0.053175775480059084,0.22580645161290322
aswiki,True,66.0,0.16666666666666666,0.3684210526315789,0.9324712643678161,0.051698670605613,0.22950819672131145
aswiki,True,67.0,0.175,0.3684210526315789,0.9353448275862069,0.04874446085672083,0.23728813559322032
aswiki,True,68.0,0.1794871794871795,0.3684210526315789,0.9367816091954023,0.047267355982274745,0.2413793103448276
aswiki,True,69.0,0.18421052631578946,0.3684210526315789,0.9382183908045977,0.04579025110782865,0.24561403508771928
aswiki,True,70.0,0.19444444444444445,0.3684210526315789,0.9410919540229885,0.04283604135893648,0.2545454545454545
aswiki,True,71.0,0.19444444444444445,0.3684210526315789,0.9410919540229885,0.04283604135893648,0.2545454545454545
aswiki,True,72.0,0.21212121212121213,0.3684210526315789,0.9454022988505747,0.03840472673559823,0.2692307692307693
aswiki,True,73.0,0.22580645161290322,0.3684210526315789,0.9482758620689655,0.03545051698670606,0.28
aswiki,True,74.0,0.23333333333333334,0.3684210526315789,0.9497126436781609,0.033973412112259974,0.2857142857142857
aswiki,True,75.0,0.25,0.3684210526315789,0.9525862068965517,0.0310192023633678,0.2978723404255319
aswiki,True,76.0,0.2692307692307692,0.3684210526315789,0.9554597701149425,0.028064992614475627,0.3111111111111111
aswiki,True,77.0,0.28,0.3684210526315789,0.9568965517241379,0.026587887740029542,0.3181818181818182
aswiki,True,78.0,0.375,0.3157894736842105,0.9669540229885057,0.014771048744460856,0.34285714285714286
aswiki,True,79.0,0.4,0.3157894736842105,0.9683908045977011,0.013293943870014771,0.35294117647058826
aswiki,True,80.0,0.4,0.3157894736842105,0.9683908045977011,0.013293943870014771,0.35294117647058826
aswiki,True,81.0,0.38461538461538464,0.2631578947368421,0.9683908045977011,0.011816838995568686,0.3125
aswiki,True,82.0,0.38461538461538464,0.2631578947368421,0.9683908045977011,0.011816838995568686,0.3125
aswiki,True,83.0,0.38461538461538464,0.2631578947368421,0.9683908045977011,0.011816838995568686,0.3125
aswiki,True,84.0,0.5555555555555556,0.2631578947368421,0.9741379310344828,0.005908419497784343,0.35714285714285715
aswiki,True,85.0,0.5555555555555556,0.2631578947368421,0.9741379310344828,0.005908419497784343,0.35714285714285715
aswiki,True,86.0,0.5,0.21052631578947367,0.9727011494252874,0.005908419497784343,0.2962962962962963
aswiki,True,87.0,0.42857142857142855,0.15789473684210525,0.9712643678160919,0.005908419497784343,0.23076923076923078
aswiki,True,88.0,0.42857142857142855,0.15789473684210525,0.9712643678160919,0.005908419497784343,0.23076923076923078
aswiki,True,89.0,0.3333333333333333,0.10526315789473684,0.9698275862068966,0.005908419497784343,0.16
aswiki,True,90.0,0.3333333333333333,0.10526315789473684,0.9698275862068966,0.005908419497784343,0.16
aswiki,True,91.0,0.5,0.05263157894736842,0.9727011494252874,0.0014771048744460858,0.09523809523809525
aswiki,True,92.0,0.5,0.05263157894736842,0.9727011494252874,0.0014771048744460858,0.09523809523809525
aswiki,True,93.0,0.5,0.05263157894736842,0.9727011494252874,0.0014771048744460858,0.09523809523809525
aswiki,True,94.0,0.5,0.05263157894736842,0.9727011494252874,0.0014771048744460858,0.09523809523809525
aswiki,True,95.0,1.0,0.05263157894736842,0.9741379310344828,0.0,0.1
aswiki,True,96.0,1.0,0.05263157894736842,0.9741379310344828,0.0,0.1
aswiki,True,97.0,1.0,0.05263157894736842,0.9741379310344828,0.0,0.1
aswiki,True,98.0,1.0,0.0,0.9727011494252874,0.0,0.0
aswiki,True,99.0,1.0,0.0,0.9727011494252874,0.0,0.0
aswiki,False,0.0,0.03329888620966816,1.0,0.03329888620966816,1.0,0.06445160573397044
aswiki,False,1.0,0.03330781010719755,1.0,0.033566808282619515,0.9997228491111375,0.06446832160059282
aswiki,False,2.0,0.033815298507462684,1.0,0.04857044436789528,0.9842023993348379,0.06541845251522671
aswiki,False,3.0,0.0353471742575062,1.0,0.09124660313086079,0.940056222037455,0.06828081466075424
aswiki,False,4.0,0.036802515830181466,0.9954022988505747,0.1323535040379684,0.8973749851526309,0.07098069751239704
aswiki,False,5.0,0.039009175970709214,0.9919540229885058,0.18601446779193936,0.8417468424595161,0.07506632453355369
aswiki,False,6.0,0.041741581223577434,0.9873563218390805,0.24480422551383627,0.7807736469097676,0.08009697421791227
aswiki,False,7.0,0.04424179260031266,0.9758620689655172,0.2972021280667509,0.7261749218038563,0.08464606181455633
aswiki,False,8.0,0.046845443418270835,0.967816091954023,0.3432081754506832,0.6783070039988914,0.08936531521969858
aswiki,False,9.0,0.049094543744120415,0.9597701149425287,0.3796455773720672,0.6403373322247298,0.09341089607338628
aswiki,False,10.0,0.05153168795733598,0.9551724137931035,0.41309756190913616,0.6055746921645484,0.09778771475641328
aswiki,False,11.0,0.05349366265843354,0.9459770114942528,0.4408466337505263,0.5765530348022331,0.10126115041525685
aswiki,False,12.0,0.055812372535690005,0.9436781609195403,0.46652887817200595,0.5499069564873105,0.10539152759948651
aswiki,False,13.0,0.057438458794149126,0.9252873563218391,0.4919049259386841,0.5230233202676485,0.10816257977830031
aswiki,False,14.0,0.06042136945071482,0.9229885057471264,0.5195008994526735,0.4943975927465653,0.11341807909604519
aswiki,False,15.0,0.06314371731896688,0.9160919540229885,0.5446090251464003,0.46818703725699806,0.11814408538393122
aswiki,False,16.0,0.0656624500665779,0.906896551724138,0.5671910284380143,0.44451043275131646,0.1224584820735682
aswiki,False,17.0,0.06833000086933844,0.903448275862069,0.5865962414360623,0.42431801084847764,0.12705083649882812
aswiki,False,18.0,0.07086399563913873,0.896551724137931,0.6051211390515558,0.4049174486281031,0.13134629957059862
aswiki,False,19.0,0.07260130967068426,0.8793103448275862,0.6219619550656409,0.386902640852041,0.1341281669150522
aswiki,False,20.0,0.0751141099424489,0.8701149425287357,0.6389175948252765,0.3690462050124718,0.1382900986481549
aswiki,False,21.0,0.07792476229847044,0.8666666666666667,0.6540743292379531,0.35324860434730965,0.1429926038308363
aswiki,False,22.0,0.07915057915057915,0.8482758620689655,0.6663221954300149,0.33994536168191,0.14479105356091818
aswiki,False,23.0,0.08165773011617515,0.8402298850574713,0.6800244957323841,0.3254939224769371,0.14884952148238648
aswiki,False,24.0,0.08342989571263036,0.8275862068965517,0.6915068702874421,0.31318050441461776,0.15157894736842106
aswiki,False,25.0,0.08594222168499939,0.8172413793103448,0.7044819535346576,0.29940214593973946,0.1555288198621896
aswiki,False,26.0,0.08904369854338189,0.8080459770114943,0.7183373521644276,0.28475274181415056,0.16041072447233312
aswiki,False,27.0,0.09110141478249371,0.7919540229885057,0.7299728250468863,0.2721621728629687,0.16340566820822958
aswiki,False,28.0,0.09422197589025912,0.7816091954022989,0.7425268878937498,0.2588193372134458,0.16817113886484483
aswiki,False,29.0,0.09738751814223512,0.771264367816092,0.7543537336854594,0.24622876826226392,0.1729381443298969
aswiki,False,30.0,0.10162047554142056,0.771264367816092,0.765338538676465,0.2348655818189017,0.17957982068780945
aswiki,False,31.0,0.10392902408111533,0.7540229885057471,0.7753282045393655,0.22393791820089481,0.18267891952102477
aswiki,False,32.0,0.10796019900497512,0.7482758620689656,0.7857388908026179,0.2129706615987647,0.18869565217391304
aswiki,False,33.0,0.11274252753015207,0.7413793103448276,0.7971064416121254,0.20097398740943104,0.1957214383249886
aswiki,False,34.0,0.11765778912805545,0.7413793103448276,0.8062540666743215,0.19151126420398307,0.20308564231738035
aswiki,False,35.0,0.12069948678958373,0.7298850574712644,0.8139472576262105,0.18315714455398505,0.20714402218235195
aswiki,False,36.0,0.12411347517730496,0.7241379310344828,0.8206453094499943,0.17603040741180662,0.2119071644803229
aswiki,False,37.0,0.1294068851099129,0.7172413793103448,0.829907758257741,0.16621134734924972,0.21925509486999298
aswiki,False,38.0,0.13463203463203463,0.7149425287356321,0.8374861254640793,0.15829275052460703,0.22659380692167574
aswiki,False,39.0,0.13831227436823104,0.7045977011494253,0.8439928043786121,0.15120560636655184,0.23123349679366278
aswiki,False,40.0,0.14142122487143524,0.6954022988505747,0.8492746966739388,0.1454250306845627,0.235042735042735
aswiki,False,41.0,0.1449625513409036,0.6896551724137931,0.8542121177326137,0.1401195708120521,0.2395687762028349
aswiki,False,42.0,0.1509813789632612,0.6896551724137931,0.8605274237378957,0.1335867284317219,0.24772914946325347
aswiki,False,43.0,0.15596568754873927,0.6896551724137931,0.8653882956328702,0.1285584194480738,0.25439898240407033
aswiki,False,44.0,0.15976331360946747,0.6827586206896552,0.8698664217093428,0.12368848240091855,0.2589363557105493
aswiki,False,45.0,0.1636414409382854,0.6735632183908046,0.8744976461132162,0.11858098744902404,0.26331161536733316
aswiki,False,46.0,0.1656160458452722,0.664367816091954,0.8773682397519807,0.11529476976679733,0.26513761467889907
aswiki,False,47.0,0.16911764705882354,0.6609195402298851,0.880583304627397,0.11185018014807777,0.2693208430913349
aswiki,False,48.0,0.17124735729386892,0.6517241379310345,0.883377349102461,0.10864314843409748,0.27122697919158095
aswiki,False,49.0,0.17500777121541808,0.6471264367816092,0.8866689631415777,0.10507977986300827,0.2755077073648152
aswiki,False,50.0,0.17820838627700128,0.6448275862068965,0.8891568109618403,0.10242704992675299,0.27924340467894476
aswiki,False,51.0,0.1823240589198036,0.6402298850574712,0.8924101504191067,0.09890327433978699,0.28382165605095544
aswiki,False,52.0,0.18701648166834847,0.639080459770115,0.8954721169671221,0.09569624262580671,0.28935727296383035
aswiki,False,53.0,0.19070735090152566,0.632183908045977,0.898419259769587,0.09241002494358,0.2930207778369739
aswiki,False,54.0,0.19297623270663355,0.6252873563218391,0.9004478126076473,0.0900740388803104,0.29493087557603687
aswiki,False,55.0,0.19372491791317037,0.6103448275862069,0.9024380908638573,0.08750049491230154,0.29410135696482964
aswiki,False,56.0,0.19714070729872085,0.6022988505747127,0.9050790370115207,0.08449142811893733,0.29705215419501135
aswiki,False,57.0,0.1987673343605547,0.593103448275862,0.9068396677766295,0.08235340697628381,0.2977495672244662
aswiki,False,58.0,0.20253164556962025,0.5885057471264368,0.9091361426876411,0.07981945599239815,0.30135373749264277
aswiki,False,59.0,0.2044806517311609,0.5770114942528736,0.9111646955257013,0.0773250979926357,0.3019548872180451
aswiki,False,60.0,0.20861204013377926,0.5735632183908046,0.9133463466911624,0.0749495189452429,0.3059472716125077
aswiki,False,61.0,0.21172919361793877,0.5643678160919541,0.9155279978566234,0.07237597497723404,0.30793352148008785
aswiki,False,62.0,0.2150442477876106,0.5586206896551724,0.9174034523672829,0.07023795383458051,0.3105431309904153
aswiki,False,63.0,0.21567739012233803,0.5471264367816092,0.9186665135683393,0.06853545551728234,0.30939226519337015
aswiki,False,64.0,0.22029934518241348,0.5413793103448276,0.9209247138975006,0.06600150453339668,0.3131648936170213
aswiki,False,65.0,0.22329162656400384,0.5333333333333333,0.9226853446626095,0.06390307637486638,0.3147896879240163
aswiki,False,66.0,0.22761009401286492,0.5287356321839081,0.924560799173269,0.061804648216336064,0.3182289865098582
aswiki,False,67.0,0.2302231237322515,0.5218390804597701,0.9259769587017261,0.06010214989903789,0.3194933145672062
aswiki,False,68.0,0.23664921465968586,0.5195402298850574,0.9281968844490374,0.057726570851645086,0.3251798561151079
aswiki,False,69.0,0.24141630901287553,0.5172413793103449,0.9298044168867455,0.055984479550223704,0.3291880029261156
aswiki,False,70.0,0.24526198439241917,0.5057471264367817,0.9317181459792552,0.053608900502830896,0.3303303303303303
aswiki,False,71.0,0.2530329289428076,0.503448275862069,0.9339763463084165,0.051193728471314884,0.33679354094579006
aswiki,False,72.0,0.2580060422960725,0.4908045977011494,0.936043173728327,0.04862018450330601,0.3382178217821782
aswiki,False,73.0,0.26187419768934533,0.4689655172413793,0.9383013740574884,0.04553193174169537,0.3360790774299835
aswiki,False,74.0,0.26830892143808255,0.4632183908045977,0.9400620048225973,0.04351268955141149,0.3397976391231029
aswiki,False,75.0,0.2705718270571827,0.4459770114942529,0.9415164389329047,0.04141426139288118,0.3368055555555555
aswiki,False,76.0,0.27654867256637167,0.43103448275862066,0.9435067171891147,0.038840717424872315,0.33692722371967654
aswiki,False,77.0,0.290625,0.42758620689655175,0.9461859379186283,0.03595042958387774,0.34604651162790695
aswiki,False,78.0,0.297569153394803,0.40804597701149425,0.9482144907566885,0.0331789206952528,0.3441589917595735
aswiki,False,79.0,0.31216457960644006,0.4011494252873563,0.9506257894132507,0.03044700479075108,0.3511066398390342
aswiki,False,80.0,0.32125834127740704,0.3873563218390805,0.9523481455965094,0.028190204695727916,0.3512245961438249
aswiki,False,81.0,0.32484725050916496,0.36666666666666664,0.9535346576338654,0.026250148473690463,0.3444924406047516
aswiki,False,82.0,0.3465909090909091,0.3505747126436782,0.9563669766907796,0.022765965870847685,0.3485714285714286
aswiki,False,83.0,0.345,0.31724137931034485,0.9572090174914839,0.020746723680563805,0.33053892215568864
aswiki,False,84.0,0.35048678720445064,0.2896551724137931,0.9584720786925403,0.018489923585540642,0.31718061674008813
aswiki,False,85.0,0.3532182103610675,0.25862068965517243,0.9595437669843457,0.016312309458763906,0.29860650298606506
aswiki,False,86.0,0.35135135135135137,0.22413793103448276,0.9603858077850499,0.014253474284356813,0.27368421052631575
aswiki,False,87.0,0.3696969696969697,0.2103448275862069,0.961763692731657,0.01235301104644257,0.2681318681318681
aswiki,False,88.0,0.3488372093023256,0.1724137931034483,0.9617254181498067,0.011086035554499742,0.23076923076923075
aswiki,False,89.0,0.35082872928176795,0.14597701149425288,0.962567458950511,0.009304351268955142,0.2061688311688312
aswiki,False,90.0,0.35570469798657717,0.12183908045977011,0.9634094997512153,0.007601852951656966,0.1815068493150685
aswiki,False,91.0,0.405982905982906,0.10919540229885058,0.9650170321889233,0.005503424793126658,0.17210144927536233
aswiki,False,92.0,0.4166666666666667,0.09195402298850575,0.9654763271711256,0.004434414221799897,0.15065913370998119
aswiki,False,93.0,0.48344370860927155,0.0839080459770115,0.9665097408810809,0.0030882527616106427,0.14299706170421156
aswiki,False,94.0,0.5677966101694916,0.07701149425287357,0.9673135070999349,0.0020192421902838816,0.13562753036437247
aswiki,False,95.0,0.5925925925925926,0.05517241379310345,0.9672752325180848,0.0013065684760660411,0.10094637223974763
aswiki,False,96.0,0.5737704918032787,0.040229885057471264,0.9670455850269836,0.0010294175872035474,0.07518796992481203
aswiki,False,97.0,0.5142857142857142,0.020689655172413793,0.966739388372182,0.0006730807300946273,0.039779005524861875
aswiki,False,98.0,0.6666666666666666,0.013793103448275862,0.966930761281433,0.0002375579047392802,0.02702702702702703
aswiki,False,99.0,1.0,0.009195402298850575,0.9670073104451334,0.0,0.018223234624145785
