wiki_db,user_is_bot,threshold,precision,recall,accuracy,fpr,F1
azwiki,True,0.0,0.07920848369509925,1.0,0.07920848369509925,1.0,0.1467899574397294
azwiki,True,1.0,0.07921535768258196,1.0,0.07929525963961052,0.9999057594004997,0.14680176133275658
azwiki,True,2.0,0.07987831744901223,0.9998866684296022,0.08768858806561458,0.9907806696282045,0.1479382379654859
azwiki,True,3.0,0.0817806151485908,0.9988289071058895,0.11160882601123898,0.9647117700009424,0.15118290329497533
azwiki,True,4.0,0.08548414250378793,0.9974689282611159,0.15456591081826723,0.9179424352420846,0.15747270737474914
azwiki,True,5.0,0.0908081567350992,0.9949000793320992,0.2105872636851649,0.8568810261176447,0.16642600532719937
azwiki,True,6.0,0.09688503579741316,0.993804540818254,0.26574085710694983,0.7968887603461555,0.17655763945516592
azwiki,True,7.0,0.10309914270672084,0.9913112462695025,0.3162324877167154,0.7418392515346595,0.1867733359905763
azwiki,True,8.0,0.10897390566438017,0.9896490499036682,0.3582350371341197,0.6960805659635452,0.1963292714000929
azwiki,True,9.0,0.11400789238450303,0.9877224132069057,0.39103035961148314,0.6602983852360726,0.20442053743852764
azwiki,True,10.0,0.11813202991578824,0.985153564277889,0.4163031053819039,0.6326306450931519,0.21096657282464487
azwiki,True,11.0,0.12232082424607055,0.9831135960107287,0.4399211236587132,0.6068054711542523,0.21757105295059423
azwiki,True,12.0,0.12631291774655573,0.9794869857579993,0.4617407852923751,0.5827968660126153,0.2237689814834793
azwiki,True,13.0,0.13023269882239072,0.9759359298855351,0.48182492803581156,0.5606795722126718,0.2297999902152207
azwiki,True,14.0,0.1343600609565163,0.9725737599637339,0.501508106070127,0.5390139833551604,0.2361027682121027
azwiki,True,15.0,0.13853371801439857,0.9704582373163084,0.5196562475687774,0.5191227175089285,0.2424565609279586
azwiki,True,16.0,0.14262719652454817,0.967398284915568,0.536795992746728,0.500245350526285,0.24860205032618823
azwiki,True,17.0,0.1469924465733235,0.9645272184654905,0.5538429774322698,0.4814849718740556,0.2551069856669681
azwiki,True,18.0,0.1518421587256062,0.9599939556495788,0.5720898639712263,0.4612784874708748,0.2622105051359704
azwiki,True,19.0,0.15677336240214051,0.9562162366363189,0.5891518100265115,0.44242386821914514,0.2693811958898934
azwiki,True,20.0,0.16199695327715535,0.9520985229118658,0.6060910728499016,0.4236732385944502,0.2768830198628933
azwiki,True,21.0,0.16714960399139372,0.94794303199728,0.6217526346972118,0.4063069708796547,0.28418859077884867
azwiki,True,22.0,0.17265531103651208,0.944278644554418,0.6371778069025775,0.3892396733425841,0.29193261117112906
azwiki,True,23.0,0.17785225307627445,0.9402364852102301,0.6509961279975104,0.37388495497574115,0.2991232656102588
azwiki,True,24.0,0.18336096391249002,0.9359298855351139,0.66475460361347,0.3585724823948811,0.30664595542958284
azwiki,True,25.0,0.1887881222974783,0.931887726190926,0.6774328683339617,0.34445589052492015,0.31397006414825374
azwiki,True,26.0,0.1943362775825498,0.9275811265158097,0.689668276510051,0.33079750294908083,0.3213474764263606
azwiki,True,27.0,0.2002652845668247,0.923992293453213,0.7017121791534259,0.31740883846836276,0.32918360205647224
azwiki,True,28.0,0.20573855081290499,0.918816818405047,0.7126070486005135,0.30513156312657813,0.3361969465543338
azwiki,True,29.0,0.21169758237149522,0.9153035397227154,0.7233223816106812,0.29319225407265626,0.3438639814933083
azwiki,True,30.0,0.2175813852657441,0.9099769559140192,0.7336786417470093,0.28148692167956246,0.3511907799298727
azwiki,True,31.0,0.2235657727646224,0.9044992633447924,0.7436189758044729,0.27022029552552135,0.35851669948415404
azwiki,True,32.0,0.229801682228567,0.9000037777190133,0.7531523606049181,0.2594801168583434,0.36612034454407844
azwiki,True,33.0,0.2360891015099417,0.89486607986098,0.7623236802575749,0.24907790447902822,0.37361008154188285
azwiki,True,34.0,0.2426356908742347,0.889312832911488,0.7713573553085932,0.23878943075428227,0.3812523786773339
azwiki,True,35.0,0.2487185486100772,0.8835329228212006,0.7793826340389115,0.22957659973417652,0.3881664661217377
azwiki,True,36.0,0.2553957624327588,0.8788485512447585,0.7874498046045112,0.2204125138517433,0.39577751124947896
azwiki,True,37.0,0.26138033965762875,0.8732953042952665,0.7944936174796675,0.21228507456381226,0.4023391609304431
azwiki,True,38.0,0.26826706501569664,0.8683842695780288,0.8019593409815855,0.20375467547112175,0.40990388558997126
azwiki,True,39.0,0.27516754298364876,0.8639643383325148,0.8089612620214606,0.19577022192036345,0.41739670024821146
azwiki,True,40.0,0.28158549723243803,0.8590533036152771,0.8152330682178615,0.1885364434897619,0.42414294773753125
azwiki,True,41.0,0.2878855382578699,0.8543689320388349,0.8210680024177573,0.1817966157875752,0.4306579072645911
azwiki,True,42.0,0.2949225405646282,0.8500623323637188,0.8271512953553923,0.17481956174871557,0.4379141569928675
azwiki,True,43.0,0.3021076335980798,0.8463601677307242,0.8329652836376475,0.1681869733494084,0.4452747689555799
azwiki,True,44.0,0.3090158483874543,0.8426580030977295,0.8382885389923218,0.1620873317886541,0.45220211849374076
azwiki,True,45.0,0.3162075592568866,0.8391069472252654,0.8435280106764335,0.15609167985493447,0.4593242069564498
azwiki,True,46.0,0.3232895928924219,0.8357825544935967,0.8484203785825,0.15049248837428467,0.46623465570833994
azwiki,True,47.0,0.33021242172753695,0.8327226020928563,0.8529626504365728,0.14529625669839433,0.47289890050952005
azwiki,True,48.0,0.33748175462856267,0.8297759812625137,0.8574899609209022,0.14012602242926267,0.4798156319629517
azwiki,True,49.0,0.34407299614567766,0.8262249253900494,0.8614756698205234,0.13549198467452872,0.485827891065796
azwiki,True,50.0,0.35007889736901426,0.8213516678629443,0.8650693908328695,0.13116991580089887,0.4909175068019915
azwiki,True,51.0,0.35553216335794996,0.8165917419062371,0.8682262398487106,0.12733204862814934,0.4953821473587716
azwiki,True,52.0,0.3616037656552072,0.8125873597521817,0.8715237257401389,0.1234064402075893,0.5004886220857182
azwiki,True,53.0,0.3672188496758926,0.8089607494994522,0.8744531619358815,0.11991303867439224,0.505136521790411
azwiki,True,54.0,0.37278697136853167,0.8042008235427449,0.8773167681047536,0.11639363973443649,0.5094285440796401
azwiki,True,55.0,0.3788824318283415,0.8004608817196177,0.8802551811223421,0.11288074014617042,0.5143210835477451
azwiki,True,56.0,0.3846364282978607,0.7967209398964905,0.8829362585803455,0.10964731268056012,0.5188064254261887
azwiki,True,57.0,0.3899350046425255,0.7932454384042915,0.8853211009174312,0.10675835085450226,0.5228520561247992
azwiki,True,58.0,0.39539681638369956,0.7891655018699709,0.8877179123503115,0.10380439551154773,0.526833451023908
azwiki,True,59.0,0.40066806974184704,0.7839144724415398,0.8900040096470913,0.10086993822366219,0.5302956735069382
azwiki,True,60.0,0.4064757405767149,0.78013675342828,0.8923559369707416,0.09799072542513884,0.5344738340493814
azwiki,True,61.0,0.41209166064692193,0.7758301537531639,0.894573211966702,0.09521225257780537,0.5382730286867522
azwiki,True,62.0,0.41767150490306465,0.7707302330852631,0.8967246569357917,0.09243702940631672,0.5417562866778194
azwiki,True,63.0,0.42356893925165384,0.7667636281213404,0.8988731096309329,0.08976254618601795,0.5456916252184434
azwiki,True,64.0,0.429042623369438,0.7616637074534396,0.9008360413412568,0.08719205259275387,0.5488946967222041
azwiki,True,65.0,0.43455133632949045,0.7561104605039477,0.9027510966684021,0.08463455770286914,0.5519095546670344
azwiki,True,66.0,0.43896350622956615,0.7506705451248536,0.9042562104645805,0.08253201743126123,0.5539804011764871
azwiki,True,67.0,0.4439817211804696,0.7450795209852291,0.9058989688623973,0.0802669933674116,0.556408158659407
azwiki,True,68.0,0.45011824673386447,0.7405840353594499,0.9077900859979533,0.07782648680794091,0.5599223123500514
azwiki,True,69.0,0.45603247987608836,0.7340863586566431,0.9095794658192546,0.07532423640741837,0.5625778060855215
azwiki,True,70.0,0.4613136587936569,0.7275131275735711,0.9111264714507142,0.07307871039863774,0.5646099945761321
azwiki,True,71.0,0.4677624810151389,0.7213554455819576,0.9129158512720157,0.0706057070807187,0.5675181668227007
azwiki,True,72.0,0.4738211382113821,0.7155377583015375,0.9145286869303458,0.0683536817202484,0.570117087559823
azwiki,True,73.0,0.48026130395798644,0.7082089834158135,0.9161804221500087,0.06592942354000189,0.5723750496137758
azwiki,True,74.0,0.48613184568240747,0.7011824260511503,0.917622698193265,0.06375864007565245,0.574181773185671
azwiki,True,75.0,0.492530897367007,0.6925314495107854,0.9191278119894433,0.06137987735723362,0.5756543310671838
azwiki,True,76.0,0.4988541292763067,0.682520494125647,0.9205431575671615,0.058981616583745775,0.5764101582440021
azwiki,True,77.0,0.505885363357216,0.6721695440293151,0.9220303177196478,0.05647611650737839,0.5772918255114124
azwiki,True,78.0,0.5136276954672143,0.6613652676513921,0.9235713388032101,0.053873126155665974,0.578208600303851
azwiki,True,79.0,0.5205849337095355,0.648218805485248,0.9248520320532385,0.05135137770007442,0.5774330327096514
azwiki,True,80.0,0.5277288732394366,0.634127913565789,0.926069887550345,0.04881663054110352,0.5760565555345837
azwiki,True,81.0,0.5352246327018095,0.6179214989989045,0.9272338821163755,0.04615839570002892,0.5736077991303129
azwiki,True,82.0,0.5420896134522711,0.5991840126931359,0.9281614870404615,0.04353915696909233,0.569208684729948
azwiki,True,83.0,0.5500701161410952,0.5779154546484833,0.9291249992519315,0.04066319384641382,0.5636490917799638
azwiki,True,84.0,0.5577900887910754,0.5553246949491897,0.929905982752533,0.037871722295701,0.5565546616185518
azwiki,True,85.0,0.5653528650048559,0.5277851233425258,0.9304565611590873,0.03490476824936713,0.5459234511458882
azwiki,True,86.0,0.5751656784094873,0.498356692229232,0.9311088768798961,0.03166484143206715,0.5340133989110855
azwiki,True,87.0,0.5798347107438017,0.4638283404480375,0.9309083945253356,0.02891236599149235,0.5153842924904504
azwiki,True,88.0,0.5888957560774619,0.43194439197612483,0.9311208459756908,0.0259389125934688,0.4983546538235231
azwiki,True,89.0,0.6017157563625966,0.3974538173850629,0.9314350347403005,0.022630742583427302,0.47870597870597875
azwiki,True,90.0,0.6136290787871017,0.3616032639492275,0.9313991274529165,0.019585796316817398,0.4550511053006893
azwiki,True,91.0,0.6214472157772621,0.32378829662649694,0.930815634032927,0.01696655758588081,0.42575068921838916
azwiki,True,92.0,0.6339180300219261,0.2839711382267387,0.9302949783658594,0.014106842842426469,0.39223564402932504
azwiki,True,93.0,0.64453125,0.23686298213138907,0.9292057906485455,0.011237379071437624,0.3464184093483245
azwiki,True,94.0,0.6610554442217769,0.1869215367760946,0.928005888795131,0.00824442761834507,0.2914359759689009
azwiki,True,95.0,0.6917025660235999,0.13951116315968418,0.9269167010778171,0.005348966440597551,0.23219113486325055
azwiki,True,96.0,0.7380248373743347,0.09429186657096446,0.9256090773622506,0.002879212798523347,0.16721937493719224
azwiki,True,97.0,0.7966101694915254,0.05149031015073099,0.9238286743627953,0.0011308871940023983,0.09672840820381803
azwiki,True,98.0,0.8675034867503487,0.023497412262475918,0.922368444675847,0.0003087192052592754,0.0457554803589819
azwiki,True,99.0,0.9575471698113207,0.007668769596917382,0.9213720174509417,2.92470826035103e-05,0.015215680395757597
azwiki,False,0.0,0.0686338139685301,1.0,0.0686338139685301,1.0,0.12845151083821363
azwiki,False,1.0,0.06864345909676958,1.0,0.06877432449009178,0.9998491350409011,0.12846840265094192
azwiki,False,2.0,0.06930191280216959,0.9998050238845742,0.07844055624323933,0.9894562156363149,0.12961921433070236
azwiki,False,3.0,0.0710248354590156,0.9983751990381178,0.10364546742051677,0.9622885495890726,0.13261535805240213
azwiki,False,4.0,0.07373654085162544,0.9967503980762357,0.1404146175548939,0.9226900898484646,0.1373149428992242
azwiki,False,5.0,0.07712061490446406,0.9924934195561044,0.18432973135726474,0.875225100097703,0.14312022905234745
azwiki,False,6.0,0.08081196264060131,0.9908361225749845,0.2258561662930871,0.8305163892028583,0.14943601882959512
azwiki,False,7.0,0.08443811158607549,0.987878984824359,0.2639925061055167,0.789351807505891,0.1555783009211873
azwiki,False,8.0,0.08777382295916891,0.9856692555161992,0.2959330010147982,0.7548947297840954,0.16119337944375212
azwiki,False,9.0,0.09098864483845358,0.983232054073376,0.3246685178370301,0.7238620471656545,0.16656344874473245
azwiki,False,10.0,0.0939079260793075,0.980047444188087,0.34961471122857496,0.6968428513956206,0.17139301220704234
azwiki,False,11.0,0.09680369413871052,0.9768953303220356,0.3728435538010326,0.6716699553631296,0.17615192825479975
azwiki,False,12.0,0.09972345372603571,0.9714359990901115,0.3961303848427063,0.6462647751872641,0.1808786780499906
azwiki,False,13.0,0.102592761242428,0.9664316121275144,0.4174902144458198,0.6229621257112206,0.18549415730827645
azwiki,False,14.0,0.10564991309747715,0.9619796574919572,0.438479809976247,0.6000977030211306,0.1903901315874098
azwiki,False,15.0,0.1088177897792878,0.9585675754720047,0.45835647296287624,0.5785048564148738,0.1954480702335597
azwiki,False,16.0,0.11202542269425624,0.9542456049133982,0.47772239135525746,0.557393340868599,0.20051143560452164
azwiki,False,17.0,0.11549922539441651,0.949696162220128,0.4973849430709355,0.5359465698576601,0.20595126935748134
azwiki,False,18.0,0.1192475577656687,0.943684398661164,0.5177589686973783,0.5136281346385946,0.2117389719285454
azwiki,False,19.0,0.12313367592809775,0.9382575634484775,0.5371806452332363,0.4923753328607828,0.21769748697494518
azwiki,False,20.0,0.12748681913679227,0.9327007441588405,0.5572669588393385,0.47039933715205273,0.2243132351217225
azwiki,False,21.0,0.13184884043241246,0.9274363890423423,0.5758968697378252,0.45000862085480564,0.23087532813176234
azwiki,False,22.0,0.1364287430906032,0.92236701004127,0.593958047572848,0.430242916530968,0.237699049086562
azwiki,False,23.0,0.1408367766532926,0.9171026549247717,0.6103241778461744,0.4122828023525355,0.2441761369781235
azwiki,False,24.0,0.14547700099634672,0.9109934033080948,0.6266233983473286,0.3943322669016648,0.25088935326677914
azwiki,False,25.0,0.1502503813666672,0.9057940402300718,0.6419390451975511,0.37750483725741873,0.25774654399186275
azwiki,False,26.0,0.15497105490051172,0.899489812497969,0.6564696173876194,0.36143891645433823,0.264390817003921
azwiki,False,27.0,0.16012353433835846,0.8946479056315602,0.6706990956029129,0.34580403839154006,0.2716307613376811
azwiki,False,28.0,0.16501994773151138,0.8884736619764079,0.6837977986684955,0.3312850820896952,0.2783422242130553
azwiki,False,29.0,0.17022970135689888,0.8826243785136321,0.6966623175314755,0.31704151420525295,0.2854125509646505
azwiki,False,30.0,0.1751321236104241,0.8744028856465083,0.7087172281511714,0.3034924040690435,0.2918169149264981
azwiki,False,31.0,0.18049433462235323,0.8675787216066032,0.7205557971741773,0.29027854939749803,0.2988208563481804
azwiki,False,32.0,0.1862127563954019,0.8617294381438274,0.7320397444046703,0.2775172896032491,0.3062478346229357
azwiki,False,33.0,0.19199428058682347,0.8552302342962987,0.7430352502983061,0.26523257150520124,0.3135895144474233
azwiki,False,34.0,0.19774032705393813,0.8479836220063043,0.7534397198710872,0.25352736642464413,0.3206975586675597
azwiki,False,35.0,0.20352004030099807,0.8402170734085075,0.7633512874555329,0.24231307113163086,0.3276706565198933
azwiki,False,36.0,0.2099165439371625,0.8337178695609788,0.7732182485251972,0.2312400620701546,0.3353878935637578
azwiki,False,37.0,0.21574230309402478,0.8268287134825983,0.7818250755522844,0.22149131209410142,0.3421962208324928
azwiki,False,38.0,0.22221048833504942,0.8205244857504955,0.7905634917979771,0.21164438016053946,0.3497133043406
azwiki,False,39.0,0.2290317571949181,0.8148701784031456,0.7990298083035027,0.20213749305542253,0.3575645230286611
azwiki,False,40.0,0.2354110464290785,0.8081759984401911,0.8066798255885272,0.19343042970171842,0.36461464029673496
azwiki,False,41.0,0.2416049527839818,0.8014818184772365,0.8137031213408719,0.18539627195923294,0.37128642073808676
azwiki,False,42.0,0.24853501244096887,0.795242582783609,0.8209182251067768,0.17718969712063448,0.3787121434872096
azwiki,False,43.0,0.25549998949381186,0.7902706918402496,0.8275579048320008,0.16969434280350199,0.38615378508197373
azwiki,False,44.0,0.26266224949763756,0.7858187372046924,0.8338987209081886,0.16255819076993813,0.3937218124684544
azwiki,False,45.0,0.27007299270072993,0.7815292626653235,0.8400343470163817,0.15565432287974865,0.4014254358512139
azwiki,False,46.0,0.27726402506236586,0.7765248757027264,0.8457372899311945,0.14916234027471792,0.4086253184903983
azwiki,False,47.0,0.28469784991315805,0.7723653852403081,0.8511882060374918,0.14300321845246078,0.4160408899158046
azwiki,False,48.0,0.2921623426409121,0.7677509505085627,0.8563960166382301,0.13707159140979713,0.4232571054918084
azwiki,False,49.0,0.29954880318131993,0.763721444123095,0.8612135202346303,0.1316021379719918,0.43031740073788577
azwiki,False,50.0,0.3058852848205034,0.7578396646410814,0.8653507744806129,0.12672656564301998,0.4358495150167268
azwiki,False,51.0,0.31214145913477764,0.7514704448705034,0.8692850690843398,0.12203298913772294,0.44107268877911077
azwiki,False,52.0,0.3186488212589898,0.7458161375231535,0.8731011564238957,0.11751901377421023,0.4465218533254214
azwiki,False,53.0,0.3252319929297393,0.7414291749260715,0.8766763685836316,0.1133570566485948,0.45213324614073674
azwiki,False,54.0,0.3309768449401364,0.7348324830208299,0.8798545827618124,0.10945851453092971,0.4563903325092083
azwiki,False,55.0,0.3380991797727444,0.7300230721736587,0.8833807277552886,0.1053181095423284,0.4621572136847086
azwiki,False,56.0,0.344544556899531,0.7257011016150522,0.8864206617376468,0.10173566543420372,0.46725041584282717
azwiki,False,57.0,0.35030961708580816,0.7206317226139798,0.8890970526245359,0.09848847679074312,0.4714436047067827
azwiki,False,58.0,0.35635551383111314,0.7154323595359569,0.891780134488642,0.09522452537404931,0.47574389005337425
azwiki,False,59.0,0.3620738329707558,0.7085107074383388,0.8943182451797085,0.091989310140041,0.4792394768655897
azwiki,False,60.0,0.36796352687001344,0.7028888961102265,0.8967448395838212,0.08896961627617388,0.4830497119120996
azwiki,False,61.0,0.3741327010913148,0.6973970688590647,0.8991602823592386,0.08597147454932087,0.48700289328870483
azwiki,False,62.0,0.38021820783401894,0.6908003769538231,0.9014932030823102,0.08298051686813923,0.490476794757911
azwiki,False,63.0,0.385950776443012,0.684886101452572,0.9035852486255618,0.08029847315082664,0.4936929761890818
azwiki,False,64.0,0.3917909046528221,0.678061937412667,0.9056594515629007,0.0775685357957049,0.49662624507622183
azwiki,False,65.0,0.3979206777050443,0.6716277256036136,0.9077158118943272,0.0748864920783923,0.49975215504213366
azwiki,False,66.0,0.4027622026795727,0.6652585058330355,0.9093194161007215,0.07269535814862353,0.5017524080292151
azwiki,False,67.0,0.40868881858665645,0.6590842621778832,0.9111527438582405,0.07027194007548038,0.5045273631840796
azwiki,False,68.0,0.41495489171948224,0.6531699866766321,0.9129905322672376,0.06786289009367996,0.5074988638085138
azwiki,False,69.0,0.4212243168820165,0.6462158385597764,0.914777023184236,0.06543228797486542,0.5100085916161214
azwiki,False,70.0,0.42752899274638406,0.6397166347122477,0.9164809920488888,0.06312381463246422,0.5125294523490282
azwiki,False,71.0,0.43419439677268373,0.6330549507685308,0.9181961125422368,0.06079139447115845,0.5150978318350079
azwiki,False,72.0,0.4416018306636156,0.6271081792480421,0.9199826034592352,0.0584350274909481,0.5182549380312329
azwiki,False,73.0,0.4488355681016232,0.6200240470542359,0.9216642690664971,0.056107396693423246,0.5207210403504224
azwiki,False,74.0,0.455511801512333,0.6127124427257661,0.9231518963344596,0.053971340447135,0.5225452429121747
azwiki,False,75.0,0.4627363184079602,0.6044909498586423,0.9246841301172036,0.05172033947010479,0.5241993434122835
azwiki,False,76.0,0.47059730646653647,0.5950021122412504,0.9262632007404682,0.04932565757964712,0.5255378080107921
azwiki,False,77.0,0.4778336927869638,0.5831735612387483,0.9276526936759114,0.0469621065537654,0.5252744036294453
azwiki,False,78.0,0.48571349771085004,0.5722873947941377,0.9290555685657891,0.0446536332113642,0.5254583700079068
azwiki,False,79.0,0.494070351758794,0.5591265070028921,0.9304450615012323,0.042191900227973714,0.5245891643037898
azwiki,False,80.0,0.5027817659727207,0.5462255873655477,0.9317810266189377,0.03980679706507788,0.5236040806790748
azwiki,False,81.0,0.5111736208782622,0.5314723946316576,0.9329608689349079,0.037452824766757986,0.5211254142238083
azwiki,False,82.0,0.5191904637149594,0.5151918889935982,0.9339801277976648,0.03515871951569954,0.5171834477809131
azwiki,False,83.0,0.5296337326040297,0.4971565983167062,0.9351845036967649,0.032536542845648386,0.5128815434385424
azwiki,False,84.0,0.5388477607564318,0.47778897085107075,0.9360944765983071,0.03013228222762888,0.506484782721025
azwiki,False,85.0,0.5485301620942737,0.454164364865304,0.9368817815842003,0.027546025785934597,0.49690677664794136
azwiki,False,86.0,0.5607555800262589,0.43024729470639844,0.9377649905768738,0.02483524588593651,0.4869079140923801
azwiki,False,87.0,0.5675750322224268,0.400675917200143,0.9379144224013918,0.022495641678959368,0.4697411280644609
azwiki,False,88.0,0.5790619935170178,0.37152698794397687,0.9383292629888595,0.019902201191593707,0.45263970544569154
azwiki,False,89.0,0.594007914075749,0.3414681701491567,0.9387842494396307,0.017198605337266998,0.43365041371768154
azwiki,False,90.0,0.605919796308084,0.3093296071231274,0.9387887100911088,0.014825475583823446,0.40956908977475637
azwiki,False,91.0,0.6168643332369106,0.2771910440970981,0.9385745988201577,0.012687024655644745,0.38250263447007915
azwiki,False,92.0,0.6349716606040098,0.24391512039775126,0.9384831554648556,0.010333052357324853,0.352444006198056
azwiki,False,93.0,0.6494400493167575,0.20540733760114385,0.9378542036064367,0.008170654610241575,0.31210191082802546
azwiki,False,94.0,0.6693142705851205,0.16429987326552498,0.9370713592720217,0.0059819153623632635,0.263834894460824
azwiki,False,95.0,0.6944393466691136,0.12296493679524258,0.9360922462725682,0.0039871453476120235,0.20893379713985974
azwiki,False,96.0,0.7364185110663984,0.08325480128684236,0.935035071872247,0.002195923293549685,0.1495971038187551
azwiki,False,97.0,0.7892156862745098,0.04708673187534527,0.9337347919663667,0.0009267418916071189,0.08887117053574167
azwiki,False,98.0,0.8406374501992032,0.020569980177428265,0.932510343135615,0.0002873618268549206,0.04015733045740024
azwiki,False,99.0,0.905940594059406,0.00594677152048874,0.9317319594526781,4.549895591869576e-05,0.011815980629539952
