wiki_db,user_is_bot,threshold,precision,recall,accuracy,fpr,F1
banwiki,True,0.0,0.00806721665804134,1.0,0.00806721665804134,1.0,0.016005314972519176
banwiki,True,1.0,0.00806746225036532,1.0,0.008097658985052818,0.9999693100908421,0.01600579832694108
banwiki,True,2.0,0.008081239326665041,1.0,0.009802429297695515,0.9982506751780015,0.016032912847505826
banwiki,True,3.0,0.00818077979810453,1.0,0.021948917775274742,0.9860054014240118,0.016228795394696554
banwiki,True,4.0,0.008293430976747097,1.0,0.035343541660324516,0.9725018413945494,0.016450431435843318
banwiki,True,5.0,0.008414301136724455,1.0,0.049316569758592346,0.9584151730910877,0.016688182877294625
banwiki,True,6.0,0.008627144577921022,1.0,0.07297025784650979,0.9345691136754235,0.017106707120263378
banwiki,True,7.0,0.008989450117032463,1.0,0.11065785868671801,0.8965750061379818,0.017818719741796663
banwiki,True,8.0,0.009315010271304101,0.9924528301886792,0.14843678650796066,0.8584274490547508,0.018456787957472194
banwiki,True,9.0,0.009756278517639203,0.9924528301886792,0.1873116381016165,0.8192364350601522,0.019322606715156856
banwiki,True,10.0,0.010346998190258873,0.9924528301886792,0.2341623793722792,0.772004664866192,0.0204804734649379
banwiki,True,11.0,0.010843881856540085,0.969811320754717,0.28609698925385857,0.7194635403879205,0.021447944919674528
banwiki,True,12.0,0.011456701722980533,0.9660377358490566,0.32728545770038664,0.677909403388166,0.022644847412649268
banwiki,True,13.0,0.012071669597452593,0.9584905660377359,0.3668604828153064,0.6379511416646206,0.02384304890641134
banwiki,True,14.0,0.012995049504950494,0.9509433962264151,0.4169381107491857,0.5874048612816106,0.025639721218904208
banwiki,True,15.0,0.013829491807831157,0.939622641509434,0.45897896435203506,0.54493002700712,0.027257799671592774
banwiki,True,16.0,0.014974741400048112,0.939622641509434,0.5008980486468385,0.5026700220967346,0.02947966613390162
banwiki,True,17.0,0.016155193667683126,0.939622641509434,0.5378854759657828,0.4653817824699239,0.03176425564485266
banwiki,True,18.0,0.016935150764147047,0.9283018867924528,0.5647051660628939,0.43825190277436776,0.03326347102968021
banwiki,True,19.0,0.018632595634649023,0.9245283018867925,0.6065633657036744,0.3960225877731402,0.03652899955270613
banwiki,True,20.0,0.02042858334028183,0.9245283018867925,0.6417546957289415,0.3605450527866437,0.03997389459944526
banwiki,True,21.0,0.021784514840700736,0.9056603773584906,0.6711619836220281,0.33074515099435303,0.04254564793476334
banwiki,True,22.0,0.023455434674119174,0.8867924528301887,0.7012390027093671,0.30027007120058924,0.045702061454686894
banwiki,True,23.0,0.025282118055555556,0.879245283018868,0.7255624219915371,0.2756874539651363,0.04915093344583904
banwiki,True,24.0,0.027711703139866792,0.879245283018868,0.7501598222168102,0.2508900073655782,0.053729966562896345
banwiki,True,25.0,0.029839128178515827,0.8679245283018868,0.7712867971627752,0.22949914068254357,0.05769471967891634
banwiki,True,26.0,0.03176372248537197,0.8603773584905661,0.7872994611708118,0.2132948686471888,0.061265618702136246
banwiki,True,27.0,0.03402477242202656,0.8603773584905661,0.8018204511552863,0.19865578197888534,0.06546080964685615
banwiki,True,28.0,0.03612923762533821,0.8566037735849057,0.8144844591920607,0.185858089860054,0.06933414783139889
banwiki,True,29.0,0.039256557234670836,0.8528301886792453,0.8304362385460745,0.16974588755217285,0.0750581202258386
banwiki,True,30.0,0.041403639064240626,0.8415094339622642,0.8415476879052635,0.1584520009820771,0.07892408423287915
banwiki,True,31.0,0.043444073127580106,0.8339622641509434,0.8505281743736491,0.14933709796219002,0.08258594917787743
banwiki,True,32.0,0.04558640696228761,0.8301886792452831,0.8584127370696216,0.14135772158114412,0.08642702808878412
banwiki,True,33.0,0.04738100412953706,0.8226415094339623,0.8651404913391579,0.13451387183893937,0.08960131524866422
banwiki,True,34.0,0.04934359438660027,0.8226415094339623,0.8707114371822582,0.12889761846304934,0.09310271193679266
banwiki,True,35.0,0.05040037682524729,0.8075471698113208,0.8757039788121403,0.12374171372452737,0.09487918421636
banwiki,True,36.0,0.05074408392290802,0.7849056603773585,0.8798136929586897,0.11941443653326786,0.09532538955087075
banwiki,True,37.0,0.051715438950555,0.7735849056603774,0.8837407531431702,0.11536336852442917,0.09694963348309293
banwiki,True,38.0,0.053315994798439535,0.7735849056603774,0.887363390057536,0.11171126933464277,0.09975669099756691
banwiki,True,39.0,0.05472103004291846,0.769811320754717,0.8908642576638558,0.10815123987232998,0.10217881292261458
banwiki,True,40.0,0.0562047857540345,0.7622641509433963,0.8948217601753478,0.10410017186349128,0.10469033428349313
banwiki,True,41.0,0.058096059821685364,0.7622641509433963,0.8983835124356906,0.10050945249202062,0.10796365579903795
banwiki,True,42.0,0.06062424969987995,0.7622641509433963,0.9027976498523547,0.09605941566412964,0.1123158187378371
banwiki,True,43.0,0.06285355122564425,0.7547169811320755,0.9072422295960303,0.09151730910876504,0.11604293588627791
banwiki,True,44.0,0.06574621959237344,0.7547169811320755,0.9115041553776371,0.08722072182666339,0.12095554883580283
banwiki,True,45.0,0.06812735364601163,0.7509433962264151,0.9151267922920028,0.08353793272771913,0.12492153170119272
banwiki,True,46.0,0.07147988505747127,0.7509433962264151,0.9192973910925751,0.07933341517309109,0.1305346015086914
banwiki,True,47.0,0.07432688661357603,0.7396226415094339,0.9235897592011933,0.07491406825435797,0.13507925568573398
banwiki,True,48.0,0.07818109293976865,0.7396226415094339,0.9275472617126853,0.07092438006383502,0.1414141414141414
banwiki,True,49.0,0.08322717622080679,0.7396226415094339,0.9321744954184298,0.06625951387183894,0.14961832061068703
banwiki,True,50.0,0.08601676224084694,0.7358490566037735,0.9347925355414168,0.06358949177510434,0.15402843601895735
banwiki,True,51.0,0.0874942739349519,0.720754716981132,0.9371061523942891,0.06113429904247483,0.15604575163398693
banwiki,True,52.0,0.08966493629070316,0.7169811320754716,0.9389935766690006,0.05920083476552909,0.1593959731543624
banwiki,True,53.0,0.09161041465766634,0.7169811320754716,0.9403634813845171,0.057819788853424994,0.16246259085079096
banwiki,True,54.0,0.09471585244267199,0.7169811320754716,0.9424335596212975,0.05573287503068991,0.1673271686481726
banwiki,True,55.0,0.09770114942528736,0.7056603773584905,0.9450515997442844,0.053001473115639575,0.1716383662230381
banwiki,True,56.0,0.09821910415542363,0.6867924528301886,0.9466041584218697,0.05128283820279892,0.1718602455146364
banwiki,True,57.0,0.10270880361173815,0.6867924528301886,0.9490699869097994,0.04879695556101154,0.17869415807560138
banwiki,True,58.0,0.10562971561230412,0.6867924528301886,0.9505616609333617,0.047293150012275964,0.18309859154929578
banwiki,True,59.0,0.10982306284319707,0.6792452830188679,0.9529970470942799,0.044776577461330715,0.18907563025210083
banwiki,True,60.0,0.11208515967438948,0.6754716981132075,0.954214740174739,0.043518291185858086,0.19226638023630505
banwiki,True,61.0,0.11555842479018721,0.6754716981132075,0.9556759718712898,0.042045175546280386,0.19735391400220506
banwiki,True,62.0,0.12053872053872054,0.6754716981132075,0.9576242808000244,0.04008102136017677,0.2045714285714286
banwiki,True,63.0,0.12385643912737508,0.6641509433962264,0.95938993576669,0.038208936901546774,0.20877817319098455
banwiki,True,64.0,0.12718023255813954,0.660377358490566,0.9606989558281835,0.03685858089860054,0.21328458257160265
banwiki,True,65.0,0.12762762762762764,0.6415094339622641,0.9617339949465737,0.03566167444144366,0.21289918597370067
banwiki,True,66.0,0.13066871637202152,0.6415094339622641,0.9626777070839295,0.03471028725754972,0.21711366538952745
banwiki,True,67.0,0.1328,0.6264150943396226,0.963986727145423,0.03326786152712988,0.21914191419141912
banwiki,True,68.0,0.13761467889908258,0.6226415094339622,0.9654784011689853,0.031733366069236435,0.2254098360655738
banwiki,True,69.0,0.14125753660637383,0.6188679245283019,0.9665743249413985,0.030597839430395287,0.23001402524544182
banwiki,True,70.0,0.15213358070500926,0.6188679245283019,0.9691010380833511,0.028050576970292167,0.24422933730454202
banwiki,True,71.0,0.15473887814313347,0.6037735849056604,0.9701969618557642,0.026822980603977413,0.24634334103156275
banwiki,True,72.0,0.159,0.6,0.9711711163201315,0.02581021360176774,0.25138339920948616
banwiki,True,73.0,0.16807610993657504,0.6,0.9728150019787513,0.02415295850724282,0.2625928984310487
banwiki,True,74.0,0.17203107658157601,0.5849056603773585,0.9739413680781759,0.022894672231770195,0.26586620926243565
banwiki,True,75.0,0.1791907514450867,0.5849056603773585,0.9750372918505891,0.021789835502086914,0.2743362831858407
banwiki,True,76.0,0.18171021377672208,0.5773584905660377,0.9756156960638072,0.021145347409771666,0.2764227642276423
banwiki,True,77.0,0.18922305764411027,0.569811320754717,0.9768333891442662,0.019856371225141174,0.28410159924741296
banwiki,True,78.0,0.1935483870967742,0.5433962264150943,0.9780510822247253,0.018413945494721334,0.28543111992071357
banwiki,True,79.0,0.19593613933236576,0.5094339622641509,0.9791774483241499,0.017002209673459365,0.2830188679245283
banwiki,True,80.0,0.20733652312599682,0.49056603773584906,0.9807604493287467,0.015252884851460839,0.2914798206278027
banwiki,True,81.0,0.21283783783783783,0.47547169811320755,0.9815823921580565,0.014301497667566904,0.29404900816802804
banwiki,True,82.0,0.22304832713754646,0.4528301886792453,0.9828609698925386,0.012828382027989197,0.29887920298879206
banwiki,True,83.0,0.22132796780684105,0.41509433962264153,0.9835002587597796,0.01187699484409526,0.2887139107611549
banwiki,True,84.0,0.21476510067114093,0.3622641509433962,0.984169989954032,0.010772158114411982,0.2696629213483146
banwiki,True,85.0,0.2205128205128205,0.32452830188679244,0.9852963560534568,0.009329732383992144,0.2625954198473282
banwiki,True,86.0,0.22941176470588234,0.2943396226415094,0.986331395171847,0.00804075619936165,0.2578512396694215
banwiki,True,87.0,0.2206405693950178,0.2339622641509434,0.9871533380011568,0.006721090105573288,0.22710622710622713
banwiki,True,88.0,0.22540983606557377,0.20754716981132076,0.9878535115224207,0.005800392830837221,0.2161100196463654
banwiki,True,89.0,0.26666666666666666,0.19622641509433963,0.9891625315839143,0.004388657009575252,0.22608695652173913
banwiki,True,90.0,0.26582278481012656,0.15849056603773584,0.9896800511431094,0.0035600294623127915,0.19858156028368792
banwiki,True,91.0,0.2773109243697479,0.12452830188679245,0.9903193400103504,0.002639332187576725,0.171875
banwiki,True,92.0,0.26506024096385544,0.0830188679245283,0.9907455325885111,0.0018720844586300025,0.12643678160919541
banwiki,True,93.0,0.36666666666666664,0.0830188679245283,0.991445706109775,0.001166216547999018,0.13538461538461538
banwiki,True,94.0,0.3137254901960784,0.06037735849056604,0.9913543791287406,0.0010741468205254113,0.10126582278481013
banwiki,True,95.0,0.3409090909090909,0.05660377358490566,0.991506590763798,0.0008900073655781979,0.09708737864077671
banwiki,True,96.0,0.45454545454545453,0.05660377358490566,0.9918414563609242,0.00055241836484164,0.10067114093959731
banwiki,True,97.0,0.391304347826087,0.033962264150943396,0.9917805717069013,0.0004296587282101645,0.0625
banwiki,True,98.0,0.1,0.0037735849056603774,0.9916892447258668,0.00027620918242082,0.007272727272727273
banwiki,True,99.0,0.0,0.0,0.9917805717069013,0.00015344954578934447,0.007272727272727273
banwiki,False,0.0,0.015806202679877177,1.0,0.015806202679877177,1.0,0.031120508298093884
banwiki,False,1.0,0.01580927398243654,1.0,0.016000474887618923,0.9998026077706741,0.031126461211477156
banwiki,False,2.0,0.015848194961475198,1.0,0.01845585973546601,0.997307789316694,0.03120189618897973
banwiki,False,3.0,0.016128676996949372,1.0,0.03580005072663202,0.9796850497318755,0.0317453436008042
banwiki,False,4.0,0.016420922800919436,1.0,0.053241377821668906,0.9619636140323943,0.03231126481668404
banwiki,False,5.0,0.01679549520620212,1.0,0.074708456777132,0.9401517726918817,0.03303613221220272
banwiki,False,6.0,0.017330130404941663,1.0,0.10374135893409316,0.9106526006426213,0.03406982627761849
banwiki,False,7.0,0.01817144062486429,1.0,0.145968581866848,0.8677472063516433,0.035694265032050504
banwiki,False,8.0,0.01911783982173286,0.9959030385797201,0.19228631406260963,0.8206198116000833,0.03751551357156177
banwiki,False,9.0,0.020312663208105566,0.9959030385797201,0.24071945474267026,0.7714088322056388,0.03981328565384142
banwiki,False,10.0,0.021848714318884868,0.9959030385797201,0.29520201611380037,0.7160512781146848,0.0427593485685806
banwiki,False,11.0,0.023047282068681386,0.9740525776715603,0.34696476657654596,0.663106295715492,0.045029119777774275
banwiki,False,12.0,0.02437054223597147,0.9682485489928303,0.38681755141467944,0.6225202601190933,0.047544405233908085
banwiki,False,13.0,0.02572004266919521,0.9631273472174804,0.4227525133966877,0.5859259340490629,0.050102122369238965
banwiki,False,14.0,0.02707378339018502,0.9457152611812906,0.46196312065923034,0.5458059634385727,0.0526405807567321
banwiki,False,15.0,0.028577948819020156,0.9405940594059405,0.4936942479237158,0.5134829858864556,0.05547054322876817
banwiki,False,16.0,0.03019475893512785,0.9405940594059405,0.5215507239337963,0.48517913344811325,0.05851120314325157
banwiki,False,17.0,0.03152535735265322,0.9344486172755206,0.5452195545769992,0.4610314840605775,0.06099300262958506
banwiki,False,18.0,0.03255433737257165,0.9245476271765107,0.5645226569962278,0.44125936242309927,0.0628941042583582
banwiki,False,19.0,0.03434593449776088,0.9190850119494708,0.5902799138726545,0.41500071280527256,0.06621734638657943
banwiki,False,20.0,0.03642514038292403,0.9190850119494708,0.6144236321347818,0.3904692451940475,0.07007314470156442
banwiki,False,21.0,0.03856788985540642,0.9143052236258109,0.6383892675398123,0.3660419568149667,0.07401368064672148
banwiki,False,22.0,0.03987445499242401,0.8805052919085012,0.6629970805204337,0.3404961124697058,0.0762938748946115
banwiki,False,23.0,0.0419621652608304,0.8747012632297713,0.6823649403422428,0.3207239908322276,0.08008252063015754
banwiki,False,24.0,0.04428673311416097,0.8692386480027313,0.7014359954022245,0.3012589237737008,0.0842795193485385
banwiki,False,25.0,0.04652873563218391,0.8637760327756914,0.718067854965004,0.28427222581671036,0.08830099120480246
banwiki,False,26.0,0.0484156965538509,0.8576305906452715,0.7313161402429482,0.27071247628551687,0.09165708864685385
banwiki,False,27.0,0.05073517531103571,0.8576305906452715,0.7441165201530433,0.25770652161993224,0.09580290230926185
banwiki,False,28.0,0.052634907251264754,0.8525093888699214,0.7551360714921724,0.24642774896094924,0.09914828565188906
banwiki,False,29.0,0.05523016279535888,0.8467053601911916,0.7686433863804389,0.23261029290813584,0.10369627027931091
banwiki,False,30.0,0.05700242266120015,0.8354387162854217,0.7789452098409666,0.2219620787594995,0.10672307390365703
banwiki,False,31.0,0.058763363612010816,0.8238306589279618,0.7886426308774088,0.21192249065128468,0.10970176395708311
banwiki,False,32.0,0.06086846114779076,0.8183680437009219,0.797552170182454,0.20278213380999902,0.1133092249875913
banwiki,False,33.0,0.06256285396707775,0.8071013997951519,0.8057979461110482,0.1942229874217285,0.11612427852142945
banwiki,False,34.0,0.06467675303001286,0.8071013997951519,0.8124625621266331,0.1874513373323537,0.11975683890577507
banwiki,False,35.0,0.06618607027303174,0.796176169341072,0.8192243142460889,0.1804055313689151,0.12221261431229202
banwiki,False,36.0,0.06820656171840518,0.791396381017412,0.8258133799586632,0.1736338812795403,0.1255892073468061
banwiki,False,37.0,0.06984563655815375,0.7801297371116422,0.8323107060175816,0.16685126495520294,0.1282123218493996
banwiki,False,38.0,0.07218905001105741,0.7801297371116422,0.8380417361459632,0.1610281941900887,0.1321496732404141
banwiki,False,39.0,0.07402571969449703,0.7743257084329123,0.8433356538069258,0.15555604294377612,0.13513271963535617
banwiki,False,40.0,0.07570839250693176,0.7644247183339024,0.8487644827232647,0.14988101635065632,0.13777189797864814
banwiki,False,41.0,0.07875206640638739,0.7644247183339024,0.8549326253190651,0.14361381306955884,0.14279336734693876
banwiki,False,42.0,0.0830366414478564,0.7644247183339024,0.8628492177845414,0.13557007972452817,0.14980095674572644
banwiki,False,43.0,0.08584740827023879,0.7548651416865825,0.8690713248824923,0.12909451797914223,0.15416259935852739
banwiki,False,44.0,0.08980138905812111,0.7548651416865825,0.8751908994263573,0.12287666275537619,0.160508166969147
banwiki,False,45.0,0.09258165246012322,0.7490611130078525,0.8799883436675355,0.11790895831734091,0.1647951327599805
banwiki,False,46.0,0.09702812665841146,0.7490611130078525,0.8858488886010782,0.11195429273267608,0.17180220038369678
banwiki,False,47.0,0.10033879426370261,0.7381358825537726,0.8912507352663418,0.10629023237451886,0.17666285340741952
banwiki,False,48.0,0.10470747772181326,0.7381358825537726,0.8961021440096705,0.1013609097588525,0.18339907537006406
banwiki,False,49.0,0.10970721063581469,0.7381358825537726,0.9011802036620311,0.09620129620897257,0.19102314896624847
banwiki,False,50.0,0.11337101801468646,0.7326732673267327,0.9052059555224573,0.0920231606882409,0.19635831274590537
banwiki,False,51.0,0.11671525218634839,0.7244793444861728,0.9089834706729913,0.0880533836317977,0.2010421601136902
banwiki,False,52.0,0.11993618597230928,0.7186753158074428,0.9121997550011602,0.08469223261577602,0.20556640625
banwiki,False,53.0,0.1228408029878618,0.7186753158074428,0.9144392818404053,0.08241673886104683,0.20981809120358832
banwiki,False,54.0,0.12711352657004832,0.7186753158074428,0.9175476371642733,0.07925846319183234,0.2160192929344759
banwiki,False,55.0,0.1310615160902826,0.7077500853533629,0.9212118268602913,0.07535996666264572,0.22116718233223087
banwiki,False,56.0,0.13429115003608214,0.698873335609423,0.9240287738725467,0.07235521828290693,0.22529165749504731
banwiki,False,57.0,0.13908139692893057,0.698873335609423,0.9268619102354472,0.06947658160523748,0.23199410664702216
banwiki,False,58.0,0.14332726508892313,0.698873335609423,0.9292147625292083,0.0670859423834015,0.2378711289291732
banwiki,False,59.0,0.14787350054525628,0.694434960737453,0.9319183840869476,0.06426761999802608,0.24382642052265646
banwiki,False,60.0,0.1512107354374391,0.6886309320587232,0.9339798280690962,0.06207985612299729,0.24797147774772563
banwiki,False,61.0,0.15504650626489352,0.6886309320587232,0.9357606566400621,0.06027042735417649,0.2531057849165516
banwiki,False,62.0,0.160627538424783,0.6886309320587232,0.9381998521372641,0.057792058252640124,0.2604933488312024
banwiki,False,63.0,0.16705607476635514,0.6835097302833731,0.9411301246040354,0.05473247869808859,0.2684905786897338
banwiki,False,64.0,0.1695745595186936,0.6736087401843632,0.9427004916166146,0.05297788110408053,0.27094204888766826
banwiki,False,65.0,0.17399874563211182,0.6630249231819734,0.9449238291052146,0.05054886005987564,0.2756564939673527
banwiki,False,66.0,0.17811611483078052,0.6630249231819734,0.9463161132606971,0.04913421574970665,0.2807981492192019
banwiki,False,67.0,0.18426085293555172,0.6579037214066235,0.9485556400999423,0.04677647523275834,0.28789123776798387
banwiki,False,68.0,0.18834661354581672,0.6456128371457835,0.9504228118743491,0.04468192435491123,0.29161847482458164
banwiki,False,69.0,0.19077205133428396,0.6394673950153636,0.9514265516143481,0.043563368388731094,0.29387306817290343
banwiki,False,70.0,0.20042803638309256,0.6394673950153636,0.9539790725660661,0.04096985382008795,0.3051979794687958
banwiki,False,71.0,0.20621531631520532,0.6343461932400136,0.9556249898816559,0.0392152562260799,0.31124884831225397
banwiki,False,72.0,0.21286671286671285,0.6292249914646637,0.9573626468509014,0.037367445634890174,0.31811512902390604
banwiki,False,73.0,0.2186595949855352,0.6193240013656538,0.9590031677162763,0.03554156751362555,0.32320712694877507
banwiki,False,74.0,0.22199874292897548,0.602936155684534,0.9603252980189632,0.033935014091611926,0.3245130466740169
banwiki,False,75.0,0.22715853497289434,0.5865483100034141,0.9619226472826174,0.03204882167805327,0.3274876096073198
banwiki,False,76.0,0.23289168146428083,0.5821099351314442,0.963088280529068,0.030793187774841264,0.33268292682926826
banwiki,False,77.0,0.24200318425242437,0.5708432912256743,0.9649554523034748,0.02871508624943798,0.3399064850579386
banwiki,False,78.0,0.24893939393939393,0.5609423011266644,0.966309961307452,0.027179813354680938,0.34484206107671317
banwiki,False,79.0,0.24540874370225907,0.5155343120518948,0.9672867187963757,0.02545811446556054,0.3325258753578507
banwiki,False,80.0,0.2522634475412746,0.48514851485148514,0.9691323047699223,0.02309489083113095,0.3319317916374679
banwiki,False,81.0,0.25668449197860965,0.4588596790713554,0.9704436421721792,0.021340293237122897,0.329210042865891
banwiki,False,82.0,0.26572986577181207,0.4325708432912257,0.9721381275397044,0.019196394301944312,0.3292191763024555
banwiki,False,83.0,0.26749156355455567,0.40594059405940597,0.9730393347256175,0.0178530305190319,0.3224844046650393
banwiki,False,84.0,0.2654228855721393,0.36428815295322636,0.9740160922145413,0.016191645922205528,0.3070945459778385
banwiki,False,85.0,0.2811368069100028,0.34448617275520654,0.9757159740322816,0.014146443101689896,0.30960417305922067
banwiki,False,86.0,0.2832425504645947,0.30180949129395696,0.9768924001791621,0.012265733805612519,0.29223140495867767
banwiki,False,87.0,0.2820609251598345,0.2560600887674974,0.9779393115208815,0.010467271271754269,0.2684323550465283
banwiki,False,88.0,0.28189493433395874,0.20518948446568794,0.9791750986201276,0.00839465286383226,0.23750246986761508
banwiki,False,89.0,0.3068445475638051,0.1806077159440082,0.9805997614769005,0.006552325390123809,0.22738018482699335
banwiki,False,90.0,0.3172268907563025,0.15466029361556846,0.9813768503078675,0.005346039544243275,0.20794124397521233
banwiki,False,91.0,0.34452975047984646,0.12256742915670878,0.9824453474504471,0.0037449692397109303,0.1808108788718207
banwiki,False,92.0,0.3713450292397661,0.08671901672925914,0.9832440220822742,0.0023577405169483163,0.1406033766952671
banwiki,False,93.0,0.5404255319148936,0.08671901672925914,0.9843988624282947,0.0011843533759554332,0.14945572227125628
banwiki,False,94.0,0.5292479108635098,0.06486855582109935,0.9843071227746388,0.000926646854335501,0.11557177615571777
banwiki,False,95.0,0.58,0.0594059405940594,0.9844528269304451,0.0006908728026406694,0.10777330442861567
banwiki,False,96.0,0.7219917012448133,0.0594059405940594,0.984771217493133,0.0003673688712454353,0.10977917981072555
banwiki,False,97.0,0.7111111111111111,0.03277569136223967,0.9845013949823805,0.000213841581769731,0.06266318537859009
banwiki,False,98.0,0.5333333333333333,0.010925230454079891,0.984215383120983,0.0001535272894757043,0.02141184342589495
banwiki,False,99.0,0.5517241379310345,0.0054626152270399455,0.984209986670768,7.1280527256577e-05,0.010818120351588911
