wiki_db,user_is_bot,threshold,precision,recall,accuracy,fpr,F1
enwiki,True,0.0,0.023303136473991133,1.0,0.023303136473991133,1.0,0.04554493315497313
enwiki,True,1.0,0.023383042628385402,0.999868094180755,0.026845713225978486,0.9963697532942876,0.04569740003787938
enwiki,True,2.0,0.024453727749109103,0.9965704486996285,0.07346325684475521,0.9485612767390408,0.047736112420119076
enwiki,True,3.0,0.026652466638973832,0.9831600237430475,0.16290883717927898,0.8566616417044588,0.05189803054163296
enwiki,True,4.0,0.02888587002096436,0.9466001275089586,0.2571623832140777,0.7592870008738608,0.056061016384221986
enwiki,True,5.0,0.03120155665553731,0.9119748499571306,0.33808477491189665,0.6756077424282002,0.06033873356004782
enwiki,True,6.0,0.0335214752548247,0.8845824081605733,0.40298846959147405,0.6085019423209871,0.06459510267116812
enwiki,True,7.0,0.03548351398094534,0.8529250115417591,0.45630591469434195,0.553157071506576,0.06813256672415065
enwiki,True,8.0,0.03726116305295402,0.8193769648470992,0.5024465040172257,0.5051151807360363,0.07128083071400362
enwiki,True,9.0,0.039085158658490604,0.7907314177677138,0.5421044084204206,0.46382761547184814,0.07448842020680643
enwiki,True,10.0,0.04050973513046736,0.7559522500934333,0.5770691030441569,0.42719889303964054,0.07689864925306376
enwiki,True,11.0,0.04224843723892866,0.7282080594455559,0.60897534745685,0.3938694412011233,0.07986343843880046
enwiki,True,12.0,0.044005441124683235,0.7005298217073009,0.6383795029531719,0.3631033495202158,0.08280903635905314
enwiki,True,13.0,0.04549215094407492,0.6672895552575461,0.6659808634255975,0.33405036082166,0.085177374523117
enwiki,True,14.0,0.047043006377222994,0.6353903313034494,0.6915642615225959,0.30709547742910764,0.08760026732902838
enwiki,True,15.0,0.04860414872135222,0.6053597731219909,0.7146722104705556,0.28271968998395997,0.08998354636998937
enwiki,True,16.0,0.050167505307997635,0.5771099435003407,0.7355224391370969,0.26069797669214817,0.0923105595740865
enwiki,True,17.0,0.05166988227768435,0.5504869523160464,0.7540831847227082,0.2410591865016297,0.09447238455995262
enwiki,True,18.0,0.053299977338067156,0.527403433948161,0.7706925673512233,0.22350276582731965,0.09681565677457368
enwiki,True,19.0,0.05493553422342726,0.506012706927254,0.7856344030053756,0.20769406687291042,0.09911102786192405
enwiki,True,20.0,0.05642129400955625,0.4846659485127619,0.7991084899401578,0.19338918489657914,0.10107604773672363
enwiki,True,21.0,0.05668924907324328,0.4541957042671533,0.8111599108387479,0.1803232341034429,0.10079769716780915
enwiki,True,22.0,0.05717726184707109,0.4279904148438015,0.8222123404623741,0.16838186775432445,0.10087778388069601
enwiki,True,23.0,0.058234293284111525,0.407830808802515,0.8325060490202457,0.15736156963454154,0.10191597192654754
enwiki,True,24.0,0.059254137619698125,0.3881108888253787,0.8421511817042177,0.14701581237063868,0.10281168468132687
enwiki,True,25.0,0.060671843155265956,0.3717325829357839,0.8512450761256967,0.13731417343567892,0.10431762307091982
enwiki,True,26.0,0.061791568053579035,0.35414514036977596,0.8596453119900982,0.12829389419884374,0.10522362224268908
enwiki,True,27.0,0.06312978224894729,0.33882208103414163,0.8674184887157532,0.11996966139727519,0.1064294814912005
enwiki,True,28.0,0.06444857258022117,0.3233891001824697,0.8748386885242543,0.11200420460303323,0.10747777927965776
enwiki,True,29.0,0.06582456799398949,0.3081759623628729,0.881959703253484,0.10435031644673277,0.10847872097567393
enwiki,True,30.0,0.06736119153478583,0.2941060083100666,0.8886601170407932,0.09715433977346757,0.10961620399200288
enwiki,True,31.0,0.06881666919099033,0.27968430540594014,0.8950234353107042,0.0902951090018159,0.11045560113737493
enwiki,True,32.0,0.0701761527859357,0.2652845868050212,0.9009687141547842,0.08386441623891545,0.1109915378955114
enwiki,True,33.0,0.071880001255217,0.2517862246356102,0.9068038478070092,0.0775680022155992,0.11183368974035994
enwiki,True,34.0,0.07330477597913361,0.2366390397256359,0.9124996349839573,0.07137491987860363,0.11193494379335087
enwiki,True,35.0,0.0750859297039583,0.22331655198188494,0.9177978748637914,0.06563240565607228,0.11238466134135816
enwiki,True,36.0,0.07682377279214843,0.21063160903115175,0.9226222342670402,0.06039028954902276,0.11258453240580253
enwiki,True,37.0,0.07883372156934593,0.1986501637830589,0.9272345001380657,0.055382112183592604,0.11287381017812977
enwiki,True,38.0,0.08105689973539434,0.1872183261151538,0.9315988112516131,0.05064091871835139,0.11313260134574127
enwiki,True,39.0,0.08329692278883964,0.17602831578253128,0.9356552281311845,0.046220735364928704,0.11308283843997373
enwiki,True,40.0,0.08557732815648947,0.16523402290764394,0.9394037507767797,0.04212523380761004,0.11275634967070225
enwiki,True,41.0,0.08803151575787894,0.15474751027766176,0.9429453029223313,0.038248984254768734,0.112222691654643
enwiki,True,42.0,0.09089908963392833,0.14531624420164002,0.9462158466655977,0.034675386392318416,0.11183960069371007
enwiki,True,43.0,0.09378493519050064,0.13647855431222108,0.9491462210721584,0.031464236221480195,0.11117378963297248
enwiki,True,44.0,0.09701976297724516,0.12832237782223493,0.9518557927917912,0.028495417213485363,0.11049692380501658
enwiki,True,45.0,0.09976759931926729,0.11985842108734364,0.954287183864088,0.025804072632209483,0.10889408193021351
enwiki,True,46.0,0.10346006152114036,0.11313122430584563,0.9564880384883162,0.023390202477652555,0.1080797261252179
enwiki,True,47.0,0.10637261414463486,0.10561259260887726,0.9584824349157184,0.02116883348492144,0.10599124094033027
enwiki,True,48.0,0.10996137870727975,0.09952294062039703,0.9602442456821804,0.01921969365564427,0.10448209010339733
enwiki,True,49.0,0.11367340940063597,0.09352122584474686,0.9618836159795571,0.017398013723706807,0.10261729586298396
enwiki,True,50.0,0.11771823171811367,0.08769538549475675,0.9634241117558732,0.015681763583396013,0.1005127688256712
enwiki,True,51.0,0.12209604153147308,0.08272693296985952,0.9647632723675427,0.014192108816133591,0.09862791093870811
enwiki,True,52.0,0.12649181733724005,0.07782443335458483,0.96598665245196,0.012822570577639863,0.09636192887183048
enwiki,True,53.0,0.13220272135673436,0.07369138435157298,0.9671418962083926,0.011541152761998278,0.09463312724090228
enwiki,True,54.0,0.13768305439330544,0.06944841383252358,0.9681793102247013,0.010377753369819385,0.0923265771360933
enwiki,True,55.0,0.1425558431598121,0.06538131773913426,0.9690563733337978,0.009382726928447266,0.0896471687591373
enwiki,True,56.0,0.14891149649464974,0.06210565656121529,0.9698724723599607,0.00846900206768278,0.08765397623258556
enwiki,True,57.0,0.1539793386044901,0.058654120957636245,0.9705538356398078,0.00768903142017601,0.08494921514312095
enwiki,True,58.0,0.16025072812460428,0.0556422714182074,0.971198825391182,0.006956792668380818,0.08260309068063511
enwiki,True,59.0,0.1671272626779052,0.0531800294589663,0.9717603097180334,0.006323164865967788,0.08068577908974167
enwiki,True,60.0,0.17345092718227045,0.05058588168048014,0.9722582684458616,0.005751431170081858,0.07832791517028917
enwiki,True,61.0,0.18138227513227514,0.04823356123727658,0.9727480303222029,0.005193859685011451,0.07620304603789312
enwiki,True,62.0,0.18986883763003165,0.04614505243256315,0.9731840003606614,0.004697657780141643,0.07424569346680344
enwiki,True,63.0,0.19857876036320568,0.044232418053509796,0.9735677154708912,0.004259153771186929,0.07234937701145291
enwiki,True,64.0,0.20849005910800644,0.042649548222569084,0.9739176185687375,0.0038631363946787854,0.07081325740984086
enwiki,True,65.0,0.21719775070290534,0.04075889814672324,0.9742234635898418,0.0035048849136787024,0.06863743220480165
enwiki,True,66.0,0.22735346358792186,0.03939587134785763,0.9744949842953449,0.003194365328390197,0.06715509003354007
enwiki,True,67.0,0.23700452612810313,0.037988875942577,0.9747321806852466,0.0029179399543242477,0.06548182955019137
enwiki,True,68.0,0.24787345172362335,0.03651592762767384,0.9749657909526227,0.002643612685564301,0.06365447995707825
enwiki,True,69.0,0.25756847669389715,0.03535075955767582,0.9751461216853341,0.0024311795233314553,0.062168954185192346
enwiki,True,70.0,0.26903023983315955,0.03403170136522523,0.9753351615727504,0.0022061577292625894,0.06042036650338596
enwiki,True,71.0,0.28220513782111384,0.033086376327302304,0.975506783150757,0.002007886777845267,0.059228650137741035
enwiki,True,72.0,0.29720920757791813,0.032075098379756854,0.9756768678191098,0.0018096158264279442,0.05790142074767838
enwiki,True,73.0,0.30988089986766654,0.03088794600655132,0.9758136527782972,0.0016412428756211702,0.056176405909518
enwiki,True,74.0,0.32357142857142857,0.029876668059005868,0.9759376301570363,0.0014901792935889246,0.05470243725723026
enwiki,True,75.0,0.33462232534158287,0.02853562556334777,0.9760395784974044,0.0013538024486987026,0.052586800632013944
enwiki,True,76.0,0.3499582056283087,0.027612284828632358,0.976145112960298,0.001223719919726491,0.05118591572255278
enwiki,True,77.0,0.36081853746614506,0.026359179545804294,0.9762229830494235,0.0011140939174878125,0.04912927678754353
enwiki,True,78.0,0.37983471074380165,0.025259964385428803,0.9763244190865736,0.000984011388515601,0.04736972295514511
enwiki,True,79.0,0.39499105545617175,0.02427067074109086,0.9763961415370839,0.0008869740181129431,0.04573132844538337
enwiki,True,80.0,0.4152276295133438,0.02325939279354541,0.976475548535863,0.0007815442264862716,0.04405121265743729
enwiki,True,81.0,0.43154761904761907,0.022314067755622485,0.9765319018898353,0.000701291698531641,0.04243399736616568
enwiki,True,82.0,0.4511173184357542,0.02130278980807703,0.9765892798502436,0.0006184165389445062,0.0406843707358035
enwiki,True,83.0,0.46921119592875316,0.02026952755732407,0.9766348748366394,0.0005470809585403901,0.03886032200960971
enwiki,True,84.0,0.48318385650224216,0.01895046936487348,0.9766661253329331,0.00048361327303378686,0.03647056334750693
enwiki,True,85.0,0.4894278606965174,0.017301646624310243,0.9766794452165992,0.00043063611405720067,0.033421806985879605
enwiki,True,86.0,0.504881450488145,0.015916635522237123,0.9767040357710599,0.00037241369181560593,0.030860382344792315
enwiki,True,87.0,0.5225806451612903,0.014245828478466374,0.976725552506213,0.0003105195852885052,0.027735570441072617
enwiki,True,88.0,0.5347349177330896,0.012860817376393255,0.9767357985705716,0.0002669839001889344,0.02511753719327623
enwiki,True,89.0,0.5531914893617021,0.011431837667905115,0.9767480938478019,0.00022030105713035842,0.022400758179507613
enwiki,True,90.0,0.5763358778625954,0.009958889353001956,0.9767583399121605,0.00017466726672478417,0.019579452380437838
enwiki,True,91.0,0.5925925925925926,0.008793721283003935,0.9767609014282501,0.00014424473978773468,0.017330271652008143
enwiki,True,92.0,0.6263345195729537,0.007738474729043463,0.976769610582955,0.00011015052856517921,0.015288062715802735
enwiki,True,93.0,0.6622516556291391,0.006595290962252951,0.9767721720990447,8.025252795463057e-05,0.013060513713539399
enwiki,True,94.0,0.684931506849315,0.00549607580187746,0.9767660244604295,6.032052754759814e-05,0.010904649742650267
enwiki,True,95.0,0.7379310344827587,0.004704640886407105,0.9767675613700832,3.9864000814064856e-05,0.009349673416781354
enwiki,True,96.0,0.780373831775701,0.003671378635654143,0.9767583399121605,2.465273734554011e-05,0.007308373996192643
enwiki,True,97.0,0.8412698412698413,0.0023303361399960427,0.9767409216027508,1.0490526530017069e-05,0.0046477977769495546
enwiki,True,98.0,0.9041095890410958,0.0014509640116956493,0.9767270894158667,3.671684285505974e-06,0.002897278314310799
enwiki,True,99.0,1.0,0.0005935761866027656,0.9767106957128929,0.0,0.0011864481258513865
enwiki,False,0.0,0.060504648322907556,1.0,0.060504648322907556,1.0,0.11410539014343823
enwiki,False,1.0,0.06051316592484072,0.9999976801445115,0.06064744330543248,0.9998478594446367,0.11412052176047877
enwiki,False,2.0,0.06074698124785831,0.9998940599326933,0.06458656360973739,0.9956483817125359,0.11453553718978983
enwiki,False,3.0,0.06131882373541718,0.999493498218351,0.0742208737069147,0.9853678136122321,0.11554874387029901
enwiki,False,4.0,0.062155811510987466,0.9987403184697614,0.08814333771574816,0.9705002202178513,0.11702845024867146
enwiki,False,5.0,0.06327260897055063,0.9974118145600317,0.1064130012679371,0.9509684107402567,0.1189964636516502
enwiki,False,6.0,0.06463451328930986,0.9954747352271602,0.12808883045669128,0.9277718813974979,0.12138753641335195
enwiki,False,7.0,0.06612738950138887,0.9929252140453331,0.15115068800793513,0.903060619769328,0.12399677250220549
enwiki,False,8.0,0.06764618551384982,0.9900841643571217,0.17374565462516317,0.8788275426297338,0.12663987010412797
enwiki,False,9.0,0.06913804886670012,0.9867737305750767,0.19535074134551053,0.8556178659525672,0.1292221788470682
enwiki,False,10.0,0.07066547016063027,0.9833078664753043,0.21656440512227873,0.83281481043237,0.1318551623305924
enwiki,False,11.0,0.07226951189707662,0.9795984175492428,0.2379077634244595,0.8098580207405176,0.1346083429479544
enwiki,False,12.0,0.07393613196213286,0.9755386704444224,0.2592255290479243,0.7869059122965226,0.1374545738625576
enwiki,False,13.0,0.07567878456287841,0.9712098201029398,0.28054544688934324,0.763934182451934,0.14041604505645475
enwiki,False,14.0,0.07746685180478673,0.9663767878352965,0.30165776927287785,0.7411509475343668,0.14343559622901983
enwiki,False,15.0,0.07931269056010018,0.9611779916856379,0.3225605311299612,0.7185672134563366,0.1465339650388855
enwiki,False,16.0,0.0812201790984271,0.9556118850836385,0.34325401318467436,0.6961825818137704,0.14971560223941846
enwiki,False,17.0,0.08315493970188045,0.9496428969118084,0.36343807460710326,0.6743142320492571,0.1529195647619424
enwiki,False,18.0,0.08514798763338428,0.9434674416015045,0.38325246920222894,0.6528260593713702,0.15619900648338597
enwiki,False,19.0,0.08715134891921995,0.9367267148371771,0.4025273589010588,0.6318757321919853,0.1594662482898016
enwiki,False,20.0,0.08918949194135879,0.9296967794219538,0.4213066770222661,0.6114342666147945,0.16276435505448947
enwiki,False,21.0,0.09125836775796675,0.9225624505097496,0.439471536917556,0.5916401080551527,0.16608761996457155
enwiki,False,22.0,0.09335926319679211,0.9151033418291596,0.45716749402291645,0.5723241339840865,0.1694329037414213
enwiki,False,23.0,0.09546338792390135,0.9073186800950213,0.4742312137105641,0.5536601481784269,0.17275082570957725
enwiki,False,24.0,0.09759411194420005,0.8991690277640305,0.4908524654592412,0.5354436199472155,0.1760771426159424
enwiki,False,25.0,0.09975909465521629,0.8908144548648916,0.5070064519751278,0.5177112522656742,0.17942502818928274
enwiki,False,26.0,0.10195217414189403,0.8822093375729981,0.5226939686431201,0.5004592602951099,0.18278129949853894
enwiki,False,27.0,0.10417023911176386,0.8732848535088588,0.5379455208133512,0.4836507418582642,0.18613702601682097
enwiki,False,28.0,0.10644493048464206,0.8641887001385727,0.5528544024554,0.46719590663719274,0.1895432080852185
enwiki,False,29.0,0.10878742343836298,0.855091000197961,0.5673906228799483,0.4511376328702484,0.193018423144965
enwiki,False,30.0,0.11118290107407475,0.8459090121746016,0.5815227877772735,0.43550400804457506,0.19653413996371386
enwiki,False,31.0,0.11363005682962812,0.8365723671186777,0.5952783145326178,0.42026131721549814,0.20008318905943653
enwiki,False,32.0,0.11614822973824322,0.8271614866871226,0.6086995456948623,0.40536967017521214,0.20369416473399382
enwiki,False,33.0,0.1186860101216066,0.8173848423735524,0.6217139140890737,0.3908875327214245,0.20727521942725366
enwiki,False,34.0,0.12132006542802888,0.8076105179154707,0.6344528453724975,0.37669872026635703,0.2109508775590359
enwiki,False,35.0,0.12401679411866877,0.7978276873205978,0.6468000262009143,0.3629263396685557,0.21466534547374388
enwiki,False,36.0,0.12677888263337717,0.7878824668415322,0.6588231110778401,0.34948846909051723,0.21841276850703603
enwiki,False,37.0,0.1296031436715894,0.7778715171236267,0.6704791960062321,0.3364370006627452,0.22218712730439705
enwiki,False,38.0,0.13250357582394737,0.7678659804018608,0.6817862941146197,0.3237573428360673,0.2260071710627464
enwiki,False,39.0,0.135478251466558,0.7576199519944571,0.6928209962897633,0.31135213561515285,0.22985384132365927
enwiki,False,40.0,0.1385155544296136,0.7475185279125013,0.7034302611201827,0.2994090771188772,0.2337222583278208
enwiki,False,41.0,0.1416219877471204,0.7372817789270514,0.7137270800484717,0.2877898713334126,0.23760351251308487
enwiki,False,42.0,0.14479634454617651,0.7269506891517371,0.7236992883644547,0.2765101058181138,0.24149162173340083
enwiki,False,43.0,0.148063137867798,0.7166172795209343,0.7333736016431717,0.2655472707428583,0.24541923448800218
enwiki,False,44.0,0.15135868321730775,0.7059389847075126,0.7427260179756987,0.25490485214328445,0.24927163377391187
enwiki,False,45.0,0.15475501317481338,0.6954114805008413,0.7517612160967188,0.24460979209482656,0.2531702051948461
enwiki,False,46.0,0.15830269464967017,0.6851074557062259,0.7605457744007711,0.23459590572086336,0.2571805812797257
enwiki,False,47.0,0.16191434784795178,0.6747152764030486,0.7690125062578076,0.22491463694731645,0.2611575798780819
enwiki,False,48.0,0.16555420692483544,0.6642736068494507,0.7771083548165234,0.21562494957698453,0.2650508655834801
enwiki,False,49.0,0.16930567546398556,0.6538945733940413,0.7849408373999336,0.20661962311373103,0.26896994403072905
enwiki,False,50.0,0.17313996853536318,0.6435480179154707,0.7924794954452518,0.19792913546913773,0.27286769346787215
enwiki,False,51.0,0.17711662037166204,0.6332571389686232,0.7997989547706719,0.18947554884643097,0.2768114416035849
enwiki,False,52.0,0.18115354978609027,0.6230118838463823,0.8068018041200937,0.18136190049898118,0.2806905385323295
enwiki,False,53.0,0.18524004577643224,0.6128215319707018,0.8134875756200494,0.173589286037989,0.2844870416027087
enwiki,False,54.0,0.18932055347838636,0.6025252400277146,0.8198464439277042,0.16615780506447272,0.2881126928051696
enwiki,False,55.0,0.19361004880851293,0.5925931653964169,0.8260146537970271,0.15895271720541854,0.291863451085016
enwiki,False,56.0,0.19791832204936927,0.5826549044838167,0.8318814127907249,0.15206809562255516,0.29547024445468806
enwiki,False,57.0,0.20231584858005566,0.5728419157675938,0.8375002456335708,0.1454554346199992,0.2990229953725082
enwiki,False,58.0,0.20681266312549368,0.5630451660397902,0.8429058217495661,0.13907081014870631,0.3025100631239402
enwiki,False,59.0,0.21144897572090116,0.5534370978917154,0.8481042234937983,0.13291885365602468,0.3059899023195421
enwiki,False,60.0,0.21603509948408603,0.5435753922102345,0.8530346273153888,0.12703581991259413,0.3091883675047905
enwiki,False,61.0,0.22084881072554902,0.5340964626843512,0.8578027258308263,0.12135019538731748,0.31248508402149483
enwiki,False,62.0,0.2256754841144185,0.5244381310006928,0.8623529356720768,0.11588493811489933,0.3155597411292953
enwiki,False,63.0,0.23061905794656215,0.514747321340196,0.8667367229206533,0.11059472963203998,0.318529371935414
enwiki,False,64.0,0.23570266728185008,0.5052529261110561,0.8709377120051653,0.10551174106763128,0.3214483118779452
enwiki,False,65.0,0.24096036450167385,0.4958173005542908,0.8749951575096031,0.10058532530389765,0.3243103669781383
enwiki,False,66.0,0.24627578120745897,0.48613654360091063,0.8788891280242171,0.09581712575764005,0.32692966241422283
enwiki,False,67.0,0.2516537653566844,0.4764202155300406,0.8826017975698652,0.09123961236080509,0.32934274339582803
enwiki,False,68.0,0.2572817561629286,0.4667827625457785,0.8862076516027005,0.08678087317822268,0.33172372293159014
enwiki,False,69.0,0.26306689926583476,0.45699529223992874,0.8896883962701128,0.08244563925825926,0.33391653089642825
enwiki,False,70.0,0.26894907606609997,0.4470980154409581,0.8930160995260442,0.0782662311313341,0.3358622626641793
enwiki,False,71.0,0.275128183289328,0.4371373292586361,0.8962602405805374,0.07417168307195038,0.3377077708469801
enwiki,False,72.0,0.2813827309486654,0.4269415643868158,0.8993556446594583,0.07022031147628828,0.33920616343043564
enwiki,False,73.0,0.2878092625258704,0.4164844291299614,0.9023384783819064,0.06637192733348751,0.3403923045784668
enwiki,False,74.0,0.2944772984036848,0.4057404050776997,0.9052284392208971,0.06260392121240733,0.34126911600907317
enwiki,False,75.0,0.3015317472687855,0.39493219835692367,0.9080396569551731,0.05891559590592006,0.3419691617095244
enwiki,False,76.0,0.3089343460369383,0.38385256854399685,0.9107677335741322,0.05529828612543872,0.342342615721807
enwiki,False,77.0,0.31673634116842825,0.37262292140948233,0.9134057913377907,0.051767131225735945,0.34241425964561223
enwiki,False,78.0,0.3247351511817081,0.36102673710778976,0.9159164471560312,0.048347977671045324,0.3419206405528452
enwiki,False,79.0,0.3331933105014909,0.3490021528258933,0.9183524771560779,0.04498066644634922,0.3409145587249431
enwiki,False,80.0,0.34238289967499197,0.336928851578739,0.9207260460481067,0.04167670146925446,0.33963398093670194
enwiki,False,81.0,0.3518799010357697,0.32444261605463726,0.9229690314551333,0.03848513624124482,0.3376047159282472
enwiki,False,82.0,0.3619861281212401,0.3115210209838662,0.9251226998170615,0.035360602498511466,0.33486292866871176
enwiki,False,83.0,0.3727741770672261,0.29789960284074035,0.9271921509546958,0.03228064021144101,0.33115736032754783
enwiki,False,84.0,0.38397981511144613,0.2836147060279125,0.9291254977004019,0.029302818768576835,0.3262528943395925
enwiki,False,85.0,0.39619976393645634,0.26917437889735724,0.9309616671267422,0.02641842308082284,0.3205619771236338
enwiki,False,86.0,0.4088374269937612,0.25397932544788676,0.9326423154122199,0.02365095898848393,0.3133181336869318
enwiki,False,87.0,0.42233981203589427,0.23842082797188954,0.9341901812073943,0.02100142250174252,0.304783915912134
enwiki,False,88.0,0.43636090161593205,0.2220960048995348,0.9355757884837624,0.018475241876092747,0.29436706330904283
enwiki,False,89.0,0.452041260534496,0.20556316811838068,0.9368562645918038,0.016047566657483452,0.2826107294503873
enwiki,False,90.0,0.46875439059080753,0.1883366945461744,0.9379762133128716,0.01374608592898567,0.2687105470605336
enwiki,False,91.0,0.4879225770479181,0.170525617390874,0.9389845742117502,0.011525730229845287,0.2527254213551554
enwiki,False,92.0,0.5099874571278384,0.1515476529248738,0.9398544913513589,0.009377585268929721,0.23366077166392643
enwiki,False,93.0,0.5360094339622642,0.1318072292883302,0.9405668754941914,0.007348015320230222,0.21158477244063992
enwiki,False,94.0,0.5669438350067159,0.11130202662575472,0.9410857003831884,0.0054752173742422605,0.18607411084630796
enwiki,False,95.0,0.6041189102481178,0.09028026947441355,0.941378214875569,0.003810037750777934,0.15708549089468185
enwiki,False,96.0,0.6464778125362067,0.06903580619617936,0.9413881805804438,0.0024312608552659754,0.12474987423844393
enwiki,False,97.0,0.6993221611357665,0.048984521924180936,0.941184842771121,0.001356366666407704,0.09155594226191423
enwiki,False,98.0,0.7730896039397354,0.028648668712263684,0.9407199636930189,0.000541530736177022,0.05524992058793265
enwiki,False,99.0,0.8731080874484024,0.008832463129763437,0.9399520897568462,8.266884514013763e-05,0.01748801545780109
