wiki_db,user_is_bot,threshold,precision,recall,accuracy,fpr,F1
eowiki,True,0.0,0.0075251787229946715,1.0,0.0075251787229946715,1.0,0.014937946727113243
eowiki,True,1.0,0.007533484587016127,1.0,0.008627704907991566,0.9988891142008235,0.01495431110183712
eowiki,True,2.0,0.007605017981543974,0.997093023255814,0.020856120332857907,0.9865459386544175,0.015094904259579545
eowiki,True,3.0,0.008014961261020572,0.9941860465116279,0.07400488261596212,0.9329721485060349,0.015901725476703044
eowiki,True,4.0,0.009541395625550736,0.9883720930232558,0.2278335360464811,0.7779330470892147,0.018900334091199674
eowiki,True,5.0,0.010721503962015976,0.9715116279069768,0.3252145988467226,0.6796857780168043,0.02120894811994288
eowiki,True,6.0,0.01185942141055568,0.9540697674418605,0.4014464093522221,0.6027437115928868,0.02342762918388762
eowiki,True,7.0,0.012908034220562466,0.9465116279069767,0.45491892932457145,0.5488084427320737,0.02546873900017991
eowiki,True,8.0,0.0140286117826475,0.9412790697674419,0.5017237909400348,0.5016090210980136,0.027645205631494023
eowiki,True,9.0,0.015066927385911715,0.9273255813953488,0.5432785278650368,0.45963340768627176,0.029652076110093788
eowiki,True,10.0,0.01613183532851491,0.9174418604651163,0.5783143599660492,0.4242569849148762,0.03170616542259817
eowiki,True,11.0,0.017082153903321348,0.9087209302325582,0.6058337635518843,0.39646279855055855,0.03353393621472017
eowiki,True,12.0,0.017858590537958192,0.8965116279069767,0.6281992947332499,0.37383511280780796,0.03501958780446261
eowiki,True,13.0,0.018833992338297426,0.888953488372093,0.6506698284084247,0.3511368946333636,0.036886481791973756
eowiki,True,14.0,0.019827957550679422,0.8831395348837209,0.6705940516087258,0.33101751849272193,0.038785124283471
eowiki,True,15.0,0.020759332715989662,0.8732558139534884,0.6890657403113324,0.3123308323708595,0.040554588041526604
eowiki,True,16.0,0.02170269206663849,0.8656976744186047,0.7053323766439453,0.29588355095527363,0.042343841089735386
eowiki,True,17.0,0.022631813776020433,0.8552325581395349,0.7209777482215203,0.28004020348606545,0.044096706986225406
eowiki,True,18.0,0.02367084705615134,0.8482558139534884,0.735573094861003,0.26528129215414864,0.046056473633536946
eowiki,True,19.0,0.02489029072956665,0.8441860465116279,0.7499540614089585,0.2507604277791982,0.048354868789130145
eowiki,True,20.0,0.026116228983041646,0.838953488372093,0.7633637548891786,0.23720938434003686,0.05065557369280185
eowiki,True,21.0,0.027277603248793195,0.827906976744186,0.776537192758328,0.2238523050880333,0.052815073065796296
eowiki,True,22.0,0.02859862677981893,0.8209302325581396,0.788818109430099,0.21142537227899103,0.0552717593408099
eowiki,True,23.0,0.030010511186906064,0.8133720930232559,0.8007621431008987,0.19933346852049408,0.0578852638765335
eowiki,True,24.0,0.031444688611494985,0.8069767441860465,0.8114986480928922,0.188467065762676,0.060530734175007095
eowiki,True,25.0,0.033004014326578686,0.7982558139534883,0.822480158903774,0.17733616638600636,0.06338727176196302
eowiki,True,26.0,0.034675331268721125,0.7941860465116279,0.8320747617755921,0.16763795702811599,0.06644938463783626
eowiki,True,27.0,0.03628750872295883,0.786046511627907,0.8412974808151693,0.15828359327473263,0.06937246651957514
eowiki,True,28.0,0.03787943565626336,0.7726744186046511,0.8506033268290122,0.14880579776588523,0.07221844858035592
eowiki,True,29.0,0.03970125786163522,0.7633720930232558,0.8592704076721822,0.1400024686351093,0.07547712117728213
eowiki,True,30.0,0.04169866871479775,0.7575581395348837,0.8671630951235092,0.13200585419183058,0.07904634797379279
eowiki,True,31.0,0.043831994304891694,0.7517441860465116,0.8747276497816823,0.12433986052211632,0.08283417149812614
eowiki,True,32.0,0.04579163366693066,0.7395348837209302,0.8820734492444195,0.11684578965465559,0.08624313512780528
eowiki,True,33.0,0.04800030500590949,0.7319767441860465,0.8887367324973968,0.11007467621205576,0.09009266878958103
eowiki,True,34.0,0.04995964487489911,0.7197674418604652,0.8948925036969628,0.10377965668338873,0.09343396226415093
eowiki,True,35.0,0.05224357608556696,0.7127906976744186,0.9005320126353001,0.09804448833129083,0.09735180847262477
eowiki,True,36.0,0.05479761474521142,0.7052325581395349,0.9062415232361769,0.09223437927051832,0.1016934942991281
eowiki,True,37.0,0.05730385368416026,0.6976744186046512,0.911356019705468,0.08702379587914268,0.10590883014871363
eowiki,True,38.0,0.05943035426731079,0.6866279069767441,0.915866751835356,0.08239510504924046,0.10939236754353465
eowiki,True,39.0,0.06216101244283739,0.6796511627906977,0.9204256101082401,0.0777487811114148,0.11390431647666374
eowiki,True,40.0,0.06457223001402525,0.6691860465116279,0.9245600833019785,0.07350361037884733,0.11777948324379638
eowiki,True,41.0,0.06722340677564557,0.6598837209302325,0.928537052755003,0.0694259541715525,0.12201677058697054
eowiki,True,42.0,0.0706868509946203,0.6569767441860465,0.9324221450259443,0.06548936282764518,0.1276403479046651
eowiki,True,43.0,0.07358255042375665,0.6511627906976745,0.9356815974379391,0.06216111370709644,0.1322235995513842
eowiki,True,44.0,0.07654678241697671,0.6459302325581395,0.9386960440310458,0.05908413637445668,0.136873229025502
eowiki,True,45.0,0.07889048991354466,0.6366279069767442,0.9413298565840938,0.056359821200285654,0.14038461538461539
eowiki,True,46.0,0.08190533705744697,0.6308139534883721,0.9440117952801379,0.053613464641210334,0.14498563506380704
eowiki,True,47.0,0.08528784648187633,0.627906976744186,0.9465231049237419,0.05106107226929282,0.15017729263714105
eowiki,True,48.0,0.08826945412311266,0.6186046511627907,0.9490475398790721,0.04844696401964328,0.15449397415420357
eowiki,True,49.0,0.09183938947185846,0.6156976744186047,0.9512919681842443,0.046163476543558186,0.15983699343445779
eowiki,True,50.0,0.09564032697547684,0.6122093023255814,0.9535188960737817,0.04389321389841567,0.16543597800471327
eowiki,True,51.0,0.09933586337760911,0.6087209302325581,0.9555226936639745,0.04184777337929697,0.17079934747145187
eowiki,True,52.0,0.1025489033787789,0.6034883720930233,0.9572727352274617,0.04004478809412553,0.1753082249619997
eowiki,True,53.0,0.1060512185047501,0.5970930232558139,0.9590927784534883,0.03816245382329862,0.1801122413188355
eowiki,True,54.0,0.10964062836238433,0.5924418604651163,0.9607290673153488,0.03647849201661039,0.18503722534955513
eowiki,True,55.0,0.11346326164874553,0.588953488372093,0.9622778540990349,0.03489151230350105,0.19027047332832456
eowiki,True,56.0,0.11705957496225758,0.586046511627907,0.9636210109990112,0.033516129885472964,0.19514083825379921
eowiki,True,57.0,0.1203414282279394,0.5819767441860465,0.9648416649895435,0.03225536266894721,0.199442119944212
eowiki,True,58.0,0.12377161338474935,0.5784883720930233,0.9660098177331712,0.03105190305317264,0.20391433548519314
eowiki,True,59.0,0.12639405204460966,0.5732558139534883,0.9669723405930891,0.030042407624555865,0.2071211007247138
eowiki,True,60.0,0.12933086485056863,0.5686046511627907,0.9679479887647332,0.029024095641977377,0.21073044602456367
eowiki,True,61.0,0.1322066239607469,0.563953488372093,0.9688623854816552,0.028067499537130915,0.21419896212874018
eowiki,True,62.0,0.13463154945362846,0.5587209302325581,0.9696542792891332,0.027229926910767657,0.2169790020320614
eowiki,True,63.0,0.13659310543776143,0.5505813953488372,0.9704286726809762,0.02638794600742354,0.21888362417658616
eowiki,True,64.0,0.13842482100238662,0.5395348837209303,0.9712643175275413,0.025462207841443093,0.22032288698955366
eowiki,True,65.0,0.1407781862745098,0.5343023255813953,0.9719555839451187,0.024726025585639598,0.22284190106692534
eowiki,True,66.0,0.14393581878244455,0.5319767441860465,0.9726687258822397,0.0239898433298361,0.2265692707688498
eowiki,True,67.0,0.1462195711752378,0.5273255813953488,0.9732724902216427,0.02334623489063065,0.22895367916193363
eowiki,True,68.0,0.14816042426251244,0.5197674418604651,0.9738981300805895,0.022658543681616603,0.23059066288367297
eowiki,True,69.0,0.1510717931269139,0.5162790697674419,0.9745281450434448,0.021997302134487712,0.23374572255856804
eowiki,True,70.0,0.1532567049808429,0.5116279069767442,0.9750531575124909,0.02143304268093773,0.23586169927633344
eowiki,True,71.0,0.15700090334236674,0.5052325581395349,0.9758625517356038,0.020569020392689312,0.23955892487939354
eowiki,True,72.0,0.15928875717725505,0.5,0.9763788139968325,0.020009169216120188,0.2416069672706841
eowiki,True,73.0,0.1627014581734459,0.4930232558139535,0.9770919559339535,0.019237720744469815,0.24466243508366994
eowiki,True,74.0,0.165073675826364,0.4819767441860465,0.9777569717280785,0.018483905380742884,0.2459210916641946
eowiki,True,75.0,0.1671481634337598,0.47093023255813954,0.9783607360674816,0.017791805894747978,0.24672555589399942
eowiki,True,76.0,0.1695095948827292,0.4622093023255814,0.9789119991599801,0.017170238840446824,0.24804992199687986
eowiki,True,77.0,0.17051197539002416,0.4511627906976744,0.9793538846547606,0.01664124560274371,0.2474884388454792
eowiki,True,78.0,0.17148713277157823,0.4377906976744186,0.9798526465003544,0.01603731165636599,0.24644084437898872
eowiki,True,79.0,0.17148956356736242,0.42034883720930233,0.980355783449857,0.0153981114941414,0.24359838274932616
eowiki,True,80.0,0.17230233714569865,0.4029069767441861,0.9809420473736251,0.014675154069280482,0.24137931034482757
eowiki,True,81.0,0.17616445485297944,0.3936046511627907,0.9815851876482067,0.013956604921400422,0.24339385223800108
eowiki,True,82.0,0.17887285597604138,0.3819767441860465,0.98215395115634,0.013295363374271531,0.2436491748562952
eowiki,True,83.0,0.17895940537449972,0.363953488372093,0.9826483378980251,0.012660571489027798,0.2399386738213875
eowiki,True,84.0,0.1834391054699305,0.35290697674418603,0.9833089785882415,0.011911164402281724,0.24139988069198648
eowiki,True,85.0,0.18990228013029317,0.33895348837209305,0.9841446234348066,0.010963384851396984,0.24342379958246346
eowiki,True,86.0,0.19477264590046545,0.31627906976744186,0.9850152691126415,0.009914214929952479,0.24108132062929313
eowiki,True,87.0,0.20180604632901453,0.2988372093023256,0.985829038439663,0.008962027102086878,0.2409186782282634
eowiki,True,88.0,0.20630749014454666,0.2738372093023256,0.9866078069354147,0.00798779788931698,0.2353235073694729
eowiki,True,89.0,0.2192326856003986,0.2558139534883721,0.9875440791718804,0.006907770029006463,0.2361148376710491
eowiki,True,90.0,0.23441247002398083,0.22732558139534884,0.9885984792138813,0.005629369704557277,0.230814639905549
eowiki,True,91.0,0.2642752562225476,0.20988372093023255,0.989657254359791,0.004430318365763557,0.2339598185353208
eowiki,True,92.0,0.28193430656934304,0.17965116279069768,0.9903835216086382,0.003469313983936239,0.21946022727272724
eowiki,True,93.0,0.3168433451118963,0.1563953488372093,0.9911141639613941,0.002556800648898372,0.2094200077851304
eowiki,True,94.0,0.3413848631239936,0.12325581395348838,0.9916129258069879,0.001802985285171438,0.1811191798376762
eowiki,True,95.0,0.39323467230443976,0.10813953488372093,0.9920329357822248,0.001265175493506608,0.16963064295485633
eowiki,True,96.0,0.47477744807121663,0.09302325581395349,0.9924004445105571,0.0007802650256120893,0.15556635877491493
eowiki,True,97.0,0.569377990430622,0.06918604651162791,0.9926016992903581,0.0003967449282773335,0.12337998963193365
eowiki,True,98.0,0.75,0.04709302325581395,0.9927110768880761,0.00011902347848320006,0.0886214442013129
eowiki,True,99.0,0.8461538461538461,0.012790697674418604,0.9925535731473623,1.7633107923437045e-05,0.025200458190148912
eowiki,False,0.0,0.007847343758821205,1.0,0.007847343758821205,1.0,0.015572484875644188
eowiki,False,1.0,0.007859373134890968,1.0,0.009377920798911032,0.9984573169960674,0.01559617014910487
eowiki,False,2.0,0.007962170106716085,0.9960031974420464,0.026145266815960657,0.9815257387807746,0.015798048700084315
eowiki,False,3.0,0.008217073768266601,0.9920063948840927,0.06035115451927962,0.9470176902747746,0.016299137104506232
eowiki,False,4.0,0.008642460295190528,0.9848121502797762,0.11340070381452418,0.8934916480153763,0.017134552130344986
eowiki,False,5.0,0.009217150592422467,0.9688249400479616,0.18251503917399023,0.8237042095014099,0.018260574786244304
eowiki,False,6.0,0.009847353575576572,0.9488409272581935,0.2509142688671848,0.7546059203621511,0.0194924091271112
eowiki,False,7.0,0.010553260283815341,0.9392486011191047,0.308474002145317,0.696515053804231,0.02087200575534457
eowiki,False,8.0,0.011321998410267346,0.9336530775379697,0.3596856044211094,0.6448541405864724,0.022372693055462443
eowiki,False,9.0,0.011951153437389292,0.9168665067945644,0.404511438554232,0.5995409885816168,0.02359475443558755
eowiki,False,10.0,0.01261611289746338,0.903277378097522,0.44448208158477454,0.5591467192696281,0.024884660698752465
eowiki,False,11.0,0.01324636821820338,0.8928856914468425,0.4772075751017771,0.5260801942263191,0.02610545012620361
eowiki,False,12.0,0.01371201021826515,0.8752997601918465,0.5049586932384877,0.4979704867038428,0.027001035656162155
eowiki,False,13.0,0.014292153899185957,0.8617106314948042,0.532540444243713,0.4700630982638494,0.028117949319874276
eowiki,False,14.0,0.014974761637689288,0.8537170263788969,0.558171336808496,0.44416625570603036,0.029433244684515854
eowiki,False,15.0,0.015568826692812787,0.8377298161470823,0.5830494865666773,0.41896488499424656,0.030569532560344198
eowiki,False,16.0,0.0162281664523817,0.8273381294964028,0.6050672136597728,0.39669081850713805,0.0318319518983838
eowiki,False,17.0,0.01688589579843084,0.8137490007993605,0.6267524793466193,0.37472655311508163,0.03308524813936105
eowiki,False,18.0,0.017626857303055788,0.8041566746602717,0.6467691651454989,0.35447567745280273,0.03449753956415136
eowiki,False,19.0,0.018607331400104097,0.8001598721023181,0.6672563151985046,0.3337948737402476,0.03636892110378404
eowiki,False,20.0,0.019559902200488997,0.7929656274980016,0.6864638024802876,0.3143785642932109,0.03817807454730887
eowiki,False,21.0,0.020385525021452938,0.7785771382893685,0.7046613598298801,0.29592327048796835,0.039730777075260036
eowiki,False,22.0,0.021356979354179167,0.768185451638689,0.7219493529548292,0.2784163473818646,0.041558553883411176
eowiki,False,23.0,0.022403789224393133,0.7561950439648282,0.7391495260856746,0.260985293931692,0.043518262949673384
eowiki,False,24.0,0.023479376903138133,0.7458033573141487,0.7545932993344499,0.2453371773959005,0.04552551966429199
eowiki,False,25.0,0.024576954069298954,0.7314148681055156,0.7700935282937202,0.2296005462615227,0.04755593669603181
eowiki,False,26.0,0.025926137662931625,0.7250199840127898,0.7840819987830658,0.21545085543037062,0.05006209465985925
eowiki,False,27.0,0.027196398150401556,0.7146282973621103,0.7971671779044894,0.2021799881137539,0.05239867538024206
eowiki,False,28.0,0.028362097036795833,0.6962430055955235,0.8104405427275636,0.18865622194403348,0.05450392666061764
eowiki,False,29.0,0.02971193702323313,0.6818545163868905,0.822766706185664,0.1761187613014175,0.05694259012016021
eowiki,False,30.0,0.03135135135135135,0.6722621902478018,0.8344342196879881,0.16428309497616428,0.05990881892007408
eowiki,False,31.0,0.03319237213755685,0.6650679456434853,0.8453552632404323,0.15321877015287735,0.06322909146179276
eowiki,False,32.0,0.03490610429054199,0.6522781774580336,0.8557493868282554,0.14264127562181506,0.06626603865518922
eowiki,False,33.0,0.03681290973272819,0.6418864908073542,0.8653970404661987,0.13283512259271904,0.06963232743669788
eowiki,False,34.0,0.03869062269259168,0.6282973621103117,0.8745805027067377,0.1234715425565545,0.07289251599740332
eowiki,False,35.0,0.040856236786469345,0.6179056754596323,0.883168043558717,0.11473388718182163,0.07664468791829855
eowiki,False,36.0,0.04295210499403443,0.60431654676259,0.8912286644460754,0.10650202951329615,0.08020369191597708
eowiki,False,37.0,0.04536308761660875,0.5947242206235012,0.8986055439507706,0.09899093357611623,0.08429639700883752
eowiki,False,38.0,0.04728317659352142,0.5787370103916867,0.9051857706518125,0.09223221172691982,0.087423775886011
eowiki,False,39.0,0.04967072999859885,0.5667466027178257,0.9115088102272656,0.08576432355879265,0.09133655394524959
eowiki,False,40.0,0.05191297824456114,0.5531574740207834,0.9172171098439941,0.07990339263811438,0.09491804402990194
eowiki,False,41.0,0.05450733752620545,0.5403677058353318,0.922837589466619,0.07413729878735,0.0990258551234161
eowiki,False,42.0,0.05813751087902524,0.533972821742606,0.9284580690892439,0.06842178470720635,0.10485833137116396
eowiki,False,43.0,0.06126445356210369,0.5251798561151079,0.9331250744901736,0.06364831885487399,0.10972860125260961
eowiki,False,44.0,0.06452897829117706,0.5179856115107914,0.9372902513533689,0.05939329565140422,0.11476135659257947
eowiki,False,45.0,0.06813093080285745,0.5107913669064749,0.9413362439388522,0.05525839940315871,0.12022577610536218
eowiki,False,46.0,0.072024694180862,0.5035971223021583,0.9451877779659634,0.05131949976606856,0.1260252050410082
eowiki,False,47.0,0.07623810685533057,0.49960031974420466,0.9485688477389488,0.04788007536385822,0.13228913112498678
eowiki,False,48.0,0.08009930746112635,0.49000799360511593,0.9518370060909439,0.04451019814625141,0.13769092542677447
eowiki,False,49.0,0.08507379560011138,0.48840927258193445,0.9547664301799682,0.04154495909361051,0.14490691331673186
eowiki,False,50.0,0.09027364663890541,0.48521183053557154,0.9575892157047241,0.0386745571108835,0.1522257053291536
eowiki,False,51.0,0.09456264775413711,0.47961630695443647,0.9598788084081371,0.03632259777701908,0.1579778830963665
eowiki,False,52.0,0.09996656636576395,0.478017585931255,0.9621307639712201,0.03404018562775818,0.1653532420848887
eowiki,False,53.0,0.10494699646643109,0.4748201438848921,0.9641004409818276,0.03202963974558375,0.17189986977282593
eowiki,False,54.0,0.11073573573573574,0.47162270183852917,0.9661328465596517,0.029955869150133405,0.17935856513147896
eowiki,False,55.0,0.11648745519713262,0.4676258992805755,0.9679896121492689,0.028052805280528052,0.18651362984218076
eowiki,False,56.0,0.12191034771679933,0.46522781774580335,0.9695076434759153,0.02650379980526788,0.19319502074688796
eowiki,False,57.0,0.12692816218598502,0.460431654676259,0.9709127633815716,0.025049631399921602,0.19899809984453273
eowiki,False,58.0,0.13253012048192772,0.4572342126298961,0.972255154720011,0.02367133265050643,0.20549667684569786
eowiki,False,59.0,0.13766359670382938,0.4540367705835332,0.9733968146433567,0.02249535298357422,0.21127022503254606
eowiki,False,60.0,0.1424227065382666,0.4492406075139888,0.9744506545725989,0.02139524297257312,0.21627862228208583
eowiki,False,61.0,0.14842498665242926,0.4444444444444444,0.9756299516362746,0.02016868353502017,0.22253352011206726
eowiki,False,62.0,0.154082774049217,0.4404476418864908,0.9766336087117434,0.0191254757659674,0.2282991506111456
eowiki,False,63.0,0.15771028037383178,0.4316546762589928,0.9774490800855618,0.018234007308776855,0.2310160427807487
eowiki,False,64.0,0.1608241082410824,0.4180655475619504,0.9783147343131535,0.017254024253000013,0.23228958472129693
eowiki,False,65.0,0.16773985833869928,0.416466826538769,0.9792054799676321,0.016343588381826687,0.23915538214367682
eowiki,False,66.0,0.17510121457489877,0.4148681055155875,0.9800711341952238,0.015458442395963735,0.2462633451957295
eowiki,False,67.0,0.18009145269081955,0.40927258193445243,0.9807423298644435,0.014737680664618186,0.2501221299462628
eowiki,False,68.0,0.1848026558465511,0.40047961630695444,0.9814323441038283,0.01397266163397949,0.25290257445734476
eowiki,False,69.0,0.19025700038358268,0.3964828137490008,0.9820219926356663,0.01334673697254783,0.257128045619492
eowiki,False,70.0,0.19506369426751594,0.39168665067945646,0.9825426397435656,0.012784037024392094,0.26043050757374436
eowiki,False,71.0,0.20320404721753793,0.3852917665867306,0.9833204739770539,0.011949470809149881,0.2660778360474745
eowiki,False,72.0,0.20824199912319158,0.3796962430055955,0.9838034839446232,0.011418383217632107,0.26896942242355604
eowiki,False,73.0,0.21336996336996336,0.37250199840127896,0.9842990396256359,0.010862005740803966,0.2713245997088792
eowiki,False,74.0,0.21839080459770116,0.3645083932853717,0.9847757767364835,0.010318273206631009,0.27313566936208444
eowiki,False,75.0,0.22171945701357465,0.35251798561151076,0.9852086038502794,0.009787185615113235,0.2722222222222222
eowiki,False,76.0,0.22744063324538258,0.3445243804956035,0.9856727952476837,0.009256098023595463,0.27399872854418306
eowiki,False,77.0,0.23535973229224763,0.33733013589128696,0.9861997152123049,0.008668108190129357,0.27726675427069647
eowiki,False,78.0,0.23974208675263775,0.3269384492406075,0.9865823594723273,0.00820024531188751,0.27663172133919517
eowiki,False,79.0,0.24014778325123154,0.3117505995203837,0.9868583651680812,0.007801929618249181,0.2713043478260869
eowiki,False,80.0,0.2442547603414314,0.2973621103117506,0.9872661008549903,0.007277164498059001,0.2682047584715213
eowiki,False,81.0,0.24965325936199723,0.28776978417266186,0.9876236536881261,0.006840913976455117,0.26735982176011885
eowiki,False,82.0,0.2525622254758419,0.27577937649880097,0.9879122050973234,0.006455243225471972,0.2636606801681315
eowiki,False,83.0,0.253125,0.2589928057553957,0.9881882107930773,0.006044282589178458,0.25602528644804423
eowiki,False,84.0,0.2629382303839733,0.2517985611510791,0.9885896736232648,0.005582742182264204,0.2572478562678644
eowiki,False,85.0,0.27338782924613986,0.24060751398880895,0.9890225007370607,0.005057977062074024,0.255952380952381
eowiki,False,86.0,0.2751004016064257,0.2190247801758593,0.9893424164298663,0.0045648242985218065,0.24388072986203826
eowiki,False,87.0,0.2860335195530726,0.20463629096722621,0.9897501521167755,0.004040059178331626,0.23858341099720412
eowiki,False,88.0,0.2858942065491184,0.18145483613109512,0.9900198849558077,0.003584841242744964,0.22200488997555012
eowiki,False,89.0,0.3035971223021583,0.16866506794564348,0.9904401663561603,0.003060076122554784,0.21685508735868447
eowiki,False,90.0,0.3221830985915493,0.14628297362110312,0.9908855391833995,0.002434151461123124,0.20120945574491478
eowiki,False,91.0,0.3615702479338843,0.1398880895283773,0.9913120934404738,0.0019536436402260915,0.2017291066282421
eowiki,False,92.0,0.3822784810126582,0.12070343725019984,0.9915692805660626,0.0015426830039325771,0.18347509113001215
eowiki,False,93.0,0.4234527687296417,0.10391686650679456,0.9918578319752599,0.0011190774249838777,0.16688061617458277
eowiki,False,94.0,0.42792792792792794,0.0759392486011191,0.9919519248260851,0.0008029538586042512,0.12898845892735913
eowiki,False,95.0,0.47058823529411764,0.0639488409272582,0.992089927673962,0.0005690224194833276,0.11259676284306827
eowiki,False,96.0,0.544,0.05435651478816946,0.9922216576651173,0.0003603808656727742,0.09883720930232558
eowiki,False,97.0,0.5952380952380952,0.03996802557953637,0.9922530219487257,0.000214964025138146,0.07490636704119849
eowiki,False,98.0,0.7551020408163265,0.029576338928856916,0.9923094776592208,7.586965593111036e-05,0.05692307692307693
eowiki,False,99.0,0.8571428571428571,0.004796163069544364,0.9921840205247872,6.322471327592529e-06,0.009538950715421303
