wiki_db,user_is_bot,threshold,precision,recall,accuracy,fpr,F1
fowiki,True,0.0,0.04927536231884058,1.0,0.04927536231884058,1.0,0.09392265193370165
fowiki,True,1.0,0.04927536231884058,1.0,0.04927536231884058,1.0,0.09392265193370165
fowiki,True,2.0,0.04927536231884058,1.0,0.04927536231884058,1.0,0.09392265193370165
fowiki,True,3.0,0.04927536231884058,1.0,0.04927536231884058,1.0,0.09392265193370165
fowiki,True,4.0,0.04927536231884058,1.0,0.04927536231884058,1.0,0.09392265193370165
fowiki,True,5.0,0.04927536231884058,1.0,0.04927536231884058,1.0,0.09392265193370165
fowiki,True,6.0,0.04941860465116279,1.0,0.05217391304347826,0.9969512195121951,0.09418282548476453
fowiki,True,7.0,0.050445103857566766,1.0,0.07246376811594203,0.975609756097561,0.09604519774011298
fowiki,True,8.0,0.05167173252279635,1.0,0.09565217391304348,0.9512195121951219,0.09826589595375722
fowiki,True,9.0,0.051829268292682924,1.0,0.09855072463768116,0.948170731707317,0.09855072463768116
fowiki,True,10.0,0.05214723926380368,1.0,0.10434782608695652,0.9420731707317073,0.09912536443148688
fowiki,True,11.0,0.052307692307692305,1.0,0.1072463768115942,0.9390243902439024,0.09941520467836255
fowiki,True,12.0,0.05263157894736842,1.0,0.11304347826086956,0.9329268292682927,0.1
fowiki,True,13.0,0.052795031055900624,1.0,0.11594202898550725,0.9298780487804879,0.10029498525073746
fowiki,True,14.0,0.052795031055900624,1.0,0.11594202898550725,0.9298780487804879,0.10029498525073746
fowiki,True,15.0,0.0529595015576324,1.0,0.11884057971014493,0.926829268292683,0.10059171597633138
fowiki,True,16.0,0.0529595015576324,1.0,0.11884057971014493,0.926829268292683,0.10059171597633138
fowiki,True,17.0,0.05329153605015674,1.0,0.1246376811594203,0.9207317073170732,0.10119047619047619
fowiki,True,18.0,0.05329153605015674,1.0,0.1246376811594203,0.9207317073170732,0.10119047619047619
fowiki,True,19.0,0.05345911949685535,1.0,0.12753623188405797,0.9176829268292683,0.10149253731343283
fowiki,True,20.0,0.054140127388535034,1.0,0.1391304347826087,0.9054878048780488,0.10271903323262839
fowiki,True,21.0,0.054140127388535034,1.0,0.1391304347826087,0.9054878048780488,0.10271903323262839
fowiki,True,22.0,0.054140127388535034,1.0,0.1391304347826087,0.9054878048780488,0.10271903323262839
fowiki,True,23.0,0.054313099041533544,1.0,0.14202898550724638,0.9024390243902439,0.10303030303030303
fowiki,True,24.0,0.05501618122977346,1.0,0.1536231884057971,0.8902439024390244,0.10429447852760737
fowiki,True,25.0,0.056291390728476824,1.0,0.17391304347826086,0.8689024390243902,0.1065830721003135
fowiki,True,26.0,0.056856187290969896,1.0,0.1826086956521739,0.8597560975609756,0.10759493670886076
fowiki,True,27.0,0.054982817869415807,0.9411764705882353,0.2,0.8384146341463414,0.10389610389610389
fowiki,True,28.0,0.054982817869415807,0.9411764705882353,0.2,0.8384146341463414,0.10389610389610389
fowiki,True,29.0,0.05574912891986063,0.9411764705882353,0.21159420289855072,0.8262195121951219,0.10526315789473685
fowiki,True,30.0,0.05653710247349823,0.9411764705882353,0.22318840579710145,0.8140243902439024,0.10666666666666666
fowiki,True,31.0,0.05693950177935943,0.9411764705882353,0.2289855072463768,0.8079268292682927,0.10738255033557045
fowiki,True,32.0,0.05755395683453238,0.9411764705882353,0.23768115942028986,0.7987804878048781,0.10847457627118645
fowiki,True,33.0,0.058394160583941604,0.9411764705882353,0.2492753623188406,0.7865853658536586,0.1099656357388316
fowiki,True,34.0,0.05555555555555555,0.8823529411764706,0.25507246376811593,0.7774390243902439,0.10452961672473866
fowiki,True,35.0,0.05660377358490566,0.8823529411764706,0.26956521739130435,0.7621951219512195,0.10638297872340426
fowiki,True,36.0,0.05725190839694656,0.8823529411764706,0.2782608695652174,0.7530487804878049,0.1075268817204301
fowiki,True,37.0,0.05813953488372093,0.8823529411764706,0.2898550724637681,0.7408536585365854,0.1090909090909091
fowiki,True,38.0,0.058365758754863814,0.8823529411764706,0.2927536231884058,0.7378048780487805,0.1094890510948905
fowiki,True,39.0,0.05928853754940711,0.8823529411764706,0.30434782608695654,0.725609756097561,0.11111111111111112
fowiki,True,40.0,0.06,0.8823529411764706,0.3130434782608696,0.7164634146341463,0.11235955056179775
fowiki,True,41.0,0.06097560975609756,0.8823529411764706,0.32463768115942027,0.7042682926829268,0.11406844106463879
fowiki,True,42.0,0.06276150627615062,0.8823529411764706,0.34492753623188405,0.6829268292682927,0.1171875
fowiki,True,43.0,0.0641025641025641,0.8823529411764706,0.35942028985507246,0.6676829268292683,0.1195219123505976
fowiki,True,44.0,0.06578947368421052,0.8823529411764706,0.37681159420289856,0.649390243902439,0.12244897959183673
fowiki,True,45.0,0.06637168141592921,0.8823529411764706,0.3826086956521739,0.6432926829268293,0.12345679012345681
fowiki,True,46.0,0.0625,0.8235294117647058,0.3826086956521739,0.6402439024390244,0.11618257261410789
fowiki,True,47.0,0.06306306306306306,0.8235294117647058,0.3884057971014493,0.6341463414634146,0.11715481171548116
fowiki,True,48.0,0.06422018348623854,0.8235294117647058,0.4,0.6219512195121951,0.11914893617021277
fowiki,True,49.0,0.06481481481481481,0.8235294117647058,0.4057971014492754,0.6158536585365854,0.12017167381974249
fowiki,True,50.0,0.06666666666666667,0.8235294117647058,0.42318840579710143,0.5975609756097561,0.12334801762114538
fowiki,True,51.0,0.06310679611650485,0.7647058823529411,0.4289855072463768,0.5884146341463414,0.11659192825112107
fowiki,True,52.0,0.06310679611650485,0.7647058823529411,0.4289855072463768,0.5884146341463414,0.11659192825112107
fowiki,True,53.0,0.06341463414634146,0.7647058823529411,0.4318840579710145,0.5853658536585366,0.11711711711711711
fowiki,True,54.0,0.06341463414634146,0.7647058823529411,0.4318840579710145,0.5853658536585366,0.11711711711711711
fowiki,True,55.0,0.06372549019607843,0.7647058823529411,0.43478260869565216,0.5823170731707317,0.1176470588235294
fowiki,True,56.0,0.06372549019607843,0.7647058823529411,0.43478260869565216,0.5823170731707317,0.1176470588235294
fowiki,True,57.0,0.065,0.7647058823529411,0.4463768115942029,0.5701219512195121,0.11981566820276499
fowiki,True,58.0,0.0663265306122449,0.7647058823529411,0.4579710144927536,0.5579268292682927,0.12206572769953053
fowiki,True,59.0,0.06666666666666667,0.7647058823529411,0.4608695652173913,0.5548780487804879,0.12264150943396225
fowiki,True,60.0,0.0625,0.7058823529411765,0.463768115942029,0.5487804878048781,0.11483253588516747
fowiki,True,61.0,0.06315789473684211,0.7058823529411765,0.46956521739130436,0.5426829268292683,0.11594202898550725
fowiki,True,62.0,0.06349206349206349,0.7058823529411765,0.47246376811594204,0.5396341463414634,0.11650485436893203
fowiki,True,63.0,0.05913978494623656,0.6470588235294118,0.4753623188405797,0.5335365853658537,0.1083743842364532
fowiki,True,64.0,0.05945945945945946,0.6470588235294118,0.4782608695652174,0.5304878048780488,0.10891089108910894
fowiki,True,65.0,0.06179775280898876,0.6470588235294118,0.4985507246376812,0.5091463414634146,0.11282051282051282
fowiki,True,66.0,0.0625,0.6470588235294118,0.5043478260869565,0.5030487804878049,0.11398963730569948
fowiki,True,67.0,0.06470588235294118,0.6470588235294118,0.5217391304347826,0.4847560975609756,0.11764705882352941
fowiki,True,68.0,0.06666666666666667,0.6470588235294118,0.5362318840579711,0.4695121951219512,0.12087912087912088
fowiki,True,69.0,0.06578947368421052,0.5882352941176471,0.5681159420289855,0.4329268292682927,0.11834319526627217
fowiki,True,70.0,0.06622516556291391,0.5882352941176471,0.5710144927536231,0.4298780487804878,0.11904761904761905
fowiki,True,71.0,0.06756756756756757,0.5882352941176471,0.5797101449275363,0.42073170731707316,0.12121212121212122
fowiki,True,72.0,0.0625,0.5294117647058824,0.5855072463768116,0.4115853658536585,0.11180124223602485
fowiki,True,73.0,0.06428571428571428,0.5294117647058824,0.5971014492753624,0.39939024390243905,0.11464968152866241
fowiki,True,74.0,0.06474820143884892,0.5294117647058824,0.6,0.39634146341463417,0.11538461538461538
fowiki,True,75.0,0.06716417910447761,0.5294117647058824,0.6144927536231884,0.38109756097560976,0.11920529801324503
fowiki,True,76.0,0.06976744186046512,0.5294117647058824,0.6289855072463768,0.36585365853658536,0.1232876712328767
fowiki,True,77.0,0.07377049180327869,0.5294117647058824,0.6492753623188405,0.3445121951219512,0.12949640287769784
fowiki,True,78.0,0.06956521739130435,0.47058823529411764,0.663768115942029,0.32621951219512196,0.12121212121212119
fowiki,True,79.0,0.07339449541284404,0.47058823529411764,0.6811594202898551,0.3079268292682927,0.12698412698412698
fowiki,True,80.0,0.07920792079207921,0.47058823529411764,0.7043478260869566,0.28353658536585363,0.13559322033898308
fowiki,True,81.0,0.08,0.47058823529411764,0.7072463768115942,0.2804878048780488,0.13675213675213677
fowiki,True,82.0,0.0851063829787234,0.47058823529411764,0.7246376811594203,0.2621951219512195,0.14414414414414414
fowiki,True,83.0,0.09090909090909091,0.47058823529411764,0.7420289855072464,0.24390243902439024,0.15238095238095237
fowiki,True,84.0,0.09876543209876543,0.47058823529411764,0.7623188405797101,0.2225609756097561,0.163265306122449
fowiki,True,85.0,0.09210526315789473,0.4117647058823529,0.7710144927536232,0.21036585365853658,0.15053763440860216
fowiki,True,86.0,0.10294117647058823,0.4117647058823529,0.7942028985507247,0.18597560975609756,0.16470588235294117
fowiki,True,87.0,0.11666666666666667,0.4117647058823529,0.8173913043478261,0.16158536585365854,0.1818181818181818
fowiki,True,88.0,0.12727272727272726,0.4117647058823529,0.8318840579710145,0.14634146341463414,0.19444444444444442
fowiki,True,89.0,0.1111111111111111,0.29411764705882354,0.8492753623188406,0.12195121951219512,0.16129032258064516
fowiki,True,90.0,0.1,0.23529411764705882,0.8579710144927536,0.10975609756097561,0.14035087719298245
fowiki,True,91.0,0.09090909090909091,0.17647058823529413,0.8724637681159421,0.09146341463414634,0.12000000000000001
fowiki,True,92.0,0.045454545454545456,0.058823529411764705,0.8927536231884058,0.06402439024390244,0.05128205128205128
fowiki,True,93.0,0.06666666666666667,0.058823529411764705,0.9130434782608695,0.042682926829268296,0.0625
fowiki,True,94.0,0.0,0.0,0.9333333333333333,0.018292682926829267,0.0625
fowiki,True,95.0,0.0,0.0,0.9420289855072463,0.009146341463414634,0.0625
fowiki,True,96.0,0.0,0.0,0.9478260869565217,0.003048780487804878,0.0625
fowiki,True,97.0,0.0,0.0,0.9478260869565217,0.003048780487804878,0.0625
fowiki,True,98.0,0.0,0.0,0.9478260869565217,0.003048780487804878,0.0625
fowiki,True,99.0,0.0,0.0,0.9507246376811594,0.0,0.0625
fowiki,False,0.0,0.057230980123372174,1.0,0.057230980123372174,1.0,0.10826580226904377
fowiki,False,1.0,0.057230980123372174,1.0,0.057230980123372174,1.0,0.10826580226904377
fowiki,False,2.0,0.057230980123372174,1.0,0.057230980123372174,1.0,0.10826580226904377
fowiki,False,3.0,0.057230980123372174,1.0,0.057230980123372174,1.0,0.10826580226904377
fowiki,False,4.0,0.05728987993138936,1.0,0.058259081562714185,0.9989094874591058,0.10837118754055806
fowiki,False,5.0,0.057388316151202746,1.0,0.059972583961617545,0.9970919665576155,0.10854728631784205
fowiki,False,6.0,0.05747719841679573,1.0,0.06151473612063057,0.995456197746274,0.10870626525630595
fowiki,False,7.0,0.057805469020422294,1.0,0.06716929403701165,0.9894583787713559,0.10929319371727748
fowiki,False,8.0,0.058107167710508,1.0,0.07230980123372173,0.9840058160668848,0.1098322920092075
fowiki,False,9.0,0.0583508036338225,1.0,0.07642220699108979,0.9796437659033079,0.11026741498844503
fowiki,False,10.0,0.05858621294509735,1.0,0.08036326250856751,0.97546346782988,0.11068765534382767
fowiki,False,11.0,0.05902102845025623,1.0,0.08755997258396161,0.9678298800436205,0.11146337393625898
fowiki,False,12.0,0.05924086555516141,1.0,0.09115832762165867,0.9640130861504908,0.11185532484929671
fowiki,False,13.0,0.05948352626892253,1.0,0.09509938313913639,0.9598327880770628,0.11228777945873256
fowiki,False,14.0,0.05989956958393113,1.0,0.10178204249485949,0.9527444565612505,0.11302876480541456
fowiki,False,15.0,0.06029969308539448,1.0,0.10812200137080191,0.9460196292257361,0.1137408479482377
fowiki,False,16.0,0.06081573197378004,1.0,0.11617546264564771,0.9374772809887314,0.11465842773772741
fowiki,False,17.0,0.06139705882352941,1.0,0.12508567511994517,0.9280261723009815,0.11569102874956703
fowiki,False,18.0,0.06201262532491645,1.0,0.1343385880740233,0.9182115594329335,0.11678321678321678
fowiki,False,19.0,0.06257025103034844,1.0,0.14256339958875944,0.9094874591057798,0.11777150916784201
fowiki,False,20.0,0.06311413454270597,1.0,0.15044551062371486,0.9011268629589241,0.11873444720938499
fowiki,False,21.0,0.06366755623332063,1.0,0.15832762165867031,0.8927662668120684,0.11971326164874552
fowiki,False,22.0,0.06388676358071921,1.0,0.16141192597669637,0.8894947291893857,0.12010068320747933
fowiki,False,23.0,0.06460348162475822,1.0,0.17135023989033585,0.8789531079607416,0.12136627906976744
fowiki,False,24.0,0.065234375,1.0,0.17991775188485265,0.8698655034532897,0.12247891455812247
fowiki,False,25.0,0.06609934692262022,1.0,0.19139821795750514,0.8576881134133042,0.12400222758492666
fowiki,False,26.0,0.06648089171974522,1.0,0.19636737491432488,0.8524173027989822,0.12467338559163867
fowiki,False,27.0,0.06595401371520775,0.9790419161676647,0.20527758738862234,0.8416939294801891,0.1235827664399093
fowiki,False,28.0,0.06589383770591824,0.9700598802395209,0.2112748457847841,0.8347873500545256,0.12340506570177108
fowiki,False,29.0,0.06637984019668101,0.9700598802395209,0.21744345442083618,0.8282442748091603,0.1242569511025887
fowiki,False,30.0,0.06715025906735751,0.9700598802395209,0.227039067854695,0.8180661577608143,0.12560573754603607
fowiki,False,31.0,0.06775407779171895,0.9700598802395209,0.23440712816997944,0.8102508178844057,0.1266614542611415
fowiki,False,32.0,0.06846999154691462,0.9700598802395209,0.24297464016449624,0.8011632133769538,0.12791156731148834
fowiki,False,33.0,0.06994818652849741,0.9700598802395209,0.2601096641535298,0.7829880043620502,0.13048731373338704
fowiki,False,34.0,0.07021369385085041,0.9640718562874252,0.2673063742289239,0.7749909123954926,0.13089430894308943
fowiki,False,35.0,0.07122318071223181,0.9640718562874252,0.2784441398217958,0.7631770265358052,0.13264675592173017
fowiki,False,36.0,0.07222969941677883,0.9640718562874252,0.2892392049348869,0.7517266448564158,0.1343906510851419
fowiki,False,37.0,0.07301587301587302,0.9640718562874252,0.297464016449623,0.7430025445292621,0.1357504215851602
fowiki,False,38.0,0.07361682670324646,0.9640718562874252,0.3036326250856751,0.7364594692838967,0.13678844519966016
fowiki,False,39.0,0.07438207438207438,0.9640718562874252,0.31134338588074023,0.7282806252271901,0.1381085138322968
fowiki,False,40.0,0.07525122692217807,0.9640718562874252,0.319910897875257,0.7191930207197382,0.13960546282245828
fowiki,False,41.0,0.07588970068347867,0.9640718562874252,0.3260795065113091,0.712649945474373,0.14070351758793967
fowiki,False,42.0,0.07596153846153846,0.9461077844311377,0.33824537354352296,0.6986550345328971,0.14063195371606585
fowiki,False,43.0,0.07692307692307693,0.9461077844311377,0.34715558601782043,0.6892039258451472,0.14227825303917155
fowiki,False,44.0,0.07777504307162196,0.9461077844311377,0.35486634681288554,0.6810250817884406,0.14373436433932227
fowiki,False,45.0,0.07868525896414343,0.9461077844311377,0.36291980808773133,0.6724827335514358,0.14528735632183906
fowiki,False,46.0,0.07888104838709678,0.937125748502994,0.3701165181631254,0.6643038894947292,0.14551371455137146
fowiki,False,47.0,0.07992849846782431,0.937125748502994,0.37902673063742287,0.6548527808069793,0.1472941176470588
fowiki,False,48.0,0.08052482634422434,0.937125748502994,0.38399588759424264,0.6495819701926572,0.14830608860459607
fowiki,False,49.0,0.08106708106708106,0.937125748502994,0.38845099383139137,0.6448564158487823,0.14922526817640047
fowiki,False,50.0,0.08228180862250263,0.937125748502994,0.3982179575051405,0.6344965467102872,0.1512808119864669
fowiki,False,51.0,0.08244680851063829,0.9281437125748503,0.40472926662097325,0.6270447110141767,0.15144113336590131
fowiki,False,52.0,0.08255659121171771,0.9281437125748503,0.40558601782042497,0.6261359505634315,0.1516263145023233
fowiki,False,53.0,0.08306538049303322,0.9281437125748503,0.40952707333790267,0.6219556524900036,0.15248401377274964
fowiki,False,54.0,0.08290436196152805,0.9161676646706587,0.41518163125428376,0.6152308251544892,0.1520496894409938
fowiki,False,55.0,0.08337874659400545,0.9161676646706587,0.4187799862919808,0.6114140312613595,0.15284715284715283
fowiki,False,56.0,0.08372093023255814,0.9161676646706587,0.4213502398903358,0.608687749909124,0.1534219102531963
fowiki,False,57.0,0.08518930957683742,0.9161676646706587,0.432145305003427,0.5972373682297346,0.15588385124808965
fowiki,False,58.0,0.08576233183856502,0.9161676646706587,0.43625771076079506,0.5928753180661578,0.15684264479753973
fowiki,False,59.0,0.08710503842869342,0.9161676646706587,0.44568197395476356,0.5828789531079608,0.1590850012997141
fowiki,False,60.0,0.08718244803695151,0.9041916167664671,0.4527073337902673,0.5747001090512541,0.1590310689836756
fowiki,False,61.0,0.08913813459268005,0.9041916167664671,0.46572995202193285,0.5608869501999273,0.16227834497581944
fowiki,False,62.0,0.09039209817419934,0.9041916167664671,0.4737834132967786,0.5523446019629226,0.16435374149659865
fowiki,False,63.0,0.09194341943419435,0.8952095808383234,0.4880054832076765,0.5367139222101054,0.16675962074735082
fowiki,False,64.0,0.09346670834635824,0.8952095808383234,0.4970870459218643,0.5270810614322065,0.1692612510614209
fowiki,False,65.0,0.09701492537313433,0.8952095808383234,0.5171350239890335,0.5058160668847692,0.17505854800936768
fowiki,False,66.0,0.09845242015146526,0.8952095808383234,0.5248457847840987,0.4976372228280625,0.17739543162266388
fowiki,False,67.0,0.10057181298351833,0.8952095808383234,0.5358122001370802,0.4860050890585242,0.18082854550952523
fowiki,False,68.0,0.10113129928008227,0.8832335329341318,0.5440370116518163,0.4765539803707743,0.18148262073208243
fowiki,False,69.0,0.10303458009880029,0.874251497005988,0.5572309801233721,0.4620138131588513,0.18434343434343436
fowiki,False,70.0,0.10406272273699216,0.874251497005988,0.5620287868403016,0.4569247546346783,0.1859872611464968
fowiki,False,71.0,0.1067251461988304,0.874251497005988,0.5740233036326251,0.4442021083242457,0.19022801302931594
fowiki,False,72.0,0.10827067669172932,0.8622754491017964,0.585675119945168,0.4311159578335151,0.19238476953907815
fowiki,False,73.0,0.11041747951619196,0.8473053892215568,0.6005825908156271,0.4143947655398037,0.19537452537107353
fowiki,False,74.0,0.11239078633836377,0.8473053892215568,0.6082933516106922,0.40621592148309704,0.1984572230014025
fowiki,False,75.0,0.11728139245752175,0.8473053892215568,0.6262851267991775,0.3871319520174482,0.20604295595194758
fowiki,False,76.0,0.11882453151618398,0.8353293413173652,0.6360520904729267,0.37604507451835695,0.20805369127516776
fowiki,False,77.0,0.12021371326803205,0.8083832335329342,0.6504455106237149,0.35914213013449653,0.20930232558139533
fowiki,False,78.0,0.1187470780738663,0.7604790419161677,0.6632967786154901,0.3426026899309342,0.2054185200161747
fowiki,False,79.0,0.12332838038632987,0.7455089820359282,0.682145305003427,0.321701199563795,0.21164470888227793
fowiki,False,80.0,0.1299582463465553,0.7455089820359282,0.6997943797121315,0.3029807342784442,0.22133333333333333
fowiki,False,81.0,0.1322722283205269,0.7215568862275449,0.7131596984235778,0.28735005452562706,0.22356215213358072
fowiki,False,82.0,0.13208649912331968,0.6766467065868264,0.727039067854695,0.26990185387131954,0.22102689486552565
fowiki,False,83.0,0.1404639175257732,0.6526946107784432,0.751542152159013,0.242457288258815,0.23117709437963943
fowiki,False,84.0,0.14305364511691884,0.6227544910179641,0.7649074708704592,0.22646310432569974,0.232662192393736
fowiki,False,85.0,0.12871287128712872,0.5059880239520959,0.7757025359835503,0.207924391130498,0.20522161505768063
fowiki,False,86.0,0.13863822805578344,0.5059880239520959,0.7918094585332419,0.19083969465648856,0.2176432710882164
fowiki,False,87.0,0.13984674329501914,0.437125748502994,0.8139136394790952,0.16321337695383498,0.21190130624092887
fowiki,False,88.0,0.15185601799775028,0.4041916167664671,0.8367032213845099,0.1370410759723737,0.22076860179885527
fowiki,False,89.0,0.15211267605633802,0.32335329341317365,0.858122001370802,0.10941475826972011,0.2068965517241379
fowiki,False,90.0,0.1605960264900662,0.2904191616766467,0.8725154215215901,0.09214830970556162,0.2068230277185501
fowiki,False,91.0,0.1726457399103139,0.23053892215568864,0.8927347498286498,0.06706652126499454,0.19743589743589743
fowiki,False,92.0,0.15960912052117263,0.1467065868263473,0.9069568197395477,0.04689203925845147,0.15288611544461778
fowiki,False,93.0,0.09815950920245399,0.04790419161676647,0.9203221384509939,0.026717557251908396,0.06438631790744467
fowiki,False,94.0,0.042105263157894736,0.011976047904191617,0.9278615490061686,0.01653944020356234,0.018648018648018648
fowiki,False,95.0,0.0,0.0,0.9333447566826594,0.009996364958197019,0.018648018648018648
fowiki,False,96.0,0.0,0.0,0.9381425633995888,0.004907306434023991,0.018648018648018648
fowiki,False,97.0,0.0,0.0,0.9395133653187114,0.0034532897128316978,0.018648018648018648
fowiki,False,98.0,0.0,0.0,0.9417409184372858,0.0010905125408942203,0.018648018648018648
fowiki,False,99.0,0.0,0.0,0.9427690198766279,0.0,0.018648018648018648
