wiki_db,user_is_bot,threshold,precision,recall,accuracy,fpr,F1
gorwiki,True,0.0,0.05,1.0,0.05,1.0,0.09523809523809523
gorwiki,True,1.0,0.05,1.0,0.05,1.0,0.09523809523809523
gorwiki,True,2.0,0.05,1.0,0.05,1.0,0.09523809523809523
gorwiki,True,3.0,0.05,1.0,0.05,1.0,0.09523809523809523
gorwiki,True,4.0,0.05,1.0,0.05,1.0,0.09523809523809523
gorwiki,True,5.0,0.05,1.0,0.05,1.0,0.09523809523809523
gorwiki,True,6.0,0.05,1.0,0.05,1.0,0.09523809523809523
gorwiki,True,7.0,0.05,1.0,0.05,1.0,0.09523809523809523
gorwiki,True,8.0,0.05,1.0,0.05,1.0,0.09523809523809523
gorwiki,True,9.0,0.05128205128205128,1.0,0.075,0.9736842105263158,0.09756097560975609
gorwiki,True,10.0,0.05405405405405406,1.0,0.125,0.9210526315789473,0.10256410256410257
gorwiki,True,11.0,0.0547945205479452,1.0,0.1375,0.9078947368421053,0.10389610389610389
gorwiki,True,12.0,0.057971014492753624,1.0,0.1875,0.8552631578947368,0.1095890410958904
gorwiki,True,13.0,0.058823529411764705,1.0,0.2,0.8421052631578947,0.1111111111111111
gorwiki,True,14.0,0.058823529411764705,1.0,0.2,0.8421052631578947,0.1111111111111111
gorwiki,True,15.0,0.058823529411764705,1.0,0.2,0.8421052631578947,0.1111111111111111
gorwiki,True,16.0,0.058823529411764705,1.0,0.2,0.8421052631578947,0.1111111111111111
gorwiki,True,17.0,0.06060606060606061,1.0,0.225,0.8157894736842105,0.1142857142857143
gorwiki,True,18.0,0.06153846153846154,1.0,0.2375,0.8026315789473685,0.11594202898550725
gorwiki,True,19.0,0.06153846153846154,1.0,0.2375,0.8026315789473685,0.11594202898550725
gorwiki,True,20.0,0.0625,1.0,0.25,0.7894736842105263,0.11764705882352941
gorwiki,True,21.0,0.06451612903225806,1.0,0.275,0.7631578947368421,0.12121212121212122
gorwiki,True,22.0,0.06557377049180328,1.0,0.2875,0.75,0.12307692307692307
gorwiki,True,23.0,0.06666666666666667,1.0,0.3,0.7368421052631579,0.125
gorwiki,True,24.0,0.06779661016949153,1.0,0.3125,0.7236842105263158,0.12698412698412698
gorwiki,True,25.0,0.07017543859649122,1.0,0.3375,0.6973684210526315,0.13114754098360656
gorwiki,True,26.0,0.07142857142857142,1.0,0.35,0.6842105263157895,0.13333333333333333
gorwiki,True,27.0,0.07692307692307693,1.0,0.4,0.631578947368421,0.14285714285714288
gorwiki,True,28.0,0.08163265306122448,1.0,0.4375,0.5921052631578947,0.15094339622641506
gorwiki,True,29.0,0.08163265306122448,1.0,0.4375,0.5921052631578947,0.15094339622641506
gorwiki,True,30.0,0.08163265306122448,1.0,0.4375,0.5921052631578947,0.15094339622641506
gorwiki,True,31.0,0.0625,0.75,0.425,0.5921052631578947,0.11538461538461539
gorwiki,True,32.0,0.0625,0.75,0.425,0.5921052631578947,0.11538461538461539
gorwiki,True,33.0,0.0625,0.75,0.425,0.5921052631578947,0.11538461538461539
gorwiki,True,34.0,0.06521739130434782,0.75,0.45,0.5657894736842105,0.12
gorwiki,True,35.0,0.06666666666666667,0.75,0.4625,0.5526315789473685,0.12244897959183675
gorwiki,True,36.0,0.06818181818181818,0.75,0.475,0.5394736842105263,0.125
gorwiki,True,37.0,0.07142857142857142,0.75,0.5,0.5131578947368421,0.13043478260869565
gorwiki,True,38.0,0.08108108108108109,0.75,0.5625,0.4473684210526316,0.14634146341463414
gorwiki,True,39.0,0.05555555555555555,0.5,0.55,0.4473684210526316,0.09999999999999999
gorwiki,True,40.0,0.05555555555555555,0.5,0.55,0.4473684210526316,0.09999999999999999
gorwiki,True,41.0,0.05555555555555555,0.5,0.55,0.4473684210526316,0.09999999999999999
gorwiki,True,42.0,0.05555555555555555,0.5,0.55,0.4473684210526316,0.09999999999999999
gorwiki,True,43.0,0.058823529411764705,0.5,0.575,0.42105263157894735,0.10526315789473684
gorwiki,True,44.0,0.0625,0.5,0.6,0.39473684210526316,0.1111111111111111
gorwiki,True,45.0,0.06896551724137931,0.5,0.6375,0.35526315789473684,0.1212121212121212
gorwiki,True,46.0,0.07142857142857142,0.5,0.65,0.34210526315789475,0.125
gorwiki,True,47.0,0.07142857142857142,0.5,0.65,0.34210526315789475,0.125
gorwiki,True,48.0,0.07142857142857142,0.5,0.65,0.34210526315789475,0.125
gorwiki,True,49.0,0.07142857142857142,0.5,0.65,0.34210526315789475,0.125
gorwiki,True,50.0,0.07142857142857142,0.5,0.65,0.34210526315789475,0.125
gorwiki,True,51.0,0.07692307692307693,0.5,0.675,0.3157894736842105,0.13333333333333336
gorwiki,True,52.0,0.07692307692307693,0.5,0.675,0.3157894736842105,0.13333333333333336
gorwiki,True,53.0,0.07692307692307693,0.5,0.675,0.3157894736842105,0.13333333333333336
gorwiki,True,54.0,0.07692307692307693,0.5,0.675,0.3157894736842105,0.13333333333333336
gorwiki,True,55.0,0.07692307692307693,0.5,0.675,0.3157894736842105,0.13333333333333336
gorwiki,True,56.0,0.07692307692307693,0.5,0.675,0.3157894736842105,0.13333333333333336
gorwiki,True,57.0,0.07692307692307693,0.5,0.675,0.3157894736842105,0.13333333333333336
gorwiki,True,58.0,0.08695652173913043,0.5,0.7125,0.27631578947368424,0.14814814814814817
gorwiki,True,59.0,0.05,0.25,0.725,0.25,0.08333333333333334
gorwiki,True,60.0,0.05,0.25,0.725,0.25,0.08333333333333334
gorwiki,True,61.0,0.05555555555555555,0.25,0.75,0.2236842105263158,0.0909090909090909
gorwiki,True,62.0,0.05555555555555555,0.25,0.75,0.2236842105263158,0.0909090909090909
gorwiki,True,63.0,0.058823529411764705,0.25,0.7625,0.21052631578947367,0.09523809523809523
gorwiki,True,64.0,0.058823529411764705,0.25,0.7625,0.21052631578947367,0.09523809523809523
gorwiki,True,65.0,0.058823529411764705,0.25,0.7625,0.21052631578947367,0.09523809523809523
gorwiki,True,66.0,0.058823529411764705,0.25,0.7625,0.21052631578947367,0.09523809523809523
gorwiki,True,67.0,0.058823529411764705,0.25,0.7625,0.21052631578947367,0.09523809523809523
gorwiki,True,68.0,0.058823529411764705,0.25,0.7625,0.21052631578947367,0.09523809523809523
gorwiki,True,69.0,0.058823529411764705,0.25,0.7625,0.21052631578947367,0.09523809523809523
gorwiki,True,70.0,0.0625,0.25,0.775,0.19736842105263158,0.1
gorwiki,True,71.0,0.0625,0.25,0.775,0.19736842105263158,0.1
gorwiki,True,72.0,0.0625,0.25,0.775,0.19736842105263158,0.1
gorwiki,True,73.0,0.0625,0.25,0.775,0.19736842105263158,0.1
gorwiki,True,74.0,0.0625,0.25,0.775,0.19736842105263158,0.1
gorwiki,True,75.0,0.06666666666666667,0.25,0.7875,0.18421052631578946,0.10526315789473685
gorwiki,True,76.0,0.06666666666666667,0.25,0.7875,0.18421052631578946,0.10526315789473685
gorwiki,True,77.0,0.07142857142857142,0.25,0.8,0.17105263157894737,0.11111111111111112
gorwiki,True,78.0,0.07142857142857142,0.25,0.8,0.17105263157894737,0.11111111111111112
gorwiki,True,79.0,0.07142857142857142,0.25,0.8,0.17105263157894737,0.11111111111111112
gorwiki,True,80.0,0.07142857142857142,0.25,0.8,0.17105263157894737,0.11111111111111112
gorwiki,True,81.0,0.07142857142857142,0.25,0.8,0.17105263157894737,0.11111111111111112
gorwiki,True,82.0,0.07142857142857142,0.25,0.8,0.17105263157894737,0.11111111111111112
gorwiki,True,83.0,0.07142857142857142,0.25,0.8,0.17105263157894737,0.11111111111111112
gorwiki,True,84.0,0.07142857142857142,0.25,0.8,0.17105263157894737,0.11111111111111112
gorwiki,True,85.0,0.07692307692307693,0.25,0.8125,0.15789473684210525,0.11764705882352941
gorwiki,True,86.0,0.08333333333333333,0.25,0.825,0.14473684210526316,0.125
gorwiki,True,87.0,0.09090909090909091,0.25,0.8375,0.13157894736842105,0.13333333333333333
gorwiki,True,88.0,0.09090909090909091,0.25,0.8375,0.13157894736842105,0.13333333333333333
gorwiki,True,89.0,0.1,0.25,0.85,0.11842105263157894,0.14285714285714288
gorwiki,True,90.0,0.125,0.25,0.875,0.09210526315789473,0.16666666666666666
gorwiki,True,91.0,0.16666666666666666,0.25,0.9,0.06578947368421052,0.2
gorwiki,True,92.0,0.3333333333333333,0.25,0.9375,0.02631578947368421,0.28571428571428575
gorwiki,True,93.0,0.3333333333333333,0.25,0.9375,0.02631578947368421,0.28571428571428575
gorwiki,True,94.0,0.5,0.25,0.95,0.013157894736842105,0.3333333333333333
gorwiki,True,95.0,0.5,0.25,0.95,0.013157894736842105,0.3333333333333333
gorwiki,True,96.0,0.5,0.25,0.95,0.013157894736842105,0.3333333333333333
gorwiki,True,97.0,0.5,0.25,0.95,0.013157894736842105,0.3333333333333333
gorwiki,True,98.0,0.5,0.25,0.95,0.013157894736842105,0.3333333333333333
gorwiki,True,99.0,0.0,0.0,0.9375,0.013157894736842105,0.3333333333333333
gorwiki,False,0.0,0.037037037037037035,1.0,0.037037037037037035,1.0,0.07142857142857142
gorwiki,False,1.0,0.037037037037037035,1.0,0.037037037037037035,1.0,0.07142857142857142
gorwiki,False,2.0,0.037037037037037035,1.0,0.037037037037037035,1.0,0.07142857142857142
gorwiki,False,3.0,0.037037037037037035,1.0,0.037037037037037035,1.0,0.07142857142857142
gorwiki,False,4.0,0.0372557928214448,1.0,0.04290876242095754,0.9939024390243902,0.0718353044240035
gorwiki,False,5.0,0.037374658158614404,1.0,0.04607046070460705,0.9906191369606003,0.07205623901581722
gorwiki,False,6.0,0.037831603229527104,1.0,0.05803974706413731,0.9781894934333959,0.07290509002000443
gorwiki,False,7.0,0.03795417727377922,1.0,0.06120144534778681,0.974906191369606,0.07313266443701226
gorwiki,False,8.0,0.03832671184856275,1.0,0.07068654019873533,0.9650562851782364,0.07382399279765924
gorwiki,False,9.0,0.03976721629485936,1.0,0.10569105691056911,0.9287054409005628,0.07649253731343283
gorwiki,False,10.0,0.04076559781257768,1.0,0.12850045167118337,0.9050187617260788,0.07833771196560785
gorwiki,False,11.0,0.042586341210075304,1.0,0.1673441734417344,0.8646810506566605,0.08169364881693648
gorwiki,False,12.0,0.04532891100055279,1.0,0.2199638663053297,0.8100375234521576,0.08672659968270756
gorwiki,False,13.0,0.04806565064478312,1.0,0.26648599819331525,0.7617260787992496,0.09172259507829977
gorwiki,False,14.0,0.050291321680466114,1.0,0.30058717253839207,0.7263133208255159,0.09576642335766423
gorwiki,False,15.0,0.05090006207324643,1.0,0.3093947606142728,0.7171669793621013,0.09686946249261666
gorwiki,False,16.0,0.051539912005028284,1.0,0.31842818428184283,0.7077861163227017,0.09802749551703525
gorwiki,False,17.0,0.0523961661341853,1.0,0.33017163504968383,0.6955909943714822,0.09957498482088645
gorwiki,False,18.0,0.053717654765804125,1.0,0.3475609756097561,0.6775328330206379,0.10195834628535903
gorwiki,False,19.0,0.0539651201052978,1.0,0.3507226738934056,0.674249530956848,0.10240399625351233
gorwiki,False,20.0,0.05593451568894952,1.0,0.3748870822041554,0.649155722326454,0.10594315245478036
gorwiki,False,21.0,0.05694444444444444,1.0,0.3866305329719964,0.6369606003752345,0.10775295663600525
gorwiki,False,22.0,0.058655221745350504,1.0,0.4056007226738934,0.6172607879924953,0.11081081081081083
gorwiki,False,23.0,0.060249816311535635,1.0,0.4223125564588979,0.599906191369606,0.11365211365211364
gorwiki,False,24.0,0.06146926536731634,1.0,0.43450767841011745,0.5872420262664165,0.11581920903954802
gorwiki,False,25.0,0.06552137435077907,1.0,0.47177055103884374,0.5485459662288931,0.12298462692163481
gorwiki,False,26.0,0.0689945309213294,1.0,0.5002258355916892,0.5189962476547842,0.12908303817394726
gorwiki,False,27.0,0.07130434782608695,1.0,0.5176151761517616,0.50093808630394,0.13311688311688313
gorwiki,False,28.0,0.07430901676483914,1.0,0.5386178861788617,0.47912757973733583,0.13833825390130744
gorwiki,False,29.0,0.07519486474094451,1.0,0.5444896115627823,0.47303001876172607,0.13987206823027717
gorwiki,False,30.0,0.07710390220968501,1.0,0.5566847335140018,0.4603658536585366,0.14316892186817984
gorwiki,False,31.0,0.0719047619047619,0.9207317073170732,0.556910569105691,0.4570825515947467,0.1333922261484099
gorwiki,False,32.0,0.07330097087378641,0.9207317073170732,0.565943992773261,0.4477016885553471,0.13579136690647484
gorwiki,False,33.0,0.07373046875,0.9207317073170732,0.568654019873532,0.4448874296435272,0.1365280289330922
gorwiki,False,34.0,0.07508702138239681,0.9207317073170732,0.5770099367660343,0.43621013133208253,0.13885057471264367
gorwiki,False,35.0,0.08374930671103716,0.9207317073170732,0.6239837398373984,0.3874296435272045,0.15353329944077274
gorwiki,False,36.0,0.08814944541739637,0.9207317073170732,0.6443089430894309,0.36632270168855535,0.1608950452850293
gorwiki,False,37.0,0.09014925373134329,0.9207317073170732,0.6528906955736224,0.3574108818011257,0.16421968461120176
gorwiki,False,38.0,0.09201706276660573,0.9207317073170732,0.6605691056910569,0.349437148217636,0.1673130193905817
gorwiki,False,39.0,0.08608858390517779,0.8414634146341463,0.6632791327913279,0.34357410881801126,0.15619694397283532
gorwiki,False,40.0,0.08679245283018867,0.8414634146341463,0.6662149954832882,0.3405253283302064,0.1573546180159635
gorwiki,False,41.0,0.08829174664107485,0.8414634146341463,0.6723125564588979,0.33419324577861165,0.1598147075854082
gorwiki,False,42.0,0.08908973531310523,0.8414634146341463,0.6754742547425474,0.33090994371482174,0.16112084063047283
gorwiki,False,43.0,0.09108910891089109,0.8414634146341463,0.6831526648599819,0.32293621013133206,0.16438356164383564
gorwiki,False,44.0,0.09517241379310344,0.8414634146341463,0.6978319783197832,0.3076923076923077,0.17100371747211895
gorwiki,False,45.0,0.0967741935483871,0.8414634146341463,0.7032520325203252,0.30206378986866794,0.17358490566037735
gorwiki,False,46.0,0.09843081312410841,0.8414634146341463,0.7086720867208672,0.2964352720450281,0.17624521072796936
gorwiki,False,47.0,0.09935205183585313,0.8414634146341463,0.7116079494128275,0.29338649155722324,0.1777205408886027
gorwiki,False,48.0,0.09150805270863836,0.7621951219512195,0.7109304426377597,0.2910412757973734,0.16339869281045752
gorwiki,False,49.0,0.09328358208955224,0.7621951219512195,0.7168021680216802,0.2849437148217636,0.16622340425531917
gorwiki,False,50.0,0.09328358208955224,0.7621951219512195,0.7168021680216802,0.2849437148217636,0.16622340425531917
gorwiki,False,51.0,0.09897070467141726,0.7621951219512195,0.7341915085817525,0.2668855534709193,0.1751927119831815
gorwiki,False,52.0,0.09897070467141726,0.7621951219512195,0.7341915085817525,0.2668855534709193,0.1751927119831815
gorwiki,False,53.0,0.09897070467141726,0.7621951219512195,0.7341915085817525,0.2668855534709193,0.1751927119831815
gorwiki,False,54.0,0.10121457489878542,0.7621951219512195,0.7405149051490515,0.2603189493433396,0.17869907076483202
gorwiki,False,55.0,0.10229132569558101,0.7621951219512195,0.7434507678410117,0.2572701688555347,0.18037518037518038
gorwiki,False,56.0,0.10330578512396695,0.7621951219512195,0.7461607949412827,0.2544559099437148,0.1819505094614265
gorwiki,False,57.0,0.10330578512396695,0.7621951219512195,0.7461607949412827,0.2544559099437148,0.1819505094614265
gorwiki,False,58.0,0.10748065348237318,0.7621951219512195,0.7567750677506775,0.24343339587242027,0.1883948756593821
gorwiki,False,59.0,0.10157618213660245,0.7073170731707317,0.7574525745257452,0.2406191369606004,0.17764165390505357
gorwiki,False,60.0,0.10157618213660245,0.7073170731707317,0.7574525745257452,0.2406191369606004,0.17764165390505357
gorwiki,False,61.0,0.10632447296058661,0.7073170731707317,0.768970189701897,0.22865853658536586,0.18486055776892432
gorwiki,False,62.0,0.10770659238625813,0.7073170731707317,0.7721318879855466,0.22537523452157598,0.18694601128122482
gorwiki,False,63.0,0.11306042884990253,0.7073170731707317,0.7836495031616982,0.21341463414634146,0.19495798319327728
gorwiki,False,64.0,0.11717171717171718,0.7073170731707317,0.7917795844625113,0.2049718574108818,0.20103986135181975
gorwiki,False,65.0,0.12663755458515283,0.7073170731707317,0.8084914182475158,0.18761726078799248,0.2148148148148148
gorwiki,False,66.0,0.1303370786516854,0.7073170731707317,0.8143631436314364,0.18151969981238275,0.22011385199240988
gorwiki,False,67.0,0.13842482100238662,0.7073170731707317,0.8261065943992774,0.16932457786116323,0.23153692614770457
gorwiki,False,68.0,0.14463840399002495,0.7073170731707317,0.8342366757000903,0.16088180112570358,0.24016563146997932
gorwiki,False,69.0,0.15696887686062247,0.7073170731707317,0.8484643179765131,0.14610694183864917,0.256921373200443
gorwiki,False,70.0,0.1659513590844063,0.7073170731707317,0.8574977416440831,0.13672607879924953,0.2688296639629201
gorwiki,False,71.0,0.1659513590844063,0.7073170731707317,0.8574977416440831,0.13672607879924953,0.2688296639629201
gorwiki,False,72.0,0.16909620991253643,0.7073170731707317,0.8604336043360433,0.13367729831144465,0.27294117647058824
gorwiki,False,73.0,0.17159763313609466,0.7073170731707317,0.8626919602529358,0.13133208255159476,0.2761904761904762
gorwiki,False,74.0,0.1880064829821718,0.7073170731707317,0.8760162601626016,0.1174953095684803,0.29705505761843787
gorwiki,False,75.0,0.19594594594594594,0.7073170731707317,0.8816621499548328,0.11163227016885553,0.30687830687830686
gorwiki,False,76.0,0.17647058823529413,0.6219512195121951,0.8785004516711834,0.11163227016885553,0.274932614555256
gorwiki,False,77.0,0.18345323741007194,0.6219512195121951,0.8834688346883469,0.10647279549718575,0.2833333333333333
gorwiki,False,78.0,0.18345323741007194,0.6219512195121951,0.8834688346883469,0.10647279549718575,0.2833333333333333
gorwiki,False,79.0,0.18345323741007194,0.6219512195121951,0.8834688346883469,0.10647279549718575,0.2833333333333333
gorwiki,False,80.0,0.1871559633027523,0.6219512195121951,0.8859530261969286,0.10389305816135085,0.28772919605077574
gorwiki,False,81.0,0.1950286806883365,0.6219512195121951,0.8909214092140921,0.09873358348968105,0.29694323144104806
gorwiki,False,82.0,0.1950286806883365,0.6219512195121951,0.8909214092140921,0.09873358348968105,0.29694323144104806
gorwiki,False,83.0,0.20440881763527055,0.6219512195121951,0.8963414634146342,0.09310506566604128,0.3076923076923077
gorwiki,False,84.0,0.2085889570552147,0.6219512195121951,0.8985998193315267,0.09075984990619138,0.3124042879019908
gorwiki,False,85.0,0.21212121212121213,0.5548780487804879,0.9071815718157181,0.07926829268292683,0.3069139966273187
gorwiki,False,86.0,0.23636363636363636,0.5548780487804879,0.9171183378500452,0.06894934333958724,0.331511839708561
gorwiki,False,87.0,0.191044776119403,0.3902439024390244,0.9162149954832882,0.06355534709193246,0.2565130260521042
gorwiki,False,88.0,0.16722408026755853,0.3048780487804878,0.9180216802168022,0.058395872420262666,0.2159827213822894
gorwiki,False,89.0,0.19083969465648856,0.3048780487804878,0.9263775971093045,0.04971857410881801,0.2347417840375587
gorwiki,False,90.0,0.24390243902439024,0.3048780487804878,0.9392502258355917,0.036350844277673544,0.27100271002710025
gorwiki,False,91.0,0.25773195876288657,0.3048780487804878,0.9417344173441734,0.03377110694183865,0.2793296089385474
gorwiki,False,92.0,0.3424657534246575,0.3048780487804878,0.9525745257452575,0.0225140712945591,0.3225806451612903
gorwiki,False,93.0,0.3114754098360656,0.23170731707317074,0.9525745257452575,0.019699812382739212,0.2657342657342658
gorwiki,False,94.0,0.34234234234234234,0.23170731707317074,0.9550587172538392,0.017120075046904316,0.27636363636363637
gorwiki,False,95.0,0.26262626262626265,0.15853658536585366,0.9523486901535682,0.017120075046904316,0.19771863117870722
gorwiki,False,96.0,0.3466666666666667,0.15853658536585366,0.9577687443541102,0.01149155722326454,0.21757322175732216
gorwiki,False,97.0,0.3466666666666667,0.15853658536585366,0.9577687443541102,0.01149155722326454,0.21757322175732216
gorwiki,False,98.0,0.40625,0.15853658536585366,0.960252935862692,0.008911819887429643,0.22807017543859648
gorwiki,False,99.0,0.34210526315789475,0.07926829268292683,0.960252935862692,0.005863039399624765,0.12871287128712872
