wiki_db,user_is_bot,threshold,precision,recall,accuracy,fpr,F1
gotwiki,True,0.0,0.6078431372549019,1.0,0.6078431372549019,1.0,0.7560975609756097
gotwiki,True,1.0,0.6078431372549019,1.0,0.6078431372549019,1.0,0.7560975609756097
gotwiki,True,2.0,0.6078431372549019,1.0,0.6078431372549019,1.0,0.7560975609756097
gotwiki,True,3.0,0.6078431372549019,1.0,0.6078431372549019,1.0,0.7560975609756097
gotwiki,True,4.0,0.6078431372549019,1.0,0.6078431372549019,1.0,0.7560975609756097
gotwiki,True,5.0,0.6078431372549019,1.0,0.6078431372549019,1.0,0.7560975609756097
gotwiki,True,6.0,0.6078431372549019,1.0,0.6078431372549019,1.0,0.7560975609756097
gotwiki,True,7.0,0.6078431372549019,1.0,0.6078431372549019,1.0,0.7560975609756097
gotwiki,True,8.0,0.6078431372549019,1.0,0.6078431372549019,1.0,0.7560975609756097
gotwiki,True,9.0,0.6078431372549019,1.0,0.6078431372549019,1.0,0.7560975609756097
gotwiki,True,10.0,0.6078431372549019,1.0,0.6078431372549019,1.0,0.7560975609756097
gotwiki,True,11.0,0.6078431372549019,1.0,0.6078431372549019,1.0,0.7560975609756097
gotwiki,True,12.0,0.6078431372549019,1.0,0.6078431372549019,1.0,0.7560975609756097
gotwiki,True,13.0,0.6078431372549019,1.0,0.6078431372549019,1.0,0.7560975609756097
gotwiki,True,14.0,0.6078431372549019,1.0,0.6078431372549019,1.0,0.7560975609756097
gotwiki,True,15.0,0.6078431372549019,1.0,0.6078431372549019,1.0,0.7560975609756097
gotwiki,True,16.0,0.6078431372549019,1.0,0.6078431372549019,1.0,0.7560975609756097
gotwiki,True,17.0,0.6078431372549019,1.0,0.6078431372549019,1.0,0.7560975609756097
gotwiki,True,18.0,0.6078431372549019,1.0,0.6078431372549019,1.0,0.7560975609756097
gotwiki,True,19.0,0.6078431372549019,1.0,0.6078431372549019,1.0,0.7560975609756097
gotwiki,True,20.0,0.6078431372549019,1.0,0.6078431372549019,1.0,0.7560975609756097
gotwiki,True,21.0,0.6078431372549019,1.0,0.6078431372549019,1.0,0.7560975609756097
gotwiki,True,22.0,0.6078431372549019,1.0,0.6078431372549019,1.0,0.7560975609756097
gotwiki,True,23.0,0.6078431372549019,1.0,0.6078431372549019,1.0,0.7560975609756097
gotwiki,True,24.0,0.6078431372549019,1.0,0.6078431372549019,1.0,0.7560975609756097
gotwiki,True,25.0,0.6078431372549019,1.0,0.6078431372549019,1.0,0.7560975609756097
gotwiki,True,26.0,0.6078431372549019,1.0,0.6078431372549019,1.0,0.7560975609756097
gotwiki,True,27.0,0.6078431372549019,1.0,0.6078431372549019,1.0,0.7560975609756097
gotwiki,True,28.0,0.6078431372549019,1.0,0.6078431372549019,1.0,0.7560975609756097
gotwiki,True,29.0,0.6078431372549019,1.0,0.6078431372549019,1.0,0.7560975609756097
gotwiki,True,30.0,0.6078431372549019,1.0,0.6078431372549019,1.0,0.7560975609756097
gotwiki,True,31.0,0.6078431372549019,1.0,0.6078431372549019,1.0,0.7560975609756097
gotwiki,True,32.0,0.6078431372549019,1.0,0.6078431372549019,1.0,0.7560975609756097
gotwiki,True,33.0,0.62,1.0,0.6274509803921569,0.95,0.7654320987654321
gotwiki,True,34.0,0.62,1.0,0.6274509803921569,0.95,0.7654320987654321
gotwiki,True,35.0,0.62,1.0,0.6274509803921569,0.95,0.7654320987654321
gotwiki,True,36.0,0.62,1.0,0.6274509803921569,0.95,0.7654320987654321
gotwiki,True,37.0,0.62,1.0,0.6274509803921569,0.95,0.7654320987654321
gotwiki,True,38.0,0.62,1.0,0.6274509803921569,0.95,0.7654320987654321
gotwiki,True,39.0,0.62,1.0,0.6274509803921569,0.95,0.7654320987654321
gotwiki,True,40.0,0.62,1.0,0.6274509803921569,0.95,0.7654320987654321
gotwiki,True,41.0,0.6326530612244898,1.0,0.6470588235294118,0.9,0.775
gotwiki,True,42.0,0.6326530612244898,1.0,0.6470588235294118,0.9,0.775
gotwiki,True,43.0,0.6326530612244898,1.0,0.6470588235294118,0.9,0.775
gotwiki,True,44.0,0.6326530612244898,1.0,0.6470588235294118,0.9,0.775
gotwiki,True,45.0,0.6458333333333334,1.0,0.6666666666666666,0.85,0.7848101265822784
gotwiki,True,46.0,0.6458333333333334,1.0,0.6666666666666666,0.85,0.7848101265822784
gotwiki,True,47.0,0.6595744680851063,1.0,0.6862745098039216,0.8,0.7948717948717948
gotwiki,True,48.0,0.6595744680851063,1.0,0.6862745098039216,0.8,0.7948717948717948
gotwiki,True,49.0,0.6595744680851063,1.0,0.6862745098039216,0.8,0.7948717948717948
gotwiki,True,50.0,0.6595744680851063,1.0,0.6862745098039216,0.8,0.7948717948717948
gotwiki,True,51.0,0.6595744680851063,1.0,0.6862745098039216,0.8,0.7948717948717948
gotwiki,True,52.0,0.6595744680851063,1.0,0.6862745098039216,0.8,0.7948717948717948
gotwiki,True,53.0,0.6739130434782609,1.0,0.7058823529411765,0.75,0.8051948051948052
gotwiki,True,54.0,0.6739130434782609,1.0,0.7058823529411765,0.75,0.8051948051948052
gotwiki,True,55.0,0.6739130434782609,1.0,0.7058823529411765,0.75,0.8051948051948052
gotwiki,True,56.0,0.6739130434782609,1.0,0.7058823529411765,0.75,0.8051948051948052
gotwiki,True,57.0,0.6739130434782609,1.0,0.7058823529411765,0.75,0.8051948051948052
gotwiki,True,58.0,0.6888888888888889,1.0,0.7254901960784313,0.7,0.8157894736842105
gotwiki,True,59.0,0.6888888888888889,1.0,0.7254901960784313,0.7,0.8157894736842105
gotwiki,True,60.0,0.6888888888888889,1.0,0.7254901960784313,0.7,0.8157894736842105
gotwiki,True,61.0,0.6888888888888889,1.0,0.7254901960784313,0.7,0.8157894736842105
gotwiki,True,62.0,0.6888888888888889,1.0,0.7254901960784313,0.7,0.8157894736842105
gotwiki,True,63.0,0.7045454545454546,1.0,0.7450980392156863,0.65,0.8266666666666667
gotwiki,True,64.0,0.7045454545454546,1.0,0.7450980392156863,0.65,0.8266666666666667
gotwiki,True,65.0,0.7045454545454546,1.0,0.7450980392156863,0.65,0.8266666666666667
gotwiki,True,66.0,0.7045454545454546,1.0,0.7450980392156863,0.65,0.8266666666666667
gotwiki,True,67.0,0.7045454545454546,1.0,0.7450980392156863,0.65,0.8266666666666667
gotwiki,True,68.0,0.7142857142857143,0.967741935483871,0.7450980392156863,0.6,0.821917808219178
gotwiki,True,69.0,0.7142857142857143,0.967741935483871,0.7450980392156863,0.6,0.821917808219178
gotwiki,True,70.0,0.7142857142857143,0.967741935483871,0.7450980392156863,0.6,0.821917808219178
gotwiki,True,71.0,0.7317073170731707,0.967741935483871,0.7647058823529411,0.55,0.8333333333333334
gotwiki,True,72.0,0.7317073170731707,0.967741935483871,0.7647058823529411,0.55,0.8333333333333334
gotwiki,True,73.0,0.7317073170731707,0.967741935483871,0.7647058823529411,0.55,0.8333333333333334
gotwiki,True,74.0,0.7317073170731707,0.967741935483871,0.7647058823529411,0.55,0.8333333333333334
gotwiki,True,75.0,0.75,0.967741935483871,0.7843137254901961,0.5,0.8450704225352113
gotwiki,True,76.0,0.75,0.967741935483871,0.7843137254901961,0.5,0.8450704225352113
gotwiki,True,77.0,0.75,0.967741935483871,0.7843137254901961,0.5,0.8450704225352113
gotwiki,True,78.0,0.75,0.967741935483871,0.7843137254901961,0.5,0.8450704225352113
gotwiki,True,79.0,0.75,0.967741935483871,0.7843137254901961,0.5,0.8450704225352113
gotwiki,True,80.0,0.7692307692307693,0.967741935483871,0.803921568627451,0.45,0.8571428571428572
gotwiki,True,81.0,0.8055555555555556,0.9354838709677419,0.8235294117647058,0.35,0.8656716417910448
gotwiki,True,82.0,0.8055555555555556,0.9354838709677419,0.8235294117647058,0.35,0.8656716417910448
gotwiki,True,83.0,0.8285714285714286,0.9354838709677419,0.8431372549019608,0.3,0.8787878787878788
gotwiki,True,84.0,0.8285714285714286,0.9354838709677419,0.8431372549019608,0.3,0.8787878787878788
gotwiki,True,85.0,0.8285714285714286,0.9354838709677419,0.8431372549019608,0.3,0.8787878787878788
gotwiki,True,86.0,0.8125,0.8387096774193549,0.7843137254901961,0.3,0.8253968253968254
gotwiki,True,87.0,0.8125,0.8387096774193549,0.7843137254901961,0.3,0.8253968253968254
gotwiki,True,88.0,0.8064516129032258,0.8064516129032258,0.7647058823529411,0.3,0.8064516129032258
gotwiki,True,89.0,0.8064516129032258,0.8064516129032258,0.7647058823529411,0.3,0.8064516129032258
gotwiki,True,90.0,0.8333333333333334,0.8064516129032258,0.7843137254901961,0.25,0.819672131147541
gotwiki,True,91.0,0.8148148148148148,0.7096774193548387,0.7254901960784313,0.25,0.7586206896551724
gotwiki,True,92.0,0.8148148148148148,0.7096774193548387,0.7254901960784313,0.25,0.7586206896551724
gotwiki,True,93.0,0.8148148148148148,0.7096774193548387,0.7254901960784313,0.25,0.7586206896551724
gotwiki,True,94.0,0.8,0.6451612903225806,0.6862745098039216,0.25,0.7142857142857142
gotwiki,True,95.0,0.8095238095238095,0.5483870967741935,0.6470588235294118,0.2,0.6538461538461537
gotwiki,True,96.0,0.8,0.5161290322580645,0.6274509803921569,0.2,0.6274509803921569
gotwiki,True,97.0,0.7777777777777778,0.45161290322580644,0.5882352941176471,0.2,0.5714285714285714
gotwiki,True,98.0,0.6923076923076923,0.2903225806451613,0.49019607843137253,0.2,0.4090909090909091
gotwiki,True,99.0,0.7777777777777778,0.22580645161290322,0.49019607843137253,0.1,0.35000000000000003
gotwiki,False,0.0,0.28205128205128205,1.0,0.28205128205128205,1.0,0.44000000000000006
gotwiki,False,1.0,0.28205128205128205,1.0,0.28205128205128205,1.0,0.44000000000000006
gotwiki,False,2.0,0.28205128205128205,1.0,0.28205128205128205,1.0,0.44000000000000006
gotwiki,False,3.0,0.28205128205128205,1.0,0.28205128205128205,1.0,0.44000000000000006
gotwiki,False,4.0,0.28205128205128205,1.0,0.28205128205128205,1.0,0.44000000000000006
gotwiki,False,5.0,0.28205128205128205,1.0,0.28205128205128205,1.0,0.44000000000000006
gotwiki,False,6.0,0.28205128205128205,1.0,0.28205128205128205,1.0,0.44000000000000006
gotwiki,False,7.0,0.28205128205128205,1.0,0.28205128205128205,1.0,0.44000000000000006
gotwiki,False,8.0,0.28205128205128205,1.0,0.28205128205128205,1.0,0.44000000000000006
gotwiki,False,9.0,0.28205128205128205,1.0,0.28205128205128205,1.0,0.44000000000000006
gotwiki,False,10.0,0.28205128205128205,1.0,0.28205128205128205,1.0,0.44000000000000006
gotwiki,False,11.0,0.28411306042884993,1.0,0.2893081761006289,0.9898921832884097,0.4425047438330171
gotwiki,False,12.0,0.2884710539336962,1.0,0.3043057571359458,0.9690026954177897,0.4477726574500769
gotwiki,False,13.0,0.2884710539336962,1.0,0.3043057571359458,0.9690026954177897,0.4477726574500769
gotwiki,False,14.0,0.2884710539336962,1.0,0.3043057571359458,0.9690026954177897,0.4477726574500769
gotwiki,False,15.0,0.2884710539336962,1.0,0.3043057571359458,0.9690026954177897,0.4477726574500769
gotwiki,False,16.0,0.29062811565304086,1.0,0.3115626511852927,0.9588948787061995,0.4503669370413287
gotwiki,False,17.0,0.29062811565304086,1.0,0.3115626511852927,0.9588948787061995,0.4503669370413287
gotwiki,False,18.0,0.29062811565304086,1.0,0.3115626511852927,0.9588948787061995,0.4503669370413287
gotwiki,False,19.0,0.29062811565304086,1.0,0.3115626511852927,0.9588948787061995,0.4503669370413287
gotwiki,False,20.0,0.2931121166415284,1.0,0.3197871311078858,0.9474393530997305,0.45334370139968894
gotwiki,False,21.0,0.2931121166415284,1.0,0.3197871311078858,0.9474393530997305,0.45334370139968894
gotwiki,False,22.0,0.2931121166415284,1.0,0.3197871311078858,0.9474393530997305,0.45334370139968894
gotwiki,False,23.0,0.2931121166415284,1.0,0.3197871311078858,0.9474393530997305,0.45334370139968894
gotwiki,False,24.0,0.2931121166415284,1.0,0.3197871311078858,0.9474393530997305,0.45334370139968894
gotwiki,False,25.0,0.2931121166415284,1.0,0.3197871311078858,0.9474393530997305,0.45334370139968894
gotwiki,False,26.0,0.29533941236068895,1.0,0.3270440251572327,0.9373315363881402,0.4560031286664059
gotwiki,False,27.0,0.2991277578245254,1.0,0.33913884857281085,0.9204851752021563,0.46050552922590837
gotwiki,False,28.0,0.2991277578245254,1.0,0.33913884857281085,0.9204851752021563,0.46050552922590837
gotwiki,False,29.0,0.2991277578245254,1.0,0.33913884857281085,0.9204851752021563,0.46050552922590837
gotwiki,False,30.0,0.30129198966408266,1.0,0.34591194968553457,0.9110512129380054,0.46306592533756946
gotwiki,False,31.0,0.30129198966408266,1.0,0.34591194968553457,0.9110512129380054,0.46306592533756946
gotwiki,False,32.0,0.30348776678813116,1.0,0.35268505079825835,0.9016172506738545,0.46565495207667723
gotwiki,False,33.0,0.309447983014862,1.0,0.370585389453314,0.8766846361185984,0.4726388325901905
gotwiki,False,34.0,0.3115980758952432,1.0,0.3768746976294146,0.8679245283018868,0.47514262428687853
gotwiki,False,35.0,0.31377825618945104,1.0,0.38316400580551524,0.8591644204851752,0.47767308480131093
gotwiki,False,36.0,0.31377825618945104,1.0,0.38316400580551524,0.8591644204851752,0.47767308480131093
gotwiki,False,37.0,0.3191023535851122,1.0,0.39816158684083214,0.8382749326145552,0.48381742738589206
gotwiki,False,38.0,0.3191023535851122,1.0,0.39816158684083214,0.8382749326145552,0.48381742738589206
gotwiki,False,39.0,0.3191023535851122,1.0,0.39816158684083214,0.8382749326145552,0.48381742738589206
gotwiki,False,40.0,0.3191023535851122,1.0,0.39816158684083214,0.8382749326145552,0.48381742738589206
gotwiki,False,41.0,0.3238888888888889,1.0,0.4112239961296565,0.8200808625336927,0.4892992026856903
gotwiki,False,42.0,0.3238888888888889,1.0,0.4112239961296565,0.8200808625336927,0.4892992026856903
gotwiki,False,43.0,0.32624510352546165,1.0,0.4175133043057571,0.8113207547169812,0.4919831223628692
gotwiki,False,44.0,0.32624510352546165,1.0,0.4175133043057571,0.8113207547169812,0.4919831223628692
gotwiki,False,45.0,0.3329525985151342,1.0,0.43492985002418966,0.7870619946091644,0.4995715509854327
gotwiki,False,46.0,0.341534856473345,1.0,0.4562167392356072,0.7574123989218329,0.509170305676856
gotwiki,False,47.0,0.3503605769230769,1.0,0.47701983551040156,0.7284366576819407,0.5189141076991545
gotwiki,False,48.0,0.35311932162325865,1.0,0.4833091436865022,0.7196765498652291,0.5219337511190689
gotwiki,False,49.0,0.35311932162325865,1.0,0.4833091436865022,0.7196765498652291,0.5219337511190689
gotwiki,False,50.0,0.35592185592185593,1.0,0.4895984518626028,0.7109164420485176,0.524988743809095
gotwiki,False,51.0,0.3589901477832512,1.0,0.49637155297532654,0.7014824797843666,0.5283189850475758
gotwiki,False,52.0,0.36528822055137844,1.0,0.5099177552007741,0.6826145552560647,0.5351078476365305
gotwiki,False,53.0,0.3711012094207511,1.0,0.5220125786163522,0.6657681940700808,0.5413184772516249
gotwiki,False,54.0,0.37443802183686575,1.0,0.528785679729076,0.6563342318059299,0.5448598130841121
gotwiki,False,55.0,0.3780804150453956,1.0,0.5360425737784228,0.6462264150943396,0.5487058823529412
gotwiki,False,56.0,0.3855820105820106,1.0,0.5505563618771165,0.626010781671159,0.556563245823389
gotwiki,False,57.0,0.4006872852233677,1.0,0.5781325592646347,0.5876010781671159,0.5721295387634937
gotwiki,False,58.0,0.4074074074074074,1.0,0.5897435897435898,0.5714285714285714,0.5789473684210525
gotwiki,False,59.0,0.4074074074074074,1.0,0.5897435897435898,0.5714285714285714,0.5789473684210525
gotwiki,False,60.0,0.4074074074074074,1.0,0.5897435897435898,0.5714285714285714,0.5789473684210525
gotwiki,False,61.0,0.4120141342756184,1.0,0.5974842767295597,0.5606469002695418,0.5835835835835836
gotwiki,False,62.0,0.4120141342756184,1.0,0.5974842767295597,0.5606469002695418,0.5835835835835836
gotwiki,False,63.0,0.41524216524216523,1.0,0.6028059990324142,0.5532345013477089,0.5868142929038752
gotwiki,False,64.0,0.4227701232777375,1.0,0.6149008224479923,0.5363881401617251,0.5942915392456677
gotwiki,False,65.0,0.43572496263079225,1.0,0.6347363328495405,0.5087601078167115,0.6069755335762624
gotwiki,False,66.0,0.43938223938223936,0.9759862778730704,0.6419932268988873,0.48921832884097033,0.6059637912673057
gotwiki,False,67.0,0.43938223938223936,0.9759862778730704,0.6419932268988873,0.48921832884097033,0.6059637912673057
gotwiki,False,68.0,0.44178628389154706,0.9502572898799314,0.6473149492017417,0.4716981132075472,0.603157321720196
gotwiki,False,69.0,0.45671887881286066,0.9502572898799314,0.6671504596032898,0.4440700808625337,0.6169265033407573
gotwiki,False,70.0,0.46243739565943237,0.9502572898799314,0.6744073536526367,0.4339622641509434,0.6221224031443009
gotwiki,False,71.0,0.4663299663299663,0.9502572898799314,0.6792452830188679,0.4272237196765499,0.6256352343308865
gotwiki,False,72.0,0.4722932651321398,0.9502572898799314,0.6865021770682148,0.4171159029649596,0.6309794988610479
gotwiki,False,73.0,0.47758620689655173,0.9502572898799314,0.6927914852443154,0.408355795148248,0.6356855995410212
gotwiki,False,74.0,0.48257839721254353,0.9502572898799314,0.6985970004837929,0.4002695417789757,0.6400924321201618
gotwiki,False,75.0,0.49552772808586765,0.9502572898799314,0.7131107885824867,0.38005390835579517,0.6513815402704292
gotwiki,False,76.0,0.5018115942028986,0.9502572898799314,0.7198838896952104,0.3706199460916442,0.6567871962062833
gotwiki,False,77.0,0.5139146567717996,0.9502572898799314,0.7324625060474117,0.353099730458221,0.6670680313064419
gotwiki,False,78.0,0.526615969581749,0.9502572898799314,0.745041122399613,0.33557951482479786,0.6776758409785933
gotwiki,False,79.0,0.5326923076923077,0.9502572898799314,0.7508466376390904,0.3274932614555256,0.6826863832409119
gotwiki,False,80.0,0.5607287449392713,0.9502572898799314,0.7760038703434929,0.29245283018867924,0.7052832590706557
gotwiki,False,81.0,0.5768822905620361,0.9331046312178388,0.7880986937590712,0.2688679245283019,0.7129750982961993
gotwiki,False,82.0,0.5925925925925926,0.9331046312178388,0.8001935171746493,0.25202156334231807,0.7248500999333778
gotwiki,False,83.0,0.5969976905311778,0.8867924528301887,0.799225931301403,0.23517520215633422,0.7135955831608006
gotwiki,False,84.0,0.6031941031941032,0.8421955403087479,0.799225931301403,0.21765498652291104,0.7029348604151754
gotwiki,False,85.0,0.6145181476846058,0.8421955403087479,0.8064828253507499,0.20754716981132076,0.7105643994211289
gotwiki,False,86.0,0.6106194690265486,0.8284734133790738,0.8026124818577649,0.20754716981132076,0.7030567685589519
gotwiki,False,87.0,0.6106194690265486,0.8284734133790738,0.8026124818577649,0.20754716981132076,0.7030567685589519
gotwiki,False,88.0,0.6241699867197875,0.8061749571183533,0.8084179970972424,0.19070080862533692,0.7035928143712575
gotwiki,False,89.0,0.6608946608946609,0.7855917667238422,0.8258345428156749,0.158355795148248,0.7178683385579938
gotwiki,False,90.0,0.6735294117647059,0.7855917667238422,0.8321238509917755,0.1495956873315364,0.7252573238321458
gotwiki,False,91.0,0.7018121911037891,0.7307032590051458,0.8364779874213837,0.12196765498652291,0.7159663865546219
gotwiki,False,92.0,0.7103448275862069,0.7066895368782161,0.8359941944847605,0.11320754716981132,0.708512467755804
gotwiki,False,93.0,0.7237354085603113,0.6380789022298456,0.8292210933720368,0.09568733153638814,0.6782133090246125
gotwiki,False,94.0,0.7171314741035857,0.6174957118353345,0.8234155781325593,0.09568733153638814,0.663594470046083
gotwiki,False,95.0,0.7748344370860927,0.6020583190394511,0.8384131591678762,0.06873315363881402,0.6776061776061776
gotwiki,False,96.0,0.7910863509749304,0.48713550600343053,0.8190614417029511,0.05053908355795148,0.6029723991507431
gotwiki,False,97.0,0.7761194029850746,0.44596912521440824,0.8074504112239961,0.05053908355795148,0.5664488017429193
gotwiki,False,98.0,0.7159090909090909,0.3241852487135506,0.7731011127237543,0.05053908355795148,0.44628099173553726
gotwiki,False,99.0,0.7625,0.20926243567753003,0.7585873246250605,0.025606469002695417,0.3283983849259758
