wiki_db,user_is_bot,threshold,precision,recall,accuracy,fpr,F1
htwiki,True,0.0,0.019698272492769484,1.0,0.019698272492769484,1.0,0.038635492525871985
htwiki,True,1.0,0.01975540921919097,1.0,0.022590479168295163,0.9970496770592456,0.03874538745387454
htwiki,True,2.0,0.02090939263192831,1.0,0.07762057375127022,0.9409138027270553,0.04096228868660598
htwiki,True,3.0,0.02186930486852382,1.0,0.1189713124364887,0.8987321585200542,0.04280254777070063
htwiki,True,4.0,0.02337228714524207,1.0,0.17689361369498946,0.8396459612471094,0.04567699836867863
htwiki,True,5.0,0.025024826216484608,1.0,0.23254905026186196,0.7828721792520532,0.04882774656074404
htwiki,True,6.0,0.026282853566958697,1.0,0.27022590479168296,0.7444382425643888,0.051219512195121955
htwiki,True,7.0,0.027507913983189608,1.0,0.303603533182209,0.7103899210589267,0.05354297248486137
htwiki,True,8.0,0.028375182974890216,1.0,0.32549050261861956,0.6880631528586237,0.05518449578451769
htwiki,True,9.0,0.0291894406326317,0.996031746031746,0.3473774720550301,0.6656566462004625,0.05671675516890747
htwiki,True,10.0,0.030056280684947912,0.996031746031746,0.36676307355585086,0.6458815086516226,0.05835173776589563
htwiki,True,11.0,0.030833744449926,0.9920634920634921,0.38560150082076133,0.6265848018499323,0.05980861244019138
htwiki,True,12.0,0.03176620076238882,0.9920634920634921,0.4042054248417103,0.6076070488796746,0.061561191824673726
htwiki,True,13.0,0.03275023017230041,0.9880952380952381,0.42491987805831316,0.5863966190893868,0.0633991088478676
htwiki,True,14.0,0.034156378600823045,0.9880952380952381,0.44938638317830065,0.5614384817797624,0.066030230708035
htwiki,True,15.0,0.035414592518845114,0.9880952380952381,0.4696318299069804,0.540786221194482,0.06837841548812303
htwiki,True,16.0,0.03661764705882353,0.9880952380952381,0.48768857969201906,0.5223666374292322,0.07061826432217812
htwiki,True,17.0,0.03809669522643819,0.9880952380952381,0.5083248651606347,0.5013156845546607,0.07336476134354744
htwiki,True,18.0,0.03920642418516769,0.9880952380952381,0.5227858985382631,0.48656406985088907,0.07542026351658337
htwiki,True,19.0,0.04046148846278843,0.9880952380952381,0.5381849448917376,0.47085559365281876,0.07773961910708709
htwiki,True,20.0,0.041561500925458524,0.9801587301587301,0.5543656687250841,0.4541902559604497,0.07974172719935432
htwiki,True,21.0,0.04291174426685198,0.9801587301587301,0.5689830375986867,0.43927916434096165,0.08222370173102529
htwiki,True,22.0,0.044576791192925465,0.9801587301587301,0.5857891034159306,0.4221353959014433,0.08527533229760055
htwiki,True,23.0,0.04591078066914498,0.9801587301587301,0.5983741108418666,0.40929750418626903,0.08771306818181819
htwiki,True,24.0,0.047171620325982745,0.9761904761904762,0.6111154537637771,0.39622039709752016,0.08999451252972379
htwiki,True,25.0,0.048345551812958194,0.9682539682539683,0.6239349644336747,0.3829838130930548,0.09209284770711455
htwiki,True,26.0,0.049735018344883815,0.9682539682539683,0.6349566168998672,0.37174069053504505,0.09461031407522295
htwiki,True,27.0,0.051303616484440706,0.9682539682539683,0.6466817790979442,0.3597799218563113,0.097444089456869
htwiki,True,28.0,0.05304347826086957,0.9682539682539683,0.6588759477839443,0.3473407224304282,0.10057708161582853
htwiki,True,29.0,0.05461056401074306,0.9682539682539683,0.6691940905182522,0.3368152459931425,0.10338983050847456
htwiki,True,30.0,0.056338028169014086,0.9682539682539683,0.6799030719924959,0.3258910772665657,0.10648047130700415
htwiki,True,31.0,0.057847321005215745,0.9682539682539683,0.6887360275150473,0.31688063152858625,0.10917225950782998
htwiki,True,32.0,0.05941076211346481,0.9682539682539683,0.6974126475416244,0.30802966270632326,0.11195228263363155
htwiki,True,33.0,0.06122961104140527,0.9682539682539683,0.7069491127960603,0.2983015708476198,0.11517583195657305
htwiki,True,34.0,0.0625,0.9603174603174603,0.715469397326663,0.28945060202535683,0.11736178467507273
htwiki,True,35.0,0.06503628056973931,0.9603174603174603,0.7272727272727273,0.27741009488876484,0.12182230052856785
htwiki,True,36.0,0.06815610859728506,0.9563492063492064,0.7415774251543813,0.26273821864285146,0.12724392819429775
htwiki,True,37.0,0.07115441393563626,0.9563492063492064,0.7532244196044712,0.2508571884219759,0.13245397087111846
htwiki,True,38.0,0.07223065250379362,0.9444444444444444,0.7599468459313687,0.24376046567259388,0.1341979137299126
htwiki,True,39.0,0.07373988799004356,0.9404761904761905,0.766122098022356,0.23738138904393588,0.13675706866705137
htwiki,True,40.0,0.07564102564102564,0.9365079365079365,0.7733135308371766,0.22996571246312097,0.13997627520759193
htwiki,True,41.0,0.07758620689655173,0.9285714285714286,0.7811303056358946,0.221832389761582,0.14320685434516525
htwiki,True,42.0,0.07692307692307693,0.873015873015873,0.7911357773782537,0.21050952874571405,0.14138817480719795
htwiki,True,43.0,0.07885040530582167,0.8492063492063492,0.8016102556085359,0.19934614464556255,0.1443020903573837
htwiki,True,44.0,0.08004552352048558,0.8373015873015873,0.807238333463613,0.19336576030619568,0.14612188365650972
htwiki,True,45.0,0.0800313848568066,0.8095238095238095,0.812944579066677,0.18698668367753768,0.14566226347732952
htwiki,True,46.0,0.07790077900779008,0.753968253968254,0.8193543344016259,0.1793317917231481,0.14121144555927165
htwiki,True,47.0,0.07164179104477612,0.6666666666666666,0.8232627218009849,0.17359062275735587,0.1293800539083558
htwiki,True,48.0,0.07005253940455342,0.6349206349206349,0.826780270460408,0.16936448449086994,0.12618296529968454
htwiki,True,49.0,0.07201086956521739,0.6309523809523809,0.8325646838114594,0.16338410015150306,0.12926829268292683
htwiki,True,50.0,0.07348837209302325,0.626984126984127,0.8369420776987415,0.15883900805358425,0.13155703580349706
htwiki,True,51.0,0.07505938242280286,0.626984126984127,0.8404596263581646,0.15525077744996413,0.134068731438269
htwiki,True,52.0,0.07651072124756335,0.623015873015873,0.8444461815055109,0.1511043776413364,0.1362847222222222
htwiki,True,53.0,0.0783824263604593,0.623015873015873,0.8482764011568826,0.14719719320628338,0.1392461197339246
htwiki,True,54.0,0.0781010719754977,0.6071428571428571,0.8510904400844211,0.14400765489195438,0.1383989145183175
htwiki,True,55.0,0.07868681605002606,0.5992063492063492,0.8539044790119596,0.14097759349334185,0.13910640257945647
htwiki,True,56.0,0.07859798194370685,0.5873015873015873,0.8562495114515751,0.13834622438402042,0.13864168618266978
htwiki,True,57.0,0.07976125881714596,0.5833333333333334,0.8592198858750879,0.13523642452754964,0.14033412887828162
htwiki,True,58.0,0.08151870463428253,0.5793650793650794,0.863128273274447,0.13116976317678017,0.14292706803720018
htwiki,True,59.0,0.08347927612375948,0.5674603174603174,0.868756351129524,0.1251893788374133,0.1455470737913486
htwiki,True,60.0,0.08518296340731854,0.5634920634920635,0.8721957320409599,0.12160114823379316,0.14799374674309534
htwiki,True,61.0,0.08814400993171943,0.5634920634920635,0.876573125928242,0.11713579459373255,0.1524422973698336
htwiki,True,62.0,0.09008425145819832,0.5515873015873016,0.8814195263034472,0.11195279483294793,0.15487465181058496
htwiki,True,63.0,0.09122085048010974,0.5277777777777778,0.8871257719065114,0.10565345666214815,0.15555555555555553
htwiki,True,64.0,0.0935672514619883,0.5079365079365079,0.8933791917454859,0.09887568774419903,0.1580246913580247
htwiki,True,65.0,0.10023492560689115,0.5079365079365079,0.9004924568123193,0.09161948807910054,0.1674296926095487
htwiki,True,66.0,0.10570469798657718,0.5,0.9068240443992809,0.08500119607686787,0.1745152354570637
htwiki,True,67.0,0.11180679785330948,0.49603174603174605,0.9124521222543579,0.07918028865321744,0.18248175182481752
htwiki,True,68.0,0.11866028708133972,0.49206349206349204,0.9180020323614476,0.07343911968742524,0.19121048573631455
htwiki,True,69.0,0.12640163098878696,0.49206349206349204,0.9230047682326272,0.06833585838449885,0.20113544201135444
htwiki,True,70.0,0.13090128755364808,0.48412698412698413,0.9265223168920503,0.06458815086516227,0.20608108108108106
htwiki,True,71.0,0.1374133949191686,0.4722222222222222,0.9312123817712812,0.059564628020094094,0.21288014311270126
htwiki,True,72.0,0.13987730061349693,0.4523809523809524,0.9344172594387555,0.05589665895861574,0.21368322399250234
htwiki,True,73.0,0.15363881401617252,0.4523809523809524,0.9401235050418197,0.05007575153496532,0.2293762575452716
htwiki,True,74.0,0.15935672514619884,0.43253968253968256,0.9438755569452044,0.04584961326847939,0.2329059829059829
htwiki,True,75.0,0.16978193146417445,0.43253968253968256,0.947158602360666,0.04250059803843394,0.24384787472035793
htwiki,True,76.0,0.18430034129692832,0.42857142857142855,0.9513796607519738,0.03811498285623156,0.25775656324582336
htwiki,True,77.0,0.19099099099099098,0.42063492063492064,0.9534901899476276,0.035802567578343034,0.26270136307311026
htwiki,True,78.0,0.19444444444444445,0.3888888888888889,0.9562260611271789,0.032373813890439355,0.25925925925925924
htwiki,True,79.0,0.19956140350877194,0.3611111111111111,0.958883764558743,0.029104537118252134,0.25706214689265544
htwiki,True,80.0,0.20374707259953162,0.34523809523809523,0.9605252872664739,0.02711107567179651,0.25625920471281294
htwiki,True,81.0,0.21464646464646464,0.3373015873015873,0.9626358164621277,0.024798660393907983,0.2623456790123457
htwiki,True,82.0,0.22589531680440772,0.3253968253968254,0.9647463456577816,0.02240650665816123,0.26666666666666666
htwiki,True,83.0,0.23795180722891565,0.3134920634920635,0.9667005393574611,0.02017382983813093,0.2705479452054794
htwiki,True,84.0,0.2607260726072607,0.3134920634920635,0.9689674040490893,0.017861414560242404,0.2846846846846847
htwiki,True,85.0,0.2783882783882784,0.30158730158730157,0.9708434300007817,0.01570847619807033,0.2895238095238095
htwiki,True,86.0,0.29218106995884774,0.28174603174603174,0.9724067849605252,0.013715014751614704,0.28686868686868683
htwiki,True,87.0,0.3188405797101449,0.2619047619047619,0.974439146408192,0.011243122558009728,0.2875816993464052
htwiki,True,88.0,0.31843575418994413,0.2261904761904762,0.9752208238880637,0.009728091858703453,0.26450116009280744
htwiki,True,89.0,0.33540372670807456,0.21428571428571427,0.9761588368639099,0.008532014990830077,0.26150121065375304
htwiki,True,90.0,0.3161764705882353,0.17063492063492064,0.9763933401078715,0.007415676580814927,0.2216494845360825
htwiki,True,91.0,0.3473684210526316,0.13095238095238096,0.9780348628156023,0.004943784387209951,0.19020172910662825
htwiki,True,92.0,0.35064935064935066,0.10714285714285714,0.9785038693035254,0.003986922892911251,0.16413373860182368
htwiki,True,93.0,0.3230769230769231,0.08333333333333333,0.9785038693035254,0.003508492145761901,0.13249211356466878
htwiki,True,94.0,0.3137254901960784,0.06349206349206349,0.978816540295474,0.002790846025037876,0.1056105610561056
htwiki,True,95.0,0.40625,0.051587301587301584,0.9798327210193074,0.0015150306993062753,0.09154929577464789
htwiki,True,96.0,0.4,0.03968253968253968,0.9799108887672946,0.0011960768678733753,0.07220216606498195
htwiki,True,97.0,0.5384615384615384,0.027777777777777776,0.9803798952552177,0.0004784307471493501,0.05283018867924528
htwiki,True,98.0,0.6666666666666666,0.015873015873015872,0.9804580630032049,0.00015947691571645004,0.031007751937984492
htwiki,True,99.0,0.6,0.011904761904761904,0.9803798952552177,0.00015947691571645004,0.023346303501945526
htwiki,False,0.0,0.01572915448485557,1.0,0.01572915448485557,1.0,0.030971158827931604
htwiki,False,1.0,0.015770651345488655,1.0,0.018360425681206875,0.9973266797362323,0.03105159875331871
htwiki,False,2.0,0.016616220890728273,1.0,0.06911472342416092,0.945761302204004,0.032689269656094304
htwiki,False,3.0,0.017363800671314225,1.0,0.10987019062098,0.9043545416740926,0.0341348899181524
htwiki,False,4.0,0.018475274725274726,1.0,0.16436674073207813,0.848987108655617,0.03628026164947063
htwiki,False,5.0,0.019620714806710432,1.0,0.21406852999649165,0.7984910592288956,0.038486300879891265
htwiki,False,6.0,0.02051242946469422,1.0,0.24891825517483335,0.7630844175132181,0.04020025405365016
htwiki,False,7.0,0.02141549239710214,1.0,0.2812536545433283,0.7302322818273629,0.04193296960249415
htwiki,False,8.0,0.02206002952271609,1.0,0.30271313296690444,0.7084298698984138,0.04316777661879163
htwiki,False,9.0,0.022654268808114962,0.9962825278810409,0.3238802479242194,0.6868650864373552,0.04430118191586081
htwiki,False,10.0,0.023282078012336026,0.9962825278810409,0.34253303707168753,0.6679142161230915,0.04550084889643463
htwiki,False,11.0,0.023920444364809175,0.9925650557620818,0.3628230616302187,0.6472405394166221,0.04671507304697752
htwiki,False,12.0,0.024610563185547055,0.9925650557620818,0.38112501461817333,0.6286461118041942,0.04803022126281705
htwiki,False,13.0,0.025282767797737856,0.9888475836431226,0.4001871126184072,0.6092199845541496,0.04930491195551437
htwiki,False,14.0,0.026248273139925005,0.9888475836431226,0.4228160449070284,0.5862294302857483,0.051139094491973465
htwiki,False,15.0,0.02710137544574631,0.9888475836431226,0.44146883405449655,0.5672785599714846,0.05275684252280841
htwiki,False,16.0,0.027888446215139442,0.9888475836431226,0.4576657700853701,0.5508227885700707,0.0542469664525339
htwiki,False,17.0,0.0288659793814433,0.9888475836431226,0.4765524500058473,0.5316342897879166,0.05609447490510333
htwiki,False,18.0,0.029552271969781135,0.9888475836431226,0.48906560636182905,0.5189211667557774,0.05738942826321468
htwiki,False,19.0,0.030206677265500796,0.9888475836431226,0.500467781546018,0.5073367789461177,0.05862258953168044
htwiki,False,20.0,0.030508474576271188,0.9702602230483272,0.5145597006198106,0.4927226281708549,0.05915684496826836
htwiki,False,21.0,0.03132877205617573,0.9702602230483272,0.5276575839083149,0.4794154339689895,0.06069767441860465
htwiki,False,22.0,0.03224212476837554,0.9702602230483272,0.5414571395158461,0.46539535436345275,0.062410329985652796
htwiki,False,23.0,0.03293791014639071,0.9702602230483272,0.5514559700619811,0.45523673736113585,0.06371292566825337
htwiki,False,24.0,0.033522434244455904,0.966542750929368,0.5611624371418548,0.44531574882670943,0.06479750778816198
htwiki,False,25.0,0.03413284132841329,0.9628252788104089,0.5708689042217284,0.435394760292283,0.06592847142675322
htwiki,False,26.0,0.03488685344827586,0.9628252788104089,0.5804584259150977,0.42565199310877444,0.06733393994540492
htwiki,False,27.0,0.03555250514756349,0.9628252788104089,0.5885861302771606,0.41739440384958115,0.06857294148795341
htwiki,False,28.0,0.03626435172220666,0.9628252788104089,0.5969477254122325,0.4088991861224975,0.06989610039131021
htwiki,False,29.0,0.03696303696303696,0.9628252788104089,0.6048415390012865,0.4008792253311947,0.07119296316657504
htwiki,False,30.0,0.037804700043789226,0.9628252788104089,0.6139632791486376,0.391611715083467,0.07275280898876405
htwiki,False,31.0,0.03848439821693908,0.9628252788104089,0.62103847503216,0.3844234539297808,0.0740105729389913
htwiki,False,32.0,0.03933778857837181,0.9628252788104089,0.6295754882469886,0.3757500148517792,0.0755873340143003
htwiki,False,33.0,0.04029873969192469,0.9628252788104089,0.638755701087592,0.36642309748707896,0.07735961768219832
htwiki,False,34.0,0.04074784276126558,0.9479553903345725,0.6481698047012046,0.35662092318659777,0.07813696951126091
htwiki,False,35.0,0.042436345481777334,0.9479553903345725,0.662729505321015,0.34182855106041704,0.0812360624402676
htwiki,False,36.0,0.04447960618846695,0.9405204460966543,0.6812653490819787,0.32287768074615336,0.08494208494208494
htwiki,False,37.0,0.046413502109704644,0.9405204460966543,0.6951233773827622,0.30879819402364406,0.08846153846153847
htwiki,False,38.0,0.04685735792246895,0.9256505576208178,0.7026663548123027,0.3008970474662865,0.0891993551853842
htwiki,False,39.0,0.04738971296474668,0.9144981412639405,0.7095076599228161,0.2937681934295729,0.09010989010989011
htwiki,False,40.0,0.04843191742755062,0.9070631970260223,0.7182200912174015,0.28479771876670823,0.09195402298850575
htwiki,False,41.0,0.04910253765215597,0.8847583643122676,0.7286867033095544,0.2738074021267748,0.09304143862392493
htwiki,False,42.0,0.04780701754385965,0.8104089219330854,0.7431294585428605,0.25794570189508703,0.09028784427417685
htwiki,False,43.0,0.0470670067238581,0.7546468401486989,0.755818032978599,0.24416325075744075,0.08860759493670886
htwiki,False,44.0,0.046999276934201015,0.724907063197026,0.7644719915799322,0.23489574050971307,0.0882752376641014
htwiki,False,45.0,0.04480241631009313,0.6617100371747212,0.7727751140217518,0.22545000891106753,0.08392267798208392
htwiki,False,46.0,0.037927350427350424,0.5278810408921933,0.7819553268623552,0.21398443533535316,0.07076999750809868
htwiki,False,47.0,0.025169683257918553,0.3308550185873606,0.787919541574085,0.20477633220459812,0.04678055190538765
htwiki,False,48.0,0.020606417427141595,0.26022304832713755,0.7938252835925623,0.1976474781678845,0.038188761593016915
htwiki,False,49.0,0.020755885997521685,0.24907063197026022,0.8033563325926792,0.1877858967504307,0.03831855876465542
htwiki,False,50.0,0.020585397233837247,0.2379182156133829,0.8099637469301836,0.18089467118160757,0.03789224393132031
htwiki,False,51.0,0.02119205298013245,0.2379182156133829,0.815167816629634,0.17560743777104498,0.03891760413499544
htwiki,False,52.0,0.021828103683492497,0.2379182156133829,0.8203134136358321,0.170379611477455,0.03998750390502968
htwiki,False,53.0,0.022330774598743892,0.2379182156133829,0.8241726113904806,0.16645874175726252,0.040829346092503986
htwiki,False,54.0,0.022318214542836574,0.23048327137546468,0.8290843176236697,0.16134972969761777,0.040695766327535285
htwiki,False,55.0,0.022050716648291068,0.22304832713754646,0.8321833703660391,0.15808233826412404,0.04013377926421405
htwiki,False,56.0,0.02252252252252252,0.22304832713754646,0.8355163138814173,0.15469613259668508,0.040913740197749744
htwiki,False,57.0,0.022033243138770777,0.21189591078066913,0.8396678751023272,0.1503000059407117,0.039915966386554626
htwiki,False,58.0,0.022391043582566973,0.20817843866171004,0.8445795813355164,0.14525040099803957,0.04043321299638989
htwiki,False,59.0,0.023275497249259414,0.20446096654275092,0.8525318676178225,0.13711162597279153,0.04179331306990881
htwiki,False,60.0,0.022667829119442023,0.19330855018587362,0.8562156472927143,0.13319075625259907,0.0405774483027702
htwiki,False,61.0,0.023744292237442923,0.19330855018587362,0.8622968073909484,0.1270124160874473,0.0422936152907686
htwiki,False,62.0,0.02358036573628489,0.1821561338289963,0.868494912875687,0.12053704033743243,0.041755432466979124
htwiki,False,63.0,0.02401635155850792,0.17472118959107807,0.8753362179862004,0.11346759341769144,0.042228212039532795
htwiki,False,64.0,0.022975929978118162,0.15613382899628253,0.8822944684832184,0.10610111091308738,0.04005722460658083
htwiki,False,65.0,0.02501488981536629,0.15613382899628253,0.8910068997778038,0.097249450484168,0.0431211498973306
htwiki,False,66.0,0.025839793281653745,0.14869888475836432,0.8984329318208397,0.08958593239470089,0.044028618602091354
htwiki,False,67.0,0.027158774373259052,0.1449814126394052,0.9048649280785873,0.08299174241074081,0.04574780058651026
htwiki,False,68.0,0.0297029702970297,0.1449814126394052,0.9120570693486142,0.07568466702310937,0.04930467762326169
htwiki,False,69.0,0.0325,0.1449814126394052,0.9186644836861186,0.06897166280520406,0.05309734513274337
htwiki,False,70.0,0.03504043126684636,0.1449814126394052,0.9237516079990644,0.0638032436285867,0.05643994211287988
htwiki,False,71.0,0.03773584905660377,0.1412639405204461,0.9298327680972985,0.057565496346462304,0.059561128526645774
htwiki,False,72.0,0.0367170626349892,0.12639405204460966,0.9341012747047129,0.05299114833957108,0.05690376569037658
htwiki,False,73.0,0.042027194066749075,0.12639405204460966,0.9409425798152263,0.04604051565377532,0.06307977736549165
htwiki,False,74.0,0.04488078541374474,0.11895910780669144,0.9463220675944334,0.04045624665834967,0.06517311608961304
htwiki,False,75.0,0.04833836858006042,0.11895910780669144,0.9493041749502982,0.03742648369274639,0.06874328678839957
htwiki,False,76.0,0.053082191780821915,0.11524163568773234,0.9537480996374693,0.03285213568585517,0.07268464243845252
htwiki,False,77.0,0.05762081784386617,0.11524163568773234,0.9564378435270728,0.030119408305114954,0.07682775712515488
htwiki,False,78.0,0.05919661733615222,0.10408921933085502,0.9598877324289556,0.026436167052812928,0.07547169811320754
htwiki,False,79.0,0.06372549019607843,0.09665427509293681,0.963454566717343,0.022693518683538288,0.07680945347119646
htwiki,False,80.0,0.0684931506849315,0.09293680297397769,0.9658519471406853,0.02019841977068853,0.07886435331230283
htwiki,False,81.0,0.07763975155279502,0.09293680297397769,0.9683662729505321,0.017643913740866157,0.08460236886632824
htwiki,False,82.0,0.08108108108108109,0.08921933085501858,0.9697696175885862,0.016158735816550824,0.08495575221238937
htwiki,False,83.0,0.08778625954198473,0.08550185873605948,0.9716407437726582,0.014198300956454583,0.08662900188323917
htwiki,False,84.0,0.0970464135021097,0.08550185873605948,0.9731025611039644,0.012713123032139251,0.09090909090909091
htwiki,False,85.0,0.10697674418604651,0.08550185873605948,0.9743889603555139,0.011406166458741757,0.09504132231404958
htwiki,False,86.0,0.11363636363636363,0.07434944237918216,0.9763185592328383,0.009267510247727678,0.08988764044943821
htwiki,False,87.0,0.14074074074074075,0.07063197026022305,0.9785989942696761,0.006891225568823145,0.09405940594059406
htwiki,False,88.0,0.17117117117117117,0.07063197026022305,0.9800023389077301,0.005465454761480425,0.1
htwiki,False,89.0,0.1650485436893204,0.06319702602230483,0.9802362296807391,0.005109012059644745,0.09139784946236558
htwiki,False,90.0,0.16666666666666666,0.05204460966542751,0.9809963746930184,0.004158498188082932,0.07932011331444759
htwiki,False,91.0,0.16393442622950818,0.03717472118959108,0.9818734650918022,0.0030297629656032793,0.06060606060606061
htwiki,False,92.0,0.1346153846153846,0.026022304832713755,0.9820488831715589,0.002673320263767599,0.04361370716510903
htwiki,False,93.0,0.13043478260869565,0.022304832713754646,0.9822827739445679,0.0023762846789045326,0.0380952380952381
htwiki,False,94.0,0.11764705882352941,0.01486988847583643,0.9827505554905859,0.0017822135091783995,0.026402640264026403
htwiki,False,95.0,0.21052631578947367,0.01486988847583643,0.9836276458893697,0.0008911067545891997,0.02777777777777778
htwiki,False,96.0,0.07142857142857142,0.0037174721189591076,0.9835691731961174,0.0007722925206439732,0.007067137809187279
htwiki,False,97.0,0.0,0.0,0.9839784820488832,0.0002970355848630666,0.007067137809187279
htwiki,False,98.0,0.0,0.0,0.9841539001286399,0.00011881423394522664,0.007067137809187279
htwiki,False,99.0,0.0,0.0,0.9841539001286399,0.00011881423394522664,0.007067137809187279
