wiki_db,user_is_bot,threshold,precision,recall,accuracy,fpr,F1
hywwiki,True,0.0,0.009602649006622516,1.0,0.009602649006622516,1.0,0.019022630370613313
hywwiki,True,1.0,0.009602649006622516,1.0,0.009602649006622516,1.0,0.019022630370613313
hywwiki,True,2.0,0.00962602345651693,1.0,0.012030905077262692,0.9975482001560236,0.019068493150684936
hywwiki,True,3.0,0.00984107233753747,1.0,0.033830022075055186,0.975537724283963,0.019490338840660877
hywwiki,True,4.0,0.009872241579558653,0.9770114942528736,0.05883002207505519,0.9500724395408447,0.019546970219615958
hywwiki,True,5.0,0.010338117246412065,0.9770114942528736,0.10165562913907285,0.9068316059288978,0.020459742447948005
hywwiki,True,6.0,0.010692105768615148,0.9597701149425287,0.1468543046357616,0.861027527025521,0.021148610143734564
hywwiki,True,7.0,0.010896785109983079,0.9252873563218391,0.19277041942604856,0.8143318845425165,0.02153990233460432
hywwiki,True,8.0,0.011581900582691892,0.9252873563218391,0.24100441501103753,0.7656302240053494,0.022877442273534634
hywwiki,True,9.0,0.011576203618521927,0.867816091954023,0.28719646799117,0.7184330770088042,0.022847632016946586
hywwiki,True,10.0,0.01238313924881089,0.867816091954023,0.33410596026490064,0.6710687618410788,0.024417852522639068
hywwiki,True,11.0,0.013196993532599196,0.867816091954023,0.37560706401766003,0.6291652735985735,0.025998622589531683
hywwiki,True,12.0,0.013724384282759917,0.8390804597701149,0.4194260485651214,0.5846428173409116,0.027007029226785054
hywwiki,True,13.0,0.014908608189523128,0.8390804597701149,0.46605960264900664,0.5375571157918199,0.029296679040834755
hywwiki,True,14.0,0.015675019317805496,0.8160919540229885,0.5061258278145695,0.4968795274713028,0.030759233185313546
hywwiki,True,15.0,0.01588235294117647,0.7758620689655172,0.5362030905077263,0.46612058397414463,0.031127507493659206
hywwiki,True,16.0,0.016776438424257488,0.7758620689655172,0.5612030905077263,0.4408781901259334,0.03284271986376354
hywwiki,True,17.0,0.01748931208705791,0.7758620689655172,0.5793046357615894,0.42260113674356403,0.03420752565564424
hywwiki,True,18.0,0.018572018159306643,0.7758620689655172,0.6041390728476821,0.39752591106653296,0.03627569528415961
hywwiki,True,19.0,0.019539730785931395,0.7758620689655172,0.6240066225165563,0.37746573052490806,0.03811944091486658
hywwiki,True,20.0,0.020535442652874963,0.7758620689655172,0.6424944812362031,0.3587986180764516,0.04001185536455246
hywwiki,True,21.0,0.02146605183653999,0.7758620689655172,0.6582229580573952,0.3429176418143319,0.0417762648924648
hywwiki,True,22.0,0.0225,0.7758620689655172,0.6741721854304635,0.32681377465730527,0.04373177842565598
hywwiki,True,23.0,0.02328042328042328,0.7586206896551724,0.6920529801324503,0.30859244399866265,0.045174537987679675
hywwiki,True,24.0,0.024826029716005265,0.7586206896551724,0.7115342163355408,0.28892232252312494,0.04807867419413586
hywwiki,True,25.0,0.02630005977286312,0.7586206896551724,0.7279801324503311,0.2723169508525577,0.05083766608896592
hywwiki,True,26.0,0.027818756585879872,0.7586206896551724,0.7431015452538632,0.2570489245514321,0.053669445009148206
hywwiki,True,27.0,0.028839704896042925,0.7413793103448276,0.7577814569536424,0.24205951186894015,0.05551969012265979
hywwiki,True,28.0,0.030224929709465793,0.7413793103448276,0.7690949227373068,0.2306363535049593,0.058081945069788386
hywwiki,True,29.0,0.031804733727810654,0.7413793103448276,0.7807947019867549,0.21882313607489134,0.06099290780141844
hywwiki,True,30.0,0.03219160442956477,0.7183908045977011,0.7899006622516557,0.209405995765073,0.06162188809465122
hywwiki,True,31.0,0.034340659340659344,0.7183908045977011,0.8033112582781456,0.1958653738994762,0.06554798112218145
hywwiki,True,32.0,0.0347877358490566,0.6781609195402298,0.8162251655629139,0.18243619748133288,0.06618059450364554
hywwiki,True,33.0,0.03674867642478979,0.6781609195402298,0.8262141280353201,0.1723503844867937,0.06971935007385525
hywwiki,True,34.0,0.03740157480314961,0.6551724137931034,0.8347682119205299,0.16349047141424272,0.07076350093109869
hywwiki,True,35.0,0.0394054614586934,0.6551724137931034,0.8433222958057395,0.1548534492365987,0.07433974567981741
hywwiki,True,36.0,0.04172767203513909,0.6551724137931034,0.8522075055187638,0.14588209071659422,0.07845836200963524
hywwiki,True,37.0,0.044015444015444015,0.6551724137931034,0.8600441501103753,0.13796946394739776,0.0824891461649783
hywwiki,True,38.0,0.046341463414634146,0.6551724137931034,0.8672185430463576,0.1307255098629221,0.08656036446469248
hywwiki,True,39.0,0.04844878878028049,0.6551724137931034,0.8731236203090508,0.12476317842416138,0.09022556390977444
hywwiki,True,40.0,0.048672566371681415,0.632183908045977,0.8778145695364239,0.11980385601248189,0.0903861955628595
hywwiki,True,41.0,0.050551470588235295,0.632183908045977,0.8824503311258278,0.11512314721943609,0.09361702127659575
hywwiki,True,42.0,0.05263157894736842,0.632183908045977,0.88719646799117,0.11033099297893681,0.09717314487632508
hywwiki,True,43.0,0.05527638190954774,0.632183908045977,0.8927152317880794,0.10475872060626323,0.10166358595194085
hywwiki,True,44.0,0.05714285714285714,0.632183908045977,0.8963024282560706,0.10113674356402541,0.10481181515007146
hywwiki,True,45.0,0.060472787245739415,0.632183908045977,0.9021523178807948,0.09523013484899141,0.11038635223281484
hywwiki,True,46.0,0.06260671599317018,0.632183908045977,0.9055739514348786,0.09177532597793381,0.11393060590367686
hywwiki,True,47.0,0.06634499396863691,0.632183908045977,0.911037527593819,0.08625877632898696,0.12008733624454149
hywwiki,True,48.0,0.07064868336544637,0.632183908045977,0.9166114790286976,0.08063078123258664,0.1270941652224148
hywwiki,True,49.0,0.0759144237405107,0.632183908045977,0.9225717439293598,0.07461272707009918,0.13555144793592114
hywwiki,True,50.0,0.08005822416302766,0.632183908045977,0.9267108167770419,0.070433522790594,0.1421188630490956
hywwiki,True,51.0,0.08006042296072508,0.6091954022988506,0.9290286975717439,0.06787027749916416,0.14152202937249664
hywwiki,True,52.0,0.08223429014740109,0.6091954022988506,0.9309602649006623,0.06591998216872841,0.1449077238550923
hywwiki,True,53.0,0.0854149879129734,0.6091954022988506,0.9336092715231789,0.06324529142984509,0.14982332155477032
hywwiki,True,54.0,0.08885163453478626,0.6091954022988506,0.9362582781456954,0.060570600690961776,0.15508412582297001
hywwiki,True,55.0,0.08892763731473409,0.5862068965517241,0.9383554083885209,0.058230246294438875,0.15442846328538987
hywwiki,True,56.0,0.09205776173285199,0.5862068965517241,0.9405077262693157,0.05605706006909618,0.15912636505460218
hywwiki,True,57.0,0.09488372093023256,0.5862068965517241,0.9423289183222958,0.0542182101861139,0.16333066453162529
hywwiki,True,58.0,0.09893307468477207,0.5862068965517241,0.9447571743929359,0.051766410342137525,0.16929460580912864
hywwiki,True,59.0,0.09693372898120672,0.5632183908045977,0.9454194260485651,0.05087484676250975,0.16540084388185652
hywwiki,True,60.0,0.09929078014184398,0.5632183908045977,0.9467439293598234,0.0495375013930681,0.16881998277347113
hywwiki,True,61.0,0.10414452709883103,0.5632183908045977,0.9492825607064017,0.046974256101638245,0.17578475336322869
hywwiki,True,62.0,0.10514541387024609,0.5402298850574713,0.9514348785871964,0.04457817898138861,0.1760299625468165
hywwiki,True,63.0,0.10779816513761468,0.5402298850574713,0.9526490066225165,0.04335227905940042,0.17973231357552583
hywwiki,True,64.0,0.11150652431791222,0.5402298850574713,0.9542494481236203,0.041736320071325085,0.1848574237954769
hywwiki,True,65.0,0.11604938271604938,0.5402298850574713,0.9560706401766005,0.039897470188342804,0.19105691056910568
hywwiki,True,66.0,0.12287581699346405,0.5402298850574713,0.9585540838852097,0.0373899476206397,0.2002129925452609
hywwiki,True,67.0,0.12789115646258503,0.5402298850574713,0.9602097130242826,0.03571826590883762,0.2068206820682068
hywwiki,True,68.0,0.13202247191011235,0.5402298850574713,0.9614790286975717,0.0344366432631227,0.21218961625282168
hywwiki,True,69.0,0.13843888070692195,0.5402298850574713,0.9633002207505519,0.03259779338014042,0.22039859320046892
hywwiki,True,70.0,0.1508828250401284,0.5402298850574713,0.9663907284768212,0.02947732085144322,0.2358845671267252
hywwiki,True,71.0,0.15358361774744028,0.5172413793103449,0.9679911699779249,0.027638470968460938,0.23684210526315794
hywwiki,True,72.0,0.1576923076923077,0.47126436781609193,0.9707505518763797,0.024406552992310263,0.23631123919308358
hywwiki,True,73.0,0.1740976645435244,0.47126436781609193,0.9734547461368653,0.02167613952970021,0.25426356589147286
hywwiki,True,74.0,0.18552036199095023,0.47126436781609193,0.9750551876379691,0.020060180541624874,0.26623376623376627
hywwiki,True,75.0,0.20048899755501223,0.47126436781609193,0.9768763796909492,0.018221330658642596,0.281303602058319
hywwiki,True,76.0,0.22043010752688172,0.47126436781609193,0.9789183222958058,0.01615958988075337,0.30036630036630035
hywwiki,True,77.0,0.2316715542521994,0.4540229885057471,0.9802980132450331,0.01459935361640477,0.3067961165048544
hywwiki,True,78.0,0.24307692307692308,0.4540229885057471,0.9811810154525387,0.013707790036776997,0.31663326653306617
hywwiki,True,79.0,0.25732899022801303,0.4540229885057471,0.9821743929359823,0.012704781009695755,0.3284823284823285
hywwiki,True,80.0,0.2640845070422535,0.43103448275862066,0.9830022075055188,0.011646049258887774,0.32751091703056767
hywwiki,True,81.0,0.2808988764044944,0.43103448275862066,0.9839403973509934,0.010698762955533266,0.3401360544217687
hywwiki,True,82.0,0.30364372469635625,0.43103448275862066,0.9850441501103753,0.009584308480998551,0.3562945368171021
hywwiki,True,83.0,0.3138075313807531,0.43103448275862066,0.985485651214128,0.009138526691184664,0.3631961259079903
hywwiki,True,84.0,0.336322869955157,0.43103448275862066,0.9863686534216336,0.008246963111556893,0.37783375314861467
hywwiki,True,85.0,0.3397129186602871,0.40804597701149425,0.9866997792494481,0.007689735874289535,0.370757180156658
hywwiki,True,86.0,0.3651685393258427,0.3735632183908046,0.9877483443708609,0.0062966677811211414,0.3693181818181819
hywwiki,True,87.0,0.3609467455621302,0.3505747126436782,0.98780353200883,0.006018054162487462,0.3556851311953353
hywwiki,True,88.0,0.3935483870967742,0.3505747126436782,0.9885761589403973,0.005237936030313162,0.37082066869300906
hywwiki,True,89.0,0.4,0.3103448275862069,0.9889072847682119,0.004513540621865597,0.34951456310679613
hywwiki,True,90.0,0.4462809917355372,0.3103448275862069,0.9896799116997792,0.0037334224896912963,0.36610169491525424
hywwiki,True,91.0,0.48514851485148514,0.28160919540229884,0.9902317880794702,0.0028975816337902596,0.3563636363636364
hywwiki,True,92.0,0.4722222222222222,0.19540229885057472,0.9901766004415011,0.002117463501615959,0.2764227642276423
hywwiki,True,93.0,0.5084745762711864,0.1724137931034483,0.9904525386313465,0.001615958988075337,0.2575107296137339
hywwiki,True,94.0,0.5,0.10344827586206896,0.9903973509933774,0.0010030090270812437,0.17142857142857143
hywwiki,True,95.0,1.0,0.10344827586206896,0.9913907284768212,0.0,0.1875
hywwiki,True,96.0,1.0,0.10344827586206896,0.9913907284768212,0.0,0.1875
hywwiki,True,97.0,1.0,0.10344827586206896,0.9913907284768212,0.0,0.1875
hywwiki,True,98.0,1.0,0.10344827586206896,0.9913907284768212,0.0,0.1875
hywwiki,True,99.0,1.0,0.022988505747126436,0.9906181015452539,0.0,0.0449438202247191
hywwiki,False,0.0,0.009058305911931084,1.0,0.009058305911931084,1.0,0.017953979188040453
hywwiki,False,1.0,0.009058305911931084,1.0,0.009058305911931084,1.0,0.017953979188040453
hywwiki,False,2.0,0.009080127492402341,1.0,0.011461529929382187,0.9975748078501604,0.0179968413706982
hywwiki,False,3.0,0.00928452326815219,1.0,0.03342330018116612,0.9754122826654728,0.01839822776255022
hywwiki,False,4.0,0.009290573372206025,0.9755102040816327,0.05749251303286871,0.9508991866278635,0.018405852907200614
hywwiki,False,5.0,0.009736027374938895,0.9755102040816327,0.10100935408732946,0.9069845533915379,0.0192796353809543
hywwiki,False,6.0,0.009960073841926759,0.9469387755102041,0.14689244648204977,0.8604208641146183,0.019712804826238425
hywwiki,False,7.0,0.010024039551866468,0.9020408163265307,0.19214700336451362,0.8143422132676665,0.01982774089359412
hywwiki,False,8.0,0.010638809993741876,0.9020408163265307,0.23925019410655526,0.7668084471308111,0.021029593681606243
hywwiki,False,9.0,0.010334066608686755,0.8244897959183674,0.28317373461012313,0.7217744944407134,0.020412287793047698
hywwiki,False,10.0,0.011002178649237472,0.8244897959183674,0.3270603024364994,0.677486754719797,0.021714592851384034
hywwiki,False,11.0,0.011645336100541913,0.8244897959183674,0.36455059710873666,0.6396537571822998,0.022966289579898814
hywwiki,False,12.0,0.012154491609081934,0.8040816326530612,0.40625577698081117,0.5973807924781732,0.023947000547012702
hywwiki,False,13.0,0.013098404255319149,0.8040816326530612,0.4494398639405479,0.5538019550779792,0.025776905462872098
hywwiki,False,14.0,0.013655537284621435,0.7795918367346939,0.48792842089695715,0.5147377061413327,0.026840921866216977
hywwiki,False,15.0,0.013585306618093504,0.7306122448979592,0.5170259178467113,0.4849264980225356,0.026674614410252588
hywwiki,False,16.0,0.014299408851254193,0.7306122448979592,0.5413539394387548,0.46037609133646745,0.02804983154430776
hywwiki,False,17.0,0.01492786256358936,0.7306122448979592,0.5608385403187045,0.4407133795985374,0.02925792742726381
hywwiki,False,18.0,0.01587160844121298,0.7306122448979592,0.5872000591562835,0.41411088724722034,0.03106829818623623
hywwiki,False,19.0,0.016657360878466407,0.7306122448979592,0.606869523422191,0.394261622266995,0.03257210444909472
hywwiki,False,20.0,0.017535266457680252,0.7306122448979592,0.6267608237512479,0.37418849339601523,0.03424854108868268
hywwiki,False,21.0,0.018345803013221276,0.7306122448979592,0.6434355011646393,0.3573613909409746,0.03579284143171365
hywwiki,False,22.0,0.019249381653941283,0.7306122448979592,0.6603689873183717,0.3402731139467204,0.03751047778709136
hywwiki,False,23.0,0.019605608115809872,0.7020408163265306,0.6792989980404481,0.32090888739646295,0.03814593036149923
hywwiki,False,24.0,0.020924574209245744,0.7020408163265306,0.6997448885273783,0.3002760987985971,0.040637920850561136
hywwiki,False,25.0,0.022213612294976107,0.7020408163265306,0.7173808555477502,0.28247891948362064,0.04306459689534301
hywwiki,False,26.0,0.023494058188772024,0.7020408163265306,0.7329833253225866,0.266733825833893,0.04546656093047845
hywwiki,False,27.0,0.0242053076698746,0.6775510204081633,0.7496580027359782,0.2496828594880979,0.04674081374067295
hywwiki,False,28.0,0.02536287242169595,0.6775510204081633,0.761230450696935,0.23800462652040894,0.04889543446244477
hywwiki,False,29.0,0.026739690721649483,0.6775510204081633,0.7736902429104892,0.22543093798970226,0.05144893847822718
hywwiki,False,30.0,0.0270042194092827,0.6530612244897959,0.7837098384294007,0.2150958883665398,0.05186385737439222
hywwiki,False,31.0,0.028761459644076937,0.6530612244897959,0.7970939475727438,0.20158943362435638,0.05509641873278237
hywwiki,False,32.0,0.028411287205257055,0.6,0.8105150293932784,0.187560629803746,0.05425355231592544
hywwiki,False,33.0,0.029938900203665988,0.6,0.820275816171849,0.17771061861055146,0.05703200775945684
hywwiki,False,34.0,0.030335628227194492,0.5755102040816327,0.8295189854697379,0.16815909260502948,0.05763335377069283
hywwiki,False,35.0,0.03202362025891438,0.5755102040816327,0.8385772913816689,0.15901798373255727,0.060671256454388985
hywwiki,False,36.0,0.03378054623862003,0.5755102040816327,0.8470440344585352,0.1504738452354302,0.06381534283774609
hywwiki,False,37.0,0.03580497714575927,0.5755102040816327,0.8557695862757422,0.14166853219908962,0.06741573033707865
hywwiki,False,38.0,0.0380361478284327,0.5755102040816327,0.8643102747069915,0.1330497724050444,0.07135627530364373
hywwiki,False,39.0,0.04020530367835757,0.5755102040816327,0.8717048101453027,0.12558764271323036,0.07515991471215351
hywwiki,False,40.0,0.04082240762812873,0.5591836734693878,0.876991902983695,0.12010297738974704,0.07608997500694252
hywwiki,False,41.0,0.04283927454659162,0.5591836734693878,0.8828335859799608,0.11420789493321394,0.0795817600929422
hywwiki,False,42.0,0.044610875936177144,0.5591836734693878,0.8875291159832883,0.10946944257891202,0.08262967430639324
hywwiki,False,43.0,0.047241379310344826,0.5591836734693878,0.8938514437830444,0.10308932169241102,0.08712241653418125
hywwiki,False,44.0,0.04898105112620665,0.5591836734693878,0.8976596295337745,0.09924632490112678,0.0900723208415516
hywwiki,False,45.0,0.05233002291825821,0.5591836734693878,0.904277738751063,0.09256771882695321,0.09570380719524975
hywwiki,False,46.0,0.05451651412654198,0.5591836734693878,0.9081598698561762,0.08865010073875083,0.09934735315445975
hywwiki,False,47.0,0.058174097664543525,0.5591836734693878,0.914001552852442,0.08275501828221775,0.1053846153846154
hywwiki,False,48.0,0.062329390354868064,0.5591836734693878,0.9198062631715163,0.07689724647414373,0.11215718379042162
hywwiki,False,49.0,0.06735496558505408,0.5591836734693878,0.9258697822309313,0.07077830012685621,0.12022817025010969
hywwiki,False,50.0,0.07131702238417491,0.5591836734693878,0.9300476947535771,0.06656219685098128,0.1265004616805171
hywwiki,False,51.0,0.07158351409978309,0.5387755102040817,0.9325248641254114,0.06387583016192822,0.1263762565820967
hywwiki,False,52.0,0.07353760445682452,0.5387755102040817,0.9343365253077975,0.06204760838743378,0.12941176470588237
hywwiki,False,53.0,0.0765661252900232,0.5387755102040817,0.936961585388398,0.059398552346839786,0.1340782122905028
hywwiki,False,54.0,0.07971014492753623,0.5387755102040817,0.9394757274374237,0.05686142825162301,0.13887427669647553
hywwiki,False,55.0,0.07984790874524715,0.5142857142857142,0.9419159241320664,0.05417506156256996,0.13823368074602302
hywwiki,False,56.0,0.08273145108338804,0.5142857142857142,0.943949421377602,0.052122975897321094,0.1425339366515837
hywwiki,False,57.0,0.08519269776876268,0.5142857142857142,0.9455762191740303,0.050481307365122005,0.14617169373549882
hywwiki,False,58.0,0.08873239436619719,0.5142857142857142,0.9477576071283321,0.04827997910603686,0.15135135135135136
hywwiki,False,59.0,0.0871130309575234,0.49387755102040815,0.9485340333493548,0.047309902246101036,0.1481028151774786
hywwiki,False,60.0,0.0897626112759644,0.49387755102040815,0.9500499131142086,0.04578016565927916,0.15191462649089768
hywwiki,False,61.0,0.09490196078431372,0.49387755102040815,0.9527489185491922,0.043056488321767034,0.15921052631578947
hywwiki,False,62.0,0.09551495016611296,0.46938775510204084,0.9549303065034939,0.04063129617192747,0.15873015873015875
hywwiki,False,63.0,0.09812286689419795,0.46938775510204084,0.9561134321736237,0.03943735542123722,0.16231474947071278
hywwiki,False,64.0,0.10078878177037687,0.46938775510204084,0.957259585166562,0.038280725319006045,0.16594516594516595
hywwiki,False,65.0,0.1050228310502283,0.46938775510204084,0.9589603283173734,0.036564435489888816,0.17164179104477612
hywwiki,False,66.0,0.1111111111111111,0.46938775510204084,0.9611786889488668,0.0343257965823446,0.1796875
hywwiki,False,67.0,0.11686991869918699,0.46938775510204084,0.9630642954856361,0.03242295351093202,0.1871440195280716
hywwiki,False,68.0,0.12067156348373557,0.46938775510204084,0.9642104484785743,0.03126632340870084,0.19198664440734556
hywwiki,False,69.0,0.12763596004439512,0.46938775510204084,0.9661330276925352,0.02932616968882919,0.2006980802792321
hywwiki,False,70.0,0.13973268529769137,0.46938775510204084,0.9690168965134766,0.026415939109021715,0.2153558052434457
hywwiki,False,71.0,0.1421188630490956,0.4489795918367347,0.9704588309239472,0.024774270576822625,0.21589793915603533
hywwiki,False,72.0,0.14658925979680695,0.4122448979591837,0.9729360002957814,0.02193866129393329,0.21627408993576014
hywwiki,False,73.0,0.16185897435897437,0.4122448979591837,0.9753392243132325,0.019513469144093725,0.23245109321058688
hywwiki,False,74.0,0.16917922948073702,0.4122448979591837,0.9763374865974045,0.018506081635698828,0.2399049881235155
hywwiki,False,75.0,0.1800356506238859,0.4122448979591837,0.9776685029763005,0.0171628982911723,0.2506203473945409
hywwiki,False,76.0,0.1980392156862745,0.4122448979591837,0.9795541095130699,0.015260055219759719,0.26754966887417214
hywwiki,False,77.0,0.20556745182012848,0.39183673469387753,0.9807742078603912,0.01384225057831505,0.2696629213483146
hywwiki,False,78.0,0.21286031042128603,0.39183673469387753,0.981365770695456,0.013245280202969927,0.27586206896551724
hywwiki,False,79.0,0.22325581395348837,0.39183673469387753,0.9821421969164787,0.012461756585329452,0.2844444444444444
hywwiki,False,80.0,0.2297979797979798,0.37142857142857144,0.983029541169076,0.011379747780016417,0.2839313572542902
hywwiki,False,81.0,0.24396782841823056,0.37142857142857144,0.9838799127444818,0.010521602865457802,0.29449838187702265
hywwiki,False,82.0,0.2708333333333333,0.37142857142857144,0.9852479018005694,0.009141108872472204,0.31325301204819284
hywwiki,False,83.0,0.28,0.37142857142857144,0.9856546012496765,0.008730691739422432,0.3192982456140351
hywwiki,False,84.0,0.3023255813953488,0.37142857142857144,0.9865419455022738,0.007835236176404746,0.3333333333333333
hywwiki,False,85.0,0.30141843971631205,0.3469387755102041,0.9868007542426147,0.0073501977464368335,0.3225806451612903
hywwiki,False,86.0,0.3203463203463203,0.3020408163265306,0.9878729618811698,0.005857771808074025,0.31092436974789917
hywwiki,False,87.0,0.3108108108108108,0.2816326530612245,0.9878359892039783,0.005708529214237743,0.2955032119914347
hywwiki,False,88.0,0.34328358208955223,0.2816326530612245,0.9886124154250009,0.004925005596597269,0.3094170403587444
hywwiki,False,89.0,0.35714285714285715,0.24489795918367346,0.9891670055828743,0.004029550033579583,0.29055690072639223
hywwiki,False,90.0,0.40816326530612246,0.24489795918367346,0.9899434318038969,0.003246026415939109,0.3061224489795918
hywwiki,False,91.0,0.4672131147540984,0.23265306122448978,0.9906459126705365,0.0024251921498395644,0.31062670299727524
hywwiki,False,92.0,0.4567901234567901,0.1510204081632653,0.9906828853477281,0.0016416685321990897,0.22699386503067484
hywwiki,False,93.0,0.5333333333333333,0.1306122448979592,0.9910895847968352,0.0010446981568539662,0.20983606557377052
hywwiki,False,94.0,0.5714285714285714,0.08163265306122448,0.9911265574740267,0.0005596597268860533,0.14285714285714285
hywwiki,False,95.0,1.0,0.08163265306122448,0.9916811476319001,0.0,0.15094339622641506
hywwiki,False,96.0,1.0,0.08163265306122448,0.9916811476319001,0.0,0.15094339622641506
hywwiki,False,97.0,1.0,0.08163265306122448,0.9916811476319001,0.0,0.15094339622641506
hywwiki,False,98.0,1.0,0.08163265306122448,0.9916811476319001,0.0,0.15094339622641506
hywwiki,False,99.0,1.0,0.02857142857142857,0.9912005028284098,0.0,0.05555555555555556
