wiki_db,user_is_bot,threshold,precision,recall,accuracy,fpr,F1
jawiki,True,0.0,0.056058731635076436,1.0,0.056058731635076436,1.0,0.10616593557875655
jawiki,True,1.0,0.056058731635076436,1.0,0.056058731635076436,1.0,0.10616593557875655
jawiki,True,2.0,0.057187024133634815,0.9981475515463918,0.07739680877001291,0.9772846852190218,0.10817628728297969
jawiki,True,3.0,0.05956615546095982,0.9872744845360825,0.12549101055616257,0.9256885385476357,0.11235357738629907
jawiki,True,4.0,0.061082707378307226,0.9680251288659794,0.16406750887205282,0.883677881625898,0.11491428516793989
jawiki,True,5.0,0.06499892266979,0.9475676546391752,0.23294443792272057,0.809495565993514,0.12165299169161252
jawiki,True,6.0,0.07078476365305186,0.9317010309278351,0.3105308783558032,0.7263591401758296,0.131573410069324
jawiki,True,7.0,0.07612088250659736,0.9153511597938144,0.37246367650644296,0.6597772952082117,0.14055330884626324
jawiki,True,8.0,0.08063224998908408,0.8923969072164949,0.4235648946641262,0.6042780748663101,0.14790095441500367
jawiki,True,9.0,0.08458388020050918,0.8616301546391752,0.4694918774437652,0.5537964087895688,0.15404553112445463
jawiki,True,10.0,0.0883396190591261,0.8244201030927835,0.5132110058605214,0.505271062726603,0.15957969240842798
jawiki,True,11.0,0.091092773382178,0.7770618556701031,0.5528575685608763,0.46045746319344133,0.16306938223611933
jawiki,True,12.0,0.09297350322991349,0.717541881443299,0.5917456046089524,0.41572517769508194,0.16461718973752532
jawiki,True,13.0,0.09252043612482512,0.6444909793814433,0.6256987023776198,0.37541733232567703,0.16181183964410292
jawiki,True,14.0,0.09149805897627067,0.5732925257731959,0.6569743816653272,0.33805592492323,0.1578095554816539
jawiki,True,15.0,0.09023935789021069,0.5070876288659794,0.6857803342935318,0.3036074732381162,0.15321344267880177
jawiki,True,16.0,0.08860172405520815,0.44619845360824745,0.71165602622335,0.2725789941932213,0.14784569606234071
jawiki,True,17.0,0.08720192908814861,0.39320231958762886,0.7352516231567351,0.24443477179455292,0.14274645107527667
jawiki,True,18.0,0.08744412515964241,0.35293170103092786,0.7572534111124155,0.21873475361847455,0.14016120777891505
jawiki,True,19.0,0.08706164186056828,0.3161243556701031,0.7758327990536477,0.19686606143514487,0.1365241134628428
jawiki,True,20.0,0.08793022740151273,0.28745167525773196,0.7929086788091132,0.1770732687285355,0.13466654089236865
jawiki,True,21.0,0.08893544086840602,0.2632893041237113,0.8075012867862851,0.160179082203706,0.13295914424582597
jawiki,True,22.0,0.09026755953274676,0.2421069587628866,0.8207303528051941,0.14490639319640689,0.1315046919089179
jawiki,True,23.0,0.09239866538931651,0.22527384020618557,0.8325236362322898,0.13141304659772512,0.1310469229507813
jawiki,True,24.0,0.09522601225214775,0.21158182989690721,0.8431068890474169,0.11938813580400448,0.13134014948878833
jawiki,True,25.0,0.09704925834853653,0.19708440721649484,0.8521956637559711,0.10889862531449399,0.13005580653733723
jawiki,True,26.0,0.09918213682980657,0.18460051546391754,0.8603001598324017,0.09957142720480613,0.12903589021815623
jawiki,True,27.0,0.100534102188401,0.1713112113402062,0.8676235540585691,0.09102388719351784,0.12670896255919936
jawiki,True,28.0,0.10251500724487683,0.15955219072164947,0.8745812300773878,0.0829546650340084,0.12482671707624446
jawiki,True,29.0,0.10473392836967574,0.14932345360824742,0.8807578042459432,0.07580381314991438,0.12311574473736635
jawiki,True,30.0,0.10794259557095139,0.1405444587628866,0.8867086264346539,0.06897821740502999,0.12210482121615002
jawiki,True,31.0,0.11018093437753174,0.13144329896907217,0.8918015910999539,0.06304229286445429,0.11987659762009696
jawiki,True,32.0,0.11402861779023454,0.12451675257731959,0.8966868639437968,0.057455540355677154,0.11904211904211905
jawiki,True,33.0,0.1172809569996767,0.11686533505154639,0.9011838433823065,0.05223709259276975,0.11707277715023398
jawiki,True,34.0,0.12006724473544506,0.1092944587628866,0.9051661083067698,0.04756871035940803,0.11442786069651742
jawiki,True,35.0,0.12319752250072583,0.10252899484536082,0.9087826550238846,0.04333559737116509,0.11191700734098202
jawiki,True,36.0,0.12736403461908324,0.09600515463917526,0.9124488671765651,0.03906421895477983,0.10948335246842711
jawiki,True,37.0,0.1303328645100797,0.0895618556701031,0.9154603985876956,0.035491184601991715,0.10616765323658582
jawiki,True,38.0,0.13180404354587869,0.0819104381443299,0.9182868133753533,0.032042512890666106,0.10103318100536458
jawiki,True,39.0,0.13531587933978373,0.07659471649484537,0.9207971753912282,0.029067375852601572,0.09781937872865666
jawiki,True,40.0,0.13825964693016715,0.07127899484536082,0.9230321199916923,0.026384012704122144,0.09406387840782271
jawiki,True,41.0,0.1415761338161752,0.0661243556701031,0.9251722487606217,0.023810662661551855,0.0901454844908043
jawiki,True,42.0,0.14443808433505056,0.06096971649484536,0.9271137157872874,0.021447772473764264,0.08574503029959789
jawiki,True,43.0,0.14460887949260043,0.05509020618556701,0.928761705240155,0.01935274028297284,0.07978537268167503
jawiki,True,44.0,0.14670728849308648,0.05041881443298969,0.9303284239802783,0.017415552983268443,0.07504645447461487
jawiki,True,45.0,0.1495570609692548,0.046230670103092786,0.93179581184927,0.015612294682062124,0.07062876830318691
jawiki,True,46.0,0.1513921113689095,0.04204252577319588,0.9330871131739825,0.013995580343049563,0.06580937972768532
jawiki,True,47.0,0.15417072379097696,0.03825708762886598,0.9343197189839355,0.012464963217357199,0.0613021875201652
jawiki,True,48.0,0.15684857246114925,0.034954896907216496,0.9353672081704156,0.0111591554820009,0.05716920239741816
jawiki,True,49.0,0.15436507936507937,0.0313305412371134,0.9360760693871285,0.010192953421407594,0.05208891269416176
jawiki,True,50.0,0.15503533568904593,0.028269974226804124,0.93688877651457,0.00915022050452967,0.04782016348773842
jawiki,True,51.0,0.15768660405338605,0.025692654639175257,0.9376879385232209,0.008150536194311844,0.04418588544913083
jawiki,True,52.0,0.15850302696752888,0.023195876288659795,0.938338104225174,0.007313479953698832,0.04046933183446919
jawiki,True,53.0,0.1618638871857756,0.021262886597938145,0.9389611796895458,0.006538605033817072,0.03758809710258418
jawiki,True,54.0,0.16837782340862423,0.019813144329896906,0.9395661949955301,0.005811561899113199,0.03545434892267781
jawiki,True,55.0,0.17371252882398155,0.018202319587628867,0.9401079997471578,0.005141916906622789,0.03295181162061676
jawiki,True,56.0,0.17717206132879046,0.01675257731958763,0.9405188683504754,0.004620550448183827,0.03061074319352465
jawiki,True,57.0,0.17692307692307693,0.014819587628865979,0.9409071617558086,0.004094400811227077,0.027348394768133177
jawiki,True,58.0,0.17702845100105374,0.013530927835051547,0.9411735490920256,0.0037356624223929286,0.02514029180695847
jawiki,True,59.0,0.18527315914489312,0.012564432989690722,0.941548297378568,0.0032812604632030075,0.023532961230954896
jawiki,True,60.0,0.1858288770053476,0.011195231958762887,0.9418191997543819,0.0029129557173332822,0.021118201154664236
jawiki,True,61.0,0.1887072808320951,0.010228737113402062,0.9420494667738236,0.002611615470712598,0.019405607762243107
jawiki,True,62.0,0.20376712328767124,0.009584407216494846,0.9423790646643971,0.002224178010771718,0.01830769230769231
jawiki,True,63.0,0.21092278719397364,0.00902061855670103,0.9425551512086761,0.0020041517989534408,0.017301305321696145
jawiki,True,64.0,0.21581196581196582,0.008134664948453609,0.9427402678321489,0.0017554265160284312,0.01567836075752872
jawiki,True,65.0,0.2112676056338028,0.007248711340206186,0.9428305686240869,0.0016071479819769834,0.014016508332035509
jawiki,True,66.0,0.21465968586387435,0.006604381443298969,0.9429569897328,0.0014349535553365923,0.012814502265979058
jawiki,True,67.0,0.2153392330383481,0.0058795103092783504,0.9430698657227223,0.0012723254857317785,0.011446491571932576
jawiki,True,68.0,0.22330097087378642,0.0055573453608247425,0.9431691965938541,0.0011479628442692738,0.010844793713163063
jawiki,True,69.0,0.21554770318021202,0.004913015463917526,0.9432143469898231,0.0010618656309490783,0.009607055673675091
jawiki,True,70.0,0.21912350597609562,0.004429768041237113,0.943304647781761,0.0009375029894865736,0.008683982000473671
jawiki,True,71.0,0.23376623376623376,0.0043492268041237115,0.9433859184945051,0.0008466225976485895,0.00853957460267257
jawiki,True,72.0,0.24878048780487805,0.004107603092783505,0.9434762192864431,0.0007366094917394507,0.008081768481102923
jawiki,True,73.0,0.25139664804469275,0.003624355670103093,0.9435394298407997,0.0006409459213836779,0.007145692735212385
jawiki,True,74.0,0.2670807453416149,0.0034632731958762885,0.9436026403951563,0.0005644150650990596,0.006837878667408761
jawiki,True,75.0,0.2962962962962963,0.0032216494845360823,0.9436929411870942,0.0004544019591899209,0.0063739941040554535
jawiki,True,76.0,0.2831858407079646,0.002577319587628866,0.9437200314246756,0.0003874374599408799,0.005108149094101684
jawiki,True,77.0,0.3010752688172043,0.0022551546391752575,0.9437742118998383,0.00031090660365626165,0.0044767767207610516
jawiki,True,78.0,0.3333333333333333,0.0020940721649484535,0.9438238773354042,0.0002487252829250093,0.004161997758924283
jawiki,True,79.0,0.35294117647058826,0.0019329896907216496,0.9438509675729856,0.0002104598547827002,0.003844921499519385
jawiki,True,80.0,0.36666666666666664,0.0017719072164948454,0.9438690277313732,0.00018176078367596835,0.003526771401090093
jawiki,True,81.0,0.4230769230769231,0.0017719072164948454,0.9439051480481484,0.00014349535553365923,0.003529034327879371
jawiki,True,82.0,0.45454545454545453,0.0016108247422680412,0.943923208206536,0.00011479628442692738,0.0032102728731942215
jawiki,True,83.0,0.5128205128205128,0.0016108247422680412,0.9439457834045205,9.088039183798418e-05,0.0032115616218386187
jawiki,True,84.0,0.5588235294117647,0.0015302835051546392,0.9439593285233111,7.174767776682961e-05,0.0030522088353413654
jawiki,True,85.0,0.6333333333333333,0.0015302835051546392,0.9439773886816988,5.261496369567505e-05,0.0030531897798489476
jawiki,True,86.0,0.7307692307692307,0.0015302835051546392,0.9439954488400863,3.3482249624520485e-05,0.0030541713550876065
jawiki,True,87.0,0.7916666666666666,0.0015302835051546392,0.9440044789192801,2.3915892588943205e-05,0.0030546623794212224
jawiki,True,88.0,0.7916666666666666,0.0015302835051546392,0.9440044789192801,2.3915892588943205e-05,0.0030546623794212224
jawiki,True,89.0,0.7916666666666666,0.0015302835051546392,0.9440044789192801,2.3915892588943205e-05,0.0030546623794212224
jawiki,True,90.0,0.8260869565217391,0.0015302835051546392,0.944008993958877,1.9132714071154565e-05,0.0030549079507999036
jawiki,True,91.0,0.8181818181818182,0.0014497422680412372,0.9440044789192801,1.9132714071154565e-05,0.002894356005788712
jawiki,True,92.0,0.9,0.0014497422680412372,0.9440135089984739,9.566357035577282e-06,0.002894821486008363
jawiki,True,93.0,0.9473684210526315,0.0014497422680412372,0.9440180240380708,4.783178517788641e-06,0.0028950542822677922
jawiki,True,94.0,1.0,0.0014497422680412372,0.9440225390776678,0.0,0.002895287115972334
jawiki,True,95.0,1.0,0.0014497422680412372,0.9440225390776678,0.0,0.002895287115972334
jawiki,True,96.0,1.0,0.0014497422680412372,0.9440225390776678,0.0,0.002895287115972334
jawiki,True,97.0,1.0,0.0014497422680412372,0.9440225390776678,0.0,0.002895287115972334
jawiki,True,98.0,1.0,0.001369201030927835,0.9440180240380708,0.0,0.002734657765623743
jawiki,True,99.0,1.0,0.0011275773195876288,0.9440044789192801,0.0,0.0022526146419951727
jawiki,False,0.0,0.04903525579911026,1.0,0.04903525579911026,1.0,0.09348638289903287
jawiki,False,1.0,0.04903935826233685,0.999981871413939,0.049135261532772326,0.9998939028243349,0.09349375944134765
jawiki,False,2.0,0.04911358072072016,0.9999002927766649,0.050719796823906795,0.9982234565431577,0.0936282826808217
jawiki,False,3.0,0.049265905966443584,0.9994923995902939,0.05417243921984861,0.9945717506688329,0.09390323454220607
jawiki,False,4.0,0.0495677925620199,0.9988941562502832,0.06076437271292443,0.9876090650922531,0.09444878449716979
jawiki,False,5.0,0.050096219871849416,0.9978880197239016,0.07207391001528532,0.9756644861438023,0.09540299511156057
jawiki,False,6.0,0.05085574639999852,0.9963380256156921,0.08800415668276092,0.9588328936766083,0.09677199256419501
jawiki,False,7.0,0.051784404854484,0.9941082095301977,0.10712480848902003,0.9386113328609594,0.09844089399515303
jawiki,False,8.0,0.052823604597296944,0.9912167000534793,0.12804423009141414,0.9164641316764102,0.10030194964815345
jawiki,False,9.0,0.0539461563097564,0.9878357187531158,0.14993259613551177,0.8932727847190154,0.10230536999695847
jawiki,False,10.0,0.05514078937141969,0.9839199441639549,0.17248411131127073,0.8693565182926487,0.10442916501114531
jawiki,False,11.0,0.05640899247911431,0.9791883832020521,0.19580455946140912,0.8445896049072047,0.10667278894435146
jawiki,False,12.0,0.057771092789512646,0.9741123791049917,0.2196841507802003,0.8192169561047473,0.10907343352901533
jawiki,False,13.0,0.05914834537762797,0.9677311168115443,0.24360063310296456,0.7937382101266248,0.11148279118918074
jawiki,False,14.0,0.06065972775843319,0.9621293837187168,0.2675686739373057,0.7682454424953308,0.11412422332200461
jawiki,False,15.0,0.06216573438126932,0.9549776565176799,0.2913500374021444,0.742869054585361,0.1167325823798684
jawiki,False,16.0,0.06374294785144592,0.9476265148699727,0.31492250000111116,0.7177020566960872,0.11945092223264508
jawiki,False,17.0,0.06537773360467439,0.9402753732222655,0.33794337542019076,0.6931150878596788,0.12225502501458446
jawiki,False,18.0,0.06705742322298545,0.9324800812160655,0.36054422675788966,0.6689468990646622,0.12511728909702446
jawiki,False,19.0,0.06876032099343166,0.9243131531956165,0.3824543718284293,0.6454858689779337,0.1279987246947301
jawiki,False,20.0,0.07046756091266104,0.9157020748166746,0.40357158254851055,0.6228357578329629,0.13086448699522582
jawiki,False,21.0,0.07217036560120799,0.9063205315301434,0.4240598683213393,0.6008072733119332,0.1336946195497026
jawiki,False,22.0,0.07390672906244958,0.8967123809178503,0.44395967591030777,0.5793859263732339,0.13655836424812356
jawiki,False,23.0,0.07567771521000068,0.887194873235862,0.4631158853107578,0.5587511941774618,0.1394595333965958
jawiki,False,24.0,0.07752139673807318,0.8777408156050869,0.48184051441171516,0.5385735678750839,0.14246076756834689
jawiki,False,25.0,0.07935673639390362,0.8676522574621792,0.4999255512871627,0.5190357963457702,0.14541372241173312
jawiki,False,26.0,0.08123516662732559,0.8578537566962465,0.5172763238425669,0.5002851069478226,0.14841596176102523
jawiki,False,27.0,0.08321629119786807,0.8480099344651614,0.5344390856186866,0.4817297859173994,0.1515598244559609
jawiki,False,28.0,0.08516041844120695,0.8373684544473954,0.5509302533345245,0.4638395586357492,0.15459819213445447
jawiki,False,29.0,0.08719266896637395,0.8270986104438784,0.5669365043595833,0.4464784150671076,0.1577548358319654
jawiki,False,30.0,0.08923484820712908,0.8163755517888382,0.582422281099672,0.42964121393864496,0.1608840809341691
jawiki,False,31.0,0.09135667002631208,0.8059878719759253,0.5973982508330478,0.41335740072202165,0.16411169761175295
jawiki,False,32.0,0.09344646228727055,0.7949475630648187,0.6117835200329264,0.39766109477328854,0.16723443731592746
jawiki,False,33.0,0.0955754305010431,0.7840160256700779,0.625611868413789,0.3825560351999581,0.17038062079256192
jawiki,False,34.0,0.09776025760761822,0.7732748384289767,0.6389357434270676,0.3679912766621735,0.17357635243466726
jawiki,False,35.0,0.10003601881537326,0.7627874513927286,0.6518715961937374,0.35384763510797607,0.17687562398192425
jawiki,False,36.0,0.10229304074462184,0.7521097142028408,0.6641927470508309,0.3403405766077695,0.1800920916836413
jawiki,False,37.0,0.10465082090229581,0.7420302203529636,0.6760498713037325,0.32735231927491226,0.18343170074795087
jawiki,False,38.0,0.10703704440158279,0.7318963407449036,0.687449636001353,0.31484220031520677,0.18676100512554816
jawiki,False,39.0,0.10941539510885709,0.7212095392619853,0.6984791572494601,0.30269290523045056,0.19000495513513194
jawiki,False,40.0,0.1118557707797827,0.7111844311702908,0.7089424238100762,0.29117318237309936,0.19330789073644736
jawiki,False,41.0,0.11431806156201872,0.7010868087343528,0.718998555917206,0.28007784821840875,0.19658181568643895
jawiki,False,42.0,0.11690647206273523,0.6911886007450849,0.7288377866997708,0.2692208821676354,0.19998741128892666
jawiki,False,43.0,0.11952158311110829,0.6817073502352184,0.738140986749907,0.25894908644255704,0.2033844219236984
jawiki,False,44.0,0.12226810851430586,0.6725161571023268,0.7472081732686008,0.24894043040866576,0.20691722781002794
jawiki,False,45.0,0.12501388340672315,0.6631618066948868,0.7558837817812666,0.23933513059767764,0.21037043852813728
jawiki,False,46.0,0.1278318298740779,0.6540612564922998,0.7642162595099897,0.2301037415379323,0.2138651657752901
jawiki,False,47.0,0.13081293296597662,0.6451147992712308,0.772410062621368,0.22102612327463558,0.21751860511315882
jawiki,False,48.0,0.1337805645022965,0.6362771135665274,0.7801469506473927,0.21243458898795448,0.22107827467233987
jawiki,False,49.0,0.13669262446596722,0.6267233487124172,0.7876056004988731,0.2040987161774356,0.22443454776805424
jawiki,False,50.0,0.13964973277928,0.6174687055283123,0.7947082299385164,0.19615264532508736,0.22778296066688739
jawiki,False,51.0,0.14258916209220665,0.6076973976414709,0.8015797350159187,0.18842297532002086,0.23098124739451445
jawiki,False,52.0,0.14580269973108664,0.598596847438884,0.8083539011792231,0.18083025012759704,0.2344897622222183
jawiki,False,53.0,0.14909274309097786,0.589496297236297,0.8148969429802865,0.17348056692348104,0.23799329586041335
jawiki,False,54.0,0.15214314429323456,0.5797431179355166,0.8209710690079565,0.1665903265549546,0.24103182529064832
jawiki,False,55.0,0.1552604749103279,0.5700896458580713,0.8268247379516426,0.1599370521250283,0.24405424807434856
jawiki,False,56.0,0.15865631219352058,0.5607352954506313,0.8326521831696129,0.15332677743149487,0.24733175407558447
jawiki,False,57.0,0.16200414643635647,0.5510546304940946,0.8382142798409331,0.14697870765227047,0.2503948845207327
jawiki,False,58.0,0.16541488781087843,0.5412017439699791,0.8436079224097737,0.14079889771110535,0.25338442865751704
jawiki,False,59.0,0.16894846929073967,0.5315392075995032,0.8488202212482404,0.13481959741029415,0.25640061475633824
jawiki,False,60.0,0.17247808726723343,0.5215412923869003,0.8538391756682939,0.12902631770822623,0.2592274716783918
jawiki,False,61.0,0.1764615884196985,0.5122685206167344,0.8588536853890735,0.12327510296567312,0.26249968067144924
jawiki,False,62.0,0.18044931834738268,0.5029413630883859,0.8636192919505162,0.11778282141835565,0.2656033469678874
jawiki,False,63.0,0.18463802915301603,0.4934782411645804,0.8683048939250295,0.11236765896348201,0.26872928394964224
jawiki,False,64.0,0.18881950218479665,0.4837341261568304,0.8727820395035982,0.10715721264491379,0.2716168140106576
jawiki,False,65.0,0.19324658247672094,0.47423474706090296,0.877138733731845,0.1020860480811835,0.2745971762976959
jawiki,False,66.0,0.19764468085927103,0.4644362462949702,0.8812865270942201,0.09721913226531959,0.2772874128031258
jawiki,False,67.0,0.2024530471444998,0.45483715997570767,0.885406763321097,0.09239147707833617,0.28019029644478444
jawiki,False,68.0,0.20749604781509692,0.4449570805725008,0.8894501062505361,0.08763019104969835,0.2830144623393994
jawiki,False,69.0,0.21279782345721135,0.43530360849505545,0.8933476630437923,0.0830338931400464,0.28585544133665874
jawiki,False,70.0,0.21776017573089346,0.424127335188492,0.897054097768272,0.07856005100142648,0.2877701823817563
jawiki,False,71.0,0.22338369082749746,0.41374871966860943,0.9007187523195774,0.07417127355871427,0.29012718408959454
jawiki,False,72.0,0.2289064110492682,0.40260870353416783,0.9042038410202184,0.06993206041649919,0.2918685911230997
jawiki,False,73.0,0.2349730641562823,0.391405237348513,0.9076698175139819,0.06570967325809003,0.29365540832321746
jawiki,False,74.0,0.2412479614593358,0.37946756342739046,0.9110500113117597,0.06153963360485486,0.29496854016501445
jawiki,False,75.0,0.2479577185103718,0.36784713976233424,0.9142955307215391,0.05752757124401976,0.29623195176431083
jawiki,False,76.0,0.2545704967451047,0.355175258105744,0.9173832633070963,0.05362721472011846,0.2965732558799599
jawiki,False,77.0,0.2615535821814935,0.34253056932824527,0.9203403217340016,0.04986567256261603,0.29661462625882057
jawiki,False,78.0,0.26905938947881797,0.33003997353226433,0.9231831513895685,0.04623219483741426,0.2964461632403826
jawiki,False,79.0,0.27713426695149934,0.31749499197810066,0.9259250863716186,0.042702009957243305,0.2959448783970462
jawiki,False,80.0,0.2856936305569967,0.3044786671863528,0.9285656822102245,0.039254085442345765,0.2947871873628785
jawiki,False,81.0,0.29525804887420976,0.2925228646791693,0.9310716036608321,0.03600246407185069,0.29388409281317157
jawiki,False,82.0,0.30582255448755985,0.28032232626016335,0.9335095212125495,0.032809733644676355,0.2925177467639645
jawiki,False,83.0,0.31619986076152734,0.26759605884539034,0.9357100918230423,0.029839480114491473,0.2898747103413063
jawiki,False,84.0,0.32681489418698095,0.2543440624348504,0.9377466530303293,0.027014584388852226,0.2860609026312302
jawiki,False,85.0,0.3385026397811844,0.24118270895461508,0.9396800972144626,0.02430279666546392,0.28167344173441733
jawiki,False,86.0,0.3499030913172609,0.22745936930649094,0.9413957511341762,0.021791051193990506,0.27569764886838055
jawiki,False,87.0,0.36331887134988766,0.21405327991443307,0.9430674025310785,0.01934193577335026,0.26939157317149687
jawiki,False,88.0,0.37738013698630135,0.1997679540984201,0.9445990459008539,0.01699471103242367,0.26124476212490294
jawiki,False,89.0,0.3944715384467105,0.18549169257543757,0.94609824296593,0.01468207303598704,0.2523304562268804
jawiki,False,90.0,0.41428947599403143,0.17113385241518086,0.9474925451281428,0.01247553221521555,0.2422143109143975
jawiki,False,91.0,0.43613786112519004,0.1559964830543042,0.9487246157668595,0.010399392768939981,0.22979910937823386
jawiki,False,92.0,0.4607061334598168,0.14086817798645795,0.9497864544233869,0.00850273048326095,0.21576331426667408
jawiki,False,93.0,0.4937833037300178,0.12599367312346474,0.9508091797263043,0.006660285256512123,0.20076115921515386
jawiki,False,94.0,0.5305112939940466,0.10985016723620641,0.9515843352796671,0.005012741008848598,0.18201206004490603
jawiki,False,95.0,0.5754350397026525,0.09261894618529228,0.9521554791363593,0.0035236414420242034,0.1595565271705184
jawiki,False,96.0,0.6339053163781216,0.07500702482709862,0.9525186110670345,0.002233649350236592,0.13414169577798132
jawiki,False,97.0,0.7106897678980059,0.05911731914469331,0.952683509410095,0.0012409163056869956,0.10915481171548116
jawiki,False,98.0,0.8062460165710643,0.04586532273415335,0.9526732866017652,0.0005683443418890345,0.08679319719723153
jawiki,False,99.0,0.8759001440230437,0.03307560526816711,0.9523568240134657,0.00024163982299065036,0.06374411515516774
