wiki_db,user_is_bot,threshold,precision,recall,accuracy,fpr,F1
ltwiki,True,0.0,0.03575425496673919,1.0,0.03575425496673919,1.0,0.06904003492196584
ltwiki,True,1.0,0.03580410175949793,1.0,0.03714646396819855,0.9985561678559325,0.069132959984766
ltwiki,True,2.0,0.03643081976187218,0.9998747965443846,0.05443940085770818,0.9806173659116337,0.07030022403464835
ltwiki,True,3.0,0.03852168624687473,0.9992487792663077,0.10823865416812155,0.924800022284226,0.07418354874540477
ltwiki,True,4.0,0.04134074734942009,0.9978715412545386,0.17257572094938806,0.8580262675314184,0.07939235462582492
ltwiki,True,5.0,0.04390574767153957,0.9968699136096156,0.22373828261395073,0.8049294564970125,0.08410711456187608
ltwiki,True,6.0,0.0469960436852953,0.9934894203080005,0.279449025453699,0.7470276092275266,0.08974670730810774
ltwiki,True,7.0,0.04998139024344085,0.991986978840616,0.32556203164029973,0.6991490211189467,0.0951677417030017
ltwiki,True,8.0,0.05307777120421664,0.9884812820833855,0.36906968207497337,0.653898114661628,0.10074586393247027
ltwiki,True,9.0,0.05583421424162664,0.9853511956930011,0.40372270419811446,0.6178440939837232,0.10568013965355176
ltwiki,True,10.0,0.058615571649126993,0.983973957681232,0.4344050209055178,0.585973008231236,0.11064027480572138
ltwiki,True,11.0,0.061620755472818534,0.9822211093026167,0.4645680570850456,0.5546265302995835,0.11596623749057637
ltwiki,True,12.0,0.06519098955213948,0.9812194816576938,0.49625759895427646,0.5217247990937748,0.12225922950320975
ltwiki,True,13.0,0.06912650202923154,0.9788406160010016,0.5279560939360569,0.4887627147758346,0.12913349410326716
ltwiki,True,14.0,0.07374265742203388,0.9760861399774634,0.5607871576553589,0.45461213840361375,0.1371255694510404
ltwiki,True,15.0,0.07887421466901545,0.9698259671966947,0.5939673927640945,0.41996945204016733,0.1458839482456636
ltwiki,True,16.0,0.08409264721949088,0.9636909978715412,0.6234186564959308,0.3891986499473071,0.15468713888079424
ltwiki,True,17.0,0.08937316356513222,0.9596844872918493,0.6489439803747773,0.3625782849502551,0.1635182558052714
ltwiki,True,18.0,0.0951947873970623,0.9566796043570802,0.6733367355161022,0.33716962474291895,0.17315929023047116
ltwiki,True,19.0,0.10070096548075651,0.9532991110554652,0.6939423240489556,0.3156746317299523,0.18215964687728028
ltwiki,True,20.0,0.10644041108408665,0.947915362464004,0.7136167888766529,0.2950710077576962,0.19138985793012792
ltwiki,True,21.0,0.11226357535082367,0.9445348691623889,0.7309679209977349,0.27695114647700314,0.20067565770223178
ltwiki,True,22.0,0.11837750953386492,0.9405283585826969,0.7474282184201337,0.25973193933119465,0.21028763384421584
ltwiki,True,23.0,0.12435224554876428,0.9373982721923125,0.7617531984994583,0.24475972497551057,0.21957621526504875
ltwiki,True,24.0,0.1304995356823717,0.9325153374233128,0.7754380310314881,0.23038639919405382,0.22895788502920378
ltwiki,True,25.0,0.13708081312542775,0.927882809565544,0.7885812002542684,0.21658410670430225,0.23887187751813055
ltwiki,True,26.0,0.1436752503019206,0.9235006886190059,0.800466457163833,0.20409565504018123,0.24866413822166034
ltwiki,True,27.0,0.15030285667512483,0.9196193814949293,0.8112460046735247,0.19277248269490574,0.25837657198135605
ltwiki,True,28.0,0.15696713393297984,0.9154876674596218,0.8211794830472814,0.18231746665490556,0.2679860729338464
ltwiki,True,29.0,0.16397758725443867,0.9123575810692375,0.8305533918866894,0.17247990937748087,0.2779918361118529
ltwiki,True,30.0,0.17170641680863147,0.9086014774007762,0.840021308407868,0.1625216458757933,0.2888300730333725
ltwiki,True,31.0,0.1797546316992003,0.9062226117440841,0.8487953587064543,0.15333404519055335,0.3000020724100056
ltwiki,True,32.0,0.18757320977692168,0.9022161011643921,0.8567860116569526,0.14489853713341289,0.31057667442461856
ltwiki,True,33.0,0.19547336311145005,0.8985852009515463,0.8641409936164307,0.13713619840389232,0.32109701809721947
ltwiki,True,34.0,0.2038182077218977,0.8955803180167773,0.8711826166366737,0.1297220507058993,0.3320644352629869
ltwiki,True,35.0,0.21198869552283206,0.8921998247151621,0.8775661858845227,0.12297642978843913,0.3425796836690544
ltwiki,True,36.0,0.21984321259256964,0.8883185175910855,0.8832961779162526,0.11689005055733778,0.3524590163934426
ltwiki,True,37.0,0.22785870826350393,0.8851884312007011,0.8886456626646253,0.1112261431111565,0.36242470844546976
ltwiki,True,38.0,0.23577698854117804,0.8810567171653938,0.8936414994672898,0.10589185650815464,0.37200327756191687
ltwiki,True,39.0,0.24427427775844066,0.8786778515087016,0.8984672271315123,0.10079898235367853,0.3822752403518806
ltwiki,True,40.0,0.2531444267746133,0.8769250031300864,0.903095986319644,0.09593359300646707,0.3928761744495864
ltwiki,True,41.0,0.26111795676038985,0.8755477651183172,0.9069682074973364,0.09186672175822544,0.40226645190980215
ltwiki,True,42.0,0.26902006172839504,0.8730436960060097,0.9106434601989382,0.08796233965802998,0.4113015011649511
ltwiki,True,43.0,0.2768080792016222,0.8716664579942407,0.9139874477362054,0.08444328896605834,0.42018226809101333
ltwiki,True,44.0,0.2848462454325245,0.8686615750594716,0.917326958717198,0.08086852770904229,0.4290131090774177
ltwiki,True,45.0,0.29186340640809444,0.866783523225241,0.9200442283759949,0.07798086342090725,0.43668590532059165
ltwiki,True,46.0,0.29944531114577916,0.8651558783022412,0.9228107401538145,0.0750514162089889,0.44490229533528636
ltwiki,True,47.0,0.30591944580132335,0.8625266057343183,0.9251161666353308,0.07256301097033876,0.45164885596276144
ltwiki,True,48.0,0.3123522995818942,0.8605233504444723,0.9272783433160539,0.07024637997390888,0.45833750125037515
ltwiki,True,49.0,0.31899641577060933,0.8580192813321648,0.9294315668842273,0.06792046388330493,0.46508313539192403
ltwiki,True,50.0,0.3258142972960084,0.8553900087642419,0.9315445014459277,0.06563168816939725,0.47188838237325603
ltwiki,True,51.0,0.33164680126489904,0.8535119569300113,0.9332634990554466,0.06377931188167076,0.477682012472847
ltwiki,True,52.0,0.3370853374324391,0.8511330912733192,0.9348302937516227,0.06206621200655528,0.48291539390495136
ltwiki,True,53.0,0.34258978249873545,0.8480030048829348,0.9363836587789746,0.06033918449017869,0.48802103973772387
ltwiki,True,54.0,0.3477992277992278,0.8458745461374734,0.9377758677804339,0.05881642904563159,0.49292280752954915
ltwiki,True,55.0,0.35422686912205115,0.8441216977588581,0.939405334264457,0.057061546246732806,0.49903774981495186
ltwiki,True,56.0,0.3600513671143453,0.8424940528358583,0.9408288791598399,0.05552486316092461,0.5044984255510572
ltwiki,True,57.0,0.36555034362386823,0.8391135595342432,0.9421763225985514,0.05400210771637751,0.5092511682686828
ltwiki,True,58.0,0.37106430155210646,0.8381119318893201,0.9434208052429427,0.052674339249485835,0.5143889038306374
ltwiki,True,59.0,0.3764785400473133,0.8368598973331663,0.9446115692120366,0.0513929962534645,0.5193271434676198
ltwiki,True,60.0,0.3810830902956482,0.8343558282208589,0.9456277474864137,0.050246287122967144,0.5232001256182774
ltwiki,True,61.0,0.3853822523619081,0.8324777763866282,0.9465409649664706,0.04922956931090674,0.5268621236133122
ltwiki,True,62.0,0.3895386423743756,0.8298485038187053,0.9474183699963292,0.048222136593020395,0.5301975841932646
ltwiki,True,63.0,0.3944560357675112,0.8284712658069363,0.9483942592642333,0.047158993310089645,0.534447944430983
ltwiki,True,64.0,0.39979395188170413,0.8259671966946288,0.9494417734325338,0.04597978634998306,0.5387945115975172
ltwiki,True,65.0,0.4043403418172876,0.8234631275823213,0.9503147019061177,0.044981638726270784,0.5423658928792314
ltwiki,True,66.0,0.4088273798391621,0.8210842619256291,0.9511518179295032,0.044025274026341814,0.5458631596470783
ltwiki,True,67.0,0.41335865780310227,0.8174533617127833,0.9519934105091635,0.04301784130845547,0.5490707257589773
ltwiki,True,68.0,0.4173823868734778,0.8153249029673219,0.9527051829568549,0.042200753021137516,0.5521217516639112
ltwiki,True,69.0,0.42223378650881416,0.8126956303993991,0.9535422989802405,0.041235103227034484,0.5557363013698631
ltwiki,True,70.0,0.42701740506329117,0.8109427820207837,0.9543346494408781,0.04034837673341102,0.5594472036277262
ltwiki,True,71.0,0.4311693521428094,0.8074370852635533,0.9550285156634704,0.03949879061648383,0.5621513249651325
ltwiki,True,72.0,0.43395588036270133,0.8029297608613998,0.9555075071848729,0.03883490638303799,0.563408741489128
ltwiki,True,73.0,0.43841077811383006,0.7985476399148617,0.956223756188839,0.037929609701066395,0.5660528067450633
ltwiki,True,74.0,0.4431246506428172,0.7940403155127082,0.9569579114179044,0.037001100283659626,0.5688147450558322
ltwiki,True,75.0,0.44845250800426895,0.7891573807437086,0.9577592149910916,0.035989025018686255,0.5719081753016968
ltwiki,True,76.0,0.4528943560057887,0.783648428696632,0.9584172687634857,0.03510229852506279,0.5740358600449397
ltwiki,True,77.0,0.45966728280961183,0.7783898835607863,0.9593618221374661,0.03392773411204323,0.5780029750836743
ltwiki,True,78.0,0.4652164060729662,0.7711280831350945,0.9601228367041802,0.03286923337619952,0.5803260152642985
ltwiki,True,79.0,0.47010659663216436,0.7619882308751722,0.9607808904765742,0.031847873017052074,0.5814742272966131
ltwiki,True,80.0,0.47496038034865296,0.7504695129585577,0.9614165614675942,0.03076151699868616,0.5817440675498619
ltwiki,True,81.0,0.48076451850036755,0.7369475397520971,0.9621372870278352,0.02951267183227406,0.5819080573405833
ltwiki,True,82.0,0.4864659110133649,0.7200450732440216,0.9628132470253283,0.028184903365382385,0.5806451612903226
ltwiki,True,83.0,0.4940550133096717,0.6971328408664079,0.9636458864924391,0.0264718034902669,0.5782832216856209
ltwiki,True,84.0,0.4986126526082131,0.6749718292224866,0.9641114483450172,0.025167247758810393,0.5735411458056279
ltwiki,True,85.0,0.5060485822123294,0.6546888694127958,0.9648053145676094,0.02369556033222067,0.5708515283842794
ltwiki,True,86.0,0.5165678052771528,0.632402654313259,0.9656961492662924,0.021945320080408916,0.568646214466648
ltwiki,True,87.0,0.5270447110141767,0.6051083009891073,0.9664661169455562,0.020134726716465722,0.5633852072040567
ltwiki,True,88.0,0.5377391712642329,0.5735570301740328,0.9671241707179501,0.018282350428739224,0.5550708833151582
ltwiki,True,89.0,0.5482472912683237,0.5385000626017278,0.9676344981332761,0.016453186876447895,0.5433299646286003
ltwiki,True,90.0,0.5656479909451047,0.5005634155502692,0.9683999892562649,0.014252619557193858,0.5311192294918632
ltwiki,True,91.0,0.5902165196471532,0.46074871666457995,0.9692818708423984,0.011861707807371436,0.5175080860638448
ltwiki,True,92.0,0.6248579007199697,0.4129209966195067,0.9701458462034326,0.009192243232326983,0.49724839803995474
ltwiki,True,93.0,0.6629757785467129,0.3598347314385877,0.9705711190495375,0.006782761294156426,0.46648271384515505
ltwiki,True,94.0,0.7101573676680972,0.3107549768373607,0.9708218062009257,0.00470290019916527,0.43232886256749686
ltwiki,True,95.0,0.7721230535510825,0.25453862526605736,0.9706606501750333,0.0027855282522202983,0.38286252354048966
ltwiki,True,96.0,0.8274809160305343,0.20358081883059972,0.9700070729589142,0.0015738234625044686,0.32676848874598075
ltwiki,True,97.0,0.8871212121212121,0.14661324652560412,0.9688207855460951,0.0006917395159680407,0.251638551627807
ltwiki,True,98.0,0.9627659574468085,0.0906473018655315,0.967361428200514,0.00012999131843694726,0.1656940153335622
ltwiki,True,99.0,0.9811320754716981,0.04557405784399649,0.9658438756233605,3.2497829609236814e-05,0.08710217755443886
ltwiki,False,0.0,0.028285988715512432,1.0,0.028285988715512432,1.0,0.055015801101882145
ltwiki,False,1.0,0.02832402733343508,1.0,0.02962896926961413,0.9986179261197166,0.05508774779265366
ltwiki,False,2.0,0.028861985472154964,0.9997966653111021,0.04843069702703791,0.9792629728497949,0.05610435844261055
ltwiki,False,3.0,0.030646956662727577,0.9992883285888573,0.10594017266071193,0.9200646348898188,0.059470039600306154
ltwiki,False,4.0,0.032823584526837105,0.997254981699878,0.16873817343141598,0.8553794340303879,0.06355531366222189
ltwiki,False,5.0,0.034796940881432516,0.9959333062220415,0.21847446611490393,0.8041568757435675,0.06724442690188945
ltwiki,False,6.0,0.03701599493979645,0.9935949572997154,0.2686622533315695,0.7524400854695795,0.0713730158440354
ltwiki,False,7.0,0.039157605750821806,0.9918666124440829,0.31133855188161064,0.7084711954495143,0.07534085248838726
ltwiki,False,8.0,0.04151260791228684,0.9885115900772672,0.35408099294288164,0.664386885983344,0.07967908741508026
ltwiki,False,9.0,0.04346266622429856,0.9855632370882472,0.3860537077191186,0.6313976407081427,0.0832538925961233
ltwiki,False,10.0,0.04548233567854321,0.9832248881659211,0.41585809843155974,0.600657594895501,0.08694284121761332
ltwiki,False,11.0,0.047746539514121555,0.9808865392435949,0.4461082321544629,0.5694588307714162,0.09106053241341558
ltwiki,False,12.0,0.050504891711601246,0.9798698657991053,0.47835702002105057,0.5362417060769818,0.09605868370301343
ltwiki,False,13.0,0.053515805662511635,0.9764131760878406,0.510864626409842,0.5026872014631635,0.10147017649513727
ltwiki,False,14.0,0.057187090912351385,0.9726514843432289,0.5456440842713108,0.46678583477854263,0.10802296631268736
ltwiki,False,15.0,0.06121330168721944,0.9649247661651078,0.5804206663714219,0.43077200812079386,0.11512335945270613
ltwiki,False,16.0,0.06546280096642507,0.9586213908092721,0.6117319560353603,0.39836577902207176,0.12255641052303215
ltwiki,False,17.0,0.06989528014798019,0.9527246848312322,0.6400524538871666,0.3690492397113922,0.1302359841009534
ltwiki,False,18.0,0.07468323977546111,0.9468279788531924,0.6666705010151438,0.34148470840312756,0.13844621513944222
ltwiki,False,19.0,0.0792836249807564,0.942456283041887,0.6887908573794912,0.31859318492562844,0.14626295776203474
ltwiki,False,20.0,0.08410284513860346,0.9361529076860512,0.7098213001892251,0.2967670717198681,0.15433997368443106
ltwiki,False,21.0,0.0889001087463104,0.9308662057747051,0.7281945395043338,0.2777051062746746,0.16230013826355158
ltwiki,False,22.0,0.09383477570218779,0.9248678324522164,0.7452391770721298,0.25998970103403984,0.17038292612119907
ltwiki,False,23.0,0.09876677943904835,0.9200894672631151,0.760259278644021,0.24439327844497452,0.17838487769302033
ltwiki,False,24.0,0.10417197526002456,0.9143960959739732,0.775155722477526,0.22889747793712895,0.18703599725497536
ltwiki,False,25.0,0.10942498866157561,0.9075843838958927,0.7884503672347254,0.21501754967475392,0.19530284301606923
ltwiki,False,26.0,0.11501032910208271,0.8999593330622204,0.8012877659360316,0.20158450183191376,0.20395608446712668
ltwiki,False,27.0,0.12051809210526315,0.8939609597397316,0.8124716018565915,0.1899005025185115,0.21240156529300933
ltwiki,False,28.0,0.12629842886490553,0.8875559170394469,0.8231464280168175,0.17872849203013927,0.22113022113022113
ltwiki,False,29.0,0.1325133689839572,0.881760878405856,0.8333783869279392,0.1680299972180954,0.23040140265122336
ltwiki,False,30.0,0.13909689497127364,0.876270841805612,0.8430927087946534,0.1578730859608521,0.24008356545961004
ltwiki,False,31.0,0.1460374149659864,0.8730174867832452,0.8520075690038937,0.14860401659672445,0.2502185442042077
ltwiki,False,32.0,0.15291584424905796,0.8664091093940627,0.860462307395883,0.13971080030068245,0.25995180428880826
ltwiki,False,33.0,0.16006497799437108,0.8615290768605124,0.8682067327324909,0.13159888487058224,0.26997148637239754
ltwiki,False,34.0,0.16775386818344537,0.8575640504270029,0.8756290727970231,0.12384506567070536,0.280614790911208
ltwiki,False,35.0,0.1754077791718946,0.8527856852379015,0.8824388756923396,0.11669793843112418,0.29096711530456504
ltwiki,False,36.0,0.18361557070595996,0.8488206588043921,0.8889726054973054,0.10985859638115644,0.30192022565363613
ltwiki,False,37.0,0.1915531272333264,0.8447539650264335,0.894761513110596,0.10378279835926818,0.3122921090710917
ltwiki,False,38.0,0.19945434352214014,0.8398739324928833,0.9001190565202137,0.09812724550012134,0.32235532836461545
ltwiki,False,39.0,0.20827432733158002,0.8373322488816592,0.9053644452368764,0.09265517996555174,0.33357634669906855
ltwiki,False,40.0,0.21742237751131582,0.835095567303782,0.9103136305336837,0.08749681856654967,0.3450173264727502
ltwiki,False,41.0,0.2258242364097475,0.8328588857259048,0.9145093663547424,0.0831138390875353,0.3553088133240805
ltwiki,False,42.0,0.23420916757501004,0.8301138674257829,0.918420401801377,0.07900905006836383,0.3653407311289096
ltwiki,False,43.0,0.243215810371078,0.8282838552257015,0.9222422886459191,0.07502263996827445,0.37601827706366975
ltwiki,False,44.0,0.25187373658839995,0.8234038226921513,0.925825487297762,0.07119308193596885,0.3857493272367889
ltwiki,False,45.0,0.2597695229511363,0.8204554697031313,0.928790397257674,0.06805604058029346,0.3946017309667009
ltwiki,False,46.0,0.2684229857424288,0.8173037820252135,0.9318243254901736,0.06484205292721472,0.4041221565916802
ltwiki,False,47.0,0.2759988958663998,0.8132370882472549,0.9343751258145594,0.06209862147748729,0.41212839404400015
ltwiki,False,48.0,0.28415242165242166,0.8112037413582758,0.9368540321049998,0.05948836631172721,0.42087772971832477
ltwiki,False,49.0,0.2931695802906248,0.8081537210248069,0.9394594718951842,0.0567182996052063,0.430257104194858
ltwiki,False,50.0,0.3009542637721933,0.804798698657991,0.9416019141067598,0.05441582962905966,0.4380862779822353
ltwiki,False,51.0,0.30784535559630166,0.8022570150467669,0.9433848861486078,0.05250696955886096,0.4449519298542389
ltwiki,False,52.0,0.31507014028056113,0.799206994713298,0.9451764854745294,0.05057443370484584,0.4519634335652274
ltwiki,False,53.0,0.32216452357401915,0.7947336315575437,0.9468961907665054,0.0486744520535783,0.458475073313783
ltwiki,False,54.0,0.32840348881304515,0.7923952826352175,0.9482909350250479,0.047171039781235755,0.46435699603801117
ltwiki,False,55.0,0.3357828304659808,0.7897519316795445,0.9498639764877751,0.04547526176538482,0.47121625720351823
ltwiki,False,56.0,0.34287359886580127,0.7868035786905246,0.9513162359734739,0.04389490319563892,0.4776128614188293
ltwiki,False,57.0,0.35071090047393366,0.7824318828792192,0.9528720228680543,0.04216657097704041,0.4843297671491504
ltwiki,False,58.0,0.3583488805970149,0.7811102074013827,0.954246636797092,0.040713469745307755,0.49130323570789103
ltwiki,False,59.0,0.3656744896012211,0.7793818625457503,0.9555177233172483,0.03935507164884077,0.4977922077922078
ltwiki,False,60.0,0.37195805900999757,0.7754168361122408,0.9566133883945774,0.03811209299847883,0.502752051679246
ltwiki,False,61.0,0.3791299147854687,0.7734851565677104,0.9577636929377052,0.03687207382109394,0.5088452663612347
ltwiki,False,62.0,0.3851241351241351,0.7696217974786499,0.9587270729925748,0.03576819040065345,0.5133595551335955
ltwiki,False,63.0,0.3931099084096586,0.7679951199674665,0.9599003836265652,0.0345133738583833,0.5200330441966129
ltwiki,False,64.0,0.4008200649661856,0.7652501016673444,0.96100180022661,0.03329998993779188,0.526087716232745
ltwiki,False,65.0,0.40791691588276874,0.7627084180561203,0.961973807565553,0.032225701247121916,0.5315478088355121
ltwiki,False,66.0,0.4150105473520595,0.7600650671004473,0.9629084300068443,0.031186926232176573,0.5368761220825853
ltwiki,False,67.0,0.4214403082327611,0.7562017080113868,0.9637395250392542,0.03021917856868049,0.5412406767327633
ltwiki,False,68.0,0.42733713495766373,0.7542700284668564,0.964458465378709,0.029423080337853433,0.5455748795823069
ltwiki,False,69.0,0.4339633716834938,0.7516266775111834,0.9652435482293937,0.02853819791771481,0.5502381661208694
ltwiki,False,70.0,0.4407875052360721,0.7488816592110614,0.9660228795573628,0.027656274970553243,0.5549402945718914
ltwiki,False,71.0,0.44801223241590216,0.7447132980886539,0.9668252169761945,0.026709243617896526,0.5594592530359734
ltwiki,False,72.0,0.453447094725042,0.7402399349328995,0.9674147480545474,0.025972334846610514,0.5623913799096281
ltwiki,False,73.0,0.45986888167525936,0.7345465636437576,0.9680876762122772,0.025114087683265365,0.5656241437350764
ltwiki,False,74.0,0.4659393467108254,0.7294631964213095,0.9686973376201349,0.024338705763277676,0.5686546463245492
ltwiki,False,75.0,0.47357926221335994,0.7243798291988613,0.969427781005021,0.023439025978253793,0.572726176600619
ltwiki,False,76.0,0.48004894296784717,0.7179747864985767,0.9700259393674475,0.022637008801472635,0.5753859942151791
ltwiki,False,77.0,0.48933790113962106,0.711569743798292,0.9708369040703526,0.021615990624389608,0.5798914619495422
ltwiki,False,78.0,0.49589021513830317,0.7053680357869052,0.9713832987283383,0.020873162907149495,0.5823645444243926
ltwiki,False,79.0,0.5028261029141893,0.6964213094753965,0.9719354449090397,0.020044510473574865,0.583997612856473
ltwiki,False,80.0,0.5107091500794672,0.6860512403416023,0.9725278517487504,0.019132992796642774,0.5855351642153672
ltwiki,False,81.0,0.5207615167659041,0.6757828385522571,0.9732381648041319,0.018103096200628593,0.5882300884955752
ltwiki,False,82.0,0.5284294558488107,0.6595160634404229,0.9737212927122456,0.017132389064155457,0.5867402315484804
ltwiki,False,83.0,0.5396607846496488,0.6405042700284669,0.9743769663018285,0.015904207778678774,0.5857740585774058
ltwiki,False,84.0,0.5482365610697298,0.6210858072387149,0.9748054547441435,0.014897986966481008,0.582391915725249
ltwiki,False,85.0,0.5568213915827135,0.6012606750711671,0.9751850552433757,0.013930239302984924,0.5781883951703574
ltwiki,False,86.0,0.5682498503292756,0.5789955266368443,0.9756480528219846,0.012805639571705071,0.5735723637828583
ltwiki,False,87.0,0.5824984011937753,0.5556120374135828,0.9761656898663921,0.01159225565111365,0.5687376417941512
ltwiki,False,88.0,0.5939935809261806,0.5268401789345263,0.9764302599113115,0.010482453284719057,0.5584051724137931
ltwiki,False,89.0,0.6047293092719352,0.4940016266775112,0.9765539176496978,0.009399286175117936,0.5437860220468915
ltwiki,False,90.0,0.6217843459222769,0.46197641317608784,0.9768328665014062,0.008179983308572409,0.5300979934671022
ltwiki,False,91.0,0.6406441717791411,0.42466449776331844,0.9769881576147285,0.0069340451852334135,0.5107605771582293
ltwiki,False,92.0,0.6730769230769231,0.3807442049613664,0.9772527276596479,0.005383281345258037,0.48636363636363644
ltwiki,False,93.0,0.7025740860912827,0.3302155347702318,0.9771003123076835,0.004069275343446839,0.4492703506466561
ltwiki,False,94.0,0.7396593673965937,0.27816185441236274,0.9768127361719016,0.0028499724769013132,0.4042851865533801
ltwiki,False,95.0,0.7952924393723253,0.22671817812118747,0.9764762720930367,0.0016987374888279894,0.3528481012658227
ltwiki,False,96.0,0.8382000957395883,0.1780195201301342,0.9757774620830865,0.0010003018662436594,0.2936687631027253
ltwiki,False,97.0,0.8890439637124913,0.12952419682797886,0.9749204851984563,0.0004705562033513072,0.22610701925636703
ltwiki,False,98.0,0.9577804583835947,0.08072387149247662,0.9738967141550725,0.00010358155419682863,0.14889826535396156
ltwiki,False,99.0,0.9897959183673469,0.03944692964619764,0.9728183036458903,1.1837891908208986e-05,0.07587016034415331
