wiki_db,user_is_bot,threshold,precision,recall,accuracy,fpr,F1
mtwiki,True,0.0,0.020766773162939296,1.0,0.020766773162939296,1.0,0.0406885758998435
mtwiki,True,1.0,0.020766773162939296,1.0,0.020766773162939296,1.0,0.0406885758998435
mtwiki,True,2.0,0.020933977455716585,1.0,0.02875399361022364,0.9918433931484503,0.04100946372239747
mtwiki,True,3.0,0.022108843537414966,1.0,0.08146964856230032,0.9380097879282219,0.043261231281198
mtwiki,True,4.0,0.02333931777378815,1.0,0.13099041533546327,0.8874388254486134,0.045614035087719294
mtwiki,True,5.0,0.02214022140221402,0.9230769230769231,0.15175718849840256,0.8646003262642741,0.04324324324324324
mtwiki,True,6.0,0.023622047244094488,0.9230769230769231,0.20607028753993611,0.8091353996737357,0.046065259117082535
mtwiki,True,7.0,0.02654867256637168,0.9230769230769231,0.2955271565495208,0.7177814029363785,0.051612903225806445
mtwiki,True,8.0,0.027707808564231738,0.8461538461538461,0.3801916932907348,0.6296900489396411,0.05365853658536586
mtwiki,True,9.0,0.03235294117647059,0.8461538461538461,0.4712460063897764,0.5367047308319739,0.062322946175637405
mtwiki,True,10.0,0.03767123287671233,0.8461538461538461,0.547923322683706,0.45840130505709625,0.0721311475409836
mtwiki,True,11.0,0.0398406374501992,0.7692307692307693,0.610223642172524,0.3931484502446982,0.07575757575757576
mtwiki,True,12.0,0.04291845493562232,0.7692307692307693,0.6389776357827476,0.3637846655791191,0.0813008130081301
mtwiki,True,13.0,0.045871559633027525,0.7692307692307693,0.6629392971246006,0.33931484502446985,0.08658008658008658
mtwiki,True,14.0,0.04854368932038835,0.7692307692307693,0.6821086261980831,0.3197389885807504,0.09132420091324202
mtwiki,True,15.0,0.05181347150259067,0.7692307692307693,0.7028753993610224,0.29853181076672103,0.0970873786407767
mtwiki,True,16.0,0.05434782608695652,0.7692307692307693,0.7172523961661342,0.2838499184339315,0.10152284263959391
mtwiki,True,17.0,0.056818181818181816,0.7692307692307693,0.7300319488817891,0.2707993474714519,0.10582010582010581
mtwiki,True,18.0,0.058823529411764705,0.7692307692307693,0.7396166134185304,0.26101141924959215,0.1092896174863388
mtwiki,True,19.0,0.06134969325153374,0.7692307692307693,0.7507987220447284,0.2495921696574225,0.11363636363636365
mtwiki,True,20.0,0.06289308176100629,0.7692307692307693,0.7571884984025559,0.24306688417618272,0.11627906976744187
mtwiki,True,21.0,0.06578947368421052,0.7692307692307693,0.768370607028754,0.23164763458401305,0.1212121212121212
mtwiki,True,22.0,0.06944444444444445,0.7692307692307693,0.7811501597444089,0.21859706362153344,0.12738853503184713
mtwiki,True,23.0,0.06993006993006994,0.7692307692307693,0.7827476038338658,0.2169657422512235,0.12820512820512822
mtwiki,True,24.0,0.07246376811594203,0.7692307692307693,0.7907348242811502,0.20880913539967375,0.13245033112582782
mtwiki,True,25.0,0.07352941176470588,0.7692307692307693,0.7939297124600639,0.20554649265905384,0.13422818791946312
mtwiki,True,26.0,0.078125,0.7692307692307693,0.8067092651757188,0.19249592169657423,0.14184397163120568
mtwiki,True,27.0,0.08130081300813008,0.7692307692307693,0.8146964856230032,0.18433931484502447,0.14705882352941174
mtwiki,True,28.0,0.08547008547008547,0.7692307692307693,0.8242811501597445,0.17455138662316477,0.15384615384615383
mtwiki,True,29.0,0.09259259259259259,0.7692307692307693,0.8386581469648562,0.1598694942903752,0.1652892561983471
mtwiki,True,30.0,0.09615384615384616,0.7692307692307693,0.8450479233226837,0.1533442088091354,0.17094017094017094
mtwiki,True,31.0,0.10101010101010101,0.7692307692307693,0.853035143769968,0.14518760195758565,0.17857142857142855
mtwiki,True,32.0,0.10638297872340426,0.7692307692307693,0.8610223642172524,0.1370309951060359,0.18691588785046728
mtwiki,True,33.0,0.10869565217391304,0.7692307692307693,0.8642172523961661,0.13376835236541598,0.19047619047619047
mtwiki,True,34.0,0.1111111111111111,0.7692307692307693,0.8674121405750799,0.13050570962479607,0.1941747572815534
mtwiki,True,35.0,0.12048192771084337,0.7692307692307693,0.8785942492012779,0.11908646003262642,0.20833333333333334
mtwiki,True,36.0,0.12195121951219512,0.7692307692307693,0.8801916932907349,0.11745513866231648,0.2105263157894737
mtwiki,True,37.0,0.12345679012345678,0.7692307692307693,0.8817891373801917,0.11582381729200653,0.2127659574468085
mtwiki,True,38.0,0.125,0.7692307692307693,0.8833865814696485,0.11419249592169657,0.21505376344086022
mtwiki,True,39.0,0.12987012987012986,0.7692307692307693,0.8881789137380192,0.10929853181076672,0.2222222222222222
mtwiki,True,40.0,0.13333333333333333,0.7692307692307693,0.8913738019169329,0.10603588907014681,0.2272727272727273
mtwiki,True,41.0,0.136986301369863,0.7692307692307693,0.8945686900958466,0.10277324632952692,0.23255813953488372
mtwiki,True,42.0,0.14705882352941177,0.7692307692307693,0.902555910543131,0.09461663947797716,0.2469135802469136
mtwiki,True,43.0,0.15151515151515152,0.7692307692307693,0.9057507987220448,0.09135399673735727,0.25316455696202533
mtwiki,True,44.0,0.1724137931034483,0.7692307692307693,0.9185303514376997,0.07830342577487764,0.28169014084507044
mtwiki,True,45.0,0.1724137931034483,0.7692307692307693,0.9185303514376997,0.07830342577487764,0.28169014084507044
mtwiki,True,46.0,0.17857142857142858,0.7692307692307693,0.9217252396166135,0.07504078303425775,0.2898550724637681
mtwiki,True,47.0,0.18867924528301888,0.7692307692307693,0.9265175718849841,0.0701468189233279,0.30303030303030304
mtwiki,True,48.0,0.20408163265306123,0.7692307692307693,0.9329073482428115,0.0636215334420881,0.3225806451612903
mtwiki,True,49.0,0.20833333333333334,0.7692307692307693,0.9345047923322684,0.06199021207177814,0.32786885245901637
mtwiki,True,50.0,0.2127659574468085,0.7692307692307693,0.9361022364217252,0.06035889070146819,0.33333333333333337
mtwiki,True,51.0,0.21739130434782608,0.7692307692307693,0.9376996805111821,0.05872756933115824,0.3389830508474576
mtwiki,True,52.0,0.2,0.6923076923076923,0.9361022364217252,0.05872756933115824,0.31034482758620696
mtwiki,True,53.0,0.20930232558139536,0.6923076923076923,0.939297124600639,0.05546492659053834,0.32142857142857145
mtwiki,True,54.0,0.1951219512195122,0.6153846153846154,0.939297124600639,0.053833605220228384,0.29629629629629634
mtwiki,True,55.0,0.20512820512820512,0.6153846153846154,0.9424920127795527,0.05057096247960848,0.3076923076923077
mtwiki,True,56.0,0.21052631578947367,0.6153846153846154,0.9440894568690096,0.048939641109298535,0.3137254901960784
mtwiki,True,57.0,0.23529411764705882,0.6153846153846154,0.950479233226837,0.04241435562805873,0.3404255319148936
mtwiki,True,58.0,0.23529411764705882,0.6153846153846154,0.950479233226837,0.04241435562805873,0.3404255319148936
mtwiki,True,59.0,0.24242424242424243,0.6153846153846154,0.952076677316294,0.040783034257748776,0.34782608695652173
mtwiki,True,60.0,0.25,0.6153846153846154,0.9536741214057508,0.03915171288743882,0.35555555555555557
mtwiki,True,61.0,0.25806451612903225,0.6153846153846154,0.9552715654952076,0.037520391517128875,0.36363636363636365
mtwiki,True,62.0,0.26666666666666666,0.6153846153846154,0.9568690095846646,0.03588907014681892,0.37209302325581395
mtwiki,True,63.0,0.26666666666666666,0.6153846153846154,0.9568690095846646,0.03588907014681892,0.37209302325581395
mtwiki,True,64.0,0.2962962962962963,0.6153846153846154,0.9616613418530351,0.03099510603588907,0.4
mtwiki,True,65.0,0.3076923076923077,0.6153846153846154,0.963258785942492,0.02936378466557912,0.4102564102564103
mtwiki,True,66.0,0.32,0.6153846153846154,0.9648562300319489,0.02773246329526917,0.4210526315789474
mtwiki,True,67.0,0.32,0.6153846153846154,0.9648562300319489,0.02773246329526917,0.4210526315789474
mtwiki,True,68.0,0.32,0.6153846153846154,0.9648562300319489,0.02773246329526917,0.4210526315789474
mtwiki,True,69.0,0.3333333333333333,0.6153846153846154,0.9664536741214057,0.026101141924959218,0.43243243243243246
mtwiki,True,70.0,0.34782608695652173,0.6153846153846154,0.9680511182108626,0.024469820554649267,0.4444444444444444
mtwiki,True,71.0,0.34782608695652173,0.6153846153846154,0.9680511182108626,0.024469820554649267,0.4444444444444444
mtwiki,True,72.0,0.38095238095238093,0.6153846153846154,0.9712460063897763,0.021207177814029365,0.47058823529411764
mtwiki,True,73.0,0.35,0.5384615384615384,0.9696485623003195,0.021207177814029365,0.4242424242424242
mtwiki,True,74.0,0.35,0.5384615384615384,0.9696485623003195,0.021207177814029365,0.4242424242424242
mtwiki,True,75.0,0.3684210526315789,0.5384615384615384,0.9712460063897763,0.01957585644371941,0.4375
mtwiki,True,76.0,0.3684210526315789,0.5384615384615384,0.9712460063897763,0.01957585644371941,0.4375
mtwiki,True,77.0,0.3684210526315789,0.5384615384615384,0.9712460063897763,0.01957585644371941,0.4375
mtwiki,True,78.0,0.3888888888888889,0.5384615384615384,0.9728434504792333,0.01794453507340946,0.45161290322580644
mtwiki,True,79.0,0.4375,0.5384615384615384,0.9760383386581469,0.01468189233278956,0.4827586206896552
mtwiki,True,80.0,0.5,0.5384615384615384,0.9792332268370607,0.011419249592169658,0.5185185185185186
mtwiki,True,81.0,0.5,0.5384615384615384,0.9792332268370607,0.011419249592169658,0.5185185185185186
mtwiki,True,82.0,0.5384615384615384,0.5384615384615384,0.9808306709265175,0.009787928221859706,0.5384615384615384
mtwiki,True,83.0,0.5833333333333334,0.5384615384615384,0.9824281150159745,0.008156606851549755,0.5599999999999999
mtwiki,True,84.0,0.6363636363636364,0.5384615384615384,0.9840255591054313,0.0065252854812398045,0.5833333333333334
mtwiki,True,85.0,0.5555555555555556,0.38461538461538464,0.9808306709265175,0.0065252854812398045,0.4545454545454546
mtwiki,True,86.0,0.5555555555555556,0.38461538461538464,0.9808306709265175,0.0065252854812398045,0.4545454545454546
mtwiki,True,87.0,0.5,0.3076923076923077,0.9792332268370607,0.0065252854812398045,0.380952380952381
mtwiki,True,88.0,0.6666666666666666,0.3076923076923077,0.9824281150159745,0.0032626427406199023,0.42105263157894735
mtwiki,True,89.0,0.3333333333333333,0.07692307692307693,0.9776357827476039,0.0032626427406199023,0.125
mtwiki,True,90.0,0.5,0.07692307692307693,0.9792332268370607,0.0016313213703099511,0.13333333333333336
mtwiki,True,91.0,0.5,0.07692307692307693,0.9792332268370607,0.0016313213703099511,0.13333333333333336
mtwiki,True,92.0,0.5,0.07692307692307693,0.9792332268370607,0.0016313213703099511,0.13333333333333336
mtwiki,True,93.0,0.5,0.0,0.9792332268370607,0.0,0.0
mtwiki,True,94.0,0.5,0.0,0.9792332268370607,0.0,0.0
mtwiki,True,95.0,0.5,0.0,0.9792332268370607,0.0,0.0
mtwiki,True,96.0,0.5,0.0,0.9792332268370607,0.0,0.0
mtwiki,True,97.0,0.5,0.0,0.9792332268370607,0.0,0.0
mtwiki,True,98.0,0.5,0.0,0.9792332268370607,0.0,0.0
mtwiki,True,99.0,0.5,0.0,0.9792332268370607,0.0,0.0
mtwiki,False,0.0,0.01530580756650003,1.0,0.01530580756650003,1.0,0.03015014284845906
mtwiki,False,1.0,0.01530580756650003,1.0,0.01530580756650003,1.0,0.03015014284845906
mtwiki,False,2.0,0.015434403783918346,1.0,0.023637597975683516,0.9915387026010655,0.030399607746996814
mtwiki,False,3.0,0.015960870124855194,1.0,0.05634758995247793,0.958320275775619,0.03142024578740656
mtwiki,False,4.0,0.016396694214876033,1.0,0.08183669690798,0.9324349733625823,0.03226435959149158
mtwiki,False,5.0,0.016737259188413716,0.9879032258064516,0.1115225575510708,0.9020996552804763,0.032916834609700386
mtwiki,False,6.0,0.017346053772766695,0.967741935483871,0.16040239461828057,0.8521466624882482,0.03408122692416927
mtwiki,False,7.0,0.018598786350382222,0.9516129032258065,0.2306980188853916,0.780507677843936,0.036484501816495325
mtwiki,False,8.0,0.019218679838347554,0.8629032258064516,0.32389063753625874,0.6844876214352867,0.037599929719757536
mtwiki,False,9.0,0.021589486858573217,0.8346774193548387,0.41850274640498675,0.5879661548104043,0.04209028060187068
mtwiki,False,10.0,0.02346725641970758,0.7701612903225806,0.5059556872184163,0.49815104982764025,0.04554667938476213
mtwiki,False,11.0,0.0263269041250176,0.7540322580645161,0.5694007282601987,0.4334691319335631,0.05087743164195348
mtwiki,False,12.0,0.028924980665119875,0.7540322580645161,0.6087761525643399,0.393481667188969,0.055712796067332045
mtwiki,False,13.0,0.03082248228119334,0.7540322580645161,0.6333395050299327,0.36853650893136947,0.05922406967537609
mtwiki,False,14.0,0.03199863107460643,0.7540322580645161,0.647102388446584,0.35455969915387026,0.0613919894944189
mtwiki,False,15.0,0.03299223712067749,0.7540322580645161,0.6579645744615195,0.34352867439674084,0.06321839080459771
mtwiki,False,16.0,0.03419272261839459,0.7540322580645161,0.6702462506943159,0.3310560952679411,0.06541892601014518
mtwiki,False,17.0,0.035336356764928196,0.7540322580645161,0.6811701536752454,0.31996239423378253,0.06750902527075812
mtwiki,False,18.0,0.03672427336999214,0.7540322580645161,0.6935135468740357,0.30742713882795364,0.07003745318352059
mtwiki,False,19.0,0.03647540983606557,0.717741935483871,0.7054866382768623,0.2947038545910373,0.06942277691107644
mtwiki,False,20.0,0.03781693167168027,0.7096774193548387,0.7191878047275196,0.28066436853650895,0.07180742554059567
mtwiki,False,21.0,0.03989120580235721,0.7096774193548387,0.7341233104980559,0.26549670949545595,0.07553648068669527
mtwiki,False,22.0,0.04187485129669284,0.7096774193548387,0.7470221563907918,0.2523973675963648,0.07908335205571781
mtwiki,False,23.0,0.04366162242619697,0.7096774193548387,0.7576374745417516,0.24161704794735192,0.08226221079691516
mtwiki,False,24.0,0.04590505998956703,0.7096774193548387,0.76979571684256,0.22926982137261046,0.08623223909848113
mtwiki,False,25.0,0.04839153148199065,0.7096774193548387,0.7819539591433685,0.21692259479786902,0.09060489060489062
mtwiki,False,26.0,0.05002891844997108,0.6975806451612904,0.7926309942603221,0.20589157004073957,0.0933621154883972
mtwiki,False,27.0,0.052456033959975744,0.6975806451612904,0.8025057088193545,0.19586336571607646,0.09757473209249858
mtwiki,False,28.0,0.0555198973042362,0.6975806451612904,0.8137381966302537,0.18445628329677216,0.10285374554102258
mtwiki,False,29.0,0.05751014884979702,0.6854838709677419,0.8232426093933223,0.1746161078031965,0.10611735330836454
mtwiki,False,30.0,0.06097560975609756,0.6854838709677419,0.8336110596803061,0.1640864932623002,0.11198945981554678
mtwiki,False,31.0,0.06374203224596925,0.6854838709677419,0.8410788125655743,0.15650266374177374,0.11663807890222982
mtwiki,False,32.0,0.06767515923566879,0.6854838709677419,0.8506449422946368,0.14678784080225635,0.12318840579710144
mtwiki,False,33.0,0.0694560669456067,0.6693548387096774,0.8576806764179473,0.1393920401128173,0.12585291887793784
mtwiki,False,34.0,0.07277509864094696,0.6693548387096774,0.864407825711288,0.13256032591664055,0.1312771846579676
mtwiki,False,35.0,0.07760635811126694,0.6693548387096774,0.8731716348824292,0.12366029457850204,0.139086719731881
mtwiki,False,36.0,0.07934990439770555,0.6693548387096774,0.8760723322841449,0.12071450955813225,0.1418803418803419
mtwiki,False,37.0,0.08316633266533066,0.6693548387096774,0.8819971610195643,0.11469758696333437,0.14795008912655971
mtwiki,False,38.0,0.08526315789473685,0.6532258064516129,0.8874282540270321,0.10893136947665309,0.15083798882681565
mtwiki,False,39.0,0.08970099667774087,0.6532258064516129,0.8932296488304635,0.1030397994359135,0.15774099318403115
mtwiki,False,40.0,0.09241300627495722,0.6532258064516129,0.8965006480281429,0.09971795675336885,0.16191904047976013
mtwiki,False,41.0,0.09424083769633508,0.6532258064516129,0.8985990248719373,0.09758696333437794,0.16471784443314694
mtwiki,False,42.0,0.09712230215827339,0.6532258064516129,0.9017465901376288,0.09439047320589157,0.16910229645093947
mtwiki,False,43.0,0.10106051154086089,0.6532258064516129,0.9057581929272357,0.09031651519899718,0.17504051863857376
mtwiki,False,44.0,0.10636900853578464,0.6532258064516129,0.9106955502067519,0.08530241303666562,0.18294748729531338
mtwiki,False,45.0,0.11073137388926863,0.6532258064516129,0.914398568166389,0.08154183641491695,0.18936294564582112
mtwiki,False,46.0,0.11336599020293912,0.6532258064516129,0.9164969450101833,0.07941084299592605,0.1932021466905188
mtwiki,False,47.0,0.11578171091445427,0.6330645161290323,0.9203851138678023,0.07514885615794421,0.1957605985037406
mtwiki,False,48.0,0.12179984484096198,0.6330645161290323,0.9245201505893971,0.07094954559699154,0.20429407937540664
mtwiki,False,49.0,0.12651087832393232,0.6330645161290323,0.9274825649571067,0.0679410842995926,0.21087978509066488
mtwiki,False,50.0,0.13149078726968175,0.6330645161290323,0.9303832623588224,0.06499529927922282,0.217753120665742
mtwiki,False,51.0,0.13771929824561405,0.6330645161290323,0.9337159785224959,0.06161078031964901,0.2262247838616715
mtwiki,False,52.0,0.1416819012797075,0.625,0.9363080910942418,0.05885302413036666,0.23099850968703428
mtwiki,False,53.0,0.14918190567853706,0.625,0.9397025242239092,0.05540582889376371,0.2408702408702409
mtwiki,False,54.0,0.15478615071283094,0.6129032258064516,0.9428500894896007,0.05202130993418991,0.24715447154471543
mtwiki,False,55.0,0.15932914046121593,0.6129032258064516,0.9445781645374314,0.05026637417737386,0.2529118136439268
mtwiki,False,56.0,0.1655773420479303,0.6129032258064516,0.9467999753132136,0.048010028204324665,0.2607204116638079
mtwiki,False,57.0,0.1743119266055046,0.6129032258064516,0.9496389557489354,0.045126919460984016,0.27142857142857146
mtwiki,False,58.0,0.18030842230130487,0.6129032258064516,0.95142874776276,0.04330930742713883,0.27864344637946836
mtwiki,False,59.0,0.18424242424242424,0.6129032258064516,0.9525396531506511,0.04218113444061423,0.2833178005591799
mtwiki,False,60.0,0.19095477386934673,0.6129032258064516,0.9543294451644757,0.04036352240676904,0.2911877394636015
mtwiki,False,61.0,0.19921363040629095,0.6129032258064516,0.9563661050422761,0.03829520526480727,0.30069238377843716
mtwiki,False,62.0,0.20708446866485014,0.6129032258064516,0.9581558970561007,0.03647759323096208,0.30957230142566194
mtwiki,False,63.0,0.20588235294117646,0.592741935483871,0.9587730667160402,0.03553744907552491,0.30561330561330563
mtwiki,False,64.0,0.21428571428571427,0.592741935483871,0.9605011417638709,0.03378251331870887,0.3147751605995717
mtwiki,False,65.0,0.21363636363636362,0.5685483870967742,0.9613651792877862,0.03252898777812598,0.3105726872246696
mtwiki,False,66.0,0.2220472440944882,0.5685483870967742,0.962908103437635,0.030962080852397367,0.3193657984144961
mtwiki,False,67.0,0.23228995057660626,0.5685483870967742,0.9646361784854657,0.02920714509558132,0.32982456140350874
mtwiki,False,68.0,0.24736842105263157,0.5685483870967742,0.9669197062272419,0.026888122845502977,0.34474327628361856
mtwiki,False,69.0,0.25181159420289856,0.5604838709677419,0.9677837437511572,0.025885302413036666,0.34750000000000003
mtwiki,False,70.0,0.25411334552102377,0.5604838709677419,0.9680923285811269,0.025571921027890944,0.349685534591195
mtwiki,False,71.0,0.2556390977443609,0.5483870967741935,0.9686477812750726,0.02481980570354121,0.3487179487179487
mtwiki,False,72.0,0.2651072124756335,0.5483870967741935,0.9698204036289576,0.023628956439987466,0.3574244415243101
mtwiki,False,73.0,0.25806451612903225,0.5161290322580645,0.9698821205949516,0.023064869946725165,0.3440860215053763
mtwiki,False,74.0,0.27061310782241016,0.5161290322580645,0.9713016108128124,0.02162331557505484,0.35506241331484056
mtwiki,False,75.0,0.2757847533632287,0.4959677419354839,0.9723507992347096,0.020244437480413664,0.3544668587896254
mtwiki,False,76.0,0.28211009174311924,0.4959677419354839,0.9729679688946491,0.01961767471012222,0.3596491228070175
mtwiki,False,77.0,0.2956730769230769,0.4959677419354839,0.9742023082145281,0.01836414916953933,0.3704819277108434
mtwiki,False,78.0,0.3010204081632653,0.47580645161290325,0.9750663457384435,0.017173299905985585,0.36875
mtwiki,False,79.0,0.3125,0.4637096774193548,0.9761772511263346,0.01585709808837355,0.37337662337662336
mtwiki,False,80.0,0.32577903682719545,0.4637096774193548,0.9771030056162439,0.014916953932936383,0.3826955074875208
mtwiki,False,81.0,0.3392330383480826,0.4637096774193548,0.9779670431401593,0.014039486054528361,0.3918228279386713
mtwiki,False,82.0,0.346875,0.4475806451612903,0.9786459297660927,0.013099341899091194,0.3908450704225352
mtwiki,False,83.0,0.36082474226804123,0.42338709677419356,0.9796951181879899,0.011657787527420872,0.38961038961038963
mtwiki,False,84.0,0.3874538745387454,0.42338709677419356,0.9809294575078689,0.010404261986837983,0.4046242774566474
mtwiki,False,85.0,0.39453125,0.40725806451612906,0.9813614762698266,0.009714822939517392,0.4007936507936508
mtwiki,False,86.0,0.4225941422594142,0.40725806451612906,0.9824106646917238,0.008649326230021936,0.41478439425051333
mtwiki,False,87.0,0.43043478260869567,0.39919354838709675,0.9827192495216935,0.008210592290817926,0.41422594142259417
mtwiki,False,88.0,0.4583333333333333,0.3548387096774194,0.9837067209775967,0.006518332811031024,0.39999999999999997
mtwiki,False,89.0,0.4583333333333333,0.2661290322580645,0.9839535888415726,0.004888749608273269,0.336734693877551
mtwiki,False,90.0,0.4696969696969697,0.25,0.9842004567055483,0.004387339392040113,0.3263157894736842
mtwiki,False,91.0,0.4642857142857143,0.20967741935483872,0.9842004567055483,0.003760576621748668,0.2888888888888889
mtwiki,False,92.0,0.45,0.14516129032258066,0.9842004567055483,0.002757756189282357,0.2195121951219512
mtwiki,False,93.0,0.43137254901960786,0.08870967741935484,0.9842621736715423,0.0018176120338451896,0.1471571906354515
mtwiki,False,94.0,0.37209302325581395,0.06451612903225806,0.9840153058075665,0.0016922594797869007,0.1099656357388316
mtwiki,False,95.0,0.2702702702702703,0.04032258064516129,0.9836450040116028,0.0016922594797869007,0.07017543859649122
mtwiki,False,96.0,0.3125,0.020161290322580645,0.9843238906375362,0.0006894390473205892,0.03787878787878788
mtwiki,False,97.0,0.42857142857142855,0.012096774193548387,0.984632475467506,0.00025070510811657786,0.023529411764705882
mtwiki,False,98.0,1.0,0.008064516129032258,0.9848176263654879,0.0,0.016
mtwiki,False,99.0,1.0,0.008064516129032258,0.9848176263654879,0.0,0.016
