wiki_db,user_is_bot,threshold,precision,recall,accuracy,fpr,F1
myvwiki,True,0.0,0.05067420617659852,1.0,0.05067420617659852,1.0,0.09646036017387703
myvwiki,True,1.0,0.05067420617659852,1.0,0.05067420617659852,1.0,0.09646036017387703
myvwiki,True,2.0,0.05096237970253718,1.0,0.05632883862548934,0.9940435280641466,0.09698231009365245
myvwiki,True,3.0,0.05185844647229023,1.0,0.07351022183558069,0.9759450171821306,0.09860347016504444
myvwiki,True,4.0,0.052853133769878394,0.9699570815450643,0.11765985210961287,0.9278350515463918,0.10024395653138168
myvwiki,True,5.0,0.05478787878787879,0.9699570815450643,0.15050021748586342,0.893241695303551,0.10371730151445618
myvwiki,True,6.0,0.05491183879093199,0.9356223175965666,0.18073075250108742,0.8595647193585338,0.10373542707589817
myvwiki,True,7.0,0.054376657824933686,0.8798283261802575,0.21857329273597217,0.8167239404352806,0.10242318261304022
myvwiki,True,8.0,0.055711086226203806,0.8540772532188842,0.2590256633318834,0.772737686139748,0.10459921156373193
myvwiki,True,9.0,0.056189640035118525,0.8240343347639485,0.2896911700739452,0.738831615120275,0.10520547945205479
myvwiki,True,10.0,0.059424326833797586,0.8240343347639485,0.33014354066985646,0.6962199312714776,0.11085450346420324
myvwiki,True,11.0,0.06103596172880237,0.7939914163090128,0.37059591126576774,0.6520045819014891,0.1133578431372549
myvwiki,True,12.0,0.06339958875942427,0.7939914163090128,0.3951718138321009,0.6261168384879725,0.11742304030466517
myvwiki,True,13.0,0.0653665583243048,0.776824034334764,0.4258373205741627,0.5928980526918671,0.12058627581612257
myvwiki,True,14.0,0.06840513983371126,0.776824034334764,0.4525880817746846,0.5647193585337915,0.12573810350816256
myvwiki,True,15.0,0.0664280031821798,0.7167381974248928,0.47520661157024796,0.5376861397479954,0.12158718602111394
myvwiki,True,16.0,0.06806930693069307,0.7081545064377682,0.49391039582427143,0.5175257731958763,0.1242002258185924
myvwiki,True,17.0,0.0705429670799487,0.7081545064377682,0.512396694214876,0.49805269186712486,0.12830482115085537
myvwiki,True,18.0,0.0744920993227991,0.7081545064377682,0.5393649412788168,0.46964490263459335,0.13480392156862744
myvwiki,True,19.0,0.07739212007504691,0.7081545064377682,0.5574162679425837,0.45063001145475373,0.13953488372093023
myvwiki,True,20.0,0.07794770596941293,0.6781115879828327,0.5772074815137016,0.4281786941580756,0.13982300884955753
myvwiki,True,21.0,0.08285264813843733,0.6781115879828327,0.6033057851239669,0.4006872852233677,0.14766355140186915
myvwiki,True,22.0,0.08015695067264574,0.6137339055793991,0.6235319704219225,0.3759450171821306,0.14179474467030243
myvwiki,True,23.0,0.08426635238656452,0.6137339055793991,0.6424532405393649,0.35601374570446737,0.14818652849740932
myvwiki,True,24.0,0.08898568761667704,0.6137339055793991,0.662026968247064,0.3353951890034364,0.15543478260869564
myvwiki,True,25.0,0.09507978723404255,0.6137339055793991,0.6844280121792083,0.3117983963344788,0.16465169833045482
myvwiki,True,26.0,0.10077519379844961,0.6137339055793991,0.702914310569813,0.2923253150057274,0.17312348668280872
myvwiki,True,27.0,0.10714285714285714,0.6051502145922747,0.7244454110482819,0.26918671248568155,0.18205293737895417
myvwiki,True,28.0,0.11163895486935867,0.6051502145922747,0.7359721618094824,0.2570446735395189,0.18850267379679145
myvwiki,True,29.0,0.11547911547911548,0.6051502145922747,0.7451065680730753,0.24742268041237114,0.1939477303988996
myvwiki,True,30.0,0.1202809482001756,0.5879828326180258,0.7612005219660722,0.22955326460481099,0.19970845481049565
myvwiki,True,31.0,0.12685185185185185,0.5879828326180258,0.7740321879077859,0.21603665521191295,0.20868240670220867
myvwiki,True,32.0,0.13160422670509125,0.5879828326180258,0.7825141365811222,0.2071019473081329,0.21507064364207218
myvwiki,True,33.0,0.13782696177062373,0.5879828326180258,0.7927359721618095,0.1963344788087056,0.2233088834555827
myvwiki,True,34.0,0.14315569487983282,0.5879828326180258,0.8007829491083079,0.18785796105383734,0.23025210084033615
myvwiki,True,35.0,0.14755959137343927,0.5579399141630901,0.8142670726402784,0.1720504009163803,0.23339317773788146
myvwiki,True,36.0,0.15294117647058825,0.5579399141630901,0.8210091344062636,0.16494845360824742,0.2400738688827332
myvwiki,True,37.0,0.15950920245398773,0.5579399141630901,0.8286211396259243,0.15693012600229095,0.2480916030534351
myvwiki,True,38.0,0.16539440203562342,0.5579399141630901,0.8349282296650717,0.15028636884306987,0.25515210991167814
myvwiki,True,39.0,0.17783857729138167,0.5579399141630901,0.84688995215311,0.13768613974799543,0.2697095435684647
myvwiki,True,40.0,0.1873198847262248,0.5579399141630901,0.8549369290996085,0.12920962199312716,0.28047464940668826
myvwiki,True,41.0,0.19345238095238096,0.5579399141630901,0.8597216180948238,0.12416953035509737,0.28729281767955805
myvwiki,True,42.0,0.1984732824427481,0.5579399141630901,0.8634188777729448,0.12027491408934708,0.2927927927927928
myvwiki,True,43.0,0.2066772655007949,0.5579399141630901,0.8690735102218355,0.1143184421534937,0.3016241299303944
myvwiki,True,44.0,0.21138211382113822,0.5579399141630901,0.8721183123096998,0.1111111111111111,0.30660377358490565
myvwiki,True,45.0,0.2127659574468085,0.5579399141630901,0.8729882557633754,0.11019473081328751,0.3080568720379147
myvwiki,True,46.0,0.2159468438538206,0.5579399141630901,0.8749456285341453,0.10813287514318443,0.31137724550898205
myvwiki,True,47.0,0.2181208053691275,0.5579399141630901,0.8762505437146585,0.10675830469644902,0.31363088057901084
myvwiki,True,48.0,0.22184300341296928,0.5579399141630901,0.8784254023488474,0.10446735395189004,0.31746031746031744
myvwiki,True,49.0,0.22569444444444445,0.5579399141630901,0.8806002609830361,0.10217640320733104,0.3213844252163165
myvwiki,True,50.0,0.21863799283154123,0.5236051502145923,0.8810352327098738,0.09988545246277206,0.3084702907711757
myvwiki,True,51.0,0.22021660649819494,0.5236051502145923,0.8819051761635494,0.09896907216494845,0.31003811944091486
myvwiki,True,52.0,0.22344322344322345,0.5236051502145923,0.8836450630709004,0.09713631156930126,0.313222079589217
myvwiki,True,53.0,0.22846441947565543,0.5236051502145923,0.8862548934319269,0.09438717067583047,0.318122555410691
myvwiki,True,54.0,0.2314990512333966,0.5236051502145923,0.8877772944758591,0.09278350515463918,0.32105263157894737
myvwiki,True,55.0,0.24158415841584158,0.5236051502145923,0.8925619834710744,0.08774341351660939,0.33062330623306235
myvwiki,True,56.0,0.24696356275303644,0.5236051502145923,0.894954327968682,0.0852233676975945,0.3356258596973865
myvwiki,True,57.0,0.24101479915433405,0.4892703862660944,0.8960417572857764,0.08224513172966781,0.3229461756373938
myvwiki,True,58.0,0.23464912280701755,0.4592274678111588,0.8966942148760331,0.07995418098510881,0.31059506531204645
myvwiki,True,59.0,0.2247191011235955,0.4291845493562232,0.8960417572857764,0.07903780068728522,0.2949852507374631
myvwiki,True,60.0,0.2247191011235955,0.4291845493562232,0.8960417572857764,0.07903780068728522,0.2949852507374631
myvwiki,True,61.0,0.21247113163972287,0.3948497854077253,0.8951718138321009,0.07812142038946163,0.27627627627627627
myvwiki,True,62.0,0.20952380952380953,0.3776824034334764,0.8962592431491953,0.07605956471935853,0.26952526799387444
myvwiki,True,63.0,0.20952380952380953,0.3776824034334764,0.8962592431491953,0.07605956471935853,0.26952526799387444
myvwiki,True,64.0,0.2146341463414634,0.3776824034334764,0.8984341017833841,0.07376861397479954,0.2737169517884914
myvwiki,True,65.0,0.20151133501259447,0.34334763948497854,0.8977816441931274,0.07262313860252005,0.25396825396825395
myvwiki,True,66.0,0.20408163265306123,0.34334763948497854,0.8988690735102218,0.07147766323024055,0.25599999999999995
myvwiki,True,67.0,0.16939890710382513,0.26609442060085836,0.8966942148760331,0.06964490263459336,0.2070116861435726
myvwiki,True,68.0,0.17318435754189945,0.26609442060085836,0.8984341017833841,0.06781214203894616,0.2098138747884941
myvwiki,True,69.0,0.1781609195402299,0.26609442060085836,0.9006089604175729,0.06552119129438717,0.2134251290877797
myvwiki,True,70.0,0.1686046511627907,0.24892703862660945,0.8997390169638974,0.06552119129438717,0.20103986135181975
myvwiki,True,71.0,0.17682926829268292,0.24892703862660945,0.9032187907785993,0.061855670103092786,0.20677361853832443
myvwiki,True,72.0,0.19333333333333333,0.24892703862660945,0.9093083949543279,0.0554410080183276,0.2176360225140713
myvwiki,True,73.0,0.18243243243243243,0.2317596566523605,0.9084384515006525,0.0554410080183276,0.2041587901701323
myvwiki,True,74.0,0.20149253731343283,0.2317596566523605,0.9145280556763811,0.04902634593356243,0.21556886227544908
myvwiki,True,75.0,0.20553359683794467,0.22317596566523606,0.9169204001739887,0.04604810996563574,0.21399176954732513
myvwiki,True,76.0,0.21666666666666667,0.22317596566523606,0.9197477163984341,0.04306987399770905,0.21987315010570826
myvwiki,True,77.0,0.23008849557522124,0.22317596566523606,0.9227925184862984,0.03986254295532646,0.22657952069716777
myvwiki,True,78.0,0.20098039215686275,0.1759656652360515,0.9227925184862984,0.03734249713631157,0.18764302059496568
myvwiki,True,79.0,0.20398009950248755,0.1759656652360515,0.9234449760765551,0.03665521191294387,0.18894009216589863
myvwiki,True,80.0,0.1919191919191919,0.1630901287553648,0.9227925184862984,0.03665521191294387,0.17633410672853828
myvwiki,True,81.0,0.19689119170984457,0.1630901287553648,0.9238799478033928,0.035509736540664374,0.1784037558685446
myvwiki,True,82.0,0.17714285714285713,0.13304721030042918,0.9247498912570683,0.032989690721649485,0.15196078431372548
myvwiki,True,83.0,0.1834319526627219,0.13304721030042918,0.9260548064375815,0.03161512027491409,0.15422885572139305
myvwiki,True,84.0,0.2012987012987013,0.13304721030042918,0.9293170943888647,0.028178694158075602,0.16020671834625322
myvwiki,True,85.0,0.1917808219178082,0.12017167381974249,0.9297520661157025,0.027033218785796106,0.14775725593667546
myvwiki,True,86.0,0.21052631578947367,0.12017167381974249,0.9325793823401479,0.024054982817869417,0.15300546448087432
myvwiki,True,87.0,0.14655172413793102,0.07296137339055794,0.9314919530230535,0.02268041237113402,0.09742120343839542
myvwiki,True,88.0,0.21518987341772153,0.07296137339055794,0.939538929969552,0.01420389461626575,0.10897435897435898
myvwiki,True,89.0,0.2361111111111111,0.07296137339055794,0.9410613310134841,0.012600229095074456,0.11147540983606559
myvwiki,True,90.0,0.19047619047619047,0.05150214592274678,0.9408438451500652,0.01168384879725086,0.08108108108108109
myvwiki,True,91.0,0.22641509433962265,0.05150214592274678,0.943018703784254,0.009392898052691867,0.08391608391608392
myvwiki,True,92.0,0.19607843137254902,0.04291845493562232,0.9425837320574163,0.009392898052691867,0.07042253521126761
myvwiki,True,93.0,0.19607843137254902,0.04291845493562232,0.9425837320574163,0.009392898052691867,0.07042253521126761
myvwiki,True,94.0,0.24242424242424243,0.034334763948497854,0.9456285341452806,0.0057273768613974796,0.06015037593984962
myvwiki,True,95.0,0.1111111111111111,0.008583690987124463,0.9462809917355371,0.003665521191294387,0.01593625498007968
myvwiki,True,96.0,0.0,0.0,0.9471509351892127,0.002290950744558992,0.01593625498007968
myvwiki,True,97.0,0.0,0.0,0.9486733362331449,0.0006872852233676976,0.01593625498007968
myvwiki,True,98.0,0.0,0.0,0.9493257938234014,0.0,0.01593625498007968
myvwiki,True,99.0,0.0,0.0,0.9493257938234014,0.0,0.01593625498007968
myvwiki,False,0.0,0.0436323970548132,1.0,0.0436323970548132,1.0,0.08361640972040764
myvwiki,False,1.0,0.0436323970548132,1.0,0.0436323970548132,1.0,0.08361640972040764
myvwiki,False,2.0,0.04388069934864587,1.0,0.04929097354785929,0.9940832620473339,0.08407224958949097
myvwiki,False,3.0,0.04470834788683199,1.0,0.0676983910553586,0.9748360422013117,0.08559010364426613
myvwiki,False,4.0,0.04544790296653514,0.971875,0.10812653395145896,0.9312802965497576,0.08683512494764763
myvwiki,False,5.0,0.047149787750151606,0.971875,0.14180529042814288,0.8960650128314799,0.08993637941006362
myvwiki,False,6.0,0.047611565053425516,0.946875,0.1712571584401418,0.864128885086969,0.09066427289048473
myvwiki,False,7.0,0.04735445347487145,0.8921875,0.21216253067902918,0.8188622754491018,0.08993542290124429
myvwiki,False,8.0,0.04853857631879224,0.8640625,0.2550449959094628,0.7727402338180781,0.09191390343222805
myvwiki,False,9.0,0.04911861917003305,0.8359375,0.2867466593946005,0.7383090960935272,0.09278529309746793
myvwiki,False,10.0,0.05187627266556773,0.8359375,0.3262203436051268,0.697034502423724,0.09769013055783803
myvwiki,False,11.0,0.053975503425368485,0.8125,0.3704663212435233,0.6497005988023952,0.1012263967296087
myvwiki,False,12.0,0.05649717514124294,0.8125,0.39978183801472594,0.6190476190476191,0.10564811052417716
myvwiki,False,13.0,0.0574370709382151,0.784375,0.4289610035451323,0.5872540633019675,0.10703624733475478
myvwiki,False,14.0,0.06009816832275829,0.784375,0.45534496863921464,0.5596663815226689,0.11164238852440789
myvwiki,False,15.0,0.05926301127010257,0.73125,0.48179710935369513,0.5295836897633305,0.10964038889539651
myvwiki,False,16.0,0.059191655801825296,0.709375,0.4953640578129261,0.5143997718848018,0.10926594464500602
myvwiki,False,17.0,0.06145100162425555,0.709375,0.5145895827652032,0.49429712004562304,0.11310413552566019
myvwiki,False,18.0,0.06546503244412401,0.709375,0.5454731388055631,0.46200456230396353,0.11986798679867987
myvwiki,False,19.0,0.06855934762911507,0.709375,0.5668121079901827,0.43969204448246363,0.12503442577802257
myvwiki,False,20.0,0.06885142587049,0.6828125,0.5832424325061358,0.42130025662959797,0.1250894518391298
myvwiki,False,21.0,0.07274846012984851,0.6828125,0.6064221434415054,0.3970630168234959,0.13148788927335642
myvwiki,False,22.0,0.07200990799716914,0.6359375,0.6265339514589583,0.37389506700883945,0.12937062937062938
myvwiki,False,23.0,0.07618869337326845,0.6359375,0.6476683937823834,0.35179640718562877,0.13607489134068873
myvwiki,False,24.0,0.08081810961080223,0.6359375,0.668530133624216,0.32998289136013687,0.1434108527131783
myvwiki,False,25.0,0.08621054861258208,0.6359375,0.6900054540496319,0.3075278015397776,0.15183734377914568
myvwiki,False,26.0,0.09092940125111706,0.6359375,0.7067084810471775,0.29006273167949814,0.15910867865519937
myvwiki,False,27.0,0.09328891004283675,0.6125,0.723343332424325,0.27159965782720275,0.16191656340355226
myvwiki,False,28.0,0.0975367006718089,0.6125,0.7358194709571857,0.2585543199315654,0.16827645417471562
myvwiki,False,29.0,0.1008489837921276,0.6125,0.7448186528497409,0.24914456800684345,0.17318312348133422
myvwiki,False,30.0,0.10476718403547672,0.590625,0.7619307335696754,0.23025377815796977,0.17796610169491525
myvwiki,False,31.0,0.11055864287803452,0.590625,0.774815925824925,0.2167807242657542,0.18625277161862527
myvwiki,False,32.0,0.11451075431687367,0.590625,0.7828606490319062,0.20836897633304818,0.19182948490230908
myvwiki,False,33.0,0.11988582302568981,0.590625,0.7929506408508318,0.1978186484174508,0.1993145267598207
myvwiki,False,34.0,0.12450592885375494,0.590625,0.8009271884374147,0.1894781864841745,0.205658324265506
myvwiki,False,35.0,0.12835926449787835,0.5671875,0.8130624488682847,0.1757199885942401,0.20934256055363318
myvwiki,False,36.0,0.13185615691972394,0.5671875,0.8181756203981456,0.17037353863701168,0.21396993810786913
myvwiki,False,37.0,0.13703284258210646,0.5671875,0.8252658849195528,0.16295979469632163,0.22073578595317725
myvwiki,False,38.0,0.14246467817896388,0.5671875,0.8321516225797655,0.15575990875392073,0.2277289836888331
myvwiki,False,39.0,0.15156576200417538,0.5671875,0.8425824925006817,0.14485315084117478,0.23920922570016476
myvwiki,False,40.0,0.15755208333333334,0.5671875,0.848786473956913,0.138366124893071,0.24660326086956522
myvwiki,False,41.0,0.16176470588235295,0.5671875,0.8528770111808017,0.13408896492728828,0.25173370319001387
myvwiki,False,42.0,0.16613272311212815,0.5671875,0.8568993727842923,0.12988309096093528,0.2569911504424779
myvwiki,False,43.0,0.171875,0.5671875,0.8618761930733569,0.12467921300256629,0.2638081395348837
myvwiki,False,44.0,0.17527764365041043,0.5671875,0.8646713935096809,0.1217564870259481,0.26779786056805605
myvwiki,False,45.0,0.17655642023346305,0.5671875,0.8656940278156531,0.12068719703450242,0.2692878338278932
myvwiki,False,46.0,0.17908238776517021,0.5671875,0.8676711208071993,0.11861990305104078,0.27221597300337463
myvwiki,False,47.0,0.18068690890990544,0.5671875,0.8688982819743659,0.11733675506130596,0.2740656851642129
myvwiki,False,48.0,0.18342597271349168,0.5671875,0.8709435505863103,0.1151981750784146,0.27720504009163804
myvwiki,False,49.0,0.1864406779661017,0.5671875,0.873125170439051,0.11291702309666382,0.28063393892539623
myvwiki,False,50.0,0.18561607615018508,0.5484375,0.8753067902917917,0.10978043912175649,0.2773607269853813
myvwiki,False,51.0,0.1869009584664537,0.5484375,0.8761930733569675,0.10885372112917023,0.27879269261318507
myvwiki,False,52.0,0.18983234180638184,0.5484375,0.8781701663485137,0.10678642714570859,0.2820409803133789
myvwiki,False,53.0,0.19630872483221476,0.5484375,0.8823288791928007,0.10243798118049616,0.2891268533772653
myvwiki,False,54.0,0.19954519613416713,0.5484375,0.8843059721843469,0.1003706871970345,0.2926219258024177
myvwiki,False,55.0,0.20598591549295775,0.5484375,0.8880556313062449,0.09644995722840034,0.29948805460750855
myvwiki,False,56.0,0.20955223880597015,0.5484375,0.8900327242977911,0.0943826632449387,0.30323974082073435
myvwiki,False,57.0,0.2114784778540237,0.5296875,0.8933051540769021,0.09010550327915598,0.30227374052608114
myvwiki,False,58.0,0.2088404868673927,0.509375,0.8943959640032725,0.08803820929569432,0.29622898682417087
myvwiki,False,59.0,0.2027468933943754,0.484375,0.8943959640032725,0.08689763330481894,0.2858460119870908
myvwiki,False,60.0,0.2027468933943754,0.484375,0.8943959640032725,0.08689763330481894,0.2858460119870908
myvwiki,False,61.0,0.20053835800807537,0.465625,0.8956913007908371,0.08468776732249786,0.2803386641580433
myvwiki,False,62.0,0.19901892081289418,0.44375,0.8978047450231798,0.08147989734816082,0.2747943880019352
myvwiki,False,63.0,0.19901892081289418,0.44375,0.8978047450231798,0.08147989734816082,0.2747943880019352
myvwiki,False,64.0,0.2032927702219041,0.44375,0.8998500136351241,0.07934131736526946,0.27884143348060875
myvwiki,False,65.0,0.19868517165814464,0.425,0.9001227161167167,0.07820074137439408,0.2707814833250373
myvwiki,False,66.0,0.20088626292466766,0.425,0.9011453504226888,0.07713145138294838,0.2728184553660983
myvwiki,False,67.0,0.17592592592592593,0.35625,0.8991000818107445,0.07613344739093242,0.2355371900826446
myvwiki,False,68.0,0.18009478672985782,0.35625,0.9011453504226888,0.07399486740804107,0.23924449108079748
myvwiki,False,69.0,0.1892116182572614,0.35625,0.9053040632669758,0.06964642144282863,0.24715447154471548
myvwiki,False,70.0,0.17830109335576114,0.33125,0.9042132533406054,0.06964642144282863,0.23182066703116458
myvwiki,False,71.0,0.1879432624113475,0.33125,0.9083719661848922,0.06529797547761619,0.23981900452488686
myvwiki,False,72.0,0.20483091787439614,0.33125,0.9147122988819198,0.05866837753065298,0.253134328358209
myvwiki,False,73.0,0.19234543670264967,0.30625,0.9136214889555495,0.05866837753065298,0.23628691983122363
myvwiki,False,74.0,0.2109795479009688,0.30625,0.9197572947913826,0.0522526375819789,0.24984066284257492
myvwiki,False,75.0,0.20451977401129945,0.2828125,0.9207117534769567,0.05018534359851725,0.23737704918032787
myvwiki,False,76.0,0.21445497630331753,0.2828125,0.9235069539132806,0.04726261762189906,0.24393530997304583
myvwiki,False,77.0,0.22127139364303178,0.2828125,0.9252795200436323,0.045409181636726546,0.2482853223593964
myvwiki,False,78.0,0.20481927710843373,0.2390625,0.9263021543496046,0.04234388366124893,0.22062004325883203
myvwiki,False,79.0,0.20901639344262296,0.2390625,0.9273247886555768,0.04127459366980325,0.2230320699708455
myvwiki,False,80.0,0.19246861924686193,0.215625,0.9263021543496046,0.04127459366980325,0.2033898305084746
myvwiki,False,81.0,0.20087336244541484,0.215625,0.9283474229615489,0.03913601368691189,0.20798794272795784
myvwiki,False,82.0,0.2016260162601626,0.19375,0.9313471502590673,0.03500142571998859,0.19760956175298808
myvwiki,False,83.0,0.21124361158432708,0.19375,0.9332560676302154,0.03300541773595666,0.20211898940505296
myvwiki,False,84.0,0.23308270676691728,0.19375,0.9370057267521135,0.0290846877673225,0.21160409556313992
myvwiki,False,85.0,0.220675944333996,0.1734375,0.9372102536133079,0.027944111776447105,0.19422572178477693
myvwiki,False,86.0,0.24943820224719102,0.1734375,0.9411644395964003,0.023809523809523808,0.20460829493087557
myvwiki,False,87.0,0.21182266009852216,0.134375,0.9404145077720207,0.02281151981750784,0.16443594646271512
myvwiki,False,88.0,0.3269961977186312,0.134375,0.9501636214889555,0.012617621899059024,0.19047619047619047
myvwiki,False,89.0,0.3453815261044177,0.134375,0.9511180801745296,0.011619617907043057,0.19347581552305962
myvwiki,False,90.0,0.3273542600896861,0.1140625,0.9511180801745296,0.0106928999144568,0.16917728852838934
myvwiki,False,91.0,0.37435897435897436,0.1140625,0.9530269975456777,0.008696891930424864,0.17485029940119762
myvwiki,False,92.0,0.3259668508287293,0.0921875,0.9520725388601037,0.008696891930424864,0.14372716199756394
myvwiki,False,93.0,0.3259668508287293,0.0921875,0.9520725388601037,0.008696891930424864,0.14372716199756394
myvwiki,False,94.0,0.3963963963963964,0.06875,0.9547995636760295,0.0047761619617907045,0.11717709720372836
myvwiki,False,95.0,0.2727272727272727,0.0234375,0.9546632124352331,0.00285143997718848,0.04316546762589928
myvwiki,False,96.0,0.0,0.0,0.9545268611944369,0.001924721984602224,0.04316546762589928
myvwiki,False,97.0,0.0,0.0,0.9554131442596128,0.000998003992015968,0.04316546762589928
myvwiki,False,98.0,0.0,0.0,0.9563676029451869,0.0,0.04316546762589928
myvwiki,False,99.0,0.0,0.0,0.9563676029451869,0.0,0.04316546762589928
