wiki_db,user_is_bot,threshold,precision,recall,accuracy,fpr,F1
ndswiki,True,0.0,0.0747935891209325,1.0,0.0747935891209325,1.0,0.13917758698599186
ndswiki,True,1.0,0.0747935891209325,1.0,0.0747935891209325,1.0,0.13917758698599186
ndswiki,True,2.0,0.07493917274939173,1.0,0.07673627974745022,0.9979002624671915,0.13942960615663194
ndswiki,True,3.0,0.07571288102261553,1.0,0.08693540553666829,0.9868766404199475,0.14076782449725775
ndswiki,True,4.0,0.07692307692307693,1.0,0.1024769305488101,0.9700787401574803,0.14285714285714288
ndswiki,True,5.0,0.07837150127226464,1.0,0.12044681884409908,0.9506561679790027,0.14535158093440304
ndswiki,True,6.0,0.08033385498174231,1.0,0.1437591063623118,0.9254593175853019,0.14872042491549978
ndswiki,True,7.0,0.08392370572207085,1.0,0.18358426420592522,0.8824146981627297,0.154851684263449
ndswiki,True,8.0,0.0873015873015873,1.0,0.21806702282661486,0.8451443569553806,0.16058394160583941
ndswiki,True,9.0,0.09096278795038393,1.0,0.2525497814473045,0.8078740157480315,0.16675690308608554
ndswiki,True,10.0,0.096045197740113,0.9935064935064936,0.30014570179698885,0.7559055118110236,0.17515741270749857
ndswiki,True,11.0,0.0996742671009772,0.9935064935064936,0.32831471588149586,0.7254593175853018,0.1811722912966252
ndswiki,True,12.0,0.10457963089542037,0.9935064935064936,0.36328314715881493,0.6876640419947506,0.18923933209647495
ndswiki,True,13.0,0.10952040085898354,0.9935064935064936,0.39533754249635744,0.6530183727034121,0.19729206963249518
ndswiki,True,14.0,0.11486486486486487,0.9935064935064936,0.42690626517727054,0.6188976377952756,0.20592193808882908
ndswiki,True,15.0,0.11906614785992217,0.9935064935064936,0.4497328800388538,0.594225721784777,0.2126476719944406
ndswiki,True,16.0,0.12368633791430882,0.9935064935064936,0.47304516755706655,0.5690288713910762,0.21998562185478074
ndswiki,True,17.0,0.1255195344970906,0.9805194805194806,0.4876153472559495,0.552230971128609,0.2225497420781135
ndswiki,True,18.0,0.12894961571306576,0.9805194805194806,0.5031568722680914,0.5354330708661418,0.22792452830188675
ndswiki,True,19.0,0.13013100436681221,0.9675324675324676,0.5138416707139388,0.5228346456692914,0.22940723633564278
ndswiki,True,20.0,0.13399280575539568,0.9675324675324676,0.5298688683827101,0.5055118110236221,0.2353870458135861
ndswiki,True,21.0,0.13783533765032377,0.9675324675324676,0.5449247207382224,0.48923884514435695,0.24129554655870447
ndswiki,True,22.0,0.14204003813155386,0.9675324675324676,0.5604662457503643,0.47244094488188976,0.24771404821280135
ndswiki,True,23.0,0.14622178606476938,0.9675324675324676,0.5750364254492472,0.4566929133858268,0.25404944586530265
ndswiki,True,24.0,0.1503531786074672,0.9675324675324676,0.5886352598348713,0.441994750656168,0.26026200873362443
ndswiki,True,25.0,0.15472481827622014,0.9675324675324676,0.6022340942204953,0.4272965879265092,0.2667860340196956
ndswiki,True,26.0,0.15851063829787235,0.9675324675324676,0.6134045653229723,0.4152230971128609,0.27239488117001825
ndswiki,True,27.0,0.1624863685932388,0.9675324675324676,0.6245750364254492,0.4031496062992126,0.27824463118580767
ndswiki,True,28.0,0.16666666666666666,0.9675324675324676,0.6357455075279261,0.3910761154855643,0.28435114503816794
ndswiki,True,29.0,0.17185697808535177,0.9675324675324676,0.6488586692569208,0.37690288713910763,0.29187071498530853
ndswiki,True,30.0,0.1767497034400949,0.9675324675324676,0.6605148130160272,0.36430446194225724,0.29889669007021064
ndswiki,True,31.0,0.18193069306930693,0.9545454545454546,0.6755706653715395,0.34698162729658794,0.30561330561330563
ndswiki,True,32.0,0.18513853904282115,0.9545454545454546,0.6823700825643516,0.3396325459317585,0.310126582278481
ndswiki,True,33.0,0.19041450777202074,0.9545454545454546,0.6930548810101991,0.32808398950131235,0.3174946004319655
ndswiki,True,34.0,0.19367588932806323,0.9545454545454546,0.6993686255463817,0.32125984251968503,0.32201533406352684
ndswiki,True,35.0,0.19538670284938942,0.935064935064935,0.7071393880524527,0.31128608923884515,0.32323232323232326
ndswiki,True,36.0,0.1991701244813278,0.935064935064935,0.7139388052452647,0.30393700787401573,0.3283922462941847
ndswiki,True,37.0,0.20256776034236804,0.922077922077922,0.7226809130645945,0.29343832020997374,0.33216374269005844
ndswiki,True,38.0,0.2063953488372093,0.922077922077922,0.7289946576007771,0.2866141732283465,0.33729216152019004
ndswiki,True,39.0,0.21353383458646616,0.922077922077922,0.740165128703254,0.27454068241469815,0.34676434676434675
ndswiki,True,40.0,0.21580547112462006,0.922077922077922,0.74356483729966,0.27086614173228346,0.3497536945812808
ndswiki,True,41.0,0.21705426356589147,0.9090909090909091,0.7479358912093249,0.2650918635170604,0.35043804755944924
ndswiki,True,42.0,0.2229299363057325,0.9090909090909091,0.7561923263720253,0.25616797900262467,0.35805626598465473
ndswiki,True,43.0,0.22580645161290322,0.9090909090909091,0.7600777076250607,0.25196850393700787,0.36175710594315247
ndswiki,True,44.0,0.23217247097844113,0.9090909090909091,0.768334142787761,0.2430446194225722,0.36988110964332893
ndswiki,True,45.0,0.23688663282571912,0.9090909090909091,0.7741622146673143,0.236745406824147,0.3758389261744966
ndswiki,True,46.0,0.24518388791593695,0.9090909090909091,0.7838756677999029,0.226246719160105,0.3862068965517241
ndswiki,True,47.0,0.24778761061946902,0.9090909090909091,0.7867897037396795,0.2230971128608924,0.3894297635605007
ndswiki,True,48.0,0.24773960216998192,0.8896103896103896,0.7897037396794561,0.2183727034120735,0.38755304101838756
ndswiki,True,49.0,0.2537037037037037,0.8896103896103896,0.7960174842156387,0.2115485564304462,0.3948126801152738
ndswiki,True,50.0,0.25996204933586337,0.8896103896103896,0.8023312287518213,0.2047244094488189,0.4023494860499266
ndswiki,True,51.0,0.26346153846153847,0.8896103896103896,0.8057309373482273,0.2010498687664042,0.4065281899109792
ndswiki,True,52.0,0.267578125,0.8896103896103896,0.8096163186012627,0.1968503937007874,0.41141141141141147
ndswiki,True,53.0,0.2721774193548387,0.8766233766233766,0.815444390480816,0.18950131233595802,0.41538461538461535
ndswiki,True,54.0,0.2755102040816326,0.8766233766233766,0.8183584264205925,0.18635170603674542,0.4192546583850931
ndswiki,True,55.0,0.27708333333333335,0.8636363636363636,0.8212724623603691,0.18215223097112862,0.41955835962145116
ndswiki,True,56.0,0.2823779193205945,0.8636363636363636,0.825643516270034,0.1774278215223097,0.4255999999999999
ndswiki,True,57.0,0.28725701943844495,0.8636363636363636,0.8295288975230695,0.1732283464566929,0.43111831442463533
ndswiki,True,58.0,0.29555555555555557,0.8636363636363636,0.8358426420592521,0.16640419947506563,0.4403973509933775
ndswiki,True,59.0,0.30158730158730157,0.8636363636363636,0.8402136959689169,0.16167979002624672,0.4470588235294118
ndswiki,True,60.0,0.30504587155963303,0.8636363636363636,0.8426420592520641,0.15905511811023623,0.4508474576271186
ndswiki,True,61.0,0.30930232558139537,0.8636363636363636,0.8455560951918407,0.15590551181102363,0.45547945205479445
ndswiki,True,62.0,0.3114754098360656,0.8636363636363636,0.847013113161729,0.15433070866141732,0.4578313253012048
ndswiki,True,63.0,0.3119047619047619,0.8506493506493507,0.8484701311316173,0.15170603674540684,0.4564459930313589
ndswiki,True,64.0,0.31490384615384615,0.8506493506493507,0.850412821758135,0.14960629921259844,0.45964912280701753
ndswiki,True,65.0,0.31851851851851853,0.8376623376623377,0.8538125303545411,0.14488188976377953,0.46153846153846156
ndswiki,True,66.0,0.3249370277078086,0.8376623376623377,0.8576979116075765,0.14068241469816273,0.46823956442831216
ndswiki,True,67.0,0.3324742268041237,0.8376623376623377,0.8620689655172413,0.13595800524934384,0.4760147601476014
ndswiki,True,68.0,0.337696335078534,0.8376623376623377,0.864983001457018,0.13280839895013125,0.4813432835820896
ndswiki,True,69.0,0.34959349593495936,0.8376623376623377,0.8712967459932006,0.12598425196850394,0.49330783938814543
ndswiki,True,70.0,0.3518005540166205,0.8246753246753247,0.8732394366197183,0.12283464566929134,0.4932038834951457
ndswiki,True,71.0,0.35774647887323946,0.8246753246753247,0.8761534725594949,0.11968503937007874,0.4990176817288802
ndswiki,True,72.0,0.3670520231213873,0.8246753246753247,0.8805245264691598,0.11496062992125984,0.508
ndswiki,True,73.0,0.3757396449704142,0.8246753246753247,0.8844099077221952,0.11076115485564304,0.516260162601626
ndswiki,True,74.0,0.38023952095808383,0.8246753246753247,0.8863525983487129,0.10866141732283464,0.5204918032786885
ndswiki,True,75.0,0.3813813813813814,0.8246753246753247,0.8868382710053424,0.10813648293963254,0.5215605749486653
ndswiki,True,76.0,0.3956386292834891,0.8246753246753247,0.8926663428848955,0.10183727034120735,0.5347368421052632
ndswiki,True,77.0,0.39937106918238996,0.8246753246753247,0.8941233608547838,0.10026246719160105,0.538135593220339
ndswiki,True,78.0,0.3968253968253968,0.8116883116883117,0.8936376881981545,0.09973753280839895,0.533049040511727
ndswiki,True,79.0,0.4,0.8051948051948052,0.8950947061680428,0.09763779527559055,0.5344827586206897
ndswiki,True,80.0,0.40789473684210525,0.8051948051948052,0.8980087421078193,0.09448818897637795,0.5414847161572053
ndswiki,True,81.0,0.41836734693877553,0.7987012987012987,0.9018941233608548,0.08976377952755905,0.5491071428571429
ndswiki,True,82.0,0.425531914893617,0.7792207792207793,0.9048081593006314,0.08503937007874016,0.5504587155963303
ndswiki,True,83.0,0.42700729927007297,0.7597402597402597,0.9057795046138902,0.08241469816272966,0.5467289719626168
ndswiki,True,84.0,0.4372623574144487,0.7467532467532467,0.9091792132102963,0.07769028871391076,0.5515587529976019
ndswiki,True,85.0,0.4505928853754941,0.7402597402597403,0.9130645944633318,0.07296587926509186,0.5601965601965603
ndswiki,True,86.0,0.45041322314049587,0.7077922077922078,0.9135502671199611,0.06981627296587926,0.5505050505050505
ndswiki,True,87.0,0.46120689655172414,0.6948051948051948,0.9164643030597377,0.06561679790026247,0.5544041450777202
ndswiki,True,88.0,0.4541284403669725,0.6428571428571429,0.9154929577464789,0.06246719160104987,0.5322580645161291
ndswiki,True,89.0,0.4635416666666667,0.577922077922078,0.9184069936862554,0.05406824146981627,0.5144508670520231
ndswiki,True,90.0,0.4550561797752809,0.525974025974026,0.9174356483729966,0.050918635170603674,0.4879518072289157
ndswiki,True,91.0,0.44654088050314467,0.461038961038961,0.9169499757163672,0.046194225721784776,0.4536741214057508
ndswiki,True,92.0,0.4214876033057851,0.33116883116883117,0.9159786304031083,0.03674540682414698,0.37090909090909085
ndswiki,True,93.0,0.39603960396039606,0.2597402597402597,0.9150072850898494,0.032020997375328084,0.3137254901960784
ndswiki,True,94.0,0.32142857142857145,0.17532467532467533,0.9106362311801846,0.029921259842519685,0.226890756302521
ndswiki,True,95.0,0.34285714285714286,0.15584415584415584,0.91452161243322,0.024146981627296588,0.21428571428571427
ndswiki,True,96.0,0.44,0.14285714285714285,0.922292374939291,0.014698162729658792,0.21568627450980388
ndswiki,True,97.0,0.5172413793103449,0.09740259740259741,0.925692083535697,0.007349081364829396,0.1639344262295082
ndswiki,True,98.0,0.6363636363636364,0.045454545454545456,0.9266634288489558,0.002099737532808399,0.08484848484848485
ndswiki,True,99.0,1.0,0.012987012987012988,0.9261777561923263,0.0,0.025641025641025647
ndswiki,False,0.0,0.05113962842367362,1.0,0.05113962842367362,1.0,0.09730320699708454
ndswiki,False,1.0,0.05113962842367362,1.0,0.05113962842367362,1.0,0.09730320699708454
ndswiki,False,2.0,0.051306687163720215,1.0,0.054395709634169696,0.9965684295518773,0.09760555657101078
ndswiki,False,3.0,0.05176424970918961,1.0,0.06320628232139437,0.9872830036334276,0.0984331797235023
ndswiki,False,4.0,0.052829442026117925,1.0,0.08312583796207623,0.9662898667743238,0.1003570757376433
ndswiki,False,5.0,0.053733145502113104,1.0,0.0994062440145566,0.9491320145337101,0.10198624904507259
ndswiki,False,6.0,0.055233760860570955,1.0,0.1252633595096725,0.921881308033912,0.10468535581258577
ndswiki,False,7.0,0.05780471963628491,1.0,0.16644321011300517,0.8784820347194187,0.10929185427752762
ndswiki,False,8.0,0.060216508795669824,1.0,0.20187703505075655,0.8411384739604361,0.11359285258455647
ndswiki,False,9.0,0.06170513424399435,0.9812734082397003,0.23597012066653897,0.8041986273718208,0.11610901839131399
ndswiki,False,10.0,0.06501004016064257,0.9700374531835206,0.2850028730128328,0.7519176423092451,0.12185368148670903
ndswiki,False,11.0,0.06808622502628812,0.9700374531835206,0.31947902700632064,0.7155833669761809,0.12724146401375586
ndswiki,False,12.0,0.07109525116662092,0.9700374531835206,0.350316031411607,0.6830843762616068,0.13248081841432227
ndswiki,False,13.0,0.07451093210586882,0.9700374531835206,0.3823022409500096,0.6493742430359306,0.13839166444028853
ndswiki,False,14.0,0.07817687896166617,0.9700374531835206,0.41352231373300136,0.6164715381509891,0.1446927374301676
ndswiki,False,15.0,0.08055987558320374,0.9700374531835206,0.43229266424056695,0.5966895438029874,0.14876507754164275
ndswiki,False,16.0,0.08285348688419705,0.9700374531835206,0.44933920704845814,0.5787242632216391,0.15266725611553197
ndswiki,False,17.0,0.08457218368021142,0.9588014981273408,0.4671518866117602,0.5593459830440048,0.15543412264723738
ndswiki,False,18.0,0.08698606863744479,0.9588014981273408,0.48324075847538783,0.5423899878885748,0.1595015576323988
ndswiki,False,19.0,0.08818403624956431,0.947565543071161,0.4962650833173721,0.5280581348405329,0.1613520408163265
ndswiki,False,20.0,0.0906485130777499,0.947565543071161,0.5112047500478836,0.5123132821962051,0.16546762589928057
ndswiki,False,21.0,0.0931174089068826,0.947565543071161,0.5253782800229841,0.497375857892612,0.1695710455764075
ndswiki,False,22.0,0.09572455542943625,0.947565543071161,0.5395518099980846,0.482438433589019,0.1738831615120275
ndswiki,False,23.0,0.09844357976653696,0.947565543071161,0.5535338057843325,0.4677028663706096,0.1783574198096581
ndswiki,False,24.0,0.10124049619847938,0.947565543071161,0.5671327331928749,0.45337101332256763,0.1829356471438901
ndswiki,False,25.0,0.10407239819004525,0.947565543071161,0.5801570580348592,0.4396447315300767,0.1875463306152706
ndswiki,False,26.0,0.10648148148148148,0.947565543071161,0.5906914384217583,0.4285425918449738,0.19144911085887248
ndswiki,False,27.0,0.1087236785560808,0.947565543071161,0.6000766136755411,0.41865159467097296,0.19506553585196607
ndswiki,False,28.0,0.11125769569041337,0.947565543071161,0.6102279256847347,0.40795316915623736,0.19913419913419916
ndswiki,False,29.0,0.11552511415525114,0.947565543071161,0.6263167975483623,0.3909971740008074,0.20594220594220594
ndswiki,False,30.0,0.11894687353079454,0.947565543071161,0.6383834514460831,0.37828017763423494,0.21136173767752714
ndswiki,False,31.0,0.12388943731490622,0.9400749063670412,0.656962267764796,0.3582963262010497,0.21892716964675096
ndswiki,False,32.0,0.12638469284994966,0.9400749063670412,0.6646236353189044,0.35022204279370206,0.22281402574345321
ndswiki,False,33.0,0.12991718426501034,0.9400749063670412,0.6749664815169508,0.3393217601937828,0.22828558435652566
ndswiki,False,34.0,0.13196635120925343,0.9400749063670412,0.6807125071825321,0.3332660476382721,0.23144306131858003
ndswiki,False,35.0,0.13217768147345613,0.9138576779026217,0.6887569431143459,0.3233750504642713,0.23095125414103174
ndswiki,False,36.0,0.13540510543840178,0.9138576779026217,0.6971844474238652,0.31449333871618895,0.235862735621073
ndswiki,False,37.0,0.1377930245854774,0.9026217228464419,0.7061865542999426,0.30440048445700446,0.23908730158730154
ndswiki,False,38.0,0.14085330216247807,0.9026217228464419,0.7134648534763455,0.29672991522002423,0.243680485338726
ndswiki,False,39.0,0.1457073760580411,0.9026217228464419,0.72438230224095,0.2852240613645539,0.25091098386257155
ndswiki,False,40.0,0.14876543209876544,0.9026217228464419,0.7308944646619422,0.27836092046830846,0.25543190249072606
ndswiki,False,41.0,0.15037593984962405,0.898876404494382,0.7351082168167018,0.27371820750908354,0.2576489533011272
ndswiki,False,42.0,0.15513897866839044,0.898876404494382,0.7444933920704846,0.2638272103350828,0.26460859977949286
ndswiki,False,43.0,0.15799868334430547,0.898876404494382,0.7498563493583604,0.2581752119499394,0.2687569988801792
ndswiki,False,44.0,0.16315431679129844,0.898876404494382,0.7590499904232906,0.24848607186112232,0.2761795166858458
ndswiki,False,45.0,0.1672473867595819,0.898876404494382,0.7659452212219882,0.2412192167945095,0.282021151586369
ndswiki,False,46.0,0.17686072218128224,0.898876404494382,0.7808848879524996,0.22547436415018168,0.29556650246305416
ndswiki,False,47.0,0.1789709172259508,0.898876404494382,0.7839494349741429,0.22224465078724262,0.29850746268656714
ndswiki,False,48.0,0.1802773497688752,0.8764044943820225,0.7898869948285769,0.2147759386354461,0.2990415335463259
ndswiki,False,49.0,0.18498023715415018,0.8764044943820225,0.7962076230607164,0.20811465482438435,0.3054830287206266
ndswiki,False,50.0,0.18993506493506493,0.8764044943820225,0.8025282512928558,0.20145337101332256,0.31220813875917275
ndswiki,False,51.0,0.19291014014839242,0.8764044943820225,0.8061674008810573,0.19761808639483247,0.3162162162162162
ndswiki,False,52.0,0.1973018549747049,0.8764044943820225,0.8113388239800804,0.19216794509487284,0.32209222298692364
ndswiki,False,53.0,0.20069504778453517,0.8651685393258427,0.816893315456809,0.18570851836899474,0.32581100141043723
ndswiki,False,54.0,0.20298769771529,0.8651685393258427,0.8193832599118943,0.18308437626160678,0.3288256227758008
ndswiki,False,55.0,0.20448430493273542,0.8539325842696629,0.8226393411223903,0.17904723455793298,0.3299565846599131
ndswiki,False,56.0,0.21091581868640147,0.8539325842696629,0.8291515035433825,0.17218409366168752,0.3382789317507418
ndswiki,False,57.0,0.2161137440758294,0.8539325842696629,0.8341313924535529,0.16693580944691158,0.3449319213313162
ndswiki,False,58.0,0.22331047992164543,0.8539325842696629,0.8406435548745451,0.16007266855066613,0.3540372670807453
ndswiki,False,59.0,0.22914572864321608,0.8539325842696629,0.8456234437847155,0.15482438433589019,0.3613312202852615
ndswiki,False,60.0,0.23123732251521298,0.8539325842696629,0.8473472514843899,0.15300767056923698,0.363926576217079
ndswiki,False,61.0,0.23529411764705882,0.8539325842696629,0.8506033326948861,0.14957610012111425,0.36893203883495146
ndswiki,False,62.0,0.23799582463465555,0.8539325842696629,0.8527102087722659,0.14735567218409365,0.3722448979591837
ndswiki,False,63.0,0.24115755627009647,0.8426966292134831,0.8563493583604673,0.14291481631005248,0.375
ndswiki,False,64.0,0.2437703141928494,0.8426966292134831,0.8582647002489945,0.14089624545821558,0.3781512605042016
ndswiki,False,65.0,0.24943820224719102,0.8314606741573034,0.8634361233480177,0.1348405329027049,0.3837510803802939
ndswiki,False,66.0,0.2557603686635945,0.8314606741573034,0.8676498755027773,0.1303996770286637,0.3911894273127753
ndswiki,False,67.0,0.26555023923444976,0.8314606741573034,0.8737789695460639,0.12394025030278563,0.40253853127833183
ndswiki,False,68.0,0.27106227106227104,0.8314606741573034,0.8770350507565601,0.1205086798546629,0.4088397790055249
ndswiki,False,69.0,0.2817258883248731,0.8314606741573034,0.8829726106109941,0.11425111021396851,0.42085308056872034
ndswiki,False,70.0,0.2898550724637681,0.8239700374531835,0.8877609653323119,0.10880096891400888,0.4288499025341131
ndswiki,False,71.0,0.3009575923392613,0.8239700374531835,0.8931239226201877,0.10314897052886557,0.4408817635270541
ndswiki,False,72.0,0.31339031339031337,0.8239700374531835,0.8986784140969163,0.09729511505853855,0.45407636738906093
ndswiki,False,73.0,0.3179190751445087,0.8239700374531835,0.9005937559854434,0.09527654420670166,0.4588112617309698
ndswiki,False,74.0,0.3249630723781389,0.8239700374531835,0.9034667688182341,0.0922486879289463,0.4661016949152542
ndswiki,False,75.0,0.32689450222882616,0.8239700374531835,0.9042329055736449,0.09144125958821155,0.4680851063829788
ndswiki,False,76.0,0.3453689167974882,0.8239700374531835,0.9111281363723425,0.0841744045215987,0.4867256637168142
ndswiki,False,77.0,0.34810126582278483,0.8239700374531835,0.912085807316606,0.08316511909568026,0.4894327030033371
ndswiki,False,78.0,0.3434991974317817,0.8014981273408239,0.9115112047500479,0.08255954784012919,0.4808988764044943
ndswiki,False,79.0,0.34477124183006536,0.7902621722846442,0.9124688756943115,0.08094469115865967,0.48009101251422065
ndswiki,False,80.0,0.3516666666666667,0.7902621722846442,0.9147672859605439,0.07852240613645539,0.4867358708189158
ndswiki,False,81.0,0.36427320490367776,0.7790262172284644,0.9191725723041563,0.07327412192167945,0.49642004773269693
ndswiki,False,82.0,0.3752310536044362,0.7602996254681648,0.9230032560812105,0.0682276947920872,0.5024752475247524
ndswiki,False,83.0,0.3757115749525617,0.7415730337078652,0.9237693928366213,0.066410981025434,0.49874055415617125
ndswiki,False,84.0,0.3794466403162055,0.7191011235955056,0.9254932005362957,0.06338312474767864,0.4967658473479948
ndswiki,False,85.0,0.38809034907597534,0.7078651685393258,0.927983144991381,0.060153411384739605,0.5013262599469496
ndswiki,False,86.0,0.3922413793103448,0.6816479400749064,0.9297069526910553,0.05692369802180056,0.49794801641586856
ndswiki,False,87.0,0.39864864864864863,0.6629213483146067,0.9316222945795825,0.053895841744045214,0.4978902953586498
ndswiki,False,88.0,0.3927710843373494,0.6104868913857678,0.9318138287684352,0.050867985466289865,0.4780058651026393
ndswiki,False,89.0,0.412568306010929,0.5655430711610487,0.9366021834897529,0.043399273314493336,0.4770932069510269
ndswiki,False,90.0,0.39349112426035504,0.49812734082397003,0.9350699099789312,0.04138070246265644,0.43966942148760335
ndswiki,False,91.0,0.4006514657980456,0.4606741573033708,0.937176786056311,0.03714170367379895,0.4285714285714286
ndswiki,False,92.0,0.36363636363636365,0.3146067415730337,0.9367937176786056,0.029672991522002423,0.3373493975903615
ndswiki,False,93.0,0.35678391959798994,0.26591760299625467,0.9379429228117219,0.025837706903512312,0.30472103004291845
ndswiki,False,94.0,0.3212121212121212,0.19850187265917604,0.9375598544340165,0.022607993540573273,0.24537037037037038
ndswiki,False,95.0,0.35384615384615387,0.17228464419475656,0.9415820723999234,0.016955995155429955,0.23173803526448364
ndswiki,False,96.0,0.4489795918367347,0.1647940074906367,0.9469450296877993,0.010900282599919257,0.24109589041095889
ndswiki,False,97.0,0.43636363636363634,0.0898876404494382,0.9475196322543574,0.006257569640694388,0.14906832298136646
ndswiki,False,98.0,0.6,0.056179775280898875,0.9498180425205899,0.0020185708518368995,0.10273972602739725
ndswiki,False,99.0,1.0,0.00749063670411985,0.9492434399540318,0.0,0.01486988847583643
