wiki_db,user_is_bot,threshold,precision,recall,accuracy,fpr,F1
nvwiki,True,0.0,0.020088525706503234,1.0,0.020088525706503234,1.0,0.039385847797062744
nvwiki,True,1.0,0.020088525706503234,1.0,0.020088525706503234,1.0,0.039385847797062744
nvwiki,True,2.0,0.02017783857729138,1.0,0.024514811031664963,0.9954829742876998,0.0395574924572578
nvwiki,True,3.0,0.020914569301666075,1.0,0.059584610146407896,0.9596942321056289,0.040972222222222215
nvwiki,True,4.0,0.021795345400812707,1.0,0.09839972761321075,0.9200833912439194,0.04266088214027477
nvwiki,True,5.0,0.02302888368462139,1.0,0.14776983316309159,0.8697011813759555,0.04502098435711561
nvwiki,True,6.0,0.025085034013605442,1.0,0.21927136533878108,0.7967338429464906,0.0489423475736209
nvwiki,True,7.0,0.028400597907324365,0.9661016949152542,0.33537623425263874,0.6775538568450312,0.05517909002904162
nvwiki,True,8.0,0.031422271223814774,0.9661016949152542,0.4010895471569629,0.6104933981931897,0.060864922584089695
nvwiki,True,9.0,0.034275405892964524,0.9661016949152542,0.4525025536261491,0.5580264072272412,0.0662020905923345
nvwiki,True,10.0,0.036328871892925434,0.9661016949152542,0.48450800136193395,0.5253648366921473,0.07002457002457003
nvwiki,True,11.0,0.03856562922868741,0.9661016949152542,0.515491998638066,0.49374565670604587,0.0741704619388419
nvwiki,True,12.0,0.04042553191489362,0.9661016949152542,0.5386448757235274,0.4701181375955525,0.07760381211708647
nvwiki,True,13.0,0.04142441860465116,0.9661016949152542,0.5502213142662581,0.45830437804030577,0.07944250871080138
nvwiki,True,14.0,0.04314912944738834,0.9661016949152542,0.5689479060265578,0.43919388464211256,0.08260869565217391
nvwiki,True,15.0,0.045059288537549404,0.9661016949152542,0.5880149812734082,0.4197359277275886,0.0861027190332326
nvwiki,True,16.0,0.04777870913663034,0.9661016949152542,0.6125297923050732,0.39471855455177207,0.09105431309904154
nvwiki,True,17.0,0.04960835509138381,0.9661016949152542,0.6275110657133129,0.37943015983321754,0.09437086092715231
nvwiki,True,18.0,0.051771117166212535,0.9661016949152542,0.6438542730677562,0.3627519110493398,0.09827586206896552
nvwiki,True,19.0,0.05402843601895735,0.9661016949152542,0.6595165134490977,0.3467685892981237,0.10233393177737883
nvwiki,True,20.0,0.05643564356435644,0.9661016949152542,0.6748382703438883,0.3311327310632384,0.10664172123479888
nvwiki,True,21.0,0.05834186284544524,0.9661016949152542,0.6860742254000681,0.31966643502432246,0.11003861003861005
nvwiki,True,22.0,0.059873949579831935,0.9661016949152542,0.6945863125638406,0.3109798471160528,0.11275964391691397
nvwiki,True,23.0,0.06209150326797386,0.9661016949152542,0.7061627511065713,0.2991660875608061,0.1166837256908905
nvwiki,True,24.0,0.06477272727272727,0.9661016949152542,0.7191011235955056,0.2859624739402363,0.12140575079872204
nvwiki,True,25.0,0.06900726392251816,0.9661016949152542,0.7374872318692544,0.26719944405837387,0.1288135593220339
nvwiki,True,26.0,0.07519788918205805,0.9661016949152542,0.7606401089547157,0.24357192494788046,0.13953488372093023
nvwiki,True,27.0,0.07670850767085077,0.9322033898305084,0.7732379979570991,0.23002084781097984,0.14175257731958765
nvwiki,True,28.0,0.07598784194528875,0.847457627118644,0.7899216887980933,0.21125781792911744,0.1394700139470014
nvwiki,True,29.0,0.08089500860585198,0.7966101694915254,0.8140960163432074,0.18554551772063932,0.146875
nvwiki,True,30.0,0.08461538461538462,0.7457627118644068,0.832822608103507,0.16539263377345378,0.15198618307426598
nvwiki,True,31.0,0.07675438596491228,0.5932203389830508,0.8484848484848485,0.1462821403752606,0.1359223300970874
nvwiki,True,32.0,0.07875894988066826,0.559322033898305,0.8597208035410283,0.1341209173036831,0.13807531380753138
nvwiki,True,33.0,0.09141274238227147,0.559322033898305,0.8794688457609806,0.11396803335649756,0.15714285714285714
nvwiki,True,34.0,0.09880239520958084,0.559322033898305,0.8886618998978549,0.10458651841556636,0.16793893129770995
nvwiki,True,35.0,0.1064516129032258,0.559322033898305,0.8968335035750766,0.09624739402362752,0.17886178861788615
nvwiki,True,36.0,0.10954063604240283,0.5254237288135594,0.9046646237657474,0.08756080611535788,0.18128654970760233
nvwiki,True,37.0,0.12301587301587301,0.5254237288135594,0.9152196118488254,0.07678943710910355,0.19935691318327975
nvwiki,True,38.0,0.13025210084033614,0.5254237288135594,0.919986380660538,0.07192494788047255,0.20875420875420878
nvwiki,True,39.0,0.14418604651162792,0.5254237288135594,0.9278175008512087,0.06393328700486449,0.22627737226277372
nvwiki,True,40.0,0.15577889447236182,0.5254237288135594,0.9332652366360231,0.05837387074357193,0.24031007751937988
nvwiki,True,41.0,0.17032967032967034,0.5254237288135594,0.9390534559073885,0.052466990965948576,0.2572614107883818
nvwiki,True,42.0,0.17613636363636365,0.5254237288135594,0.9410963568266939,0.050382209867963865,0.26382978723404255
nvwiki,True,43.0,0.18902439024390244,0.5254237288135594,0.9451821586653048,0.04621264767199444,0.2780269058295964
nvwiki,True,44.0,0.19745222929936307,0.5254237288135594,0.947565543071161,0.04378040305767894,0.28703703703703703
nvwiki,True,45.0,0.2052980132450331,0.5254237288135594,0.9496084439904665,0.04169562195969423,0.29523809523809524
nvwiki,True,46.0,0.21428571428571427,0.5084745762711864,0.9526727953694246,0.03822098679638638,0.3015075376884422
nvwiki,True,47.0,0.2196969696969697,0.4915254237288136,0.95471569628873,0.035788742182070885,0.3036649214659686
nvwiki,True,48.0,0.2283464566929134,0.4915254237288136,0.9564181137214846,0.034051424600416956,0.3118279569892473
nvwiki,True,49.0,0.24369747899159663,0.4915254237288136,0.9591419816138917,0.03127171646977067,0.3258426966292135
nvwiki,True,50.0,0.25,0.4745762711864407,0.9608443990466462,0.029186935371785964,0.32748538011695905
nvwiki,True,51.0,0.26666666666666666,0.4745762711864407,0.9632277834525026,0.026754690757470466,0.3414634146341463
nvwiki,True,52.0,0.28865979381443296,0.4745762711864407,0.9659516513449098,0.023974982626824185,0.358974358974359
nvwiki,True,53.0,0.2978723404255319,0.4745762711864407,0.9669731018045625,0.022932592077831826,0.3660130718954248
nvwiki,True,54.0,0.3010752688172043,0.4745762711864407,0.9673135852911133,0.022585128561501043,0.3684210526315789
nvwiki,True,55.0,0.3181818181818182,0.4745762711864407,0.9690160027238679,0.020847810979847115,0.38095238095238093
nvwiki,True,56.0,0.3253012048192771,0.4576271186440678,0.9700374531835206,0.019457956914523976,0.38028169014084506
nvwiki,True,57.0,0.34177215189873417,0.4576271186440678,0.9713993871297242,0.018068102849200834,0.391304347826087
nvwiki,True,58.0,0.35526315789473684,0.4576271186440678,0.9724208375893769,0.017025712300208478,0.4
nvwiki,True,59.0,0.36,0.4576271186440678,0.9727613210759278,0.01667824878387769,0.4029850746268656
nvwiki,True,60.0,0.37681159420289856,0.4406779661016949,0.9741232550221314,0.014940931202223767,0.40624999999999994
nvwiki,True,61.0,0.3939393939393939,0.4406779661016949,0.9751447054817841,0.01389854065323141,0.416
nvwiki,True,62.0,0.40625,0.4406779661016949,0.9758256724548859,0.01320361362056984,0.42276422764227645
nvwiki,True,63.0,0.41935483870967744,0.4406779661016949,0.9765066394279878,0.01250868658790827,0.4297520661157025
nvwiki,True,64.0,0.4642857142857143,0.4406779661016949,0.9785495403472931,0.010423905489923557,0.4521739130434782
nvwiki,True,65.0,0.4727272727272727,0.4406779661016949,0.978890023833844,0.010076441973592773,0.45614035087719296
nvwiki,True,66.0,0.46296296296296297,0.423728813559322,0.9785495403472931,0.010076441973592773,0.44247787610619466
nvwiki,True,67.0,0.47058823529411764,0.4067796610169492,0.978890023833844,0.009381514940931202,0.4363636363636364
nvwiki,True,68.0,0.47058823529411764,0.4067796610169492,0.978890023833844,0.009381514940931202,0.4363636363636364
nvwiki,True,69.0,0.46,0.3898305084745763,0.9785495403472931,0.009381514940931202,0.4220183486238532
nvwiki,True,70.0,0.4583333333333333,0.3728813559322034,0.9785495403472931,0.009034051424600417,0.411214953271028
nvwiki,True,71.0,0.46808510638297873,0.3728813559322034,0.978890023833844,0.008686587908269632,0.41509433962264153
nvwiki,True,72.0,0.5,0.3728813559322034,0.9799114742934968,0.007644197359277276,0.42718446601941745
nvwiki,True,73.0,0.5,0.3728813559322034,0.9799114742934968,0.007644197359277276,0.42718446601941745
nvwiki,True,74.0,0.5365853658536586,0.3728813559322034,0.9809329247531495,0.00660180681028492,0.44
nvwiki,True,75.0,0.5384615384615384,0.3559322033898305,0.9809329247531495,0.006254343293954135,0.42857142857142855
nvwiki,True,76.0,0.5263157894736842,0.3389830508474576,0.9805924412665986,0.006254343293954135,0.41237113402061853
nvwiki,True,77.0,0.5135135135135135,0.3220338983050847,0.9802519577800477,0.006254343293954135,0.3958333333333333
nvwiki,True,78.0,0.5,0.3050847457627119,0.9799114742934968,0.006254343293954135,0.37894736842105264
nvwiki,True,79.0,0.53125,0.288135593220339,0.9805924412665986,0.005211952744961779,0.37362637362637363
nvwiki,True,80.0,0.5862068965517241,0.288135593220339,0.9816138917262512,0.004169562195969423,0.38636363636363635
nvwiki,True,81.0,0.6296296296296297,0.288135593220339,0.9822948586993531,0.0034746351633078527,0.3953488372093023
nvwiki,True,82.0,0.6296296296296297,0.288135593220339,0.9822948586993531,0.0034746351633078527,0.3953488372093023
nvwiki,True,83.0,0.6538461538461539,0.288135593220339,0.982635342185904,0.0031271716469770676,0.4
nvwiki,True,84.0,0.7083333333333334,0.288135593220339,0.9833163091590058,0.002432244614315497,0.4096385542168675
nvwiki,True,85.0,0.7619047619047619,0.2711864406779661,0.9836567926455567,0.0017373175816539264,0.4
nvwiki,True,86.0,0.8421052631578947,0.2711864406779661,0.9843377596186585,0.0010423905489923557,0.41025641025641024
nvwiki,True,87.0,0.8888888888888888,0.2711864406779661,0.9846782431052093,0.0006949270326615705,0.4155844155844156
nvwiki,True,88.0,0.9333333333333333,0.23728813559322035,0.9843377596186585,0.00034746351633078526,0.37837837837837834
nvwiki,True,89.0,0.9166666666666666,0.1864406779661017,0.9833163091590058,0.00034746351633078526,0.3098591549295775
nvwiki,True,90.0,1.0,0.1864406779661017,0.9836567926455567,0.0,0.3142857142857143
nvwiki,True,91.0,1.0,0.1694915254237288,0.9833163091590058,0.0,0.2898550724637681
nvwiki,True,92.0,1.0,0.1694915254237288,0.9833163091590058,0.0,0.2898550724637681
nvwiki,True,93.0,1.0,0.15254237288135594,0.9829758256724549,0.0,0.2647058823529412
nvwiki,True,94.0,1.0,0.15254237288135594,0.9829758256724549,0.0,0.2647058823529412
nvwiki,True,95.0,1.0,0.13559322033898305,0.982635342185904,0.0,0.23880597014925373
nvwiki,True,96.0,1.0,0.11864406779661017,0.9822948586993531,0.0,0.21212121212121215
nvwiki,True,97.0,1.0,0.11864406779661017,0.9822948586993531,0.0,0.21212121212121215
nvwiki,True,98.0,1.0,0.1016949152542373,0.9819543752128022,0.0,0.18461538461538463
nvwiki,True,99.0,1.0,0.03389830508474576,0.9805924412665986,0.0,0.06557377049180328
nvwiki,False,0.0,0.012182580492049679,1.0,0.012182580492049679,1.0,0.024071903087143413
nvwiki,False,1.0,0.012182580492049679,1.0,0.012182580492049679,1.0,0.024071903087143413
nvwiki,False,2.0,0.012223192316850543,1.0,0.015505102444426865,0.9966365019620406,0.024151180114482865
nvwiki,False,3.0,0.012464589235127478,1.0,0.034807372834427655,0.9770961800272283,0.024622271964185788
nvwiki,False,4.0,0.01274100324853394,0.9805194805194806,0.07416343643699075,0.9370144950748779,0.02515513722877015
nvwiki,False,5.0,0.013550747549573151,0.974025974025974,0.13586741555256704,0.8744694482261552,0.026729629794627344
nvwiki,False,6.0,0.014556836248012718,0.9512987012987013,0.21485641958705798,0.7942259950348363,0.028674887453513407
nvwiki,False,7.0,0.016534580078681794,0.9415584415584416,0.31702396962265644,0.6906783054376552,0.03249845912478287
nvwiki,False,8.0,0.017572589280090697,0.9058441558441559,0.38189225535954435,0.6245695523344278,0.034476367006487485
nvwiki,False,9.0,0.01901565995525727,0.8831168831168831,0.44355668064235426,0.561864338912469,0.037229674240350404
nvwiki,False,10.0,0.01972328525169267,0.8701298701298701,0.4715607942409619,0.5333546888764314,0.038572251007484175
nvwiki,False,11.0,0.021072495675420664,0.8701298701298701,0.5059726287477256,0.4985184591975655,0.04114847228619684
nvwiki,False,12.0,0.02202860430708532,0.8701298701298701,0.5278063444347757,0.4764154720909746,0.04296937630270963
nvwiki,False,13.0,0.022794930679595135,0.8701298701298701,0.5439838620362313,0.4600384399775767,0.04442602569415666
nvwiki,False,14.0,0.023583245336149243,0.8701298701298701,0.5595285183134245,0.4443020741571234,0.04592186429061001
nvwiki,False,15.0,0.024159470880029395,0.8538961038961039,0.5780397120480975,0.42536237687194683,0.04698945863855637
nvwiki,False,16.0,0.025400811280664477,0.8538961038961039,0.5990823510798197,0.4040602226315368,0.04933408366160195
nvwiki,False,17.0,0.026579080343607883,0.8538961038961039,0.617237560319595,0.3856811083526868,0.05155346466725473
nvwiki,False,18.0,0.027539267015706807,0.8538961038961039,0.6308836326240013,0.3718667414110675,0.05335767904240211
nvwiki,False,19.0,0.028608724029152616,0.8538961038961039,0.6450043509216044,0.3575718747497397,0.05536259341121987
nvwiki,False,20.0,0.029642248722316866,0.8474025974025974,0.6601930227039,0.34211580043244977,0.05728080763744101
nvwiki,False,21.0,0.0306373987557225,0.8474025974025974,0.671505418875089,0.3306638904460639,0.05913673954911068
nvwiki,False,22.0,0.03212307692307692,0.8474025974025974,0.6870896289850487,0.31488748298230157,0.06189967982924226
nvwiki,False,23.0,0.033542156095014354,0.8344155844155844,0.7050866228937585,0.2965083687034516,0.06449184441656211
nvwiki,False,24.0,0.03662011969222,0.8344155844155844,0.7305592911953168,0.2707215504124289,0.07016107016107015
nvwiki,False,25.0,0.03956889915319477,0.8344155844155844,0.7512459457321414,0.24977977096180026,0.07555490224900781
nvwiki,False,26.0,0.04547062986553432,0.8344155844155844,0.7845898267542125,0.21602466565227837,0.08624161073825504
nvwiki,False,27.0,0.049193387771360286,0.801948051948052,0.8087572185744799,0.19115880515736366,0.09270031900919497
nvwiki,False,28.0,0.05238202754572138,0.7532467532467533,0.8309864725891939,0.16805477696804677,0.09795229047920624
nvwiki,False,29.0,0.059484649122807015,0.7045454545454546,0.8606914009967566,0.13738287819332107,0.10970677451971687
nvwiki,False,30.0,0.06521040796659171,0.6590909090909091,0.8807451942093188,0.11652118202931049,0.11867874890382928
nvwiki,False,31.0,0.061045402518122856,0.5194805194805194,0.8968040503124752,0.0985424841835509,0.10925230454079891
nvwiki,False,32.0,0.06986492780624126,0.487012987012987,0.9147614903884186,0.07996316168815568,0.12219959266802444
nvwiki,False,33.0,0.08039109179793591,0.4805194805194805,0.92670674788387,0.0677905021222071,0.13773848301535602
nvwiki,False,34.0,0.08899579073962718,0.4805194805194805,0.9337473301162883,0.060663089613197725,0.15017757483510907
nvwiki,False,35.0,0.09966329966329966,0.4805194805194805,0.9407879123487066,0.053535677104188356,0.16508644729503627
nvwiki,False,36.0,0.10641509433962264,0.4577922077922078,0.9465627719326003,0.04740930567790502,0.17268830373545618
nvwiki,False,37.0,0.11838790931989925,0.4577922077922078,0.9518629855232972,0.042043725474493476,0.18812541694462975
nvwiki,False,38.0,0.12818181818181817,0.4577922077922078,0.9554623843050392,0.0383999359333707,0.20028409090909088
nvwiki,False,39.0,0.14271255060728744,0.4577922077922078,0.9598924135748754,0.03391527188275807,0.2175925925925926
nvwiki,False,40.0,0.159682899207248,0.4577922077922078,0.9640455660153469,0.02971089933530872,0.23677581863979846
nvwiki,False,41.0,0.17581047381546136,0.4577922077922078,0.9672494264694249,0.026467526227276366,0.25405405405405407
nvwiki,False,42.0,0.18675496688741722,0.4577922077922078,0.9691084566094454,0.024585568991751423,0.26528692380056446
nvwiki,False,43.0,0.20982142857142858,0.4577922077922078,0.9723914247290563,0.021262112597100986,0.28775510204081634
nvwiki,False,44.0,0.23190789473684212,0.4577922077922078,0.9749228700261056,0.018699447425322334,0.3078602620087337
nvwiki,False,45.0,0.24642857142857144,0.44805194805194803,0.9765841310022941,0.016897573476415472,0.31797235023041476
nvwiki,False,46.0,0.2591170825335892,0.4383116883116883,0.9778894074835851,0.015456074317289981,0.3256936067551266
nvwiki,False,47.0,0.26814516129032256,0.4318181818181818,0.9787200379716795,0.014535116521182029,0.3308457711442786
nvwiki,False,48.0,0.2841880341880342,0.4318181818181818,0.9798275452891385,0.01341395050852887,0.3427835051546392
nvwiki,False,49.0,0.31894484412470026,0.4318181818181818,0.9818447907602247,0.01137182669976776,0.36689655172413793
nvwiki,False,50.0,0.33418367346938777,0.4253246753246753,0.982675421248319,0.010450868903659807,0.37428571428571433
nvwiki,False,51.0,0.34656084656084657,0.4253246753246753,0.9832291749070485,0.009890285897333227,0.3819241982507289
nvwiki,False,52.0,0.3819241982507289,0.4253246753246753,0.9846135590538723,0.008488828381516777,0.402457757296467
nvwiki,False,53.0,0.3875739644970414,0.4253246753246753,0.9848113282177043,0.008288620164971571,0.4055727554179567
nvwiki,False,54.0,0.396969696969697,0.4253246753246753,0.9851277588798355,0.00796828701849924,0.4106583072100313
nvwiki,False,55.0,0.42950819672131146,0.4253246753246753,0.9861166046989953,0.006967245935773204,0.42740619902120713
nvwiki,False,56.0,0.43537414965986393,0.4155844155844156,0.9863143738628273,0.0066469127893008725,0.42524916943521596
nvwiki,False,57.0,0.445993031358885,0.4155844155844156,0.9865912506921921,0.0063666212861375835,0.43025210084033616
nvwiki,False,58.0,0.4620938628158845,0.4155844155844156,0.986986789019856,0.0059662048530471695,0.4376068376068376
nvwiki,False,59.0,0.4789272030651341,0.40584415584415584,0.98738232734752,0.0054456634900296305,0.43936731107205623
nvwiki,False,60.0,0.537117903930131,0.39935064935064934,0.9884898346649791,0.004244414190758388,0.4581005586592179
nvwiki,False,61.0,0.5353982300884956,0.39285714285714285,0.9884502808322126,0.004204372547449348,0.453183520599251
nvwiki,False,62.0,0.568075117370892,0.39285714285714285,0.9889644806581758,0.003683831184431809,0.46449136276391556
nvwiki,False,63.0,0.5960591133004927,0.39285714285714285,0.9893600189858397,0.003283414751341395,0.47358121330724073
nvwiki,False,64.0,0.6205128205128205,0.39285714285714285,0.9896764496479709,0.002963081604869064,0.4811133200795229
nvwiki,False,65.0,0.6210526315789474,0.38311688311688313,0.9896368958152045,0.002882998318250981,0.47389558232931733
nvwiki,False,66.0,0.6022099447513812,0.3538961038961039,0.9892809113203069,0.002882998318250981,0.4458077709611452
nvwiki,False,67.0,0.5953757225433526,0.3344155844155844,0.9891226959892414,0.002802915031632898,0.42827442827442824
nvwiki,False,68.0,0.5953757225433526,0.3344155844155844,0.9891226959892414,0.002802915031632898,0.42827442827442824
nvwiki,False,69.0,0.5882352941176471,0.3246753246753247,0.9890040344909422,0.002802915031632898,0.4184100418410042
nvwiki,False,70.0,0.5903614457831325,0.3181818181818182,0.9890040344909422,0.0027228317450148152,0.41350210970464135
nvwiki,False,71.0,0.6012269938650306,0.3181818181818182,0.9891226959892414,0.002602706815087691,0.41613588110403393
nvwiki,False,72.0,0.6122448979591837,0.2922077922077922,0.9891226959892414,0.00228237366861536,0.3956043956043956
nvwiki,False,73.0,0.6122448979591837,0.2922077922077922,0.9891226959892414,0.00228237366861536,0.3956043956043956
nvwiki,False,74.0,0.625,0.2922077922077922,0.9892413574875405,0.002162248738688236,0.39823008849557523
nvwiki,False,75.0,0.6285714285714286,0.2857142857142857,0.9892413574875405,0.002082165452070153,0.39285714285714285
nvwiki,False,76.0,0.6231884057971014,0.2792207792207792,0.9891622498220077,0.002082165452070153,0.38565022421524664
nvwiki,False,77.0,0.6287878787878788,0.2694805194805195,0.9891622498220077,0.001962040522143029,0.37727272727272726
nvwiki,False,78.0,0.608,0.24675324675324675,0.988885372992643,0.001962040522143029,0.35103926096997695
nvwiki,False,79.0,0.6434782608695652,0.24025974025974026,0.9891226959892414,0.0016417073756706975,0.3498817966903073
nvwiki,False,80.0,0.6796116504854369,0.22727272727272727,0.9892809113203069,0.0013213742291983664,0.340632603406326
nvwiki,False,81.0,0.7083333333333334,0.22077922077922077,0.9893995728186061,0.0011211660126531594,0.3366336633663366
nvwiki,False,82.0,0.7083333333333334,0.22077922077922077,0.9893995728186061,0.0011211660126531594,0.3366336633663366
nvwiki,False,83.0,0.717391304347826,0.21428571428571427,0.9893995728186061,0.0010410827260350765,0.32999999999999996
nvwiki,False,84.0,0.7586206896551724,0.21428571428571427,0.9895973419824381,0.0008408745094898695,0.3341772151898734
nvwiki,False,85.0,0.8513513513513513,0.20454545454545456,0.9898742188118028,0.0004404580763994554,0.32984293193717273
nvwiki,False,86.0,0.9,0.20454545454545456,0.9900324341428685,0.00028029150316328985,0.33333333333333337
nvwiki,False,87.0,0.9264705882352942,0.20454545454545456,0.9901115418084012,0.000200208216545207,0.3351063829787234
nvwiki,False,88.0,0.9523809523809523,0.19480519480519481,0.9900719879756349,0.00012012492992712421,0.3234501347708895
nvwiki,False,89.0,0.9318181818181818,0.1331168831168831,0.9893204651530734,0.00012012492992712421,0.23295454545454544
nvwiki,False,90.0,1.0,0.10714285714285714,0.9891226959892414,0.0,0.19354838709677416
nvwiki,False,91.0,1.0,0.10064935064935066,0.9890435883237085,0.0,0.18289085545722714
nvwiki,False,92.0,1.0,0.048701298701298704,0.9884107269994462,0.0,0.09287925696594428
nvwiki,False,93.0,1.0,0.04220779220779221,0.9883316193339134,0.0,0.0809968847352025
nvwiki,False,94.0,1.0,0.02922077922077922,0.9881734040028479,0.0,0.05678233438485804
nvwiki,False,95.0,1.0,0.025974025974025976,0.9881338501700815,0.0,0.05063291139240507
nvwiki,False,96.0,1.0,0.022727272727272728,0.988094296337315,0.0,0.044444444444444446
nvwiki,False,97.0,1.0,0.022727272727272728,0.988094296337315,0.0,0.044444444444444446
nvwiki,False,98.0,1.0,0.01948051948051948,0.9880547425045487,0.0,0.03821656050955414
nvwiki,False,99.0,1.0,0.003246753246753247,0.9878569733407168,0.0,0.006472491909385114
