wiki_db,user_is_bot,threshold,precision,recall,accuracy,fpr,F1
szlwiki,True,0.0,0.011142061281337047,1.0,0.011142061281337047,1.0,0.02203856749311295
szlwiki,True,1.0,0.011142061281337047,1.0,0.011142061281337047,1.0,0.02203856749311295
szlwiki,True,2.0,0.011142061281337047,1.0,0.011142061281337047,1.0,0.02203856749311295
szlwiki,True,3.0,0.011152416356877323,1.0,0.012070566388115135,0.9990610328638497,0.022058823529411766
szlwiki,True,4.0,0.011152416356877323,1.0,0.012070566388115135,0.9990610328638497,0.022058823529411766
szlwiki,True,5.0,0.0111731843575419,1.0,0.013927576601671309,0.9971830985915493,0.022099447513812154
szlwiki,True,6.0,0.01027077497665733,0.9166666666666666,0.014856081708449397,0.9953051643192489,0.020313942751615882
szlwiki,True,7.0,0.010396975425330813,0.9166666666666666,0.02692664809656453,0.9830985915492958,0.020560747663551402
szlwiki,True,8.0,0.013630731102850062,0.9166666666666666,0.25998142989786444,0.7474178403755869,0.026862026862026864
szlwiki,True,9.0,0.016272189349112426,0.9166666666666666,0.3816155988857939,0.6244131455399061,0.03197674418604651
szlwiki,True,10.0,0.016793893129770993,0.9166666666666666,0.4011142061281337,0.6046948356807512,0.03298350824587706
szlwiki,True,11.0,0.017054263565891473,0.9166666666666666,0.4103992571959146,0.5953051643192488,0.0334855403348554
szlwiki,True,12.0,0.019784172661870502,0.9166666666666666,0.49303621169916434,0.5117370892018779,0.03873239436619718
szlwiki,True,13.0,0.01981981981981982,0.9166666666666666,0.49396471680594245,0.5107981220657277,0.03880070546737213
szlwiki,True,14.0,0.019891500904159132,0.9166666666666666,0.4958217270194986,0.5089201877934272,0.03893805309734513
szlwiki,True,15.0,0.020036429872495445,0.9166666666666666,0.49953574744661094,0.5051643192488263,0.039215686274509796
szlwiki,True,16.0,0.02033271719038817,0.9166666666666666,0.5069637883008357,0.49765258215962443,0.039783001808318265
szlwiki,True,17.0,0.020793950850661626,0.9166666666666666,0.5181058495821727,0.4863849765258216,0.04066543438077634
szlwiki,True,18.0,0.021568627450980392,0.9166666666666666,0.5357474466109564,0.46854460093896716,0.0421455938697318
szlwiki,True,19.0,0.023655913978494623,0.9166666666666666,0.5775301764159703,0.4262910798122066,0.046121593291404604
szlwiki,True,20.0,0.02358490566037736,0.8333333333333334,0.6137418755803157,0.38873239436619716,0.045871559633027525
szlwiki,True,21.0,0.024725274725274724,0.75,0.6675951717734447,0.3333333333333333,0.047872340425531915
szlwiki,True,22.0,0.025936599423631124,0.75,0.6833797585886723,0.3173708920187793,0.05013927576601671
szlwiki,True,23.0,0.030303030303030304,0.75,0.7298050139275766,0.2704225352112676,0.05825242718446602
szlwiki,True,24.0,0.03409090909090909,0.75,0.7604456824512534,0.23943661971830985,0.06521739130434782
szlwiki,True,25.0,0.038135593220338986,0.75,0.78644382544104,0.2131455399061033,0.07258064516129033
szlwiki,True,26.0,0.04,0.75,0.7966573816155988,0.2028169014084507,0.07594936708860758
szlwiki,True,27.0,0.04186046511627907,0.75,0.8059424326833797,0.19342723004694837,0.07929515418502203
szlwiki,True,28.0,0.0430622009569378,0.75,0.8115134633240483,0.18779342723004694,0.08144796380090498
szlwiki,True,29.0,0.04455445544554455,0.75,0.8180129990714949,0.1812206572769953,0.08411214953271028
szlwiki,True,30.0,0.041025641025641026,0.6666666666666666,0.8226555246053854,0.1755868544600939,0.07729468599033817
szlwiki,True,31.0,0.0427807486631016,0.6666666666666666,0.83008356545961,0.168075117370892,0.08040201005025126
szlwiki,True,32.0,0.04519774011299435,0.6666666666666666,0.8393686165273909,0.15868544600938966,0.08465608465608465
szlwiki,True,33.0,0.047058823529411764,0.6666666666666666,0.8458681522748375,0.15211267605633802,0.08791208791208792
szlwiki,True,34.0,0.049079754601226995,0.6666666666666666,0.8523676880222841,0.14553990610328638,0.09142857142857141
szlwiki,True,35.0,0.050314465408805034,0.6666666666666666,0.8560817084493965,0.14178403755868543,0.09356725146198831
szlwiki,True,36.0,0.05194805194805195,0.6666666666666666,0.8607242339832869,0.13708920187793427,0.0963855421686747
szlwiki,True,37.0,0.0547945205479452,0.6666666666666666,0.8681522748375116,0.1295774647887324,0.10126582278481013
szlwiki,True,38.0,0.05755395683453238,0.6666666666666666,0.8746518105849582,0.12300469483568074,0.10596026490066225
szlwiki,True,39.0,0.05343511450381679,0.5833333333333334,0.8802228412256268,0.11643192488262911,0.0979020979020979
szlwiki,True,40.0,0.05555555555555555,0.5833333333333334,0.8848653667595172,0.11173708920187793,0.10144927536231882
szlwiki,True,41.0,0.05737704918032787,0.5833333333333334,0.8885793871866295,0.107981220657277,0.10447761194029852
szlwiki,True,42.0,0.058333333333333334,0.5833333333333334,0.8904363974001857,0.10610328638497653,0.10606060606060606
szlwiki,True,43.0,0.05982905982905983,0.5833333333333334,0.89322191272052,0.10328638497652583,0.10852713178294575
szlwiki,True,44.0,0.06086956521739131,0.5833333333333334,0.8950789229340761,0.10140845070422536,0.11023622047244094
szlwiki,True,45.0,0.061946902654867256,0.5833333333333334,0.8969359331476323,0.09953051643192488,0.112
szlwiki,True,46.0,0.06481481481481481,0.5833333333333334,0.9015784586815228,0.09483568075117371,0.11666666666666667
szlwiki,True,47.0,0.06930693069306931,0.5833333333333334,0.9080779944289693,0.08826291079812207,0.12389380530973453
szlwiki,True,48.0,0.07608695652173914,0.5833333333333334,0.9164345403899722,0.07981220657276995,0.1346153846153846
szlwiki,True,49.0,0.08235294117647059,0.5833333333333334,0.9229340761374187,0.07323943661971831,0.14432989690721648
szlwiki,True,50.0,0.08536585365853659,0.5833333333333334,0.9257195914577531,0.07042253521126761,0.14893617021276598
szlwiki,True,51.0,0.09090909090909091,0.5833333333333334,0.9303621169916435,0.06572769953051644,0.15730337078651685
szlwiki,True,52.0,0.0821917808219178,0.5,0.9322191272051996,0.06291079812206572,0.1411764705882353
szlwiki,True,53.0,0.09375,0.5,0.9405756731662024,0.054460093896713614,0.15789473684210525
szlwiki,True,54.0,0.10526315789473684,0.5,0.947075208913649,0.04788732394366197,0.17391304347826086
szlwiki,True,55.0,0.12,0.5,0.9535747446610956,0.04131455399061033,0.1935483870967742
szlwiki,True,56.0,0.1276595744680851,0.5,0.9563602599814299,0.038497652582159626,0.20338983050847456
szlwiki,True,57.0,0.13953488372093023,0.5,0.9600742804085423,0.03474178403755868,0.21818181818181817
szlwiki,True,58.0,0.15789473684210525,0.5,0.9647168059424327,0.03004694835680751,0.23999999999999996
szlwiki,True,59.0,0.16666666666666666,0.5,0.9665738161559888,0.028169014084507043,0.25
szlwiki,True,60.0,0.17647058823529413,0.5,0.968430826369545,0.02629107981220657,0.2608695652173913
szlwiki,True,61.0,0.1935483870967742,0.5,0.9712163416898792,0.023474178403755867,0.27906976744186046
szlwiki,True,62.0,0.20689655172413793,0.5,0.9730733519034355,0.0215962441314554,0.2926829268292683
szlwiki,True,63.0,0.20689655172413793,0.5,0.9730733519034355,0.0215962441314554,0.2926829268292683
szlwiki,True,64.0,0.2222222222222222,0.5,0.9749303621169917,0.01971830985915493,0.30769230769230765
szlwiki,True,65.0,0.23076923076923078,0.5,0.9758588672237697,0.018779342723004695,0.3157894736842105
szlwiki,True,66.0,0.24,0.5,0.9767873723305478,0.01784037558685446,0.32432432432432434
szlwiki,True,67.0,0.24,0.5,0.9767873723305478,0.01784037558685446,0.32432432432432434
szlwiki,True,68.0,0.25,0.5,0.9777158774373259,0.016901408450704224,0.3333333333333333
szlwiki,True,69.0,0.2727272727272727,0.5,0.9795728876508821,0.015023474178403756,0.3529411764705882
szlwiki,True,70.0,0.2727272727272727,0.5,0.9795728876508821,0.015023474178403756,0.3529411764705882
szlwiki,True,71.0,0.2857142857142857,0.5,0.9805013927576601,0.014084507042253521,0.36363636363636365
szlwiki,True,72.0,0.2857142857142857,0.5,0.9805013927576601,0.014084507042253521,0.36363636363636365
szlwiki,True,73.0,0.3,0.5,0.9814298978644382,0.013145539906103286,0.37499999999999994
szlwiki,True,74.0,0.2631578947368421,0.4166666666666667,0.9805013927576601,0.013145539906103286,0.3225806451612903
szlwiki,True,75.0,0.3125,0.4166666666666667,0.9832869080779945,0.010328638497652582,0.35714285714285715
szlwiki,True,76.0,0.3125,0.4166666666666667,0.9832869080779945,0.010328638497652582,0.35714285714285715
szlwiki,True,77.0,0.35714285714285715,0.4166666666666667,0.9851439182915506,0.008450704225352112,0.3846153846153846
szlwiki,True,78.0,0.38461538461538464,0.4166666666666667,0.9860724233983287,0.007511737089201878,0.4
szlwiki,True,79.0,0.3333333333333333,0.3333333333333333,0.9851439182915506,0.007511737089201878,0.3333333333333333
szlwiki,True,80.0,0.36363636363636365,0.3333333333333333,0.9860724233983287,0.006572769953051643,0.34782608695652173
szlwiki,True,81.0,0.4,0.3333333333333333,0.9870009285051068,0.005633802816901409,0.3636363636363636
szlwiki,True,82.0,0.4,0.3333333333333333,0.9870009285051068,0.005633802816901409,0.3636363636363636
szlwiki,True,83.0,0.3333333333333333,0.25,0.9860724233983287,0.005633802816901409,0.28571428571428575
szlwiki,True,84.0,0.375,0.25,0.9870009285051068,0.004694835680751174,0.3
szlwiki,True,85.0,0.42857142857142855,0.25,0.9879294336118849,0.003755868544600939,0.3157894736842105
szlwiki,True,86.0,0.5,0.25,0.9888579387186629,0.0028169014084507044,0.3333333333333333
szlwiki,True,87.0,0.6,0.25,0.989786443825441,0.0018779342723004694,0.35294117647058826
szlwiki,True,88.0,0.5,0.16666666666666666,0.9888579387186629,0.0018779342723004694,0.25
szlwiki,True,89.0,0.5,0.16666666666666666,0.9888579387186629,0.0018779342723004694,0.25
szlwiki,True,90.0,0.5,0.16666666666666666,0.9888579387186629,0.0018779342723004694,0.25
szlwiki,True,91.0,0.5,0.16666666666666666,0.9888579387186629,0.0018779342723004694,0.25
szlwiki,True,92.0,0.6666666666666666,0.16666666666666666,0.989786443825441,0.0009389671361502347,0.26666666666666666
szlwiki,True,93.0,0.0,0.0,0.9879294336118849,0.0009389671361502347,0.26666666666666666
szlwiki,True,94.0,0.0,0.0,0.9879294336118849,0.0009389671361502347,0.26666666666666666
szlwiki,True,95.0,0.0,0.0,0.9888579387186629,0.0,0.26666666666666666
szlwiki,True,96.0,0.0,0.0,0.9888579387186629,0.0,0.26666666666666666
szlwiki,True,97.0,0.0,0.0,0.9888579387186629,0.0,0.26666666666666666
szlwiki,True,98.0,0.0,0.0,0.9888579387186629,0.0,0.26666666666666666
szlwiki,True,99.0,0.0,0.0,0.9888579387186629,0.0,0.26666666666666666
szlwiki,False,0.0,0.031355858594632156,1.0,0.031355858594632156,1.0,0.06080512043119421
szlwiki,False,1.0,0.031355858594632156,1.0,0.031355858594632156,1.0,0.06080512043119421
szlwiki,False,2.0,0.031355858594632156,1.0,0.031355858594632156,1.0,0.06080512043119421
szlwiki,False,3.0,0.03147615310837911,1.0,0.03517762529314688,0.9960545193687231,0.0610312764158918
szlwiki,False,4.0,0.031625054752518617,1.0,0.03986797533223313,0.9912123385939742,0.06131114130434783
szlwiki,False,5.0,0.03204047217537943,1.0,0.05272300877269174,0.9779411764705882,0.06209150326797385
szlwiki,False,6.0,0.03218535881716553,0.9889196675900277,0.06722835056023625,0.9626076040172167,0.06234174452108618
szlwiki,False,7.0,0.032866875345240285,0.9889196675900277,0.0872057673933814,0.9419835007173601,0.0636193531141406
szlwiki,False,8.0,0.03694504812170134,0.9889196675900277,0.1913489099279076,0.8344691535150646,0.0712290502793296
szlwiki,False,9.0,0.03940397350993378,0.9889196675900277,0.24372448536437072,0.7803981348637016,0.07578813289459718
szlwiki,False,10.0,0.040361786319954775,0.9889196675900277,0.2623990271866586,0.7611190817790531,0.07755811427330003
szlwiki,False,11.0,0.040827996340347665,0.9889196675900277,0.271171718926431,0.7520624103299857,0.07841845140032948
szlwiki,False,12.0,0.042790363178712695,0.9889196675900277,0.30600191088334927,0.7161047345767575,0.08203125
szlwiki,False,13.0,0.04329896907216495,0.9889196675900277,0.3145140276209502,0.7073170731707317,0.08296537299558447
szlwiki,False,14.0,0.04390603861763621,0.9889196675900277,0.32441587770346564,0.6970946915351507,0.08407913330193122
szlwiki,False,15.0,0.04477611940298507,0.9889196675900277,0.33813949448449576,0.6829268292682927,0.08567314614830812
szlwiki,False,16.0,0.045204251504674095,0.9778393351800554,0.3516893945974116,0.6685796269727403,0.08641370869033049
szlwiki,False,17.0,0.04609558631496474,0.9778393351800554,0.3648050030400417,0.6550394548063128,0.08804090285571767
szlwiki,False,18.0,0.04688969501545076,0.9667590027700831,0.38278467818987233,0.6361190817790531,0.08944131214761661
szlwiki,False,19.0,0.054192546583850934,0.9667590027700831,0.46990358724919656,0.5461800573888091,0.1026319658873695
szlwiki,False,20.0,0.057095709570957096,0.9584487534626038,0.5023886041865717,0.5123744619799139,0.10777137517520637
szlwiki,False,21.0,0.058595812071089215,0.9224376731301939,0.5328758794406323,0.4797345767575323,0.11019192587690271
szlwiki,False,22.0,0.06045751633986928,0.9224376731301939,0.5480760879006341,0.4640423242467719,0.11347759413869483
szlwiki,False,23.0,0.0644100580270793,0.9224376731301939,0.5774342048119517,0.4337338593974175,0.1204122220213343
szlwiki,False,24.0,0.06865979381443299,0.9224376731301939,0.6052288717102406,0.40503945480631276,0.12780656303972368
szlwiki,False,25.0,0.0712896953985742,0.9141274238227147,0.6239034135325284,0.3854913916786227,0.13226452905811623
szlwiki,False,26.0,0.07517084282460136,0.9141274238227147,0.644662555372188,0.36406025824964133,0.1389181225005262
szlwiki,False,27.0,0.07780703854440986,0.9002770083102493,0.66229479718579,0.34540889526542323,0.14323490524460114
szlwiki,False,28.0,0.08202927814235235,0.9002770083102493,0.6809693390080779,0.32612984218077473,0.1503585473051122
szlwiki,False,29.0,0.08519108280254777,0.889196675900277,0.6971249891427083,0.3090925394548063,0.15548558973116977
szlwiki,False,30.0,0.08827624617098301,0.8781163434903048,0.711804047598367,0.2935796269727403,0.1604251012145749
szlwiki,False,31.0,0.09077726218097448,0.8670360110803325,0.7235299226960827,0.2811154949784792,0.16434759779469676
szlwiki,False,32.0,0.09539981475764124,0.8559556786703602,0.7409884478415704,0.26273314203730275,0.17166666666666666
szlwiki,False,33.0,0.0987012987012987,0.8421052631578947,0.7539303396160861,0.24892395982783358,0.17669282185411217
szlwiki,False,34.0,0.1032258064516129,0.8421052631578947,0.7656562147138017,0.23681850789096126,0.18390804597701146
szlwiki,False,35.0,0.10711768851303735,0.8421052631578947,0.7749500564579171,0.22722381635581063,0.19005939356048762
szlwiki,False,36.0,0.10820758189179241,0.814404432132964,0.7837227481976896,0.21727044476327118,0.19103313840155944
szlwiki,False,37.0,0.113469702817445,0.814404432132964,0.7946668982888908,0.20597202295552366,0.1991869918699187
szlwiki,False,38.0,0.11873990306946688,0.814404432132964,0.8046556067054634,0.1956599713055954,0.20726119139936552
szlwiki,False,39.0,0.12430347192456065,0.8033240997229917,0.816381481803179,0.1831958393113343,0.21529324424647364
szlwiki,False,40.0,0.13080739738385205,0.8033240997229917,0.8264570485538087,0.17279411764705882,0.22498060512024826
szlwiki,False,41.0,0.13274336283185842,0.7894736842105263,0.8316685485972379,0.16696556671449067,0.2272727272727273
szlwiki,False,42.0,0.1313660161827701,0.7645429362880887,0.8341005819508381,0.16364777618364418,0.2242079610073111
szlwiki,False,43.0,0.13529705441837245,0.7506925207756233,0.8417441153478676,0.15530846484935437,0.22927241962774958
szlwiki,False,44.0,0.13890339425587467,0.7368421052631579,0.8485190654043255,0.14786585365853658,0.2337434094903339
szlwiki,False,45.0,0.1388438681793625,0.7119113573407202,0.8525145487709546,0.14293400286944047,0.23236889692585894
szlwiki,False,46.0,0.14254021075984472,0.7119113573407202,0.8566837488056979,0.13862984218077476,0.23752310536044366
szlwiki,False,47.0,0.14806110458284372,0.6980609418282548,0.8645878572048988,0.13002152080344334,0.24430441105186623
szlwiki,False,48.0,0.15379825653798257,0.6842105263157895,0.872057673933814,0.12186154949784792,0.25114387391967463
szlwiki,False,49.0,0.1567741935483871,0.6731301939058172,0.8762268739685573,0.1171987087517934,0.2543171114599686
szlwiki,False,50.0,0.162,0.6731301939058172,0.8805697906714149,0.11271520803443329,0.26114991939817306
szlwiki,False,51.0,0.17124735729386892,0.6731301939058172,0.8876053157300443,0.1054519368723099,0.27303370786516856
szlwiki,False,52.0,0.17560617193240263,0.6620498614958449,0.8919482324329019,0.10060975609756098,0.2775842044134727
szlwiki,False,53.0,0.19028662420382167,0.6620498614958449,0.901068357508903,0.09119440459110474,0.2956091527520099
szlwiki,False,54.0,0.19983277591973245,0.6620498614958449,0.9062798575523321,0.0858142037302726,0.30700064226075785
szlwiki,False,55.0,0.2055030094582975,0.6620498614958449,0.9091461825762182,0.08285509325681492,0.3136482939632546
szlwiki,False,56.0,0.21358355674709562,0.6620498614958449,0.9129679492747329,0.07890961262553801,0.32297297297297295
szlwiki,False,57.0,0.22170686456400743,0.6620498614958449,0.9165291409710762,0.07523314203730272,0.33217512161223073
szlwiki,False,58.0,0.2302504816955684,0.6620498614958449,0.9200034743333623,0.07164634146341463,0.3416726233023588
szlwiki,False,59.0,0.23947895791583165,0.6620498614958449,0.9234778076956484,0.06805954088952654,0.351729212656365
szlwiki,False,60.0,0.24715615305067218,0.6620498614958449,0.9261704160514201,0.06527977044476327,0.3599397590361446
szlwiki,False,61.0,0.25671321160042965,0.6620498614958449,0.9292973160774777,0.06205164992826399,0.369969040247678
szlwiki,False,62.0,0.27128263337116915,0.6620498614958449,0.9336402327803353,0.05756814921090388,0.38486312399355876
szlwiki,False,63.0,0.28150765606595995,0.6620498614958449,0.9364196994701641,0.0546987087517934,0.3950413223140496
szlwiki,False,64.0,0.2911084043848965,0.6620498614958449,0.9388517328237644,0.05218794835007173,0.4043993231810491
szlwiki,False,65.0,0.2957920792079208,0.6620498614958449,0.9399808911665074,0.05102223816355811,0.40889649272882805
szlwiki,False,66.0,0.302915082382763,0.6620498614958449,0.9416311995135933,0.04931850789096126,0.4156521739130435
szlwiki,False,67.0,0.306803594351733,0.6620498614958449,0.9424997828541648,0.04842180774748924,0.4192982456140351
szlwiki,False,68.0,0.3190921228304406,0.6620498614958449,0.9451055328758794,0.04573170731707317,0.4306306306306306
szlwiki,False,69.0,0.33473389355742295,0.6620498614958449,0.9481455745678797,0.04259325681492109,0.44465116279069766
szlwiki,False,70.0,0.33709449929478136,0.6620498614958449,0.9485798662381656,0.04214490674318508,0.4467289719626168
szlwiki,False,71.0,0.34388489208633094,0.6620498614958449,0.9497958829149656,0.040889526542324243,0.45265151515151514
szlwiki,False,72.0,0.3545994065281899,0.6620498614958449,0.9516199079301659,0.039006456241033,0.4618357487922706
szlwiki,False,73.0,0.3654743390357698,0.6509695290858726,0.9536176496134804,0.036585365853658534,0.4681274900398406
szlwiki,False,74.0,0.3603174603174603,0.628808864265928,0.9533570746113089,0.03613701578192253,0.45812310797174566
szlwiki,False,75.0,0.37520938023450584,0.6204986149584487,0.955702249630852,0.03344691535150646,0.4676409185803757
szlwiki,False,76.0,0.37132987910189985,0.5955678670360111,0.955702249630852,0.032639885222381634,0.4574468085106383
szlwiki,False,77.0,0.38191881918819187,0.5734072022160664,0.9575262746460523,0.03003945480631277,0.4584717607973422
szlwiki,False,78.0,0.3929273084479371,0.554016620498615,0.9591765829931382,0.027708034433285508,0.45977011494252873
szlwiki,False,79.0,0.39549180327868855,0.5346260387811634,0.9597845913315383,0.026452654232424676,0.45465253239104836
szlwiki,False,80.0,0.4026258205689278,0.5096952908587258,0.9609137496742812,0.024479913916786226,0.44987775061124696
szlwiki,False,81.0,0.4,0.481994459833795,0.9610874663423955,0.0234038737446198,0.4371859296482412
szlwiki,False,82.0,0.38235294117647056,0.43213296398891965,0.9603057413358812,0.02259684361549498,0.4057217165149544
szlwiki,False,83.0,0.3787465940054496,0.3850415512465374,0.9609137496742812,0.020444763271162122,0.38186813186813184
szlwiki,False,84.0,0.3864306784660767,0.3628808864265928,0.9619560496829671,0.018651362984218076,0.3742857142857143
szlwiki,False,85.0,0.4110032362459547,0.3518005540166205,0.9638669330322245,0.016319942611190817,0.37910447761194027
szlwiki,False,86.0,0.43356643356643354,0.34349030470914127,0.965343524711196,0.014526542324246772,0.38330757341576505
szlwiki,False,87.0,0.424,0.29362880886426596,0.965343524711196,0.01291248206599713,0.34697217675941083
szlwiki,False,88.0,0.3584905660377358,0.21052631578947367,0.9634326413619386,0.012195121951219513,0.26527050610820246
szlwiki,False,89.0,0.3769633507853403,0.1994459833795014,0.9645617997046817,0.010670731707317074,0.2608695652173913
szlwiki,False,90.0,0.38509316770186336,0.17174515235457063,0.9654303830452532,0.008877331420373027,0.23754789272030655
szlwiki,False,91.0,0.3712121212121212,0.13573407202216067,0.9656909580474247,0.00744261119081779,0.19878296146044624
szlwiki,False,92.0,0.4270833333333333,0.11357340720221606,0.9674281247285677,0.004931850789096126,0.17943107221006563
szlwiki,False,93.0,0.4782608695652174,0.09141274238227147,0.9683835664031963,0.0032281205164992827,0.15348837209302327
szlwiki,False,94.0,0.47540983606557374,0.08033240997229917,0.9683835664031963,0.0028694404591104736,0.13744075829383884
szlwiki,False,95.0,0.6097560975609756,0.06925207756232687,0.9694258664118822,0.0014347202295552368,0.12437810945273632
szlwiki,False,96.0,0.6756756756756757,0.06925207756232687,0.9697732997481109,0.0010760401721664275,0.1256281407035176
szlwiki,False,97.0,0.6756756756756757,0.06925207756232687,0.9697732997481109,0.0010760401721664275,0.1256281407035176
szlwiki,False,98.0,0.7575757575757576,0.06925207756232687,0.9701207330843394,0.0007173601147776184,0.1269035532994924
szlwiki,False,99.0,0.8620689655172413,0.06925207756232687,0.9704681664205681,0.0003586800573888092,0.12820512820512822
