wiki_db,user_is_bot,threshold,precision,recall,accuracy,fpr,F1
tgwiki,True,0.0,0.003784295175023652,1.0,0.003784295175023652,1.0,0.007540056550424129
tgwiki,True,1.0,0.003784295175023652,1.0,0.003784295175023652,1.0,0.007540056550424129
tgwiki,True,2.0,0.003784295175023652,1.0,0.003784295175023652,1.0,0.007540056550424129
tgwiki,True,3.0,0.003784295175023652,1.0,0.003784295175023652,1.0,0.007540056550424129
tgwiki,True,4.0,0.003784295175023652,1.0,0.003784295175023652,1.0,0.007540056550424129
tgwiki,True,5.0,0.0037914691943127963,1.0,0.005676442762535478,0.9981006647673314,0.007554296506137866
tgwiki,True,6.0,0.0037914691943127963,1.0,0.005676442762535478,0.9981006647673314,0.007554296506137866
tgwiki,True,7.0,0.0038204393505253103,1.0,0.013245033112582781,0.9905033238366572,0.007611798287345386
tgwiki,True,8.0,0.003872216844143272,1.0,0.026490066225165563,0.9772079772079773,0.007714561234329799
tgwiki,True,9.0,0.004,1.0,0.05771050141911069,0.9458689458689459,0.00796812749003984
tgwiki,True,10.0,0.004206098843322818,1.0,0.10406811731315042,0.899335232668566,0.00837696335078534
tgwiki,True,11.0,0.0045662100456621,1.0,0.1750236518448439,0.8281101614434948,0.00909090909090909
tgwiki,True,12.0,0.005050505050505051,1.0,0.25449385052034057,0.748338081671415,0.010050251256281409
tgwiki,True,13.0,0.0056657223796034,1.0,0.3358561967833491,0.6666666666666666,0.011267605633802816
tgwiki,True,14.0,0.0064,1.0,0.41248817407757804,0.5897435897435898,0.012718600953895072
tgwiki,True,15.0,0.007547169811320755,1.0,0.5023651844843898,0.49952516619183285,0.0149812734082397
tgwiki,True,16.0,0.008771929824561403,1.0,0.5723746452223274,0.42924976258309594,0.017391304347826087
tgwiki,True,17.0,0.009876543209876543,1.0,0.6206244087038789,0.3808167141500475,0.019559902200488994
tgwiki,True,18.0,0.0111731843575419,1.0,0.6650898770104068,0.33618233618233617,0.022099447513812154
tgwiki,True,19.0,0.013114754098360656,1.0,0.7152317880794702,0.2858499525166192,0.02588996763754045
tgwiki,True,20.0,0.014388489208633094,1.0,0.7407757805108799,0.26020892687559355,0.028368794326241138
tgwiki,True,21.0,0.016597510373443983,1.0,0.7757805108798487,0.22507122507122507,0.0326530612244898
tgwiki,True,22.0,0.018779342723004695,1.0,0.8022705771050141,0.19848053181386516,0.03686635944700461
tgwiki,True,23.0,0.021621621621621623,1.0,0.8287606433301797,0.17188983855650522,0.04232804232804233
tgwiki,True,24.0,0.027210884353741496,1.0,0.8647114474929044,0.13580246913580246,0.05298013245033112
tgwiki,True,25.0,0.015625,0.5,0.8789025543992431,0.11965811965811966,0.030303030303030304
tgwiki,True,26.0,0.017241379310344827,0.5,0.8902554399243141,0.10826210826210826,0.03333333333333333
tgwiki,True,27.0,0.010752688172043012,0.25,0.9101229895931883,0.08736942070275404,0.02061855670103093
tgwiki,True,28.0,0.013157894736842105,0.25,0.9262062440870388,0.07122507122507123,0.025
tgwiki,True,29.0,0.0,0.0,0.9375591296121097,0.05887939221272555,0.025
tgwiki,True,30.0,0.0,0.0,0.9479659413434248,0.04843304843304843,0.025
tgwiki,True,31.0,0.0,0.0,0.956480605487228,0.039886039886039885,0.025
tgwiki,True,32.0,0.0,0.0,0.9668874172185431,0.029439696106362774,0.025
tgwiki,True,33.0,0.0,0.0,0.9706717123935666,0.02564102564102564,0.025
tgwiki,True,34.0,0.0,0.0,0.9735099337748344,0.022792022792022793,0.025
tgwiki,True,35.0,0.0,0.0,0.978240302743614,0.018043684710351376,0.025
tgwiki,True,36.0,0.0,0.0,0.97918637653737,0.017094017094017096,0.025
tgwiki,True,37.0,0.0,0.0,0.9820245979186376,0.014245014245014245,0.025
tgwiki,True,38.0,0.0,0.0,0.9848628192999054,0.011396011396011397,0.025
tgwiki,True,39.0,0.0,0.0,0.988647114474929,0.007597340930674264,0.025
tgwiki,True,40.0,0.0,0.0,0.988647114474929,0.007597340930674264,0.025
tgwiki,True,41.0,0.0,0.0,0.9895931882686849,0.006647673314339981,0.025
tgwiki,True,42.0,0.0,0.0,0.9905392620624409,0.005698005698005698,0.025
tgwiki,True,43.0,0.0,0.0,0.9905392620624409,0.005698005698005698,0.025
tgwiki,True,44.0,0.0,0.0,0.9924314096499527,0.003798670465337132,0.025
tgwiki,True,45.0,0.0,0.0,0.9943235572374646,0.001899335232668566,0.025
tgwiki,True,46.0,0.0,0.0,0.9952696310312205,0.000949667616334283,0.025
tgwiki,True,47.0,0.0,0.0,0.9962157048249763,0.0,0.025
tgwiki,True,48.0,0.0,0.0,0.9962157048249763,0.0,0.025
tgwiki,True,49.0,0.0,0.0,0.9962157048249763,0.0,0.025
tgwiki,True,50.0,0.0,0.0,0.9962157048249763,0.0,0.025
tgwiki,True,51.0,0.0,0.0,0.9962157048249763,0.0,0.025
tgwiki,True,52.0,0.0,0.0,0.9962157048249763,0.0,0.025
tgwiki,True,53.0,0.0,0.0,0.9962157048249763,0.0,0.025
tgwiki,True,54.0,0.0,0.0,0.9962157048249763,0.0,0.025
tgwiki,True,55.0,0.0,0.0,0.9962157048249763,0.0,0.025
tgwiki,True,56.0,0.0,0.0,0.9962157048249763,0.0,0.025
tgwiki,True,57.0,0.0,0.0,0.9962157048249763,0.0,0.025
tgwiki,True,58.0,0.0,0.0,0.9962157048249763,0.0,0.025
tgwiki,True,59.0,0.0,0.0,0.9962157048249763,0.0,0.025
tgwiki,True,60.0,0.0,0.0,0.9962157048249763,0.0,0.025
tgwiki,True,61.0,0.0,0.0,0.9962157048249763,0.0,0.025
tgwiki,True,62.0,0.0,0.0,0.9962157048249763,0.0,0.025
tgwiki,True,63.0,0.0,0.0,0.9962157048249763,0.0,0.025
tgwiki,True,64.0,0.0,0.0,0.9962157048249763,0.0,0.025
tgwiki,True,65.0,0.0,0.0,0.9962157048249763,0.0,0.025
tgwiki,True,66.0,0.0,0.0,0.9962157048249763,0.0,0.025
tgwiki,True,67.0,0.0,0.0,0.9962157048249763,0.0,0.025
tgwiki,True,68.0,0.0,0.0,0.9962157048249763,0.0,0.025
tgwiki,True,69.0,0.0,0.0,0.9962157048249763,0.0,0.025
tgwiki,True,70.0,0.0,0.0,0.9962157048249763,0.0,0.025
tgwiki,True,71.0,0.0,0.0,0.9962157048249763,0.0,0.025
tgwiki,True,72.0,0.0,0.0,0.9962157048249763,0.0,0.025
tgwiki,True,73.0,0.0,0.0,0.9962157048249763,0.0,0.025
tgwiki,True,74.0,0.0,0.0,0.9962157048249763,0.0,0.025
tgwiki,True,75.0,0.0,0.0,0.9962157048249763,0.0,0.025
tgwiki,True,76.0,0.0,0.0,0.9962157048249763,0.0,0.025
tgwiki,True,77.0,0.0,0.0,0.9962157048249763,0.0,0.025
tgwiki,True,78.0,0.0,0.0,0.9962157048249763,0.0,0.025
tgwiki,True,79.0,0.0,0.0,0.9962157048249763,0.0,0.025
tgwiki,True,80.0,0.0,0.0,0.9962157048249763,0.0,0.025
tgwiki,True,81.0,0.0,0.0,0.9962157048249763,0.0,0.025
tgwiki,True,82.0,0.0,0.0,0.9962157048249763,0.0,0.025
tgwiki,True,83.0,0.0,0.0,0.9962157048249763,0.0,0.025
tgwiki,True,84.0,0.0,0.0,0.9962157048249763,0.0,0.025
tgwiki,True,85.0,0.0,0.0,0.9962157048249763,0.0,0.025
tgwiki,True,86.0,0.0,0.0,0.9962157048249763,0.0,0.025
tgwiki,True,87.0,0.0,0.0,0.9962157048249763,0.0,0.025
tgwiki,True,88.0,0.0,0.0,0.9962157048249763,0.0,0.025
tgwiki,True,89.0,0.0,0.0,0.9962157048249763,0.0,0.025
tgwiki,True,90.0,0.0,0.0,0.9962157048249763,0.0,0.025
tgwiki,True,91.0,0.0,0.0,0.9962157048249763,0.0,0.025
tgwiki,True,92.0,0.0,0.0,0.9962157048249763,0.0,0.025
tgwiki,True,93.0,0.0,0.0,0.9962157048249763,0.0,0.025
tgwiki,True,94.0,0.0,0.0,0.9962157048249763,0.0,0.025
tgwiki,True,95.0,0.0,0.0,0.9962157048249763,0.0,0.025
tgwiki,True,96.0,0.0,0.0,0.9962157048249763,0.0,0.025
tgwiki,True,97.0,0.0,0.0,0.9962157048249763,0.0,0.025
tgwiki,True,98.0,0.0,0.0,0.9962157048249763,0.0,0.025
tgwiki,True,99.0,0.0,0.0,0.9962157048249763,0.0,0.025
tgwiki,False,0.0,0.008819369331891173,1.0,0.008819369331891173,1.0,0.017484536082474227
tgwiki,False,1.0,0.008824508824508824,1.0,0.009401780514185873,0.9994124066146227,0.017494636078560815
tgwiki,False,2.0,0.009002887718702226,1.0,0.029203760712205675,0.9794342315117939,0.017845117845117844
tgwiki,False,3.0,0.009215376513954713,0.9905660377358491,0.060653964556119475,0.9476202467892219,0.018260869565217393
tgwiki,False,4.0,0.009328358208955223,0.9433962264150944,0.11589982527664532,0.8914631075295896,0.018474043968224642
tgwiki,False,5.0,0.009787444389520514,0.9339622641509434,0.1660703885514602,0.8407621925627465,0.01937188142060464
tgwiki,False,6.0,0.01000210570646452,0.8962264150943396,0.21674016141109909,0.7893058003861328,0.01978342357351104
tgwiki,False,7.0,0.009843400447427294,0.8301886792452831,0.26200183043514436,0.7430538067657181,0.019456113199204067
tgwiki,False,8.0,0.010415433779145462,0.8301886792452831,0.302853814793244,0.7018383278771091,0.02057276446522502
tgwiki,False,9.0,0.010328521652563464,0.7830188679245284,0.3363840585739246,0.667590027700831,0.020388111029231146
tgwiki,False,10.0,0.010815741464685953,0.7830188679245284,0.3665030368583077,0.637203055485604,0.021336760925449873
tgwiki,False,11.0,0.011231338172853034,0.7735849056603774,0.3973708295199268,0.6059766641484093,0.022141217766977184
tgwiki,False,12.0,0.011742803952455964,0.7735849056603774,0.4238289375156003,0.5792831360698397,0.023134433629566936
tgwiki,False,13.0,0.012246117084826763,0.7735849056603774,0.447707795989683,0.5551918072693696,0.0241105557189062
tgwiki,False,14.0,0.012764632627646327,0.7735849056603774,0.47033863050170566,0.5323596071518509,0.025114854517611022
tgwiki,False,15.0,0.01299545159194282,0.7547169811320755,0.4923038522339629,0.5100310585075128,0.02555094219099329
tgwiki,False,16.0,0.013423959218351742,0.7452830188679245,0.5146850819535735,0.48736674221438764,0.02637289267234185
tgwiki,False,17.0,0.013842058562555456,0.7358490566037735,0.5353190781263,0.46646520607739445,0.027172966382163384
tgwiki,False,18.0,0.014431082331174839,0.7358490566037735,0.5544554455445545,0.4471585662721397,0.028307022318998367
tgwiki,False,19.0,0.014478575621209158,0.6981132075471698,0.5782511024211665,0.4228154117350793,0.028368794326241138
tgwiki,False,20.0,0.014805675508945095,0.6792452830188679,0.5985522922040103,0.4021657013346764,0.028979673978667738
tgwiki,False,21.0,0.015601300108342361,0.6792452830188679,0.6191862883767368,0.38134810710988,0.030502012285532724
tgwiki,False,22.0,0.016147373209006142,0.6698113207547169,0.6371578334304019,0.3631327121631831,0.03153453253386631
tgwiki,False,23.0,0.0164246607950488,0.6509433962264151,0.6531325401447707,0.34684798119701166,0.03204086371023915
tgwiki,False,24.0,0.016401590457256462,0.6226415094339622,0.6673600133122556,0.33224208847477543,0.03196125907990315
tgwiki,False,25.0,0.016632016632016633,0.6037735849056604,0.6816706880772111,0.31763619575253926,0.03237228123419322
tgwiki,False,26.0,0.017481562414640807,0.6037735849056604,0.6972293868042266,0.30193905817174516,0.033979293867799305
tgwiki,False,27.0,0.017836593785960874,0.5849056603773585,0.7122888759464182,0.2865776882397381,0.03461753210496929
tgwiki,False,28.0,0.0178517397881997,0.5566037735849056,0.726017139529079,0.27247544699068244,0.03459396071533275
tgwiki,False,29.0,0.017942966997757128,0.5283018867924528,0.7408270238788585,0.2572819608830689,0.03470715835140997
tgwiki,False,30.0,0.01786918408631153,0.5,0.7532240619019885,0.24452279022916143,0.03450520833333333
tgwiki,False,31.0,0.018901569186875893,0.5,0.7667027206922373,0.23092420045328632,0.036426116838487975
tgwiki,False,32.0,0.019468363908648447,0.49056603773584906,0.7776021299608953,0.21984386804331402,0.037450486136118115
tgwiki,False,33.0,0.020634920634920634,0.49056603773584906,0.7901655711789667,0.20716863930160329,0.0396039603960396
tgwiki,False,34.0,0.020964360587002098,0.4716981132075472,0.8010649804476246,0.19600436497943424,0.040144520272982744
tgwiki,False,35.0,0.02157639806252752,0.46226415094339623,0.8103835593643398,0.18651892890120036,0.04122843920908709
tgwiki,False,36.0,0.02274837511606314,0.46226415094339623,0.8201181462684084,0.17669772517417948,0.04336283185840708
tgwiki,False,37.0,0.023369036027263874,0.4528301886792453,0.8282719028205342,0.16838747586670025,0.044444444444444446
tgwiki,False,38.0,0.024264326277749097,0.44339622641509435,0.8378400865296614,0.1586502140518761,0.04601076847772883
tgwiki,False,39.0,0.024704618689581095,0.4339622641509434,0.8439138031450204,0.15243851254931587,0.0467479674796748
tgwiki,False,40.0,0.025266704098820886,0.42452830188679247,0.8504867293452034,0.1457231595735751,0.04769475357710652
tgwiki,False,41.0,0.025897586815773983,0.41509433962264153,0.8571428571428571,0.13892386468563753,0.04875346260387811
tgwiki,False,42.0,0.026054590570719603,0.39622641509433965,0.8640485897329229,0.13178880214891295,0.04889406286379511
tgwiki,False,43.0,0.0273972602739726,0.39622641509433965,0.8706215159331059,0.1251573910853689,0.051250762660158634
tgwiki,False,44.0,0.029045643153526972,0.39622641509433965,0.8778600549130543,0.11785444472425081,0.05412371134020619
tgwiki,False,45.0,0.029667149059334298,0.3867924528301887,0.883018553956236,0.11256610425585495,0.05510752688172042
tgwiki,False,46.0,0.03018867924528302,0.37735849056603776,0.8875946418171229,0.10786535717283639,0.055904961565338925
tgwiki,False,47.0,0.03046875,0.36792452830188677,0.8911723105083618,0.10417191303617897,0.05627705627705628
tgwiki,False,48.0,0.03215169002473207,0.36792452830188677,0.8967468175388967,0.09854780491899605,0.059135708870356324
tgwiki,False,49.0,0.03359173126614987,0.36792452830188677,0.9010733006073717,0.09418282548476455,0.06156274664561958
tgwiki,False,50.0,0.034482758620689655,0.3584905660377358,0.9058157916631999,0.08931419457735247,0.06291390728476821
tgwiki,False,51.0,0.035305343511450385,0.3490566037735849,0.9101422747316749,0.0848652732309242,0.06412478336221837
tgwiki,False,52.0,0.03589232303090728,0.33962264150943394,0.9137199434229137,0.08117182909426676,0.06492335437330929
tgwiki,False,53.0,0.03516028955532575,0.32075471698113206,0.9163823945419752,0.07831780407957693,0.06337371854613234
tgwiki,False,54.0,0.03728070175438596,0.32075471698113206,0.9209584824028622,0.07370099890875514,0.0667976424361493
tgwiki,False,55.0,0.038680318543799774,0.32075471698113206,0.9237041351193943,0.07093091580626207,0.06903553299492386
tgwiki,False,56.0,0.0397196261682243,0.32075471698113206,0.9256177718612197,0.06900025182573659,0.07068607068607069
tgwiki,False,57.0,0.04114713216957606,0.3113207547169811,0.9299442549296947,0.06455133047930832,0.07268722466960352
tgwiki,False,58.0,0.04376657824933687,0.3113207547169811,0.9339379316082869,0.06052211869386385,0.07674418604651162
tgwiki,False,59.0,0.044630404463040445,0.3018867924528302,0.9368499875197603,0.05750020985478049,0.07776427703523693
tgwiki,False,60.0,0.0469208211143695,0.3018867924528302,0.9397620434312339,0.0545622429278939,0.08121827411167512
tgwiki,False,61.0,0.045454545454545456,0.2830188679245283,0.9412596721857059,0.0528834046839587,0.0783289817232376
tgwiki,False,62.0,0.04754358161648178,0.2830188679245283,0.9436725185123555,0.05044908923025267,0.0814111261872456
tgwiki,False,63.0,0.04915254237288136,0.27358490566037735,0.9469173808137116,0.04709141274238227,0.08333333333333334
tgwiki,False,64.0,0.047787610619469026,0.25471698113207547,0.9486646143605957,0.045160748761856793,0.08047690014903129
tgwiki,False,65.0,0.047706422018348627,0.24528301886792453,0.9501622431150678,0.04356585243011836,0.07987711213517665
tgwiki,False,66.0,0.050387596899224806,0.24528301886792453,0.9525750894417173,0.04113153697641232,0.08360128617363345
tgwiki,False,67.0,0.053830227743271224,0.24528301886792453,0.9553207421582495,0.038361453873919246,0.08828522920203735
tgwiki,False,68.0,0.056768558951965066,0.24528301886792453,0.9574007820950162,0.036262906069000254,0.09219858156028368
tgwiki,False,69.0,0.06046511627906977,0.24528301886792453,0.9597304268241951,0.03391253252749098,0.09701492537313433
tgwiki,False,70.0,0.06157635467980296,0.2358490566037736,0.9615608619685498,0.0319818685469655,0.09765625
tgwiki,False,71.0,0.06613756613756613,0.2358490566037736,0.9638905066977286,0.029631495005456223,0.10330578512396696
tgwiki,False,72.0,0.0708215297450425,0.2358490566037736,0.9659705466344953,0.027532947200537228,0.10893246187363835
tgwiki,False,73.0,0.0744047619047619,0.2358490566037736,0.9673849737914968,0.02610593469319231,0.11312217194570136
tgwiki,False,74.0,0.07717041800643087,0.22641509433962265,0.9692986105333222,0.024091328800470074,0.11510791366906475
tgwiki,False,75.0,0.0821917808219178,0.22641509433962265,0.970879440885265,0.022496432468731637,0.12060301507537688
tgwiki,False,76.0,0.08921933085501858,0.22641509433962265,0.9727930776270904,0.02056576848820616,0.128
tgwiki,False,77.0,0.0933852140077821,0.22641509433962265,0.9737914967967385,0.01955846554184504,0.1322314049586777
tgwiki,False,78.0,0.09166666666666666,0.20754716981132076,0.9748731175638572,0.018299336858893647,0.12716763005780346
tgwiki,False,79.0,0.09049773755656108,0.18867924528301888,0.9761211415259173,0.01687232435154873,0.12232415902140673
tgwiki,False,80.0,0.0966183574879227,0.18867924528301888,0.9772859638905067,0.01569713758079409,0.12779552715654954
tgwiki,False,81.0,0.0979381443298969,0.1792452830188679,0.9782011814626841,0.014689834634432972,0.12666666666666665
tgwiki,False,82.0,0.10497237569060773,0.1792452830188679,0.9792828022298028,0.013598589775875095,0.132404181184669
tgwiki,False,83.0,0.11180124223602485,0.16981132075471697,0.9807804309842749,0.012003693444136657,0.1348314606741573
tgwiki,False,84.0,0.12318840579710146,0.16037735849056603,0.982527664531159,0.010156971375807941,0.13934426229508196
tgwiki,False,85.0,0.12903225806451613,0.1509433962264151,0.9835260837008071,0.009065726517250064,0.13913043478260873
tgwiki,False,86.0,0.14678899082568808,0.1509433962264151,0.9847741076628671,0.007806597834298665,0.14883720930232558
tgwiki,False,87.0,0.16161616161616163,0.1509433962264151,0.9856061236375738,0.006967178712331067,0.15609756097560976
tgwiki,False,88.0,0.17721518987341772,0.1320754716981132,0.9869373491971046,0.00545622429278939,0.15135135135135133
tgwiki,False,89.0,0.1694915254237288,0.09433962264150944,0.9879357683667527,0.004113153697641233,0.12121212121212123
tgwiki,False,90.0,0.16981132075471697,0.08490566037735849,0.9882685747566353,0.003693444136657433,0.11320754716981131
tgwiki,False,91.0,0.21052631578947367,0.07547169811320754,0.989350195523754,0.0025182573659027953,0.11111111111111112
tgwiki,False,92.0,0.25,0.07547169811320754,0.9898494051085781,0.002014605892722236,0.11594202898550725
tgwiki,False,93.0,0.32,0.07547169811320754,0.9904318162908727,0.0014270125073449172,0.12213740458015267
tgwiki,False,94.0,0.29411764705882354,0.04716981132075472,0.9905982194858142,0.001007302946361118,0.0813008130081301
tgwiki,False,95.0,0.3333333333333333,0.02830188679245283,0.9909310258756968,0.000503651473180559,0.052173913043478265
tgwiki,False,96.0,0.3333333333333333,0.018867924528301886,0.9910142274731675,0.0003357676487870394,0.03571428571428571
tgwiki,False,97.0,0.6666666666666666,0.018867924528301886,0.9912638322655795,8.394191219675985e-05,0.03669724770642202
tgwiki,False,98.0,1.0,0.018867924528301886,0.9913470338630501,0.0,0.037037037037037035
tgwiki,False,99.0,1.0,0.018867924528301886,0.9913470338630501,0.0,0.037037037037037035
