wiki_db,user_is_bot,threshold,precision,recall,accuracy,fpr,F1
vlswiki,True,0.0,0.010638297872340425,1.0,0.010638297872340425,1.0,0.021052631578947368
vlswiki,True,1.0,0.010638297872340425,1.0,0.010638297872340425,1.0,0.021052631578947368
vlswiki,True,2.0,0.010638297872340425,1.0,0.010638297872340425,1.0,0.021052631578947368
vlswiki,True,3.0,0.010638297872340425,1.0,0.010638297872340425,1.0,0.021052631578947368
vlswiki,True,4.0,0.010638297872340425,1.0,0.010638297872340425,1.0,0.021052631578947368
vlswiki,True,5.0,0.010752688172043012,1.0,0.02127659574468085,0.989247311827957,0.021276595744680854
vlswiki,True,6.0,0.010752688172043012,1.0,0.02127659574468085,0.989247311827957,0.021276595744680854
vlswiki,True,7.0,0.010869565217391304,1.0,0.031914893617021274,0.978494623655914,0.02150537634408602
vlswiki,True,8.0,0.010869565217391304,1.0,0.031914893617021274,0.978494623655914,0.02150537634408602
vlswiki,True,9.0,0.010869565217391304,1.0,0.031914893617021274,0.978494623655914,0.02150537634408602
vlswiki,True,10.0,0.010869565217391304,1.0,0.031914893617021274,0.978494623655914,0.02150537634408602
vlswiki,True,11.0,0.010869565217391304,1.0,0.031914893617021274,0.978494623655914,0.02150537634408602
vlswiki,True,12.0,0.010869565217391304,1.0,0.031914893617021274,0.978494623655914,0.02150537634408602
vlswiki,True,13.0,0.010869565217391304,1.0,0.031914893617021274,0.978494623655914,0.02150537634408602
vlswiki,True,14.0,0.010869565217391304,1.0,0.031914893617021274,0.978494623655914,0.02150537634408602
vlswiki,True,15.0,0.01098901098901099,1.0,0.0425531914893617,0.967741935483871,0.02173913043478261
vlswiki,True,16.0,0.01098901098901099,1.0,0.0425531914893617,0.967741935483871,0.02173913043478261
vlswiki,True,17.0,0.01098901098901099,1.0,0.0425531914893617,0.967741935483871,0.02173913043478261
vlswiki,True,18.0,0.01098901098901099,1.0,0.0425531914893617,0.967741935483871,0.02173913043478261
vlswiki,True,19.0,0.011111111111111112,1.0,0.05319148936170213,0.956989247311828,0.02197802197802198
vlswiki,True,20.0,0.011111111111111112,1.0,0.05319148936170213,0.956989247311828,0.02197802197802198
vlswiki,True,21.0,0.011111111111111112,1.0,0.05319148936170213,0.956989247311828,0.02197802197802198
vlswiki,True,22.0,0.011235955056179775,1.0,0.06382978723404255,0.946236559139785,0.02222222222222222
vlswiki,True,23.0,0.011235955056179775,1.0,0.06382978723404255,0.946236559139785,0.02222222222222222
vlswiki,True,24.0,0.011235955056179775,1.0,0.06382978723404255,0.946236559139785,0.02222222222222222
vlswiki,True,25.0,0.011363636363636364,1.0,0.07446808510638298,0.9354838709677419,0.02247191011235955
vlswiki,True,26.0,0.011363636363636364,1.0,0.07446808510638298,0.9354838709677419,0.02247191011235955
vlswiki,True,27.0,0.011627906976744186,1.0,0.09574468085106383,0.9139784946236559,0.022988505747126436
vlswiki,True,28.0,0.011904761904761904,1.0,0.11702127659574468,0.8924731182795699,0.023529411764705882
vlswiki,True,29.0,0.012195121951219513,1.0,0.13829787234042554,0.8709677419354839,0.024096385542168676
vlswiki,True,30.0,0.0125,1.0,0.1595744680851064,0.8494623655913979,0.02469135802469136
vlswiki,True,31.0,0.013513513513513514,1.0,0.22340425531914893,0.7849462365591398,0.026666666666666665
vlswiki,True,32.0,0.013888888888888888,1.0,0.24468085106382978,0.7634408602150538,0.0273972602739726
vlswiki,True,33.0,0.014925373134328358,1.0,0.2978723404255319,0.7096774193548387,0.029411764705882353
vlswiki,True,34.0,0.016129032258064516,1.0,0.35106382978723405,0.6559139784946236,0.031746031746031744
vlswiki,True,35.0,0.01639344262295082,1.0,0.3617021276595745,0.6451612903225806,0.03225806451612903
vlswiki,True,36.0,0.017857142857142856,1.0,0.4148936170212766,0.5913978494623656,0.03508771929824561
vlswiki,True,37.0,0.01818181818181818,1.0,0.425531914893617,0.5806451612903226,0.03571428571428572
vlswiki,True,38.0,0.018867924528301886,1.0,0.44680851063829785,0.5591397849462365,0.037037037037037035
vlswiki,True,39.0,0.021739130434782608,1.0,0.5212765957446809,0.4838709677419355,0.042553191489361694
vlswiki,True,40.0,0.022727272727272728,1.0,0.5425531914893617,0.46236559139784944,0.044444444444444446
vlswiki,True,41.0,0.023809523809523808,1.0,0.5638297872340425,0.44086021505376344,0.046511627906976744
vlswiki,True,42.0,0.02631578947368421,1.0,0.6063829787234043,0.3978494623655914,0.05128205128205127
vlswiki,True,43.0,0.027777777777777776,1.0,0.6276595744680851,0.3763440860215054,0.05405405405405406
vlswiki,True,44.0,0.03333333333333333,1.0,0.6914893617021277,0.3118279569892473,0.06451612903225806
vlswiki,True,45.0,0.04,1.0,0.7446808510638298,0.25806451612903225,0.07692307692307693
vlswiki,True,46.0,0.041666666666666664,1.0,0.7553191489361702,0.24731182795698925,0.07999999999999999
vlswiki,True,47.0,0.05263157894736842,1.0,0.8085106382978723,0.1935483870967742,0.1
vlswiki,True,48.0,0.05555555555555555,1.0,0.8191489361702128,0.1827956989247312,0.10526315789473684
vlswiki,True,49.0,0.058823529411764705,1.0,0.8297872340425532,0.17204301075268819,0.1111111111111111
vlswiki,True,50.0,0.06666666666666667,1.0,0.851063829787234,0.15053763440860216,0.125
vlswiki,True,51.0,0.07692307692307693,1.0,0.8723404255319149,0.12903225806451613,0.14285714285714288
vlswiki,True,52.0,0.07692307692307693,1.0,0.8723404255319149,0.12903225806451613,0.14285714285714288
vlswiki,True,53.0,0.08333333333333333,1.0,0.8829787234042553,0.11827956989247312,0.15384615384615385
vlswiki,True,54.0,0.09090909090909091,1.0,0.8936170212765957,0.10752688172043011,0.16666666666666669
vlswiki,True,55.0,0.09090909090909091,1.0,0.8936170212765957,0.10752688172043011,0.16666666666666669
vlswiki,True,56.0,0.1111111111111111,1.0,0.9148936170212766,0.08602150537634409,0.19999999999999998
vlswiki,True,57.0,0.1111111111111111,1.0,0.9148936170212766,0.08602150537634409,0.19999999999999998
vlswiki,True,58.0,0.125,1.0,0.925531914893617,0.07526881720430108,0.2222222222222222
vlswiki,True,59.0,0.125,1.0,0.925531914893617,0.07526881720430108,0.2222222222222222
vlswiki,True,60.0,0.125,1.0,0.925531914893617,0.07526881720430108,0.2222222222222222
vlswiki,True,61.0,0.125,1.0,0.925531914893617,0.07526881720430108,0.2222222222222222
vlswiki,True,62.0,0.125,1.0,0.925531914893617,0.07526881720430108,0.2222222222222222
vlswiki,True,63.0,0.125,1.0,0.925531914893617,0.07526881720430108,0.2222222222222222
vlswiki,True,64.0,0.14285714285714285,1.0,0.9361702127659575,0.06451612903225806,0.25
vlswiki,True,65.0,0.14285714285714285,1.0,0.9361702127659575,0.06451612903225806,0.25
vlswiki,True,66.0,0.14285714285714285,1.0,0.9361702127659575,0.06451612903225806,0.25
vlswiki,True,67.0,0.16666666666666666,1.0,0.9468085106382979,0.053763440860215055,0.2857142857142857
vlswiki,True,68.0,0.2,1.0,0.9574468085106383,0.043010752688172046,0.33333333333333337
vlswiki,True,69.0,0.2,1.0,0.9574468085106383,0.043010752688172046,0.33333333333333337
vlswiki,True,70.0,0.2,1.0,0.9574468085106383,0.043010752688172046,0.33333333333333337
vlswiki,True,71.0,0.25,1.0,0.9680851063829787,0.03225806451612903,0.4
vlswiki,True,72.0,0.25,1.0,0.9680851063829787,0.03225806451612903,0.4
vlswiki,True,73.0,0.25,1.0,0.9680851063829787,0.03225806451612903,0.4
vlswiki,True,74.0,0.25,1.0,0.9680851063829787,0.03225806451612903,0.4
vlswiki,True,75.0,0.25,1.0,0.9680851063829787,0.03225806451612903,0.4
vlswiki,True,76.0,0.25,1.0,0.9680851063829787,0.03225806451612903,0.4
vlswiki,True,77.0,0.3333333333333333,1.0,0.9787234042553191,0.021505376344086023,0.5
vlswiki,True,78.0,0.3333333333333333,1.0,0.9787234042553191,0.021505376344086023,0.5
vlswiki,True,79.0,0.3333333333333333,1.0,0.9787234042553191,0.021505376344086023,0.5
vlswiki,True,80.0,0.3333333333333333,1.0,0.9787234042553191,0.021505376344086023,0.5
vlswiki,True,81.0,0.3333333333333333,1.0,0.9787234042553191,0.021505376344086023,0.5
vlswiki,True,82.0,0.3333333333333333,1.0,0.9787234042553191,0.021505376344086023,0.5
vlswiki,True,83.0,0.3333333333333333,1.0,0.9787234042553191,0.021505376344086023,0.5
vlswiki,True,84.0,0.3333333333333333,1.0,0.9787234042553191,0.021505376344086023,0.5
vlswiki,True,85.0,0.5,1.0,0.9893617021276596,0.010752688172043012,0.6666666666666666
vlswiki,True,86.0,1.0,1.0,1.0,0.0,1.0
vlswiki,True,87.0,1.0,1.0,1.0,0.0,1.0
vlswiki,True,88.0,1.0,1.0,1.0,0.0,1.0
vlswiki,True,89.0,1.0,0.0,0.9893617021276596,0.0,0.0
vlswiki,True,90.0,1.0,0.0,0.9893617021276596,0.0,0.0
vlswiki,True,91.0,1.0,0.0,0.9893617021276596,0.0,0.0
vlswiki,True,92.0,1.0,0.0,0.9893617021276596,0.0,0.0
vlswiki,True,93.0,1.0,0.0,0.9893617021276596,0.0,0.0
vlswiki,True,94.0,1.0,0.0,0.9893617021276596,0.0,0.0
vlswiki,True,95.0,1.0,0.0,0.9893617021276596,0.0,0.0
vlswiki,True,96.0,1.0,0.0,0.9893617021276596,0.0,0.0
vlswiki,True,97.0,1.0,0.0,0.9893617021276596,0.0,0.0
vlswiki,True,98.0,1.0,0.0,0.9893617021276596,0.0,0.0
vlswiki,True,99.0,1.0,0.0,0.9893617021276596,0.0,0.0
vlswiki,False,0.0,0.032246506628448586,1.0,0.032246506628448586,1.0,0.06247830614370011
vlswiki,False,1.0,0.032246506628448586,1.0,0.032246506628448586,1.0,0.06247830614370011
vlswiki,False,2.0,0.032246506628448586,1.0,0.032246506628448586,1.0,0.06247830614370011
vlswiki,False,3.0,0.03233920229967661,1.0,0.03511286277319957,0.9970381340244354,0.06265227984684997
vlswiki,False,4.0,0.03251445086705202,1.0,0.040487280544607665,0.9914846353202518,0.06298110566829951
vlswiki,False,5.0,0.03291880029261156,1.0,0.05266929415979935,0.9788967049241022,0.06373937677053824
vlswiki,False,6.0,0.03337041156840934,1.0,0.06592619132927266,0.9651980747871158,0.06458557588805167
vlswiki,False,7.0,0.03391107761868877,1.0,0.08133285560730921,0.9492780451684562,0.06559766763848396
vlswiki,False,8.0,0.03450920245398773,1.0,0.09781440343962737,0.9322473158089597,0.06671608598962195
vlswiki,False,9.0,0.03501945525291829,1.0,0.11142959512719455,0.9181784524250277,0.06766917293233082
vlswiki,False,10.0,0.03532182103610675,1.0,0.11931207452525977,0.9100333209922251,0.06823351023502654
vlswiki,False,11.0,0.03560126582278481,1.0,0.12647796488713722,0.9026286560533135,0.06875477463712758
vlswiki,False,12.0,0.03587086488640893,1.0,0.13328556073092082,0.8955942243613476,0.06925740669488265
vlswiki,False,13.0,0.03631961259079903,1.0,0.1443926907918309,0.8841169937060348,0.07009345794392523
vlswiki,False,14.0,0.03665987780040733,1.0,0.15263346470798997,0.8756016290262866,0.0707269155206287
vlswiki,False,15.0,0.03706754530477759,1.0,0.16230741669652454,0.8656053313587561,0.07148530579825259
vlswiki,False,16.0,0.03739094308267553,1.0,0.16983160157649588,0.857830433172899,0.07208650380456548
vlswiki,False,17.0,0.03765690376569038,1.0,0.1759226083840917,0.8515364679748242,0.07258064516129033
vlswiki,False,18.0,0.03811944091486658,1.0,0.18631314940881405,0.8407997038134024,0.07343941248470012
vlswiki,False,19.0,0.03837953091684435,1.0,0.19204586169831603,0.8348759718622732,0.07392197125256673
vlswiki,False,20.0,0.03882657463330457,1.0,0.2017198136868506,0.8248796741947427,0.07475083056478406
vlswiki,False,21.0,0.039045553145336226,1.0,0.20637764242207093,0.8200666419844502,0.07515657620041753
vlswiki,False,22.0,0.03970004411116013,1.0,0.21999283410963813,0.8059977786005184,0.07636826474331779
vlswiki,False,23.0,0.0401965163019205,1.0,0.23002508061626656,0.7956312476860422,0.077286389008158
vlswiki,False,24.0,0.0405770964833183,1.0,0.23754926549623792,0.7878563495001851,0.0779896013864818
vlswiki,False,25.0,0.041077133728890915,1.0,0.2472232174847725,0.7778600518326546,0.0789127575624726
vlswiki,False,26.0,0.04155124653739612,1.0,0.25618058043711933,0.7686042206590151,0.07978723404255318
vlswiki,False,27.0,0.04189944134078212,1.0,0.26262988176280905,0.7619400222139948,0.08042895442359249
vlswiki,False,28.0,0.04231311706629055,1.0,0.27015406664278035,0.7541651240281377,0.08119079837618404
vlswiki,False,29.0,0.04263382283278067,1.0,0.27588677893228236,0.7482413920770085,0.0817810086324398
vlswiki,False,30.0,0.04287756074321105,1.0,0.28018631314940884,0.7437985931136616,0.08222932846048424
vlswiki,False,31.0,0.0436046511627907,1.0,0.2927266212826944,0.7308404294705665,0.08356545961002786
vlswiki,False,32.0,0.044182621502209134,1.0,0.30240057327122893,0.7208441318030359,0.0846262341325811
vlswiki,False,33.0,0.04473161033797217,1.0,0.31135793622357577,0.7115883006293965,0.08563273073263558
vlswiki,False,34.0,0.04522613065326633,1.0,0.319240415621641,0.7034431691965939,0.08653846153846154
vlswiki,False,35.0,0.04559270516717325,1.0,0.32497312791114297,0.6975194372454646,0.0872093023255814
vlswiki,False,36.0,0.04627249357326478,1.0,0.3353636689358653,0.686782673084043,0.08845208845208845
vlswiki,False,37.0,0.04655975168132437,1.0,0.33966320315299176,0.6823398741206961,0.08897676717745923
vlswiki,False,38.0,0.04677754677754678,1.0,0.34288785381583664,0.6790077748981859,0.08937437934458788
vlswiki,False,39.0,0.04716981132075472,1.0,0.3486205661053386,0.6730840429470566,0.09009009009009009
vlswiki,False,40.0,0.04764425622022234,1.0,0.3554281619491222,0.6660496112550907,0.09095502779181405
vlswiki,False,41.0,0.048205677557579006,1.0,0.3633106413471874,0.6579044798222881,0.09197751660705161
vlswiki,False,42.0,0.04878048780487805,1.0,0.3711931207452526,0.6497593483894853,0.09302325581395349
vlswiki,False,43.0,0.04945054945054945,1.0,0.3801504836975994,0.640503517215846,0.09424083769633507
vlswiki,False,44.0,0.0501952035694367,1.0,0.389824435686134,0.6305072195483155,0.09559214020180563
vlswiki,False,45.0,0.05070422535211268,1.0,0.3962737370118237,0.623843021103295,0.096514745308311
vlswiki,False,46.0,0.05172413793103448,1.0,0.4088140451451093,0.6108848574601999,0.09836065573770492
vlswiki,False,47.0,0.05253940455341506,1.0,0.4184879971336439,0.6008885597926694,0.09983361064891846
vlswiki,False,48.0,0.05328596802841918,1.0,0.42708706556789683,0.5920029618659756,0.1011804384485666
vlswiki,False,49.0,0.05389221556886228,1.0,0.4338946614116804,0.5849685301740096,0.10227272727272727
vlswiki,False,50.0,0.05371152685576343,0.9888888888888889,0.437835901110713,0.5805257312106628,0.10188895248998282
vlswiki,False,51.0,0.05604534005037783,0.9888888888888889,0.46255822285919024,0.554979637171418,0.1060786650774732
vlswiki,False,52.0,0.05705128205128205,0.9888888888888889,0.4725904693658187,0.5446131062569419,0.10787878787878788
vlswiki,False,53.0,0.059175531914893616,0.9888888888888889,0.4926549623790756,0.5238800444279896,0.11166875784190715
vlswiki,False,54.0,0.059661016949152545,0.9777777777777777,0.5023289143676102,0.5135135135135135,0.11246006389776358
vlswiki,False,55.0,0.060984060984060985,0.9777777777777777,0.5137943389466141,0.501666049611255,0.11480756686236139
vlswiki,False,56.0,0.06299212598425197,0.9777777777777777,0.5302758867789323,0.4846353202517586,0.1183591123066577
vlswiki,False,57.0,0.0641399416909621,0.9777777777777777,0.5392332497312791,0.4753794890781192,0.1203830369357045
vlswiki,False,58.0,0.06610299769408147,0.9555555555555556,0.5632389824435686,0.4498333950388745,0.12365204888569373
vlswiki,False,59.0,0.06836248012718601,0.9555555555555556,0.5786456467216051,0.43391336542021475,0.1275964391691395
vlswiki,False,60.0,0.06955810147299508,0.9444444444444444,0.5908276603367969,0.4209552017771196,0.1295731707317073
vlswiki,False,61.0,0.07111882046834345,0.9111111111111111,0.6134002149767108,0.3965198074787116,0.13193885760257443
vlswiki,False,62.0,0.07367475292003593,0.9111111111111111,0.6277319957004658,0.38171047760088855,0.1363258520365752
vlswiki,False,63.0,0.07816968541468065,0.9111111111111111,0.6506628448584737,0.35801554979637173,0.14398595258999122
vlswiki,False,64.0,0.08359133126934984,0.9,0.6786098172697957,0.3287671232876712,0.1529745042492918
vlswiki,False,65.0,0.08950276243093923,0.9,0.7015406664278037,0.3050721954831544,0.1628140703517588
vlswiki,False,66.0,0.09551886792452831,0.9,0.7219634539591544,0.2839689004072566,0.17270788912579957
vlswiki,False,67.0,0.10279187817258884,0.9,0.7434611250447868,0.261754905590522,0.1845102505694761
vlswiki,False,68.0,0.11095505617977527,0.8777777777777778,0.7692583303475456,0.23435764531654943,0.1970074812967581
vlswiki,False,69.0,0.11544227886056972,0.8555555555555555,0.7839484055893945,0.21843761569788966,0.20343461030383092
vlswiki,False,70.0,0.11661341853035144,0.8111111111111111,0.7957721246864923,0.20473898556090336,0.20391061452513967
vlswiki,False,71.0,0.12372881355932204,0.8111111111111111,0.8086707273378717,0.19141058867086264,0.2147058823529412
vlswiki,False,72.0,0.12857142857142856,0.8,0.8187029738445002,0.18067382450944094,0.22153846153846152
vlswiki,False,73.0,0.14035087719298245,0.8,0.8355428161949122,0.1632728619029989,0.23880597014925373
vlswiki,False,74.0,0.1506276150627615,0.8,0.8480831243281978,0.15031469825990373,0.25352112676056343
vlswiki,False,75.0,0.1592920353982301,0.8,0.8573987817986385,0.14068863383931876,0.2656826568265682
vlswiki,False,76.0,0.17121588089330025,0.7666666666666667,0.872805446076675,0.12365790447982229,0.27991886409736305
vlswiki,False,77.0,0.1954674220963173,0.7666666666666667,0.8907201719813687,0.1051462421325435,0.3115124153498871
vlswiki,False,78.0,0.19881305637982197,0.7444444444444445,0.8950197061984951,0.09996297667530545,0.3138173302107729
vlswiki,False,79.0,0.2126984126984127,0.7444444444444445,0.9029021855965603,0.09181784524250278,0.3308641975308642
vlswiki,False,80.0,0.23344947735191637,0.7444444444444445,0.9129344321031888,0.08145131432802666,0.35543766578249336
vlswiki,False,81.0,0.2558139534883721,0.7333333333333333,0.9226083840917234,0.07108478341355054,0.3793103448275862
vlswiki,False,82.0,0.26720647773279355,0.7333333333333333,0.926549623790756,0.0670122176971492,0.39169139465875374
vlswiki,False,83.0,0.2894736842105263,0.7333333333333333,0.9333572196345395,0.05997778600518327,0.4150943396226416
vlswiki,False,84.0,0.29906542056074764,0.7111111111111111,0.9369401648154784,0.055534987041836355,0.4210526315789474
vlswiki,False,85.0,0.3181818181818182,0.7,0.9419562880687925,0.04998148833765272,0.4375
vlswiki,False,86.0,0.3235294117647059,0.6111111111111112,0.946255822285919,0.042576823398741206,0.42307692307692313
vlswiki,False,87.0,0.3722627737226277,0.5666666666666667,0.9552131852382658,0.03184005923731951,0.44933920704845814
vlswiki,False,88.0,0.37209302325581395,0.5333333333333333,0.9559297742744536,0.029988893002591634,0.4383561643835616
vlswiki,False,89.0,0.41904761904761906,0.4888888888888889,0.9616624865639556,0.022584228063680118,0.4512820512820513
vlswiki,False,90.0,0.45348837209302323,0.43333333333333335,0.9648871372268004,0.01740096260644206,0.4431818181818182
vlswiki,False,91.0,0.49295774647887325,0.3888888888888889,0.9673951988534576,0.013328396890040726,0.4347826086956522
vlswiki,False,92.0,0.6078431372549019,0.34444444444444444,0.9716947330705841,0.0074046649389115145,0.4397163120567376
vlswiki,False,93.0,0.7105263157894737,0.3,0.9734862056610534,0.004072565716401333,0.421875
vlswiki,False,94.0,0.7307692307692307,0.2111111111111111,0.9720530275886778,0.00259163272861903,0.3275862068965517
vlswiki,False,95.0,0.8,0.13333333333333333,0.9709781440343963,0.0011106997408367272,0.2285714285714286
vlswiki,False,96.0,0.8181818181818182,0.1,0.9702615549982085,0.0007404664938911515,0.17821782178217824
vlswiki,False,97.0,1.0,0.1,0.9709781440343963,0.0,0.18181818181818182
vlswiki,False,98.0,1.0,0.07777777777777778,0.9702615549982085,0.0,0.1443298969072165
vlswiki,False,99.0,1.0,0.011111111111111112,0.9681117878896452,0.0,0.02197802197802198
