wiki_db,user_is_bot,threshold,precision,recall,accuracy,fpr,F1
xhwiki,True,0.0,0.125,1.0,0.125,1.0,0.2222222222222222
xhwiki,True,1.0,0.125,1.0,0.125,1.0,0.2222222222222222
xhwiki,True,2.0,0.125,1.0,0.125,1.0,0.2222222222222222
xhwiki,True,3.0,0.125,1.0,0.125,1.0,0.2222222222222222
xhwiki,True,4.0,0.125,1.0,0.125,1.0,0.2222222222222222
xhwiki,True,5.0,0.125,1.0,0.125,1.0,0.2222222222222222
xhwiki,True,6.0,0.125,1.0,0.125,1.0,0.2222222222222222
xhwiki,True,7.0,0.125,1.0,0.125,1.0,0.2222222222222222
xhwiki,True,8.0,0.125,1.0,0.125,1.0,0.2222222222222222
xhwiki,True,9.0,0.125,1.0,0.125,1.0,0.2222222222222222
xhwiki,True,10.0,0.125,1.0,0.125,1.0,0.2222222222222222
xhwiki,True,11.0,0.125,1.0,0.125,1.0,0.2222222222222222
xhwiki,True,12.0,0.125,1.0,0.125,1.0,0.2222222222222222
xhwiki,True,13.0,0.125,1.0,0.125,1.0,0.2222222222222222
xhwiki,True,14.0,0.125,1.0,0.125,1.0,0.2222222222222222
xhwiki,True,15.0,0.13333333333333333,1.0,0.1875,0.9285714285714286,0.23529411764705882
xhwiki,True,16.0,0.13333333333333333,1.0,0.1875,0.9285714285714286,0.23529411764705882
xhwiki,True,17.0,0.13333333333333333,1.0,0.1875,0.9285714285714286,0.23529411764705882
xhwiki,True,18.0,0.13333333333333333,1.0,0.1875,0.9285714285714286,0.23529411764705882
xhwiki,True,19.0,0.13333333333333333,1.0,0.1875,0.9285714285714286,0.23529411764705882
xhwiki,True,20.0,0.13333333333333333,1.0,0.1875,0.9285714285714286,0.23529411764705882
xhwiki,True,21.0,0.13333333333333333,1.0,0.1875,0.9285714285714286,0.23529411764705882
xhwiki,True,22.0,0.13333333333333333,1.0,0.1875,0.9285714285714286,0.23529411764705882
xhwiki,True,23.0,0.13333333333333333,1.0,0.1875,0.9285714285714286,0.23529411764705882
xhwiki,True,24.0,0.13333333333333333,1.0,0.1875,0.9285714285714286,0.23529411764705882
xhwiki,True,25.0,0.13333333333333333,1.0,0.1875,0.9285714285714286,0.23529411764705882
xhwiki,True,26.0,0.13333333333333333,1.0,0.1875,0.9285714285714286,0.23529411764705882
xhwiki,True,27.0,0.13333333333333333,1.0,0.1875,0.9285714285714286,0.23529411764705882
xhwiki,True,28.0,0.13333333333333333,1.0,0.1875,0.9285714285714286,0.23529411764705882
xhwiki,True,29.0,0.13333333333333333,1.0,0.1875,0.9285714285714286,0.23529411764705882
xhwiki,True,30.0,0.13333333333333333,1.0,0.1875,0.9285714285714286,0.23529411764705882
xhwiki,True,31.0,0.14285714285714285,1.0,0.25,0.8571428571428571,0.25
xhwiki,True,32.0,0.14285714285714285,1.0,0.25,0.8571428571428571,0.25
xhwiki,True,33.0,0.16666666666666666,1.0,0.375,0.7142857142857143,0.2857142857142857
xhwiki,True,34.0,0.16666666666666666,1.0,0.375,0.7142857142857143,0.2857142857142857
xhwiki,True,35.0,0.2,1.0,0.5,0.5714285714285714,0.33333333333333337
xhwiki,True,36.0,0.2,1.0,0.5,0.5714285714285714,0.33333333333333337
xhwiki,True,37.0,0.2222222222222222,1.0,0.5625,0.5,0.3636363636363636
xhwiki,True,38.0,0.25,1.0,0.625,0.42857142857142855,0.4
xhwiki,True,39.0,0.25,1.0,0.625,0.42857142857142855,0.4
xhwiki,True,40.0,0.2857142857142857,1.0,0.6875,0.35714285714285715,0.4444444444444445
xhwiki,True,41.0,0.3333333333333333,1.0,0.75,0.2857142857142857,0.5
xhwiki,True,42.0,0.4,1.0,0.8125,0.21428571428571427,0.5714285714285715
xhwiki,True,43.0,0.4,1.0,0.8125,0.21428571428571427,0.5714285714285715
xhwiki,True,44.0,0.4,1.0,0.8125,0.21428571428571427,0.5714285714285715
xhwiki,True,45.0,0.4,1.0,0.8125,0.21428571428571427,0.5714285714285715
xhwiki,True,46.0,0.4,1.0,0.8125,0.21428571428571427,0.5714285714285715
xhwiki,True,47.0,0.4,1.0,0.8125,0.21428571428571427,0.5714285714285715
xhwiki,True,48.0,0.4,1.0,0.8125,0.21428571428571427,0.5714285714285715
xhwiki,True,49.0,0.4,1.0,0.8125,0.21428571428571427,0.5714285714285715
xhwiki,True,50.0,0.4,1.0,0.8125,0.21428571428571427,0.5714285714285715
xhwiki,True,51.0,0.4,1.0,0.8125,0.21428571428571427,0.5714285714285715
xhwiki,True,52.0,0.4,1.0,0.8125,0.21428571428571427,0.5714285714285715
xhwiki,True,53.0,0.4,1.0,0.8125,0.21428571428571427,0.5714285714285715
xhwiki,True,54.0,0.4,1.0,0.8125,0.21428571428571427,0.5714285714285715
xhwiki,True,55.0,0.4,1.0,0.8125,0.21428571428571427,0.5714285714285715
xhwiki,True,56.0,0.4,1.0,0.8125,0.21428571428571427,0.5714285714285715
xhwiki,True,57.0,0.4,1.0,0.8125,0.21428571428571427,0.5714285714285715
xhwiki,True,58.0,0.4,1.0,0.8125,0.21428571428571427,0.5714285714285715
xhwiki,True,59.0,0.4,1.0,0.8125,0.21428571428571427,0.5714285714285715
xhwiki,True,60.0,0.4,1.0,0.8125,0.21428571428571427,0.5714285714285715
xhwiki,True,61.0,0.4,1.0,0.8125,0.21428571428571427,0.5714285714285715
xhwiki,True,62.0,0.5,1.0,0.875,0.14285714285714285,0.6666666666666666
xhwiki,True,63.0,0.6666666666666666,1.0,0.9375,0.07142857142857142,0.8
xhwiki,True,64.0,0.6666666666666666,1.0,0.9375,0.07142857142857142,0.8
xhwiki,True,65.0,0.6666666666666666,1.0,0.9375,0.07142857142857142,0.8
xhwiki,True,66.0,1.0,1.0,1.0,0.0,1.0
xhwiki,True,67.0,1.0,1.0,1.0,0.0,1.0
xhwiki,True,68.0,1.0,1.0,1.0,0.0,1.0
xhwiki,True,69.0,1.0,1.0,1.0,0.0,1.0
xhwiki,True,70.0,1.0,1.0,1.0,0.0,1.0
xhwiki,True,71.0,1.0,1.0,1.0,0.0,1.0
xhwiki,True,72.0,1.0,1.0,1.0,0.0,1.0
xhwiki,True,73.0,1.0,1.0,1.0,0.0,1.0
xhwiki,True,74.0,1.0,1.0,1.0,0.0,1.0
xhwiki,True,75.0,1.0,1.0,1.0,0.0,1.0
xhwiki,True,76.0,1.0,1.0,1.0,0.0,1.0
xhwiki,True,77.0,1.0,1.0,1.0,0.0,1.0
xhwiki,True,78.0,1.0,1.0,1.0,0.0,1.0
xhwiki,True,79.0,1.0,1.0,1.0,0.0,1.0
xhwiki,True,80.0,1.0,1.0,1.0,0.0,1.0
xhwiki,True,81.0,1.0,1.0,1.0,0.0,1.0
xhwiki,True,82.0,1.0,1.0,1.0,0.0,1.0
xhwiki,True,83.0,1.0,1.0,1.0,0.0,1.0
xhwiki,True,84.0,1.0,1.0,1.0,0.0,1.0
xhwiki,True,85.0,1.0,1.0,1.0,0.0,1.0
xhwiki,True,86.0,1.0,1.0,1.0,0.0,1.0
xhwiki,True,87.0,1.0,1.0,1.0,0.0,1.0
xhwiki,True,88.0,1.0,0.5,0.9375,0.0,0.6666666666666666
xhwiki,True,89.0,1.0,0.5,0.9375,0.0,0.6666666666666666
xhwiki,True,90.0,1.0,0.5,0.9375,0.0,0.6666666666666666
xhwiki,True,91.0,1.0,0.5,0.9375,0.0,0.6666666666666666
xhwiki,True,92.0,1.0,0.5,0.9375,0.0,0.6666666666666666
xhwiki,True,93.0,1.0,0.5,0.9375,0.0,0.6666666666666666
xhwiki,True,94.0,1.0,0.5,0.9375,0.0,0.6666666666666666
xhwiki,True,95.0,1.0,0.5,0.9375,0.0,0.6666666666666666
xhwiki,True,96.0,1.0,0.5,0.9375,0.0,0.6666666666666666
xhwiki,True,97.0,1.0,0.5,0.9375,0.0,0.6666666666666666
xhwiki,True,98.0,1.0,0.0,0.875,0.0,0.0
xhwiki,True,99.0,1.0,0.0,0.875,0.0,0.0
xhwiki,False,0.0,0.21895424836601307,1.0,0.21895424836601307,1.0,0.3592493297587131
xhwiki,False,1.0,0.21895424836601307,1.0,0.21895424836601307,1.0,0.3592493297587131
xhwiki,False,2.0,0.21895424836601307,1.0,0.21895424836601307,1.0,0.3592493297587131
xhwiki,False,3.0,0.21895424836601307,1.0,0.21895424836601307,1.0,0.3592493297587131
xhwiki,False,4.0,0.21895424836601307,1.0,0.21895424836601307,1.0,0.3592493297587131
xhwiki,False,5.0,0.21895424836601307,1.0,0.21895424836601307,1.0,0.3592493297587131
xhwiki,False,6.0,0.21895424836601307,1.0,0.21895424836601307,1.0,0.3592493297587131
xhwiki,False,7.0,0.21895424836601307,1.0,0.21895424836601307,1.0,0.3592493297587131
xhwiki,False,8.0,0.21895424836601307,1.0,0.21895424836601307,1.0,0.3592493297587131
xhwiki,False,9.0,0.21895424836601307,1.0,0.21895424836601307,1.0,0.3592493297587131
xhwiki,False,10.0,0.21895424836601307,1.0,0.21895424836601307,1.0,0.3592493297587131
xhwiki,False,11.0,0.21895424836601307,1.0,0.21895424836601307,1.0,0.3592493297587131
xhwiki,False,12.0,0.21895424836601307,1.0,0.21895424836601307,1.0,0.3592493297587131
xhwiki,False,13.0,0.21895424836601307,1.0,0.21895424836601307,1.0,0.3592493297587131
xhwiki,False,14.0,0.21895424836601307,1.0,0.21895424836601307,1.0,0.3592493297587131
xhwiki,False,15.0,0.22065868263473054,1.0,0.22667855020796196,0.9901103081019399,0.3615403482953152
xhwiki,False,16.0,0.22065868263473054,1.0,0.22667855020796196,0.9901103081019399,0.3615403482953152
xhwiki,False,17.0,0.22065868263473054,1.0,0.22667855020796196,0.9901103081019399,0.3615403482953152
xhwiki,False,18.0,0.22158749248346363,1.0,0.23083778966131907,0.9847850893875999,0.3627861186315531
xhwiki,False,19.0,0.22158749248346363,1.0,0.23083778966131907,0.9847850893875999,0.3627861186315531
xhwiki,False,20.0,0.22333333333333333,1.0,0.238562091503268,0.9748953974895398,0.36512261580381467
xhwiki,False,21.0,0.22421661089139033,1.0,0.24242424242424243,0.9699505515405097,0.3663021868787276
xhwiki,False,22.0,0.22517567980446074,1.0,0.24658348187759951,0.9646253328261697,0.3675810473815461
xhwiki,False,23.0,0.22517567980446074,1.0,0.24658348187759951,0.9646253328261697,0.3675810473815461
xhwiki,False,24.0,0.22517567980446074,1.0,0.24658348187759951,0.9646253328261697,0.3675810473815461
xhwiki,False,25.0,0.22517567980446074,1.0,0.24658348187759951,0.9646253328261697,0.3675810473815461
xhwiki,False,26.0,0.22517567980446074,1.0,0.24658348187759951,0.9646253328261697,0.3675810473815461
xhwiki,False,27.0,0.22718865598027127,1.0,0.2551990493166964,0.9535945226321796,0.37025872896257217
xhwiki,False,28.0,0.22923794712286158,1.0,0.2638146167557932,0.9425637124381894,0.3729757085020243
xhwiki,False,29.0,0.22923794712286158,1.0,0.2638146167557932,0.9425637124381894,0.3729757085020243
xhwiki,False,30.0,0.2311794228356336,1.0,0.2718360071301248,0.9322936477748194,0.3755414012738853
xhwiki,False,31.0,0.23396825396825396,1.0,0.28312537136066546,0.9178394826930392,0.3792127604836635
xhwiki,False,32.0,0.23591549295774647,1.0,0.2908496732026144,0.9079497907949791,0.3817663817663817
xhwiki,False,33.0,0.23797223119147562,1.0,0.29887106357694593,0.897679726131609,0.3844548774126239
xhwiki,False,34.0,0.23905287058060332,1.0,0.30303030303030304,0.892354507417269,0.3858638743455498
xhwiki,False,35.0,0.24187725631768953,1.0,0.3137254901960784,0.8786610878661087,0.38953488372093026
xhwiki,False,36.0,0.24420145791915177,1.0,0.3223410576351753,0.8676302776721186,0.39254327563249003
xhwiki,False,37.0,0.24632352941176472,1.0,0.3300653594771242,0.8577405857740585,0.3952802359882006
xhwiki,False,38.0,0.2476478494623656,1.0,0.33481877599524656,0.8516546215290985,0.39698357123619715
xhwiki,False,39.0,0.25136425648021826,1.0,0.3478906714200832,0.8349182198554583,0.4017443445080403
xhwiki,False,40.0,0.25608061153578876,1.0,0.3639334521687463,0.8143780905287181,0.4077455048409406
xhwiki,False,41.0,0.2596899224806202,1.0,0.3758169934640523,0.799163179916318,0.4123076923076923
xhwiki,False,42.0,0.26349660350375403,1.0,0.3879976232917409,0.7835678965386078,0.41709111488398415
xhwiki,False,43.0,0.26349660350375403,1.0,0.3879976232917409,0.7835678965386078,0.41709111488398415
xhwiki,False,44.0,0.26349660350375403,1.0,0.3879976232917409,0.7835678965386078,0.41709111488398415
xhwiki,False,45.0,0.2649173256649892,1.0,0.3924539512774807,0.7778623050589578,0.41886899687411194
xhwiki,False,46.0,0.26625722543352603,1.0,0.3966131907308378,0.7725370863446177,0.4205420827389444
xhwiki,False,47.0,0.268978102189781,1.0,0.404931669637552,0.7618866489159376,0.42392867414437735
xhwiki,False,48.0,0.268978102189781,1.0,0.404931669637552,0.7618866489159376,0.42392867414437735
xhwiki,False,49.0,0.268978102189781,1.0,0.404931669637552,0.7618866489159376,0.42392867414437735
xhwiki,False,50.0,0.268978102189781,1.0,0.404931669637552,0.7618866489159376,0.42392867414437735
xhwiki,False,51.0,0.2703595011005136,1.0,0.4090909090909091,0.7565614302015976,0.42564250649725677
xhwiki,False,52.0,0.2718554039099963,1.0,0.41354723707664887,0.7508558387219475,0.42749419953596285
xhwiki,False,53.0,0.2732665925101965,1.0,0.4177064765300059,0.7455306200076075,0.42923704135119395
xhwiki,False,54.0,0.27769404672192916,1.0,0.4304812834224599,0.7291745910992773,0.4346800353877912
xhwiki,False,55.0,0.2792724516862448,1.0,0.43493761140819964,0.7234689996196272,0.43661137440758296
xhwiki,False,56.0,0.2809759817003431,1.0,0.43969102792632203,0.7173830353746672,0.4386904761904762
xhwiki,False,57.0,0.2838983050847458,1.0,0.4477124183006536,0.7071129707112971,0.4422442244224423
xhwiki,False,58.0,0.28565891472868216,1.0,0.452465834818776,0.701027006466337,0.4443774495025626
xhwiki,False,59.0,0.28879310344827586,1.0,0.46078431372549017,0.6903765690376569,0.4481605351170569
xhwiki,False,60.0,0.2863366336633663,0.9810040705563093,0.46048722519310753,0.6854317230886269,0.44328632740649904
xhwiki,False,61.0,0.2898957497995188,0.9810040705563093,0.4696969696969697,0.6736401673640168,0.44753946146703805
xhwiki,False,62.0,0.2915322580645161,0.9810040705563093,0.4738562091503268,0.6683149486496767,0.449487099782406
xhwiki,False,63.0,0.2981443298969072,0.9810040705563093,0.49019607843137253,0.6473944465576265,0.45730550284629984
xhwiki,False,64.0,0.30493462673977223,0.9810040705563093,0.5062388591800356,0.6268543172308862,0.4652509652509652
xhwiki,False,65.0,0.3125810635538262,0.9810040705563093,0.5234699940582294,0.604792696842906,0.4740983606557377
xhwiki,False,66.0,0.31654991243432573,0.9810040705563093,0.5320855614973262,0.5937618866489159,0.47864945382323737
xhwiki,False,67.0,0.31977001326846527,0.9810040705563093,0.5389185977421271,0.5850133130467858,0.48232154769846564
xhwiki,False,68.0,0.3268535262206148,0.9810040705563093,0.553475935828877,0.5663750475465956,0.4903357070193286
xhwiki,False,69.0,0.33180357962368057,0.9810040705563093,0.5632798573975044,0.5538227462913655,0.4958847736625514
xhwiki,False,70.0,0.3508005822416303,0.9810040705563093,0.5983363042186571,0.5089387599847851,0.5167977126518942
xhwiki,False,71.0,0.3528550512445095,0.9810040705563093,0.6019013666072489,0.504374286801065,0.5190236898779612
xhwiki,False,72.0,0.3554572271386431,0.9810040705563093,0.6063576945929887,0.498668695321415,0.5218332731865752
xhwiki,False,73.0,0.3577436912419594,0.9810040705563093,0.6102198455139631,0.49372384937238495,0.5242929659173314
xhwiki,False,74.0,0.35761254425897826,0.9592944369063772,0.6137849079025549,0.48307341194370484,0.5210022107590273
xhwiki,False,75.0,0.36575271598551473,0.9592944369063772,0.6268568033273916,0.4663370102700647,0.5295880149812734
xhwiki,False,76.0,0.37218045112781956,0.9402985074626866,0.6396316102198455,0.4446557626473944,0.5332820315505965
xhwiki,False,77.0,0.3752030319436925,0.9402985074626866,0.6440879382055853,0.4389501711677444,0.5363777089783281
xhwiki,False,78.0,0.37827510917030566,0.9402985074626866,0.648544266191325,0.4332445796880943,0.5395095367847411
xhwiki,False,79.0,0.39645308924485123,0.9402985074626866,0.6734997029114677,0.401293267402054,0.5577464788732395
xhwiki,False,80.0,0.40661359461114516,0.9009497964721845,0.6904337492572786,0.3685812095853937,0.560337552742616
xhwiki,False,81.0,0.42051931602279924,0.9009497964721845,0.7064765300059418,0.3480410802586535,0.5734024179620034
xhwiki,False,82.0,0.43411371237458196,0.8805970149253731,0.7225193107546048,0.32179535945226323,0.5815412186379928
xhwiki,False,83.0,0.44452397995705084,0.8426051560379919,0.7349970291146761,0.29516926588056297,0.5820056232427366
xhwiki,False,84.0,0.462397617274758,0.8426051560379919,0.7510398098633393,0.27462913655382276,0.5971153846153846
xhwiki,False,85.0,0.47549770290964777,0.8426051560379919,0.7620320855614974,0.2605553442373526,0.6079295154185022
xhwiki,False,86.0,0.48484848484848486,0.8032564450474898,0.7700534759358288,0.2392544693799924,0.6046986721144024
xhwiki,False,87.0,0.5004541326067211,0.7476255088195387,0.7813428401663696,0.20920502092050208,0.5995647442872687
xhwiki,False,88.0,0.515495867768595,0.6770691994572592,0.7899584076054664,0.1783948269303918,0.5853372434017594
xhwiki,False,89.0,0.5748847926267281,0.6770691994572592,0.8196672608437314,0.1403575503993914,0.6218068535825546
xhwiki,False,90.0,0.5488997555012225,0.6092265943012212,0.8048128342245989,0.1403575503993914,0.577491961414791
xhwiki,False,91.0,0.5596919127086007,0.5915875169606513,0.8086749851455733,0.1304678585013313,0.575197889182058
xhwiki,False,92.0,0.5414285714285715,0.514246947082768,0.7982768865121807,0.12209965766451122,0.5274878218510786
xhwiki,False,93.0,0.5026833631484794,0.3812754409769335,0.7819370172311348,0.10574362875618105,0.43364197530864196
xhwiki,False,94.0,0.4261904761904762,0.24287652645861602,0.7626262626262627,0.09166983643971091,0.3094209161624892
xhwiki,False,95.0,0.4419753086419753,0.24287652645861602,0.7670825906120023,0.08596424496006086,0.3134851138353765
xhwiki,False,96.0,0.36329588014981273,0.13161465400271372,0.7593582887700535,0.06466337010270065,0.19322709163346616
xhwiki,False,97.0,0.3313253012048193,0.07462686567164178,0.7644087938205585,0.04222137694941042,0.12181616832779622
xhwiki,False,98.0,0.4421052631578947,0.05698778833107191,0.7777777777777778,0.020159756561430202,0.10096153846153845
xhwiki,False,99.0,0.75,0.05698778833107191,0.7893642305407012,0.005325218714340053,0.10592686002522068
