wiki_db,user_is_bot,threshold,precision,recall,accuracy,fpr,F1
yowiki,True,0.0,0.01764705882352941,1.0,0.01764705882352941,1.0,0.034682080924855495
yowiki,True,1.0,0.01764705882352941,1.0,0.01764705882352941,1.0,0.034682080924855495
yowiki,True,2.0,0.01764705882352941,1.0,0.01764705882352941,1.0,0.034682080924855495
yowiki,True,3.0,0.01768172888015717,1.0,0.0196078431372549,0.998003992015968,0.03474903474903475
yowiki,True,4.0,0.017810026385224276,1.0,0.02679738562091503,0.9906852960745176,0.03499675955930007
yowiki,True,5.0,0.018163471241170535,1.0,0.04607843137254902,0.9710578842315369,0.0356788899900892
yowiki,True,6.0,0.018460466736328805,0.9814814814814815,0.07875816993464052,0.9374584165003327,0.036239316239316234
yowiki,True,7.0,0.01842485549132948,0.9444444444444444,0.1111111111111111,0.9038589487691284,0.03614457831325302
yowiki,True,8.0,0.019101123595505618,0.9444444444444444,0.14313725490196078,0.8712574850299402,0.037444933920704845
yowiki,True,9.0,0.019342359767891684,0.9259259259259259,0.17026143790849674,0.843313373253493,0.037893141341417205
yowiki,True,10.0,0.019936204146730464,0.9259259259259259,0.1954248366013072,0.8176979374584165,0.039032006245121
yowiki,True,11.0,0.020525451559934318,0.9259259259259259,0.21895424836601307,0.7937458416500333,0.040160642570281124
yowiki,True,12.0,0.02107037505267594,0.9259259259259259,0.23954248366013073,0.7727877578176979,0.04120313143798929
yowiki,True,13.0,0.021166306695464362,0.9074074074074074,0.257843137254902,0.7538256819693946,0.041367665681722246
yowiki,True,14.0,0.021447721179624665,0.8888888888888888,0.2823529411764706,0.7285429141716567,0.041884816753926704
yowiki,True,15.0,0.02197802197802198,0.8888888888888888,0.3,0.7105788423153693,0.04289544235924933
yowiki,True,16.0,0.02263083451202263,0.8888888888888888,0.3205882352941177,0.689620758483034,0.04413793103448276
yowiki,True,17.0,0.023107177974434612,0.8703703703703703,0.3483660130718954,0.6610113107119095,0.045019157088122604
yowiki,True,18.0,0.023547094188376753,0.8703703703703703,0.3607843137254902,0.6483699268130406,0.045853658536585365
yowiki,True,19.0,0.02431453698913606,0.8703703703703703,0.3813725490196078,0.6274118429807053,0.04730749874182184
yowiki,True,20.0,0.024455077086656035,0.8518518518518519,0.39771241830065357,0.6104457751164338,0.04754521963824289
yowiki,True,21.0,0.025136612021857924,0.8518518518518519,0.4143790849673203,0.5934797072521624,0.04883227176220807
yowiki,True,22.0,0.025323579065841307,0.8333333333333334,0.43104575163398695,0.5761809713905522,0.04915346805024577
yowiki,True,23.0,0.025847214244686962,0.8333333333333334,0.44281045751633985,0.5642049234863606,0.05013927576601672
yowiki,True,24.0,0.026501766784452298,0.8333333333333334,0.4568627450980392,0.5499001996007984,0.051369863013698634
yowiki,True,25.0,0.0272892662219527,0.8333333333333334,0.47287581699346404,0.5335994677312043,0.052847915443335294
yowiki,True,26.0,0.027846534653465347,0.8333333333333334,0.48366013071895425,0.5226214238190287,0.05389221556886228
yowiki,True,27.0,0.0280970625798212,0.8148148148148148,0.4993464052287582,0.5063206919494344,0.05432098765432098
yowiki,True,28.0,0.028890347997373604,0.8148148148148148,0.5133986928104575,0.49201596806387227,0.05580215599239061
yowiki,True,29.0,0.02956989247311828,0.8148148148148148,0.5248366013071896,0.4803725881570193,0.057068741893644616
yowiki,True,30.0,0.030576789437109102,0.8148148148148148,0.5408496732026143,0.46407185628742514,0.058941728064300064
yowiki,True,31.0,0.03131672597864769,0.8148148148148148,0.5519607843137255,0.4527611443779108,0.06031528444139822
yowiki,True,32.0,0.030456852791878174,0.7777777777777778,0.5591503267973856,0.4447771124417831,0.05861828332170272
yowiki,True,33.0,0.03136669156086632,0.7777777777777778,0.5722222222222222,0.4314703925482369,0.06030150753768845
yowiki,True,34.0,0.031635802469135804,0.7592592592592593,0.5856209150326798,0.4174983366600133,0.06074074074074075
yowiki,True,35.0,0.03194888178913738,0.7407407407407407,0.5993464052287582,0.4031936127744511,0.061255742725880545
yowiki,True,36.0,0.03273322422258593,0.7407407407407407,0.6091503267973856,0.3932135728542914,0.06269592476489029
yowiki,True,37.0,0.03386960203217612,0.7407407407407407,0.6225490196078431,0.3795741849634065,0.06477732793522267
yowiki,True,38.0,0.03499562554680665,0.7407407407407407,0.6349673202614379,0.3669328010645376,0.06683375104427736
yowiki,True,39.0,0.036231884057971016,0.7407407407407407,0.6477124183006536,0.35395874916833003,0.0690846286701209
yowiki,True,40.0,0.03755868544600939,0.7407407407407407,0.6604575163398693,0.34098469727212244,0.07149240393208221
yowiki,True,41.0,0.03902439024390244,0.7407407407407407,0.6735294117647059,0.3276779773785762,0.07414272474513438
yowiki,True,42.0,0.04008016032064128,0.7407407407407407,0.6823529411764706,0.31869594145043245,0.07604562737642584
yowiki,True,43.0,0.040983606557377046,0.7407407407407407,0.6895424836601307,0.31137724550898205,0.07766990291262135
yowiki,True,44.0,0.042735042735042736,0.7407407407407407,0.7026143790849673,0.2980705256154358,0.08080808080808083
yowiki,True,45.0,0.044593088071348944,0.7407407407407407,0.715359477124183,0.2850964737192282,0.08412197686645637
yowiki,True,46.0,0.046189376443418015,0.7407407407407407,0.7254901960784313,0.27478376580172986,0.08695652173913043
yowiki,True,47.0,0.04756242568370987,0.7407407407407407,0.7336601307189542,0.26646706586826346,0.0893854748603352
yowiki,True,48.0,0.049937578027465665,0.7407407407407407,0.7467320261437909,0.2531603459747172,0.0935672514619883
yowiki,True,49.0,0.05235602094240838,0.7407407407407407,0.7588235294117647,0.24085163007318697,0.097799511002445
yowiki,True,50.0,0.054274084124830396,0.7407407407407407,0.7676470588235295,0.23186959414504324,0.10113780025284451
yowiki,True,51.0,0.056577086280056574,0.7407407407407407,0.7774509803921569,0.22188955422488357,0.10512483574244416
yowiki,True,52.0,0.05813953488372093,0.7407407407407407,0.7836601307189542,0.2155688622754491,0.10781671159029649
yowiki,True,53.0,0.05963302752293578,0.7222222222222222,0.7941176470588235,0.20459081836327345,0.11016949152542374
yowiki,True,54.0,0.06320907617504051,0.7222222222222222,0.8062091503267974,0.19228210246174318,0.11624441132637853
yowiki,True,55.0,0.06397306397306397,0.7037037037037037,0.8130718954248366,0.18496340652029275,0.11728395061728394
yowiki,True,56.0,0.06631762652705062,0.7037037037037037,0.8199346405228758,0.17797737857618098,0.12121212121212122
yowiki,True,57.0,0.07011070110701106,0.7037037037037037,0.8300653594771242,0.16766467065868262,0.12751677852348994
yowiki,True,58.0,0.07450980392156863,0.7037037037037037,0.8405228758169935,0.15701929474384566,0.1347517730496454
yowiki,True,59.0,0.07597535934291581,0.6851851851851852,0.8473856209150327,0.1497005988023952,0.1367837338262477
yowiki,True,60.0,0.07643312101910828,0.6666666666666666,0.8519607843137255,0.14471057884231536,0.13714285714285715
yowiki,True,61.0,0.08035714285714286,0.6666666666666666,0.8594771241830066,0.1370592149035263,0.14342629482071714
yowiki,True,62.0,0.0851581508515815,0.6481481481481481,0.8709150326797386,0.12508316699933467,0.15053763440860213
yowiki,True,63.0,0.09020618556701031,0.6481481481481481,0.8784313725490196,0.11743180306054557,0.1583710407239819
yowiki,True,64.0,0.09722222222222222,0.6481481481481481,0.8875816993464052,0.1081170991350632,0.16908212560386474
yowiki,True,65.0,0.10479041916167664,0.6481481481481481,0.8960784313725491,0.09946773120425816,0.18041237113402062
yowiki,True,66.0,0.11326860841423948,0.6481481481481481,0.9042483660130719,0.09115103127079174,0.1928374655647383
yowiki,True,67.0,0.11945392491467577,0.6481481481481481,0.9094771241830065,0.08582834331337326,0.20172910662824206
yowiki,True,68.0,0.13011152416356878,0.6481481481481481,0.9173202614379085,0.07784431137724551,0.21671826625387
yowiki,True,69.0,0.13671875,0.6481481481481481,0.9215686274509803,0.07351962741184298,0.22580645161290322
yowiki,True,70.0,0.1440329218106996,0.6481481481481481,0.9258169934640523,0.06919494344644045,0.2356902356902357
yowiki,True,71.0,0.14655172413793102,0.6296296296296297,0.9287581699346406,0.0658682634730539,0.23776223776223773
yowiki,True,72.0,0.15315315315315314,0.6296296296296297,0.9320261437908497,0.06254158349966733,0.24637681159420288
yowiki,True,73.0,0.16113744075829384,0.6296296296296297,0.9356209150326797,0.05888223552894212,0.25660377358490566
yowiki,True,74.0,0.17435897435897435,0.6296296296296297,0.9408496732026144,0.05355954757152362,0.27309236947791166
yowiki,True,75.0,0.18579234972677597,0.6296296296296297,0.9447712418300653,0.049567531603459745,0.28691983122362874
yowiki,True,76.0,0.20238095238095238,0.6296296296296297,0.949673202614379,0.044577511643379905,0.3063063063063063
yowiki,True,77.0,0.2125,0.6296296296296297,0.9522875816993464,0.041916167664670656,0.3177570093457944
yowiki,True,78.0,0.22666666666666666,0.6296296296296297,0.9555555555555556,0.0385894876912841,0.3333333333333333
yowiki,True,79.0,0.23076923076923078,0.6111111111111112,0.9571895424836602,0.036593479707252165,0.3350253807106599
yowiki,True,80.0,0.25,0.6111111111111112,0.9607843137254902,0.03293413173652695,0.3548387096774194
yowiki,True,81.0,0.2578125,0.6111111111111112,0.9620915032679739,0.031603459747172324,0.3626373626373626
yowiki,True,82.0,0.27586206896551724,0.5925925925925926,0.965359477124183,0.027944111776447105,0.3764705882352941
yowiki,True,83.0,0.28846153846153844,0.5555555555555556,0.9679738562091503,0.024617431803060547,0.37974683544303794
yowiki,True,84.0,0.3020833333333333,0.5370370370370371,0.9699346405228758,0.022288755821689953,0.38666666666666666
yowiki,True,85.0,0.30952380952380953,0.48148148148148145,0.9718954248366013,0.01929474384564205,0.37681159420289856
yowiki,True,86.0,0.32,0.4444444444444444,0.9735294117647059,0.016966067864271458,0.37209302325581395
yowiki,True,87.0,0.3181818181818182,0.3888888888888889,0.9745098039215686,0.014970059880239521,0.35000000000000003
yowiki,True,88.0,0.3389830508474576,0.37037037037037035,0.9761437908496732,0.012974051896207584,0.3539823008849557
yowiki,True,89.0,0.34615384615384615,0.3333333333333333,0.9771241830065359,0.011310711909514305,0.33962264150943394
yowiki,True,90.0,0.3488372093023256,0.2777777777777778,0.9781045751633987,0.009314703925482368,0.3092783505154639
yowiki,True,91.0,0.34210526315789475,0.24074074074074073,0.9784313725490196,0.0083166999334664,0.2826086956521739
yowiki,True,92.0,0.35294117647058826,0.2222222222222222,0.9790849673202614,0.007318695941450432,0.27272727272727276
yowiki,True,93.0,0.3103448275862069,0.16666666666666666,0.9787581699346405,0.00665335994677312,0.21686746987951805
yowiki,True,94.0,0.3181818181818182,0.12962962962962962,0.9797385620915032,0.00499001996007984,0.1842105263157895
yowiki,True,95.0,0.29411764705882354,0.09259259259259259,0.9800653594771241,0.003992015968063872,0.1408450704225352
yowiki,True,96.0,0.3333333333333333,0.09259259259259259,0.980718954248366,0.00332667997338656,0.14492753623188404
yowiki,True,97.0,0.3333333333333333,0.05555555555555555,0.9813725490196078,0.001996007984031936,0.09523809523809525
yowiki,True,98.0,0.5,0.05555555555555555,0.9823529411764705,0.000998003992015968,0.09999999999999999
yowiki,True,99.0,0.6,0.05555555555555555,0.9826797385620915,0.0006653359946773121,0.10169491525423728
yowiki,False,0.0,0.015962624099669066,1.0,0.015962624099669066,1.0,0.0314236443763173
yowiki,False,1.0,0.015962624099669066,1.0,0.015962624099669066,1.0,0.0314236443763173
yowiki,False,2.0,0.015962624099669066,1.0,0.015962624099669066,1.0,0.0314236443763173
yowiki,False,3.0,0.01598596354420509,1.0,0.017422620206346117,0.9985163204747775,0.03146886692890723
yowiki,False,4.0,0.016148089799133517,1.0,0.02744792680552852,0.9883283877349159,0.03178294573643411
yowiki,False,5.0,0.01659247268312424,1.0,0.05392252287327234,0.9614243323442137,0.032643312101910835
yowiki,False,6.0,0.017015430141619107,0.9817073170731707,0.09441308156511583,0.9199802176063304,0.033451070018699354
yowiki,False,7.0,0.01750330250990753,0.9695121951219512,0.13081565115826357,0.8827893175074184,0.03438581314878893
yowiki,False,8.0,0.01842623710742844,0.9695121951219512,0.1751021997274674,0.837784371909001,0.03616513135448652
yowiki,False,9.0,0.019107509977022614,0.9634146341463414,0.20994744014015962,0.8022749752720079,0.03747183683149531
yowiki,False,10.0,0.019931878390311592,0.9634146341463414,0.24323535137239635,0.7684470820969337,0.039055740946730935
yowiki,False,11.0,0.020789473684210528,0.9634146341463414,0.275063266497956,0.7361028684470821,0.04070066975785677
yowiki,False,12.0,0.021343549049117526,0.9512195121951219,0.3029978586723769,0.7075173095944609,0.04175030108390205
yowiki,False,13.0,0.021960895437801078,0.9451219512195121,0.3272337940432159,0.6827893175074184,0.042924397673774574
yowiki,False,14.0,0.02262044653349001,0.9390243902439024,0.35137239634027645,0.6581602373887241,0.04417670682730924
yowiki,False,15.0,0.022988505747126436,0.926829268292683,0.37006034650574265,0.6389713155291791,0.044864226682408505
yowiki,False,16.0,0.023955870764381403,0.926829268292683,0.3960482772045941,0.6125618199802176,0.046704562912889845
yowiki,False,17.0,0.024737876802096985,0.9207317073170732,0.4193108818376484,0.5888229475766568,0.048181238034460755
yowiki,False,18.0,0.025498142519419117,0.9207317073170732,0.43702550126532996,0.5708209693372898,0.04962208347025962
yowiki,False,19.0,0.026067179846046187,0.9085365853658537,0.4566867821685809,0.5506429277942632,0.05068027210884354
yowiki,False,20.0,0.026870007262164125,0.9024390243902439,0.4767373953669457,0.5301681503461919,0.05218617771509168
yowiki,False,21.0,0.027586206896551724,0.9024390243902439,0.4906560249172669,0.5160237388724036,0.05353590160969434
yowiki,False,22.0,0.027648878576952824,0.8719512195121951,0.5084679774187268,0.4974282888229476,0.05359820089955023
yowiki,False,23.0,0.028520143597925807,0.8719512195121951,0.5238466030757252,0.4818001978239367,0.0552336809578988
yowiki,False,24.0,0.028683450268262484,0.8475609756097561,0.5394198948802803,0.4655786350148368,0.055489021956087826
yowiki,False,25.0,0.02951794436186027,0.8475609756097561,0.5527545259879307,0.4520276953511375,0.057049045762364047
yowiki,False,26.0,0.030529321326597848,0.8475609756097561,0.567938485497372,0.436597428288823,0.058935764256942975
yowiki,False,27.0,0.031313818924438394,0.8414634146341463,0.5819544481214717,0.4222551928783383,0.0603806606869394
yowiki,False,28.0,0.032455315145813735,0.8414634146341463,0.5970410745571345,0.4069238377843719,0.0625
yowiki,False,29.0,0.03230472516875603,0.8170731707317073,0.6063850496398676,0.39703264094955487,0.06215213358070502
yowiki,False,30.0,0.032362459546925564,0.7926829268292683,0.6183570177146194,0.38447082096933727,0.06218607988519493
yowiki,False,31.0,0.033205619412515965,0.7926829268292683,0.6282849912400233,0.3743818001978239,0.06374111301789653
yowiki,False,32.0,0.0334290937581614,0.7804878048780488,0.6362663032898579,0.36607319485657763,0.06411219634360131
yowiki,False,33.0,0.03467894879436467,0.7804878048780488,0.6496982674712868,0.3524233432245302,0.06640726329442283
yowiki,False,34.0,0.034271384786848706,0.75,0.6586529102589059,0.34282888229475766,0.06554756195043965
yowiki,False,35.0,0.03414634146341464,0.725609756097561,0.667996885341639,0.3329376854599407,0.0652233488627021
yowiki,False,36.0,0.034137728075338436,0.7073170731707317,0.6758808643176951,0.32462908011869435,0.06513194834362718
yowiki,False,37.0,0.035290538484940674,0.7073170731707317,0.6866848355071054,0.3136498516320475,0.06722689075630252
yowiki,False,38.0,0.036318096430807766,0.7073170731707317,0.6957368113685031,0.30445103857566763,0.06908874329958309
yowiki,False,39.0,0.037467700258397935,0.7073170731707317,0.7052754525987931,0.29475766567754697,0.07116564417177915
yowiki,False,40.0,0.037383177570093455,0.6829268292682927,0.7142300953864124,0.28526211671612267,0.07088607594936708
yowiki,False,41.0,0.03867403314917127,0.6829268292682927,0.7239634027642593,0.27537091988130563,0.07320261437908497
yowiki,False,42.0,0.039843472073995016,0.6829268292682927,0.7322367140354292,0.2669634025717112,0.07529411764705883
yowiki,False,43.0,0.04014732965009208,0.6646341463414634,0.7409966906754916,0.2577645895153314,0.07572073636679404
yowiki,False,44.0,0.04149219642177389,0.6646341463414634,0.7495620011679969,0.24906033630069238,0.07810820494446435
yowiki,False,45.0,0.04279544562230075,0.6646341463414634,0.7573486470702745,0.24114737883283877,0.08041313168572482
yowiki,False,46.0,0.04409385113268608,0.6646341463414634,0.7646486276036597,0.23372898120672603,0.082701062215478
yowiki,False,47.0,0.045568561872909696,0.6646341463414634,0.7724352735059373,0.2258160237388724,0.08528951486697965
yowiki,False,48.0,0.047619047619047616,0.6646341463414634,0.7824605801051198,0.21562809099901087,0.08887077048512025
yowiki,False,49.0,0.04846014492753623,0.6524390243902439,0.7899552267860619,0.20781404549950544,0.09021922428330521
yowiki,False,50.0,0.048745858968291526,0.6280487804878049,0.7984232042047887,0.19881305637982197,0.09046991655687307
yowiki,False,51.0,0.05073891625615764,0.6280487804878049,0.8065018493284017,0.19060336300692385,0.09389243391066544
yowiki,False,52.0,0.051954732510288065,0.6158536585365854,0.8144831613782363,0.18229475766567754,0.09582542694497154
yowiki,False,53.0,0.05390835579514825,0.6097560975609756,0.8229511387969632,0.17359050445103857,0.09905894006934125
yowiki,False,54.0,0.05640157924421884,0.6097560975609756,0.8309324508467978,0.1654797230464886,0.10325245224574083
yowiki,False,55.0,0.05789473684210526,0.6036585365853658,0.8368697683472844,0.15934718100890208,0.10565635005336178
yowiki,False,56.0,0.06029232643118149,0.6036585365853658,0.8434884173642203,0.1526211671612265,0.10963455149501661
yowiki,False,57.0,0.06309751434034416,0.6036585365853658,0.8505937317500487,0.14540059347181009,0.1142527409117138
yowiki,False,58.0,0.06608811748998665,0.6036585365853658,0.8575043799883201,0.13837784371909,0.1191335740072202
yowiki,False,59.0,0.06699232379623168,0.5853658536585366,0.8632470313412498,0.13224530168150347,0.12022542266750158
yowiki,False,60.0,0.06939371804236669,0.5792682926829268,0.8692816819155149,0.12601384767556875,0.12393998695368558
yowiki,False,61.0,0.0730207532667179,0.5792682926829268,0.8759003309324509,0.11928783382789318,0.12969283276450513
yowiki,False,62.0,0.07704918032786885,0.573170731707317,0.88358964376095,0.11137487636003957,0.13583815028901733
yowiki,False,63.0,0.08017241379310344,0.5670731707317073,0.8892349620401012,0.10553907022749753,0.1404833836858006
yowiki,False,64.0,0.08157653528872594,0.5426829268292683,0.8951722795405879,0.09910979228486647,0.14183266932270916
yowiki,False,65.0,0.08565928777670838,0.5426829268292683,0.9002335993770684,0.09396636993076163,0.1479634247714048
yowiki,False,66.0,0.09017223910840932,0.5426829268292683,0.9052949192135488,0.08882294757665678,0.15464813205907907
yowiki,False,67.0,0.09361702127659574,0.5365853658536586,0.9096749075335799,0.08427299703264095,0.15942028985507245
yowiki,False,68.0,0.09887640449438202,0.5365853658536586,0.9145415612225034,0.07932739861523244,0.1669829222011385
yowiki,False,69.0,0.102803738317757,0.5365853658536586,0.9178508857309714,0.07596439169139466,0.17254901960784313
yowiki,False,70.0,0.10687960687960688,0.5304878048780488,0.9217442086821102,0.07190900098911969,0.17791411042944785
yowiki,False,71.0,0.10866752910737387,0.5121951219512195,0.9251508662643566,0.06815034619188921,0.1792956243329776
yowiki,False,72.0,0.1126005361930295,0.5121951219512195,0.9277788592563753,0.06547972304648862,0.18461538461538463
yowiki,False,73.0,0.11789772727272728,0.5060975609756098,0.9316721822075141,0.06142433234421365,0.1912442396313364
yowiki,False,74.0,0.12369597615499255,0.5060975609756098,0.9348841736422037,0.058160237388724036,0.19880239520958082
yowiki,False,75.0,0.1292834890965732,0.5060975609756098,0.9377068327817792,0.0552917903066271,0.20595533498759305
yowiki,False,76.0,0.13432835820895522,0.49390243902439024,0.9411134903640257,0.05163204747774481,0.21121251629726207
yowiki,False,77.0,0.1349911190053286,0.4634146341463415,0.9440334825773798,0.04817012858555885,0.2090784044016506
yowiki,False,78.0,0.14258188824662812,0.45121951219512196,0.9479268055285186,0.044015825914935705,0.21669106881405564
yowiki,False,79.0,0.14078674948240166,0.4146341463414634,0.9502627992992019,0.0410484668644906,0.21020092735703244
yowiki,False,80.0,0.15077605321507762,0.4146341463414634,0.953377457660113,0.03788328387734916,0.22113821138211381
yowiki,False,81.0,0.1549636803874092,0.3902439024390244,0.956297449873467,0.03452027695351138,0.22183708838821495
yowiki,False,82.0,0.16759776536312848,0.36585365853658536,0.9608721043410551,0.029475766567754698,0.22988505747126434
yowiki,False,83.0,0.17220543806646527,0.3475609756097561,0.962916098890403,0.027101879327398614,0.23030303030303031
yowiki,False,84.0,0.18874172185430463,0.3475609756097561,0.9657387580299786,0.02423343224530168,0.24463519313304719
yowiki,False,85.0,0.1918819188191882,0.3170731707317073,0.9677827525793264,0.02166172106824926,0.23908045977011497
yowiki,False,86.0,0.19838056680161945,0.29878048780487804,0.969534747907339,0.019584569732937686,0.2384428223844282
yowiki,False,87.0,0.21621621621621623,0.2926829268292683,0.9717734086042438,0.017210682492581602,0.24870466321243523
yowiki,False,88.0,0.23115577889447236,0.2804878048780488,0.9736227370060346,0.015133531157270029,0.2534435261707989
yowiki,False,89.0,0.22413793103448276,0.23780487804878048,0.9746934008175978,0.013353115727002967,0.23076923076923078
yowiki,False,90.0,0.22580645161290322,0.21341463414634146,0.975764064629161,0.011869436201780416,0.21943573667711597
yowiki,False,91.0,0.23308270676691728,0.18902439024390244,0.9771267276620595,0.010089020771513354,0.20875420875420875
yowiki,False,92.0,0.2653061224489796,0.15853658536585366,0.9795600545065213,0.007121661721068249,0.19847328244274812
yowiki,False,93.0,0.2328767123287671,0.10365853658536585,0.9802413860229706,0.005539070227497527,0.14345991561181434
yowiki,False,94.0,0.2,0.07317073170731707,0.980533385244306,0.004747774480712166,0.10714285714285712
yowiki,False,95.0,0.1875,0.054878048780487805,0.9811173836869769,0.003857566765578635,0.0849056603773585
yowiki,False,96.0,0.16666666666666666,0.036585365853658534,0.9817013821296476,0.002967359050445104,0.06
yowiki,False,97.0,0.11764705882352941,0.012195121951219513,0.9827720459412108,0.001483679525222552,0.022099447513812154
yowiki,False,98.0,0.14285714285714285,0.006097560975609756,0.9835507105314386,0.0005934718100890207,0.011695906432748537
yowiki,False,99.0,0.25,0.006097560975609756,0.983842709752774,0.0002967359050445104,0.011904761904761904
