wiki_db,user_is_bot,threshold,precision,recall,accuracy,fpr,F1
zuwiki,True,0.0,0.07532956685499058,1.0,0.07532956685499058,1.0,0.14010507880910683
zuwiki,True,1.0,0.07532956685499058,1.0,0.07532956685499058,1.0,0.14010507880910683
zuwiki,True,2.0,0.07532956685499058,1.0,0.07532956685499058,1.0,0.14010507880910683
zuwiki,True,3.0,0.07532956685499058,1.0,0.07532956685499058,1.0,0.14010507880910683
zuwiki,True,4.0,0.07575757575757576,1.0,0.08097928436911488,0.9938900203665988,0.14084507042253522
zuwiki,True,5.0,0.07590132827324478,1.0,0.08286252354048965,0.9918533604887984,0.14109347442680775
zuwiki,True,6.0,0.07604562737642585,1.0,0.0847457627118644,0.9898167006109979,0.1413427561837456
zuwiki,True,7.0,0.07648183556405354,1.0,0.0903954802259887,0.9837067209775967,0.14209591474245115
zuwiki,True,8.0,0.07692307692307693,1.0,0.096045197740113,0.9775967413441955,0.14285714285714288
zuwiki,True,9.0,0.07707129094412331,1.0,0.09792843691148775,0.9755600814663951,0.14311270125223613
zuwiki,True,10.0,0.07736943907156674,1.0,0.1016949152542373,0.9714867617107943,0.1436265709156194
zuwiki,True,11.0,0.07827788649706457,1.0,0.11299435028248588,0.9592668024439919,0.1451905626134301
zuwiki,True,12.0,0.07858546168958742,1.0,0.1167608286252354,0.955193482688391,0.14571948998178508
zuwiki,True,13.0,0.07984031936127745,1.0,0.1318267419962335,0.9389002036659878,0.1478743068391867
zuwiki,True,14.0,0.08196721311475409,1.0,0.15630885122410546,0.9124236252545825,0.1515151515151515
zuwiki,True,15.0,0.08316008316008316,1.0,0.1694915254237288,0.8981670061099797,0.15355086372360846
zuwiki,True,16.0,0.08438818565400844,1.0,0.18267419962335216,0.8839103869653768,0.15564202334630348
zuwiki,True,17.0,0.08830022075055188,1.0,0.2222222222222222,0.8411405295315683,0.16227180527383367
zuwiki,True,18.0,0.09029345372460497,1.0,0.24105461393596986,0.8207739307535642,0.16563146997929606
zuwiki,True,19.0,0.08878504672897196,0.95,0.2617702448210923,0.7942973523421588,0.1623931623931624
zuwiki,True,20.0,0.09200968523002422,0.95,0.2900188323917137,0.7637474541751528,0.16777041942604856
zuwiki,True,21.0,0.09429280397022333,0.95,0.3088512241054614,0.7433808553971487,0.17155756207674944
zuwiki,True,22.0,0.0925,0.925,0.3107344632768362,0.7393075356415478,0.16818181818181818
zuwiki,True,23.0,0.09487179487179487,0.925,0.3295668549905838,0.7189409368635438,0.17209302325581396
zuwiki,True,24.0,0.09711286089238845,0.925,0.3465160075329567,0.7006109979633401,0.17577197149643706
zuwiki,True,25.0,0.09651474530831099,0.9,0.3578154425612053,0.6863543788187373,0.17433414043583537
zuwiki,True,26.0,0.1005586592178771,0.9,0.3860640301318267,0.6558044806517311,0.18090452261306533
zuwiki,True,27.0,0.10315186246418338,0.9,0.4030131826741996,0.6374745417515275,0.18508997429305915
zuwiki,True,28.0,0.1021021021021021,0.85,0.4256120527306968,0.6089613034623218,0.18230563002680966
zuwiki,True,29.0,0.1033434650455927,0.85,0.4331450094161959,0.6008146639511202,0.18428184281842822
zuwiki,True,30.0,0.10461538461538461,0.85,0.4406779661016949,0.5926680244399185,0.18630136986301365
zuwiki,True,31.0,0.10526315789473684,0.85,0.4444444444444444,0.5885947046843177,0.18732782369146003
zuwiki,True,32.0,0.1069182389937107,0.85,0.4538606403013183,0.5784114052953157,0.1899441340782123
zuwiki,True,33.0,0.10714285714285714,0.825,0.4689265536723164,0.560081466395112,0.1896551724137931
zuwiki,True,34.0,0.10927152317880795,0.825,0.480225988700565,0.5478615071283096,0.1929824561403509
zuwiki,True,35.0,0.11379310344827587,0.825,0.5028248587570622,0.5234215885947047,0.2
zuwiki,True,36.0,0.11578947368421053,0.825,0.512241054613936,0.5132382892057027,0.20307692307692307
zuwiki,True,37.0,0.1166077738515901,0.825,0.5160075329566854,0.5091649694501018,0.2043343653250774
zuwiki,True,38.0,0.11870503597122302,0.825,0.5254237288135594,0.4989816700610998,0.20754716981132074
zuwiki,True,39.0,0.12087912087912088,0.825,0.5348399246704332,0.48879837067209775,0.2108626198083067
zuwiki,True,40.0,0.12313432835820895,0.825,0.544256120527307,0.4786150712830957,0.21428571428571427
zuwiki,True,41.0,0.12643678160919541,0.825,0.5574387947269304,0.46435845213849286,0.21926910299003324
zuwiki,True,42.0,0.12840466926070038,0.825,0.5649717514124294,0.45621181262729127,0.2222222222222222
zuwiki,True,43.0,0.12941176470588237,0.825,0.568738229755179,0.45213849287169044,0.22372881355932206
zuwiki,True,44.0,0.13360323886639677,0.825,0.583804143126177,0.43584521384928715,0.22996515679442509
zuwiki,True,45.0,0.13360323886639677,0.825,0.583804143126177,0.43584521384928715,0.22996515679442509
zuwiki,True,46.0,0.13524590163934427,0.825,0.5894538606403014,0.42973523421588594,0.23239436619718312
zuwiki,True,47.0,0.13807531380753138,0.825,0.5988700564971752,0.4195519348268839,0.23655913978494625
zuwiki,True,48.0,0.14347826086956522,0.825,0.615819209039548,0.40122199592668023,0.2444444444444444
zuwiki,True,49.0,0.14473684210526316,0.825,0.6195856873822976,0.3971486761710794,0.2462686567164179
zuwiki,True,50.0,0.14537444933920704,0.825,0.6214689265536724,0.395112016293279,0.24719101123595505
zuwiki,True,51.0,0.1493212669683258,0.825,0.632768361581921,0.38289205702647655,0.2528735632183908
zuwiki,True,52.0,0.15348837209302327,0.825,0.6440677966101694,0.37067209775967414,0.25882352941176473
zuwiki,True,53.0,0.15639810426540285,0.825,0.6516007532956686,0.3625254582484725,0.26294820717131473
zuwiki,True,54.0,0.15865384615384615,0.825,0.6572504708097928,0.3564154786150713,0.2661290322580645
zuwiki,True,55.0,0.16019417475728157,0.825,0.6610169491525424,0.35234215885947046,0.26829268292682923
zuwiki,True,56.0,0.1658291457286432,0.825,0.6741996233521658,0.3380855397148676,0.27615062761506276
zuwiki,True,57.0,0.1683673469387755,0.825,0.67984934086629,0.3319755600814664,0.2796610169491525
zuwiki,True,58.0,0.17010309278350516,0.825,0.6836158192090396,0.32790224032586557,0.28205128205128205
zuwiki,True,59.0,0.17010309278350516,0.825,0.6836158192090396,0.32790224032586557,0.28205128205128205
zuwiki,True,60.0,0.1746031746031746,0.825,0.6930320150659134,0.31771894093686354,0.2882096069868995
zuwiki,True,61.0,0.1774193548387097,0.825,0.6986817325800376,0.31160896130346233,0.29203539823008845
zuwiki,True,62.0,0.1783783783783784,0.825,0.7005649717514124,0.3095723014256619,0.29333333333333333
zuwiki,True,63.0,0.18333333333333332,0.825,0.7099811676082862,0.29938900203665986,0.29999999999999993
zuwiki,True,64.0,0.19298245614035087,0.825,0.7269303201506592,0.28105906313645623,0.3127962085308057
zuwiki,True,65.0,0.19879518072289157,0.825,0.736346516007533,0.2708757637474542,0.32038834951456313
zuwiki,True,66.0,0.20496894409937888,0.825,0.7457627118644068,0.2606924643584521,0.32835820895522383
zuwiki,True,67.0,0.21019108280254778,0.825,0.7532956685499058,0.2525458248472505,0.3350253807106599
zuwiki,True,68.0,0.21710526315789475,0.825,0.7627118644067796,0.24236252545824846,0.34375
zuwiki,True,69.0,0.2214765100671141,0.825,0.768361581920904,0.23625254582484725,0.3492063492063492
zuwiki,True,70.0,0.23404255319148937,0.825,0.783427495291902,0.219959266802444,0.36464088397790057
zuwiki,True,71.0,0.2391304347826087,0.825,0.7890772128060264,0.21384928716904278,0.3707865168539326
zuwiki,True,72.0,0.24087591240875914,0.825,0.7909604519774012,0.21181262729124237,0.3728813559322034
zuwiki,True,73.0,0.24812030075187969,0.825,0.7984934086629002,0.20366598778004075,0.3815028901734104
zuwiki,True,74.0,0.25384615384615383,0.825,0.8041431261770244,0.1975560081466395,0.38823529411764707
zuwiki,True,75.0,0.2601626016260163,0.8,0.8135593220338984,0.18533604887983707,0.39263803680981596
zuwiki,True,76.0,0.2711864406779661,0.8,0.8229755178907722,0.17515274949083504,0.40506329113924056
zuwiki,True,77.0,0.26548672566371684,0.75,0.8248587570621468,0.1690427698574338,0.3921568627450981
zuwiki,True,78.0,0.2777777777777778,0.75,0.8342749529190208,0.15885947046843177,0.4054054054054055
zuwiki,True,79.0,0.3,0.75,0.8493408662900188,0.1425661914460285,0.4285714285714285
zuwiki,True,80.0,0.3076923076923077,0.7,0.8587570621468926,0.12830957230142567,0.4274809160305344
zuwiki,True,81.0,0.2988505747126437,0.65,0.8587570621468926,0.12423625254582485,0.40944881889763785
zuwiki,True,82.0,0.3116883116883117,0.6,0.8700564971751412,0.1079429735234216,0.41025641025641024
zuwiki,True,83.0,0.29577464788732394,0.525,0.8700564971751412,0.10183299389002037,0.37837837837837845
zuwiki,True,84.0,0.3076923076923077,0.5,0.8775894538606404,0.09164969450101833,0.380952380952381
zuwiki,True,85.0,0.3064516129032258,0.475,0.879472693032015,0.08757637474541752,0.37254901960784315
zuwiki,True,86.0,0.33962264150943394,0.45,0.8926553672316384,0.07128309572301425,0.3870967741935484
zuwiki,True,87.0,0.3469387755102041,0.425,0.896421845574388,0.06517311608961303,0.38202247191011235
zuwiki,True,88.0,0.3409090909090909,0.375,0.8983050847457628,0.059063136456211814,0.35714285714285715
zuwiki,True,89.0,0.32432432432432434,0.3,0.9001883239171374,0.05091649694501019,0.3116883116883117
zuwiki,True,90.0,0.3235294117647059,0.275,0.9020715630885122,0.04684317718940937,0.2972972972972973
zuwiki,True,91.0,0.3225806451612903,0.25,0.903954802259887,0.04276985743380855,0.28169014084507044
zuwiki,True,92.0,0.38461538461538464,0.25,0.9133709981167608,0.032586558044806514,0.30303030303030304
zuwiki,True,93.0,0.4090909090909091,0.225,0.9171374764595104,0.026476578411405296,0.2903225806451613
zuwiki,True,94.0,0.42857142857142855,0.225,0.9190207156308852,0.024439918533604887,0.2950819672131147
zuwiki,True,95.0,0.47368421052631576,0.225,0.9227871939736346,0.020366598778004074,0.30508474576271183
zuwiki,True,96.0,0.5333333333333333,0.2,0.9265536723163842,0.014256619144602852,0.2909090909090909
zuwiki,True,97.0,0.6153846153846154,0.2,0.9303201506591338,0.010183299389002037,0.30188679245283023
zuwiki,True,98.0,0.6153846153846154,0.2,0.9303201506591338,0.010183299389002037,0.30188679245283023
zuwiki,True,99.0,0.6,0.075,0.9265536723163842,0.004073319755600814,0.13333333333333333
zuwiki,False,0.0,0.07461504619445666,1.0,0.07461504619445666,1.0,0.1388684188978957
zuwiki,False,1.0,0.07461504619445666,1.0,0.07461504619445666,1.0,0.1388684188978957
zuwiki,False,2.0,0.07461504619445666,1.0,0.07461504619445666,1.0,0.1388684188978957
zuwiki,False,3.0,0.07470707426658445,1.0,0.07584689837219534,0.998668821907388,0.13902778916304614
zuwiki,False,4.0,0.07521064301552106,1.0,0.08253409590849098,0.9914424265474945,0.13989936484368556
zuwiki,False,5.0,0.075572587113448,1.0,0.08728552573691158,0.9863078824759912,0.1405253127848206
zuwiki,False,6.0,0.07574810183117463,1.0,0.08957325120985482,0.9838356945897119,0.14082869716847962
zuwiki,False,7.0,0.0763963963963964,1.0,0.09793224813022437,0.9748027003898451,0.14194844325410108
zuwiki,False,8.0,0.07700690156193243,1.0,0.10567531896172459,0.9664352952362841,0.1430016863406408
zuwiki,False,9.0,0.07749246093393036,1.0,0.1117465904091509,0.9598744889226966,0.14383852090577556
zuwiki,False,10.0,0.07810629087224832,1.0,0.11931368235811703,0.9516972520680802,0.14489534387014097
zuwiki,False,11.0,0.07782864617396991,0.9823113207547169,0.13022437307523096,0.9384805552914329,0.14422993680200846
zuwiki,False,12.0,0.07860094167387335,0.964622641509434,0.15362956445226572,0.9117619092897215,0.14535761883607284
zuwiki,False,13.0,0.08002347877127763,0.964622641509434,0.1699076110866696,0.894171341637349,0.14778681120144535
zuwiki,False,14.0,0.08154720366862725,0.964622641509434,0.18671359436867577,0.8760102690881431,0.1503814688850078
zuwiki,False,15.0,0.08244305583551703,0.964622641509434,0.196304443466784,0.8656460967956642,0.15190343546889506
zuwiki,False,16.0,0.08314698109371824,0.964622641509434,0.20369555653321603,0.8576590282399924,0.15309751076174433
zuwiki,False,17.0,0.08527939949958299,0.964622641509434,0.2253409590849098,0.8342683274698108,0.1567049808429119
zuwiki,False,18.0,0.08678124336940378,0.964622641509434,0.23994720633523978,0.8184843586574118,0.1592369087015768
zuwiki,False,19.0,0.08742397914856646,0.9492924528301887,0.256841179058513,0.7989921080155938,0.16010342084327764
zuwiki,False,20.0,0.08854911450885491,0.9492924528301887,0.2671359436867576,0.7878672625273367,0.1619881275782272
zuwiki,False,21.0,0.08864452423698384,0.9316037735849056,0.28024637043554773,0.7722734620138823,0.16188524590163936
zuwiki,False,22.0,0.08837579617834394,0.9162735849056604,0.28851737791465026,0.762099458020348,0.1612033195020747
zuwiki,False,23.0,0.08988894030541417,0.9162735849056604,0.3015398152221733,0.7480270038984501,0.16371681415929207
zuwiki,False,24.0,0.09159495461511258,0.9162735849056604,0.31570611526616804,0.7327184558334126,0.16654163540885222
zuwiki,False,25.0,0.09211000360273808,0.9044811320754716,0.3276726792784866,0.7188361700104593,0.16719346049046319
zuwiki,False,26.0,0.09421446996683454,0.9044811320754716,0.3440387153541575,0.7011505182086146,0.17065302035821556
zuwiki,False,27.0,0.09463881198087087,0.8867924528301887,0.35855697316322044,0.6840353713036037,0.17102569934045941
zuwiki,False,28.0,0.09309193631227529,0.8549528301886793,0.3677078750549934,0.6715793477227346,0.16790180639184807
zuwiki,False,29.0,0.09250814332247558,0.8372641509433962,0.37501099868015836,0.6622611010744509,0.16660800187727326
zuwiki,False,30.0,0.09371700105596621,0.8372641509433962,0.3837219533655961,0.6528477702766948,0.16856600189933524
zuwiki,False,31.0,0.09452802556250832,0.8372641509433962,0.38944126704795423,0.6466673005609965,0.16987677951908123
zuwiki,False,32.0,0.09559714555002019,0.8372641509433962,0.39683238011438626,0.6386802320053248,0.1716012084592145
zuwiki,False,33.0,0.09613793103448276,0.8219339622641509,0.41011878574571053,0.6230864314918703,0.17214126944924674
zuwiki,False,34.0,0.09807232306177009,0.8219339622641509,0.42270127584689837,0.6094893981173338,0.1752357008170962
zuwiki,False,35.0,0.1,0.8219339622641509,0.43475582930048395,0.596462869639631,0.17830647224354057
zuwiki,False,36.0,0.10182615047479912,0.8219339622641509,0.4457545094588649,0.5845773509555957,0.18120369166774988
zuwiki,False,37.0,0.10283269401003246,0.8219339622641509,0.45164980202375715,0.5782067129409527,0.1827956989247312
zuwiki,False,38.0,0.10382839267093699,0.8219339622641509,0.45736911570611527,0.5720262432252543,0.18436714720275096
zuwiki,False,39.0,0.10535066505441354,0.8219339622641509,0.4659040915090189,0.5628030807264429,0.18676312968917472
zuwiki,False,40.0,0.10660752523707556,0.8219339622641509,0.4727672679278487,0.5553865170676048,0.18873544543731383
zuwiki,False,41.0,0.10856697819314642,0.8219339622641509,0.4831500219973603,0.5441665874298754,0.19179966978536048
zuwiki,False,42.0,0.11075798506276816,0.8219339622641509,0.4943246810382754,0.5320909004468956,0.19521075479624705
zuwiki,False,43.0,0.11287449392712551,0.8219339622641509,0.504707435107787,0.5208709708091661,0.19849067350135272
zuwiki,False,44.0,0.11572306159721069,0.8219339622641509,0.5180818301803783,0.5064181800893791,0.20288167661184686
zuwiki,False,45.0,0.11716254832744999,0.8219339622641509,0.5245930488341399,0.49938195302843014,0.20509048109460057
zuwiki,False,46.0,0.11980061876933654,0.8219339622641509,0.5361196656401231,0.4869259294475611,0.20912091209120912
zuwiki,False,47.0,0.1227112676056338,0.8219339622641509,0.5482622085349758,0.47380431682038604,0.21354166666666669
zuwiki,False,48.0,0.1259942154736081,0.8219339622641509,0.5612846458424989,0.45973186269848815,0.21849529780564264
zuwiki,False,49.0,0.12758557569101225,0.8219339622641509,0.5673559172899252,0.45317105638490063,0.22088417049595943
zuwiki,False,50.0,0.1297709923664122,0.8219339622641509,0.5754509458864936,0.4444233146334506,0.22415179289274803
zuwiki,False,51.0,0.13301526717557252,0.8219339622641509,0.5869775626924769,0.4319672910525815,0.22897503285151116
zuwiki,False,52.0,0.13661309290474324,0.8219339622641509,0.5991201055873295,0.4188456784254065,0.23428571428571432
zuwiki,False,53.0,0.14092195713708047,0.8219339622641509,0.612846458424989,0.4040125511077303,0.24059371763893683
zuwiki,False,54.0,0.14100185528756956,0.8066037735849056,0.6189177298724153,0.39621565085100313,0.24004211265134232
zuwiki,False,55.0,0.1439091100357669,0.8066037735849056,0.6275406951165861,0.3868974042027194,0.244242099625067
zuwiki,False,56.0,0.14689761017320763,0.7900943396226415,0.6419709634843819,0.36997242559665305,0.2477352560547236
zuwiki,False,57.0,0.14865764366540937,0.7900943396226415,0.6467223933128025,0.36483788152514973,0.250233426704015
zuwiki,False,58.0,0.14952019638473554,0.7900943396226415,0.6490101187857457,0.3623656936388704,0.2514543066241321
zuwiki,False,59.0,0.15079900967814538,0.7900943396226415,0.6523537175538935,0.35875249595892367,0.25326025326025325
zuwiki,False,60.0,0.15359926639156352,0.7900943396226415,0.6594808622965244,0.3510506798516687,0.2571976967370442
zuwiki,False,61.0,0.1582801795416962,0.7900943396226415,0.6708315002199736,0.33878482456974424,0.2637276126746703
zuwiki,False,62.0,0.15584106590530575,0.7724056603773585,0.6708315002199736,0.33735856232766,0.25935458325084143
zuwiki,False,63.0,0.16053921568627452,0.7724056603773585,0.6816542014958205,0.3256632119425692,0.2658279220779221
zuwiki,False,64.0,0.1672198110799081,0.7724056603773585,0.6959964804223493,0.31016449557858705,0.27492130115424973
zuwiki,False,65.0,0.17309725158562367,0.7724056603773585,0.7076990761108667,0.2975183036987734,0.28281519861830745
zuwiki,False,66.0,0.17837690631808278,0.7724056603773585,0.7175538935327761,0.2868688789578777,0.28982300884955753
zuwiki,False,67.0,0.18179295031917847,0.7724056603773585,0.7236251649802024,0.2803080726442902,0.29431588407099524
zuwiki,False,68.0,0.18963520555877245,0.7724056603773585,0.7367355917289925,0.26614053437292,0.3045095304509531
zuwiki,False,69.0,0.19430436072382082,0.7724056603773585,0.7440387153541576,0.25824854996672053,0.31050011851149556
zuwiki,False,70.0,0.1999375195251484,0.7547169811320755,0.7563572371315442,0.24351050679851668,0.316127438873796
zuwiki,False,71.0,0.2037567653613499,0.7547169811320755,0.7616366036075671,0.2378054578301797,0.3208824266733517
zuwiki,False,72.0,0.20806241872561768,0.7547169811320755,0.7673559172899252,0.23162498811448132,0.32619775739041795
zuwiki,False,73.0,0.21171022163413827,0.7547169811320755,0.7720193576770787,0.22658552819245031,0.3306639111340739
zuwiki,False,74.0,0.2165087956698241,0.7547169811320755,0.7779146502419709,0.22021489017780735,0.33648790746582546
zuwiki,False,75.0,0.2218683651804671,0.7393867924528302,0.787065552133744,0.20909004468955025,0.34131736526946116
zuwiki,False,76.0,0.23213624583487596,0.7393867924528302,0.798064232292125,0.19720452600551489,0.3533389687235841
zuwiki,False,77.0,0.23014959723820483,0.7075471698113207,0.8015838099428069,0.19083388799087192,0.3473227206946454
zuwiki,False,78.0,0.2339038304808476,0.6768867924528302,0.8104707435107787,0.178758201007892,0.34766807995154453
zuwiki,False,79.0,0.23973799126637554,0.6474056603773585,0.8205015398152222,0.16554150423124464,0.349904397705545
zuwiki,False,80.0,0.2449742870500234,0.6179245283018868,0.829388473383194,0.153560901397737,0.35085369936391037
zuwiki,False,81.0,0.24695740365111563,0.5742924528301887,0.8375714914210295,0.14119996196634022,0.3453900709219858
zuwiki,False,82.0,0.2592800899887514,0.5436320754716981,0.8500659920809502,0.12522582485499667,0.35110434120335116
zuwiki,False,83.0,0.25964482547458667,0.5,0.8563132424109107,0.11495673671199011,0.3417976622329706
zuwiki,False,84.0,0.25424881033310676,0.4410377358490566,0.8617685877694676,0.10430731197109441,0.32255282449331607
zuwiki,False,85.0,0.26024442846872753,0.4268867924528302,0.8666959964804224,0.09784158980697917,0.3233586422510049
zuwiki,False,86.0,0.28500823723228996,0.4080188679245283,0.8794544654641443,0.08253304174194162,0.33559650824442294
zuwiki,False,87.0,0.31805157593123207,0.392688679245283,0.8918609766827981,0.06789008272321004,0.35145118733509234
zuwiki,False,88.0,0.31243358129649307,0.3466981132075472,0.8943246810382754,0.06151944470856708,0.3286752375628843
zuwiki,False,89.0,0.31202046035805625,0.28773584905660377,0.8995160580730313,0.051155272416088235,0.29938650306748466
zuwiki,False,90.0,0.3239644970414201,0.25825471698113206,0.9044434667839859,0.043453456308833315,0.2874015748031496
zuwiki,False,91.0,0.29349736379613356,0.19693396226415094,0.9047074351077871,0.03822382808785776,0.2357092448835568
zuwiki,False,92.0,0.3320079522862823,0.19693396226415094,0.9105147382314123,0.031948274222687076,0.2472242783123612
zuwiki,False,93.0,0.34606741573033706,0.18160377358490565,0.9133304003519578,0.027669487496434345,0.2382057231245166
zuwiki,False,94.0,0.4074074074074074,0.18160377358490565,0.91922569291685,0.021298849481791386,0.2512234910277324
zuwiki,False,95.0,0.456973293768546,0.18160377358490565,0.922833260008799,0.017400399353427784,0.25991561181434597
zuwiki,False,96.0,0.5555555555555556,0.1650943396226415,0.9278486581610207,0.010649424740895693,0.2545454545454545
zuwiki,False,97.0,0.6666666666666666,0.1650943396226415,0.9315442146942366,0.006655890463059808,0.2646502835538752
zuwiki,False,98.0,0.6666666666666666,0.1650943396226415,0.9315442146942366,0.006655890463059808,0.2646502835538752
zuwiki,False,99.0,0.5970149253731343,0.04716981132075472,0.9265288165420149,0.00256727203575164,0.08743169398907104
