wiki_db,user_is_anonymous,threshold,precision,recall,accuracy,fpr,F1
atjwiki,True,0.0,0.38461538461538464,1.0,0.38461538461538464,1.0,0.5555555555555556
atjwiki,True,1.0,0.38461538461538464,1.0,0.38461538461538464,1.0,0.5555555555555556
atjwiki,True,2.0,0.38461538461538464,1.0,0.38461538461538464,1.0,0.5555555555555556
atjwiki,True,3.0,0.38461538461538464,1.0,0.38461538461538464,1.0,0.5555555555555556
atjwiki,True,4.0,0.38461538461538464,1.0,0.38461538461538464,1.0,0.5555555555555556
atjwiki,True,5.0,0.38461538461538464,1.0,0.38461538461538464,1.0,0.5555555555555556
atjwiki,True,6.0,0.38461538461538464,1.0,0.38461538461538464,1.0,0.5555555555555556
atjwiki,True,7.0,0.38461538461538464,1.0,0.38461538461538464,1.0,0.5555555555555556
atjwiki,True,8.0,0.38461538461538464,1.0,0.38461538461538464,1.0,0.5555555555555556
atjwiki,True,9.0,0.38461538461538464,1.0,0.38461538461538464,1.0,0.5555555555555556
atjwiki,True,10.0,0.38461538461538464,1.0,0.38461538461538464,1.0,0.5555555555555556
atjwiki,True,11.0,0.4166666666666667,1.0,0.46153846153846156,0.875,0.5882352941176471
atjwiki,True,12.0,0.4166666666666667,1.0,0.46153846153846156,0.875,0.5882352941176471
atjwiki,True,13.0,0.4166666666666667,1.0,0.46153846153846156,0.875,0.5882352941176471
atjwiki,True,14.0,0.4166666666666667,1.0,0.46153846153846156,0.875,0.5882352941176471
atjwiki,True,15.0,0.4166666666666667,1.0,0.46153846153846156,0.875,0.5882352941176471
atjwiki,True,16.0,0.4166666666666667,1.0,0.46153846153846156,0.875,0.5882352941176471
atjwiki,True,17.0,0.45454545454545453,1.0,0.5384615384615384,0.75,0.625
atjwiki,True,18.0,0.45454545454545453,1.0,0.5384615384615384,0.75,0.625
atjwiki,True,19.0,0.45454545454545453,1.0,0.5384615384615384,0.75,0.625
atjwiki,True,20.0,0.45454545454545453,1.0,0.5384615384615384,0.75,0.625
atjwiki,True,21.0,0.45454545454545453,1.0,0.5384615384615384,0.75,0.625
atjwiki,True,22.0,0.45454545454545453,1.0,0.5384615384615384,0.75,0.625
atjwiki,True,23.0,0.45454545454545453,1.0,0.5384615384615384,0.75,0.625
atjwiki,True,24.0,0.45454545454545453,1.0,0.5384615384615384,0.75,0.625
atjwiki,True,25.0,0.45454545454545453,1.0,0.5384615384615384,0.75,0.625
atjwiki,True,26.0,0.45454545454545453,1.0,0.5384615384615384,0.75,0.625
atjwiki,True,27.0,0.45454545454545453,1.0,0.5384615384615384,0.75,0.625
atjwiki,True,28.0,0.45454545454545453,1.0,0.5384615384615384,0.75,0.625
atjwiki,True,29.0,0.45454545454545453,1.0,0.5384615384615384,0.75,0.625
atjwiki,True,30.0,0.45454545454545453,1.0,0.5384615384615384,0.75,0.625
atjwiki,True,31.0,0.45454545454545453,1.0,0.5384615384615384,0.75,0.625
atjwiki,True,32.0,0.45454545454545453,1.0,0.5384615384615384,0.75,0.625
atjwiki,True,33.0,0.45454545454545453,1.0,0.5384615384615384,0.75,0.625
atjwiki,True,34.0,0.45454545454545453,1.0,0.5384615384615384,0.75,0.625
atjwiki,True,35.0,0.45454545454545453,1.0,0.5384615384615384,0.75,0.625
atjwiki,True,36.0,0.45454545454545453,1.0,0.5384615384615384,0.75,0.625
atjwiki,True,37.0,0.45454545454545453,1.0,0.5384615384615384,0.75,0.625
atjwiki,True,38.0,0.45454545454545453,1.0,0.5384615384615384,0.75,0.625
atjwiki,True,39.0,0.45454545454545453,1.0,0.5384615384615384,0.75,0.625
atjwiki,True,40.0,0.45454545454545453,1.0,0.5384615384615384,0.75,0.625
atjwiki,True,41.0,0.45454545454545453,1.0,0.5384615384615384,0.75,0.625
atjwiki,True,42.0,0.45454545454545453,1.0,0.5384615384615384,0.75,0.625
atjwiki,True,43.0,0.45454545454545453,1.0,0.5384615384615384,0.75,0.625
atjwiki,True,44.0,0.45454545454545453,1.0,0.5384615384615384,0.75,0.625
atjwiki,True,45.0,0.45454545454545453,1.0,0.5384615384615384,0.75,0.625
atjwiki,True,46.0,0.45454545454545453,1.0,0.5384615384615384,0.75,0.625
atjwiki,True,47.0,0.45454545454545453,1.0,0.5384615384615384,0.75,0.625
atjwiki,True,48.0,0.45454545454545453,1.0,0.5384615384615384,0.75,0.625
atjwiki,True,49.0,0.45454545454545453,1.0,0.5384615384615384,0.75,0.625
atjwiki,True,50.0,0.45454545454545453,1.0,0.5384615384615384,0.75,0.625
atjwiki,True,51.0,0.45454545454545453,1.0,0.5384615384615384,0.75,0.625
atjwiki,True,52.0,0.45454545454545453,1.0,0.5384615384615384,0.75,0.625
atjwiki,True,53.0,0.45454545454545453,1.0,0.5384615384615384,0.75,0.625
atjwiki,True,54.0,0.45454545454545453,1.0,0.5384615384615384,0.75,0.625
atjwiki,True,55.0,0.45454545454545453,1.0,0.5384615384615384,0.75,0.625
atjwiki,True,56.0,0.45454545454545453,1.0,0.5384615384615384,0.75,0.625
atjwiki,True,57.0,0.45454545454545453,1.0,0.5384615384615384,0.75,0.625
atjwiki,True,58.0,0.45454545454545453,1.0,0.5384615384615384,0.75,0.625
atjwiki,True,59.0,0.45454545454545453,1.0,0.5384615384615384,0.75,0.625
atjwiki,True,60.0,0.45454545454545453,1.0,0.5384615384615384,0.75,0.625
atjwiki,True,61.0,0.45454545454545453,1.0,0.5384615384615384,0.75,0.625
atjwiki,True,62.0,0.45454545454545453,1.0,0.5384615384615384,0.75,0.625
atjwiki,True,63.0,0.45454545454545453,1.0,0.5384615384615384,0.75,0.625
atjwiki,True,64.0,0.45454545454545453,1.0,0.5384615384615384,0.75,0.625
atjwiki,True,65.0,0.5,1.0,0.6153846153846154,0.625,0.6666666666666666
atjwiki,True,66.0,0.5,1.0,0.6153846153846154,0.625,0.6666666666666666
atjwiki,True,67.0,0.5,1.0,0.6153846153846154,0.625,0.6666666666666666
atjwiki,True,68.0,0.5555555555555556,1.0,0.6923076923076923,0.5,0.7142857142857143
atjwiki,True,69.0,0.5555555555555556,1.0,0.6923076923076923,0.5,0.7142857142857143
atjwiki,True,70.0,0.5555555555555556,1.0,0.6923076923076923,0.5,0.7142857142857143
atjwiki,True,71.0,0.5555555555555556,1.0,0.6923076923076923,0.5,0.7142857142857143
atjwiki,True,72.0,0.5555555555555556,1.0,0.6923076923076923,0.5,0.7142857142857143
atjwiki,True,73.0,0.5555555555555556,1.0,0.6923076923076923,0.5,0.7142857142857143
atjwiki,True,74.0,0.5555555555555556,1.0,0.6923076923076923,0.5,0.7142857142857143
atjwiki,True,75.0,0.5555555555555556,1.0,0.6923076923076923,0.5,0.7142857142857143
atjwiki,True,76.0,0.42857142857142855,0.6,0.5384615384615384,0.5,0.5
atjwiki,True,77.0,0.42857142857142855,0.6,0.5384615384615384,0.5,0.5
atjwiki,True,78.0,0.42857142857142855,0.6,0.5384615384615384,0.5,0.5
atjwiki,True,79.0,0.42857142857142855,0.6,0.5384615384615384,0.5,0.5
atjwiki,True,80.0,0.42857142857142855,0.6,0.5384615384615384,0.5,0.5
atjwiki,True,81.0,0.3333333333333333,0.4,0.46153846153846156,0.5,0.3636363636363636
atjwiki,True,82.0,0.3333333333333333,0.4,0.46153846153846156,0.5,0.3636363636363636
atjwiki,True,83.0,0.3333333333333333,0.4,0.46153846153846156,0.5,0.3636363636363636
atjwiki,True,84.0,0.25,0.2,0.46153846153846156,0.375,0.22222222222222224
atjwiki,True,85.0,0.3333333333333333,0.2,0.5384615384615384,0.25,0.25
atjwiki,True,86.0,0.3333333333333333,0.2,0.5384615384615384,0.25,0.25
atjwiki,True,87.0,0.0,0.0,0.46153846153846156,0.25,0.25
atjwiki,True,88.0,0.0,0.0,0.46153846153846156,0.25,0.25
atjwiki,True,89.0,0.0,0.0,0.46153846153846156,0.25,0.25
atjwiki,True,90.0,0.0,0.0,0.46153846153846156,0.25,0.25
atjwiki,True,91.0,0.0,0.0,0.46153846153846156,0.25,0.25
atjwiki,True,92.0,0.0,0.0,0.46153846153846156,0.25,0.25
atjwiki,True,93.0,0.0,0.0,0.46153846153846156,0.25,0.25
atjwiki,True,94.0,0.0,0.0,0.5384615384615384,0.125,0.25
atjwiki,True,95.0,0.0,0.0,0.6153846153846154,0.0,0.25
atjwiki,True,96.0,0.0,0.0,0.6153846153846154,0.0,0.25
atjwiki,True,97.0,0.0,0.0,0.6153846153846154,0.0,0.25
atjwiki,True,98.0,0.0,0.0,0.6153846153846154,0.0,0.25
atjwiki,True,99.0,0.0,0.0,0.6153846153846154,0.0,0.25
atjwiki,False,0.0,0.023178807947019868,1.0,0.023178807947019868,1.0,0.045307443365695796
atjwiki,False,1.0,0.023178807947019868,1.0,0.023178807947019868,1.0,0.045307443365695796
atjwiki,False,2.0,0.023178807947019868,1.0,0.023178807947019868,1.0,0.045307443365695796
atjwiki,False,3.0,0.023178807947019868,1.0,0.023178807947019868,1.0,0.045307443365695796
atjwiki,False,4.0,0.023890784982935155,1.0,0.052980132450331126,0.9694915254237289,0.046666666666666676
atjwiki,False,5.0,0.023972602739726026,1.0,0.056291390728476824,0.9661016949152542,0.046822742474916385
atjwiki,False,6.0,0.02413793103448276,1.0,0.06291390728476821,0.9593220338983051,0.04713804713804714
atjwiki,False,7.0,0.024390243902439025,1.0,0.0728476821192053,0.9491525423728814,0.047619047619047616
atjwiki,False,8.0,0.024822695035460994,1.0,0.08940397350993377,0.9322033898305084,0.04844290657439446
atjwiki,False,9.0,0.021897810218978103,0.8571428571428571,0.10927152317880795,0.9084745762711864,0.04270462633451958
atjwiki,False,10.0,0.018867924528301886,0.7142857142857143,0.13245033112582782,0.8813559322033898,0.036764705882352935
atjwiki,False,11.0,0.019230769230769232,0.7142857142857143,0.1490066225165563,0.864406779661017,0.03745318352059925
atjwiki,False,12.0,0.01984126984126984,0.7142857142857143,0.17549668874172186,0.8372881355932204,0.0386100386100386
atjwiki,False,13.0,0.02066115702479339,0.7142857142857143,0.20860927152317882,0.8033898305084746,0.040160642570281124
atjwiki,False,14.0,0.021367521367521368,0.7142857142857143,0.23509933774834438,0.7762711864406779,0.04149377593360996
atjwiki,False,15.0,0.022026431718061675,0.7142857142857143,0.2582781456953642,0.752542372881356,0.04273504273504274
atjwiki,False,16.0,0.0228310502283105,0.7142857142857143,0.2847682119205298,0.7254237288135593,0.04424778761061946
atjwiki,False,17.0,0.02358490566037736,0.7142857142857143,0.3079470198675497,0.7016949152542373,0.04566210045662101
atjwiki,False,18.0,0.024509803921568627,0.7142857142857143,0.3344370860927152,0.6745762711864407,0.04739336492890995
atjwiki,False,19.0,0.025510204081632654,0.7142857142857143,0.3609271523178808,0.6474576271186441,0.04926108374384237
atjwiki,False,20.0,0.02617801047120419,0.7142857142857143,0.37748344370860926,0.6305084745762712,0.05050505050505051
atjwiki,False,21.0,0.022598870056497175,0.5714285714285714,0.41721854304635764,0.5864406779661017,0.043478260869565216
atjwiki,False,22.0,0.023255813953488372,0.5714285714285714,0.4337748344370861,0.5694915254237288,0.04469273743016759
atjwiki,False,23.0,0.024539877300613498,0.5714285714285714,0.46357615894039733,0.5389830508474577,0.04705882352941177
atjwiki,False,24.0,0.025157232704402517,0.5714285714285714,0.4768211920529801,0.5254237288135594,0.04819277108433735
atjwiki,False,25.0,0.02631578947368421,0.5714285714285714,0.5,0.5016949152542373,0.050314465408805034
atjwiki,False,26.0,0.027777777777777776,0.5714285714285714,0.5264900662251656,0.4745762711864407,0.052980132450331126
atjwiki,False,27.0,0.02962962962962963,0.5714285714285714,0.5562913907284768,0.4440677966101695,0.056338028169014086
atjwiki,False,28.0,0.030534351145038167,0.5714285714285714,0.5695364238410596,0.43050847457627117,0.05797101449275361
atjwiki,False,29.0,0.031496062992125984,0.5714285714285714,0.5827814569536424,0.41694915254237286,0.05970149253731344
atjwiki,False,30.0,0.03225806451612903,0.5714285714285714,0.5927152317880795,0.4067796610169492,0.06106870229007634
atjwiki,False,31.0,0.03361344537815126,0.5714285714285714,0.609271523178808,0.3898305084745763,0.06349206349206349
atjwiki,False,32.0,0.034782608695652174,0.5714285714285714,0.6225165562913907,0.376271186440678,0.06557377049180328
atjwiki,False,33.0,0.03636363636363636,0.5714285714285714,0.6390728476821192,0.3593220338983051,0.06837606837606837
atjwiki,False,34.0,0.038834951456310676,0.5714285714285714,0.6622516556291391,0.33559322033898303,0.07272727272727272
atjwiki,False,35.0,0.030612244897959183,0.42857142857142855,0.6721854304635762,0.3220338983050847,0.05714285714285714
atjwiki,False,36.0,0.03125,0.42857142857142855,0.6788079470198676,0.3152542372881356,0.05825242718446602
atjwiki,False,37.0,0.03225806451612903,0.42857142857142855,0.6887417218543046,0.3050847457627119,0.06
atjwiki,False,38.0,0.022222222222222223,0.2857142857142857,0.6920529801324503,0.2983050847457627,0.04123711340206186
atjwiki,False,39.0,0.022222222222222223,0.2857142857142857,0.6920529801324503,0.2983050847457627,0.04123711340206186
atjwiki,False,40.0,0.022727272727272728,0.2857142857142857,0.6986754966887417,0.29152542372881357,0.042105263157894736
atjwiki,False,41.0,0.022988505747126436,0.2857142857142857,0.7019867549668874,0.288135593220339,0.04255319148936171
atjwiki,False,42.0,0.024096385542168676,0.2857142857142857,0.7152317880794702,0.2745762711864407,0.044444444444444446
atjwiki,False,43.0,0.024691358024691357,0.2857142857142857,0.7218543046357616,0.2677966101694915,0.045454545454545456
atjwiki,False,44.0,0.024691358024691357,0.2857142857142857,0.7218543046357616,0.2677966101694915,0.045454545454545456
atjwiki,False,45.0,0.02702702702702703,0.2857142857142857,0.7450331125827815,0.2440677966101695,0.04938271604938272
atjwiki,False,46.0,0.027777777777777776,0.2857142857142857,0.7516556291390728,0.23728813559322035,0.05063291139240506
atjwiki,False,47.0,0.028169014084507043,0.2857142857142857,0.7549668874172185,0.23389830508474577,0.05128205128205127
atjwiki,False,48.0,0.03076923076923077,0.2857142857142857,0.7748344370860927,0.2135593220338983,0.05555555555555556
atjwiki,False,49.0,0.03125,0.2857142857142857,0.7781456953642384,0.21016949152542372,0.056338028169014086
atjwiki,False,50.0,0.03389830508474576,0.2857142857142857,0.7947019867549668,0.19322033898305085,0.060606060606060594
atjwiki,False,51.0,0.034482758620689655,0.2857142857142857,0.7980132450331126,0.18983050847457628,0.06153846153846154
atjwiki,False,52.0,0.03571428571428571,0.2857142857142857,0.804635761589404,0.18305084745762712,0.06349206349206349
atjwiki,False,53.0,0.03773584905660377,0.2857142857142857,0.8145695364238411,0.17288135593220338,0.06666666666666667
atjwiki,False,54.0,0.0392156862745098,0.2857142857142857,0.8211920529801324,0.16610169491525423,0.06896551724137931
atjwiki,False,55.0,0.041666666666666664,0.2857142857142857,0.8311258278145696,0.15593220338983052,0.07272727272727272
atjwiki,False,56.0,0.0425531914893617,0.2857142857142857,0.8344370860927153,0.15254237288135594,0.07407407407407407
atjwiki,False,57.0,0.043478260869565216,0.2857142857142857,0.8377483443708609,0.14915254237288136,0.07547169811320756
atjwiki,False,58.0,0.043478260869565216,0.2857142857142857,0.8377483443708609,0.14915254237288136,0.07547169811320756
atjwiki,False,59.0,0.045454545454545456,0.2857142857142857,0.8443708609271523,0.1423728813559322,0.0784313725490196
atjwiki,False,60.0,0.04878048780487805,0.2857142857142857,0.8543046357615894,0.13220338983050847,0.08333333333333334
atjwiki,False,61.0,0.04878048780487805,0.2857142857142857,0.8543046357615894,0.13220338983050847,0.08333333333333334
atjwiki,False,62.0,0.05128205128205128,0.2857142857142857,0.8609271523178808,0.12542372881355932,0.08695652173913043
atjwiki,False,63.0,0.05128205128205128,0.2857142857142857,0.8609271523178808,0.12542372881355932,0.08695652173913043
atjwiki,False,64.0,0.05263157894736842,0.2857142857142857,0.8642384105960265,0.12203389830508475,0.08888888888888889
atjwiki,False,65.0,0.05405405405405406,0.2857142857142857,0.8675496688741722,0.11864406779661017,0.09090909090909091
atjwiki,False,66.0,0.058823529411764705,0.2857142857142857,0.8774834437086093,0.10847457627118644,0.0975609756097561
atjwiki,False,67.0,0.058823529411764705,0.2857142857142857,0.8774834437086093,0.10847457627118644,0.0975609756097561
atjwiki,False,68.0,0.058823529411764705,0.2857142857142857,0.8774834437086093,0.10847457627118644,0.0975609756097561
atjwiki,False,69.0,0.058823529411764705,0.2857142857142857,0.8774834437086093,0.10847457627118644,0.0975609756097561
atjwiki,False,70.0,0.06451612903225806,0.2857142857142857,0.8874172185430463,0.09830508474576272,0.10526315789473685
atjwiki,False,71.0,0.07407407407407407,0.2857142857142857,0.9006622516556292,0.0847457627118644,0.11764705882352941
atjwiki,False,72.0,0.07407407407407407,0.2857142857142857,0.9006622516556292,0.0847457627118644,0.11764705882352941
atjwiki,False,73.0,0.07407407407407407,0.2857142857142857,0.9006622516556292,0.0847457627118644,0.11764705882352941
atjwiki,False,74.0,0.07407407407407407,0.2857142857142857,0.9006622516556292,0.0847457627118644,0.11764705882352941
atjwiki,False,75.0,0.045454545454545456,0.14285714285714285,0.9105960264900662,0.0711864406779661,0.06896551724137931
atjwiki,False,76.0,0.05,0.14285714285714285,0.9172185430463576,0.06440677966101695,0.07407407407407408
atjwiki,False,77.0,0.0,0.0,0.9139072847682119,0.06440677966101695,0.07407407407407408
atjwiki,False,78.0,0.0,0.0,0.9172185430463576,0.061016949152542375,0.07407407407407408
atjwiki,False,79.0,0.0,0.0,0.9205298013245033,0.0576271186440678,0.07407407407407408
atjwiki,False,80.0,0.0,0.0,0.9238410596026491,0.05423728813559322,0.07407407407407408
atjwiki,False,81.0,0.0,0.0,0.9271523178807947,0.05084745762711865,0.07407407407407408
atjwiki,False,82.0,0.0,0.0,0.9271523178807947,0.05084745762711865,0.07407407407407408
atjwiki,False,83.0,0.0,0.0,0.9304635761589404,0.04745762711864407,0.07407407407407408
atjwiki,False,84.0,0.0,0.0,0.9304635761589404,0.04745762711864407,0.07407407407407408
atjwiki,False,85.0,0.0,0.0,0.9337748344370861,0.04406779661016949,0.07407407407407408
atjwiki,False,86.0,0.0,0.0,0.9337748344370861,0.04406779661016949,0.07407407407407408
atjwiki,False,87.0,0.0,0.0,0.9370860927152318,0.04067796610169491,0.07407407407407408
atjwiki,False,88.0,0.0,0.0,0.9370860927152318,0.04067796610169491,0.07407407407407408
atjwiki,False,89.0,0.0,0.0,0.9370860927152318,0.04067796610169491,0.07407407407407408
atjwiki,False,90.0,0.0,0.0,0.9370860927152318,0.04067796610169491,0.07407407407407408
atjwiki,False,91.0,0.0,0.0,0.9370860927152318,0.04067796610169491,0.07407407407407408
atjwiki,False,92.0,0.0,0.0,0.9370860927152318,0.04067796610169491,0.07407407407407408
atjwiki,False,93.0,0.0,0.0,0.9370860927152318,0.04067796610169491,0.07407407407407408
atjwiki,False,94.0,0.0,0.0,0.9470198675496688,0.030508474576271188,0.07407407407407408
atjwiki,False,95.0,0.0,0.0,0.9635761589403974,0.013559322033898305,0.07407407407407408
atjwiki,False,96.0,0.0,0.0,0.9701986754966887,0.006779661016949152,0.07407407407407408
atjwiki,False,97.0,0.0,0.0,0.9768211920529801,0.0,0.07407407407407408
atjwiki,False,98.0,0.0,0.0,0.9768211920529801,0.0,0.07407407407407408
atjwiki,False,99.0,0.0,0.0,0.9768211920529801,0.0,0.07407407407407408
