wiki_db,user_is_anonymous,threshold,precision,recall,accuracy,fpr,F1
aywiki,True,0.0,0.24324324324324326,1.0,0.24324324324324326,1.0,0.391304347826087
aywiki,True,1.0,0.24324324324324326,1.0,0.24324324324324326,1.0,0.391304347826087
aywiki,True,2.0,0.24324324324324326,1.0,0.24324324324324326,1.0,0.391304347826087
aywiki,True,3.0,0.24324324324324326,1.0,0.24324324324324326,1.0,0.391304347826087
aywiki,True,4.0,0.24324324324324326,1.0,0.24324324324324326,1.0,0.391304347826087
aywiki,True,5.0,0.24324324324324326,1.0,0.24324324324324326,1.0,0.391304347826087
aywiki,True,6.0,0.24324324324324326,1.0,0.24324324324324326,1.0,0.391304347826087
aywiki,True,7.0,0.24324324324324326,1.0,0.24324324324324326,1.0,0.391304347826087
aywiki,True,8.0,0.24324324324324326,1.0,0.24324324324324326,1.0,0.391304347826087
aywiki,True,9.0,0.24324324324324326,1.0,0.24324324324324326,1.0,0.391304347826087
aywiki,True,10.0,0.24324324324324326,1.0,0.24324324324324326,1.0,0.391304347826087
aywiki,True,11.0,0.24324324324324326,1.0,0.24324324324324326,1.0,0.391304347826087
aywiki,True,12.0,0.24324324324324326,1.0,0.24324324324324326,1.0,0.391304347826087
aywiki,True,13.0,0.24324324324324326,1.0,0.24324324324324326,1.0,0.391304347826087
aywiki,True,14.0,0.24324324324324326,1.0,0.24324324324324326,1.0,0.391304347826087
aywiki,True,15.0,0.24324324324324326,1.0,0.24324324324324326,1.0,0.391304347826087
aywiki,True,16.0,0.24324324324324326,1.0,0.24324324324324326,1.0,0.391304347826087
aywiki,True,17.0,0.24324324324324326,1.0,0.24324324324324326,1.0,0.391304347826087
aywiki,True,18.0,0.24324324324324326,1.0,0.24324324324324326,1.0,0.391304347826087
aywiki,True,19.0,0.24324324324324326,1.0,0.24324324324324326,1.0,0.391304347826087
aywiki,True,20.0,0.24324324324324326,1.0,0.24324324324324326,1.0,0.391304347826087
aywiki,True,21.0,0.24324324324324326,1.0,0.24324324324324326,1.0,0.391304347826087
aywiki,True,22.0,0.24324324324324326,1.0,0.24324324324324326,1.0,0.391304347826087
aywiki,True,23.0,0.24324324324324326,1.0,0.24324324324324326,1.0,0.391304347826087
aywiki,True,24.0,0.24324324324324326,1.0,0.24324324324324326,1.0,0.391304347826087
aywiki,True,25.0,0.24324324324324326,1.0,0.24324324324324326,1.0,0.391304347826087
aywiki,True,26.0,0.24324324324324326,1.0,0.24324324324324326,1.0,0.391304347826087
aywiki,True,27.0,0.24324324324324326,1.0,0.24324324324324326,1.0,0.391304347826087
aywiki,True,28.0,0.24324324324324326,1.0,0.24324324324324326,1.0,0.391304347826087
aywiki,True,29.0,0.24324324324324326,1.0,0.24324324324324326,1.0,0.391304347826087
aywiki,True,30.0,0.24324324324324326,1.0,0.24324324324324326,1.0,0.391304347826087
aywiki,True,31.0,0.24324324324324326,1.0,0.24324324324324326,1.0,0.391304347826087
aywiki,True,32.0,0.24324324324324326,1.0,0.24324324324324326,1.0,0.391304347826087
aywiki,True,33.0,0.24324324324324326,1.0,0.24324324324324326,1.0,0.391304347826087
aywiki,True,34.0,0.24324324324324326,1.0,0.24324324324324326,1.0,0.391304347826087
aywiki,True,35.0,0.25,1.0,0.2702702702702703,0.9642857142857143,0.4
aywiki,True,36.0,0.25,1.0,0.2702702702702703,0.9642857142857143,0.4
aywiki,True,37.0,0.2571428571428571,1.0,0.2972972972972973,0.9285714285714286,0.40909090909090906
aywiki,True,38.0,0.2647058823529412,1.0,0.32432432432432434,0.8928571428571429,0.4186046511627907
aywiki,True,39.0,0.2727272727272727,1.0,0.35135135135135137,0.8571428571428571,0.42857142857142855
aywiki,True,40.0,0.2727272727272727,1.0,0.35135135135135137,0.8571428571428571,0.42857142857142855
aywiki,True,41.0,0.2727272727272727,1.0,0.35135135135135137,0.8571428571428571,0.42857142857142855
aywiki,True,42.0,0.2727272727272727,1.0,0.35135135135135137,0.8571428571428571,0.42857142857142855
aywiki,True,43.0,0.28125,1.0,0.3783783783783784,0.8214285714285714,0.43902439024390244
aywiki,True,44.0,0.28125,1.0,0.3783783783783784,0.8214285714285714,0.43902439024390244
aywiki,True,45.0,0.28125,1.0,0.3783783783783784,0.8214285714285714,0.43902439024390244
aywiki,True,46.0,0.28125,1.0,0.3783783783783784,0.8214285714285714,0.43902439024390244
aywiki,True,47.0,0.2903225806451613,1.0,0.40540540540540543,0.7857142857142857,0.45000000000000007
aywiki,True,48.0,0.2903225806451613,1.0,0.40540540540540543,0.7857142857142857,0.45000000000000007
aywiki,True,49.0,0.2903225806451613,1.0,0.40540540540540543,0.7857142857142857,0.45000000000000007
aywiki,True,50.0,0.2903225806451613,1.0,0.40540540540540543,0.7857142857142857,0.45000000000000007
aywiki,True,51.0,0.3,1.0,0.43243243243243246,0.75,0.4615384615384615
aywiki,True,52.0,0.3,1.0,0.43243243243243246,0.75,0.4615384615384615
aywiki,True,53.0,0.3,1.0,0.43243243243243246,0.75,0.4615384615384615
aywiki,True,54.0,0.3,1.0,0.43243243243243246,0.75,0.4615384615384615
aywiki,True,55.0,0.3,1.0,0.43243243243243246,0.75,0.4615384615384615
aywiki,True,56.0,0.3,1.0,0.43243243243243246,0.75,0.4615384615384615
aywiki,True,57.0,0.3,1.0,0.43243243243243246,0.75,0.4615384615384615
aywiki,True,58.0,0.3,1.0,0.43243243243243246,0.75,0.4615384615384615
aywiki,True,59.0,0.3,1.0,0.43243243243243246,0.75,0.4615384615384615
aywiki,True,60.0,0.3,1.0,0.43243243243243246,0.75,0.4615384615384615
aywiki,True,61.0,0.2857142857142857,0.8888888888888888,0.43243243243243246,0.7142857142857143,0.43243243243243246
aywiki,True,62.0,0.2857142857142857,0.8888888888888888,0.43243243243243246,0.7142857142857143,0.43243243243243246
aywiki,True,63.0,0.25925925925925924,0.7777777777777778,0.40540540540540543,0.7142857142857143,0.3888888888888889
aywiki,True,64.0,0.25925925925925924,0.7777777777777778,0.40540540540540543,0.7142857142857143,0.3888888888888889
aywiki,True,65.0,0.25925925925925924,0.7777777777777778,0.40540540540540543,0.7142857142857143,0.3888888888888889
aywiki,True,66.0,0.25925925925925924,0.7777777777777778,0.40540540540540543,0.7142857142857143,0.3888888888888889
aywiki,True,67.0,0.23076923076923078,0.6666666666666666,0.3783783783783784,0.7142857142857143,0.3428571428571429
aywiki,True,68.0,0.23076923076923078,0.6666666666666666,0.3783783783783784,0.7142857142857143,0.3428571428571429
aywiki,True,69.0,0.23076923076923078,0.6666666666666666,0.3783783783783784,0.7142857142857143,0.3428571428571429
aywiki,True,70.0,0.24,0.6666666666666666,0.40540540540540543,0.6785714285714286,0.3529411764705882
aywiki,True,71.0,0.25,0.6666666666666666,0.43243243243243246,0.6428571428571429,0.36363636363636365
aywiki,True,72.0,0.2608695652173913,0.6666666666666666,0.4594594594594595,0.6071428571428571,0.37500000000000006
aywiki,True,73.0,0.2608695652173913,0.6666666666666666,0.4594594594594595,0.6071428571428571,0.37500000000000006
aywiki,True,74.0,0.22727272727272727,0.5555555555555556,0.43243243243243246,0.6071428571428571,0.3225806451612903
aywiki,True,75.0,0.22727272727272727,0.5555555555555556,0.43243243243243246,0.6071428571428571,0.3225806451612903
aywiki,True,76.0,0.25,0.5555555555555556,0.4864864864864865,0.5357142857142857,0.3448275862068966
aywiki,True,77.0,0.25,0.5555555555555556,0.4864864864864865,0.5357142857142857,0.3448275862068966
aywiki,True,78.0,0.25,0.5555555555555556,0.4864864864864865,0.5357142857142857,0.3448275862068966
aywiki,True,79.0,0.25,0.5555555555555556,0.4864864864864865,0.5357142857142857,0.3448275862068966
aywiki,True,80.0,0.25,0.5555555555555556,0.4864864864864865,0.5357142857142857,0.3448275862068966
aywiki,True,81.0,0.25,0.5555555555555556,0.4864864864864865,0.5357142857142857,0.3448275862068966
aywiki,True,82.0,0.25,0.5555555555555556,0.4864864864864865,0.5357142857142857,0.3448275862068966
aywiki,True,83.0,0.2631578947368421,0.5555555555555556,0.5135135135135135,0.5,0.35714285714285715
aywiki,True,84.0,0.2631578947368421,0.5555555555555556,0.5135135135135135,0.5,0.35714285714285715
aywiki,True,85.0,0.2631578947368421,0.5555555555555556,0.5135135135135135,0.5,0.35714285714285715
aywiki,True,86.0,0.2631578947368421,0.5555555555555556,0.5135135135135135,0.5,0.35714285714285715
aywiki,True,87.0,0.17647058823529413,0.3333333333333333,0.4594594594594595,0.5,0.23076923076923078
aywiki,True,88.0,0.17647058823529413,0.3333333333333333,0.4594594594594595,0.5,0.23076923076923078
aywiki,True,89.0,0.1875,0.3333333333333333,0.4864864864864865,0.4642857142857143,0.24000000000000005
aywiki,True,90.0,0.23076923076923078,0.3333333333333333,0.5675675675675675,0.35714285714285715,0.27272727272727276
aywiki,True,91.0,0.2727272727272727,0.3333333333333333,0.6216216216216216,0.2857142857142857,0.3
aywiki,True,92.0,0.25,0.2222222222222222,0.6486486486486487,0.21428571428571427,0.23529411764705882
aywiki,True,93.0,0.4,0.2222222222222222,0.7297297297297297,0.10714285714285714,0.2857142857142857
aywiki,True,94.0,0.5,0.1111111111111111,0.7567567567567568,0.03571428571428571,0.1818181818181818
aywiki,True,95.0,0.5,0.1111111111111111,0.7567567567567568,0.03571428571428571,0.1818181818181818
aywiki,True,96.0,1.0,0.1111111111111111,0.7837837837837838,0.0,0.19999999999999998
aywiki,True,97.0,1.0,0.1111111111111111,0.7837837837837838,0.0,0.19999999999999998
aywiki,True,98.0,1.0,0.1111111111111111,0.7837837837837838,0.0,0.19999999999999998
aywiki,True,99.0,1.0,0.1111111111111111,0.7837837837837838,0.0,0.19999999999999998
aywiki,False,0.0,0.15384615384615385,1.0,0.15384615384615385,1.0,0.2666666666666667
aywiki,False,1.0,0.15384615384615385,1.0,0.15384615384615385,1.0,0.2666666666666667
aywiki,False,2.0,0.15384615384615385,1.0,0.15384615384615385,1.0,0.2666666666666667
aywiki,False,3.0,0.15384615384615385,1.0,0.15384615384615385,1.0,0.2666666666666667
aywiki,False,4.0,0.15384615384615385,1.0,0.15384615384615385,1.0,0.2666666666666667
aywiki,False,5.0,0.15492957746478872,1.0,0.16083916083916083,0.9917355371900827,0.26829268292682923
aywiki,False,6.0,0.15602836879432624,1.0,0.16783216783216784,0.9834710743801653,0.26993865030674846
aywiki,False,7.0,0.15602836879432624,1.0,0.16783216783216784,0.9834710743801653,0.26993865030674846
aywiki,False,8.0,0.15827338129496402,1.0,0.18181818181818182,0.9669421487603306,0.2732919254658385
aywiki,False,9.0,0.15827338129496402,1.0,0.18181818181818182,0.9669421487603306,0.2732919254658385
aywiki,False,10.0,0.15827338129496402,1.0,0.18181818181818182,0.9669421487603306,0.2732919254658385
aywiki,False,11.0,0.15942028985507245,1.0,0.1888111888111888,0.9586776859504132,0.27499999999999997
aywiki,False,12.0,0.16176470588235295,1.0,0.20279720279720279,0.9421487603305785,0.27848101265822783
aywiki,False,13.0,0.16030534351145037,0.9545454545454546,0.22377622377622378,0.9090909090909091,0.27450980392156865
aywiki,False,14.0,0.16153846153846155,0.9545454545454546,0.23076923076923078,0.9008264462809917,0.2763157894736842
aywiki,False,15.0,0.16153846153846155,0.9545454545454546,0.23076923076923078,0.9008264462809917,0.2763157894736842
aywiki,False,16.0,0.16279069767441862,0.9545454545454546,0.23776223776223776,0.8925619834710744,0.2781456953642384
aywiki,False,17.0,0.16279069767441862,0.9545454545454546,0.23776223776223776,0.8925619834710744,0.2781456953642384
aywiki,False,18.0,0.16666666666666666,0.9545454545454546,0.25874125874125875,0.8677685950413223,0.28378378378378377
aywiki,False,19.0,0.17073170731707318,0.9545454545454546,0.27972027972027974,0.8429752066115702,0.2896551724137931
aywiki,False,20.0,0.1721311475409836,0.9545454545454546,0.2867132867132867,0.8347107438016529,0.29166666666666663
aywiki,False,21.0,0.17355371900826447,0.9545454545454546,0.2937062937062937,0.8264462809917356,0.2937062937062937
aywiki,False,22.0,0.17647058823529413,0.9545454545454546,0.3076923076923077,0.8099173553719008,0.2978723404255319
aywiki,False,23.0,0.1810344827586207,0.9545454545454546,0.32867132867132864,0.7851239669421488,0.3043478260869565
aywiki,False,24.0,0.18421052631578946,0.9545454545454546,0.34265734265734266,0.768595041322314,0.3088235294117647
aywiki,False,25.0,0.18584070796460178,0.9545454545454546,0.34965034965034963,0.7603305785123967,0.3111111111111111
aywiki,False,26.0,0.1891891891891892,0.9545454545454546,0.36363636363636365,0.743801652892562,0.3157894736842105
aywiki,False,27.0,0.1891891891891892,0.9545454545454546,0.36363636363636365,0.743801652892562,0.3157894736842105
aywiki,False,28.0,0.19090909090909092,0.9545454545454546,0.3706293706293706,0.7355371900826446,0.3181818181818182
aywiki,False,29.0,0.19090909090909092,0.9545454545454546,0.3706293706293706,0.7355371900826446,0.3181818181818182
aywiki,False,30.0,0.19090909090909092,0.9545454545454546,0.3706293706293706,0.7355371900826446,0.3181818181818182
aywiki,False,31.0,0.19090909090909092,0.9545454545454546,0.3706293706293706,0.7355371900826446,0.3181818181818182
aywiki,False,32.0,0.19090909090909092,0.9545454545454546,0.3706293706293706,0.7355371900826446,0.3181818181818182
aywiki,False,33.0,0.19090909090909092,0.9545454545454546,0.3706293706293706,0.7355371900826446,0.3181818181818182
aywiki,False,34.0,0.19090909090909092,0.9545454545454546,0.3706293706293706,0.7355371900826446,0.3181818181818182
aywiki,False,35.0,0.1926605504587156,0.9545454545454546,0.3776223776223776,0.7272727272727273,0.3206106870229008
aywiki,False,36.0,0.1926605504587156,0.9545454545454546,0.3776223776223776,0.7272727272727273,0.3206106870229008
aywiki,False,37.0,0.1926605504587156,0.9545454545454546,0.3776223776223776,0.7272727272727273,0.3206106870229008
aywiki,False,38.0,0.1926605504587156,0.9545454545454546,0.3776223776223776,0.7272727272727273,0.3206106870229008
aywiki,False,39.0,0.1926605504587156,0.9545454545454546,0.3776223776223776,0.7272727272727273,0.3206106870229008
aywiki,False,40.0,0.19626168224299065,0.9545454545454546,0.3916083916083916,0.7107438016528925,0.32558139534883723
aywiki,False,41.0,0.19811320754716982,0.9545454545454546,0.3986013986013986,0.7024793388429752,0.328125
aywiki,False,42.0,0.20388349514563106,0.9545454545454546,0.4195804195804196,0.6776859504132231,0.336
aywiki,False,43.0,0.20388349514563106,0.9545454545454546,0.4195804195804196,0.6776859504132231,0.336
aywiki,False,44.0,0.21,0.9545454545454546,0.4405594405594406,0.6528925619834711,0.34426229508196726
aywiki,False,45.0,0.21,0.9545454545454546,0.4405594405594406,0.6528925619834711,0.34426229508196726
aywiki,False,46.0,0.21649484536082475,0.9545454545454546,0.46153846153846156,0.628099173553719,0.3529411764705882
aywiki,False,47.0,0.21649484536082475,0.9545454545454546,0.46153846153846156,0.628099173553719,0.3529411764705882
aywiki,False,48.0,0.21649484536082475,0.9545454545454546,0.46153846153846156,0.628099173553719,0.3529411764705882
aywiki,False,49.0,0.20833333333333334,0.9090909090909091,0.45454545454545453,0.628099173553719,0.3389830508474576
aywiki,False,50.0,0.20833333333333334,0.9090909090909091,0.45454545454545453,0.628099173553719,0.3389830508474576
aywiki,False,51.0,0.21052631578947367,0.9090909090909091,0.46153846153846156,0.6198347107438017,0.3418803418803419
aywiki,False,52.0,0.21739130434782608,0.9090909090909091,0.4825174825174825,0.5950413223140496,0.3508771929824562
aywiki,False,53.0,0.2222222222222222,0.9090909090909091,0.4965034965034965,0.5785123966942148,0.3571428571428571
aywiki,False,54.0,0.22988505747126436,0.9090909090909091,0.5174825174825175,0.5537190082644629,0.36697247706422015
aywiki,False,55.0,0.23255813953488372,0.9090909090909091,0.5244755244755245,0.5454545454545454,0.3703703703703703
aywiki,False,56.0,0.24096385542168675,0.9090909090909091,0.5454545454545454,0.5206611570247934,0.38095238095238093
aywiki,False,57.0,0.2375,0.8636363636363636,0.5524475524475524,0.5041322314049587,0.37254901960784315
aywiki,False,58.0,0.24050632911392406,0.8636363636363636,0.5594405594405595,0.49586776859504134,0.37623762376237624
aywiki,False,59.0,0.24358974358974358,0.8636363636363636,0.5664335664335665,0.48760330578512395,0.38000000000000006
aywiki,False,60.0,0.24675324675324675,0.8636363636363636,0.5734265734265734,0.4793388429752066,0.3838383838383838
aywiki,False,61.0,0.2222222222222222,0.7272727272727273,0.5664335664335665,0.4628099173553719,0.3404255319148936
aywiki,False,62.0,0.2318840579710145,0.7272727272727273,0.5874125874125874,0.4380165289256198,0.3516483516483516
aywiki,False,63.0,0.21875,0.6363636363636364,0.5944055944055944,0.4132231404958678,0.3255813953488372
aywiki,False,64.0,0.2222222222222222,0.6363636363636364,0.6013986013986014,0.4049586776859504,0.32941176470588235
aywiki,False,65.0,0.17543859649122806,0.45454545454545453,0.5874125874125874,0.3884297520661157,0.25316455696202533
aywiki,False,66.0,0.18518518518518517,0.45454545454545453,0.6083916083916084,0.36363636363636365,0.2631578947368421
aywiki,False,67.0,0.17307692307692307,0.4090909090909091,0.6083916083916084,0.35537190082644626,0.24324324324324326
aywiki,False,68.0,0.16666666666666666,0.36363636363636365,0.6223776223776224,0.3305785123966942,0.2285714285714286
aywiki,False,69.0,0.15217391304347827,0.3181818181818182,0.6223776223776224,0.32231404958677684,0.2058823529411765
aywiki,False,70.0,0.16279069767441862,0.3181818181818182,0.6433566433566433,0.2975206611570248,0.2153846153846154
aywiki,False,71.0,0.17073170731707318,0.3181818181818182,0.6573426573426573,0.2809917355371901,0.22222222222222224
aywiki,False,72.0,0.15384615384615385,0.2727272727272727,0.6573426573426573,0.2727272727272727,0.19672131147540986
aywiki,False,73.0,0.16666666666666666,0.2727272727272727,0.6783216783216783,0.24793388429752067,0.20689655172413793
aywiki,False,74.0,0.2,0.2727272727272727,0.7202797202797203,0.19834710743801653,0.23076923076923075
aywiki,False,75.0,0.2,0.2727272727272727,0.7202797202797203,0.19834710743801653,0.23076923076923075
aywiki,False,76.0,0.2,0.2727272727272727,0.7202797202797203,0.19834710743801653,0.23076923076923075
aywiki,False,77.0,0.21428571428571427,0.2727272727272727,0.7342657342657343,0.18181818181818182,0.23999999999999996
aywiki,False,78.0,0.2222222222222222,0.2727272727272727,0.7412587412587412,0.17355371900826447,0.24489795918367346
aywiki,False,79.0,0.24,0.2727272727272727,0.7552447552447552,0.15702479338842976,0.2553191489361702
aywiki,False,80.0,0.25,0.2727272727272727,0.7622377622377622,0.1487603305785124,0.2608695652173913
aywiki,False,81.0,0.22727272727272727,0.22727272727272727,0.7622377622377622,0.14049586776859505,0.22727272727272727
aywiki,False,82.0,0.21052631578947367,0.18181818181818182,0.7692307692307693,0.12396694214876033,0.1951219512195122
aywiki,False,83.0,0.23529411764705882,0.18181818181818182,0.7832167832167832,0.10743801652892562,0.20512820512820512
aywiki,False,84.0,0.2857142857142857,0.18181818181818182,0.8041958041958042,0.08264462809917356,0.2222222222222222
aywiki,False,85.0,0.3333333333333333,0.18181818181818182,0.8181818181818182,0.06611570247933884,0.23529411764705885
aywiki,False,86.0,0.4444444444444444,0.18181818181818182,0.8391608391608392,0.04132231404958678,0.2580645161290322
aywiki,False,87.0,0.4,0.09090909090909091,0.8391608391608392,0.024793388429752067,0.14814814814814814
aywiki,False,88.0,0.5,0.09090909090909091,0.8461538461538461,0.01652892561983471,0.15384615384615385
aywiki,False,89.0,0.5,0.09090909090909091,0.8461538461538461,0.01652892561983471,0.15384615384615385
aywiki,False,90.0,0.5,0.09090909090909091,0.8461538461538461,0.01652892561983471,0.15384615384615385
aywiki,False,91.0,0.5,0.09090909090909091,0.8461538461538461,0.01652892561983471,0.15384615384615385
aywiki,False,92.0,0.6666666666666666,0.09090909090909091,0.8531468531468531,0.008264462809917356,0.16
aywiki,False,93.0,0.6666666666666666,0.09090909090909091,0.8531468531468531,0.008264462809917356,0.16
aywiki,False,94.0,0.5,0.045454545454545456,0.8461538461538461,0.008264462809917356,0.08333333333333334
aywiki,False,95.0,0.5,0.045454545454545456,0.8461538461538461,0.008264462809917356,0.08333333333333334
aywiki,False,96.0,0.5,0.045454545454545456,0.8461538461538461,0.008264462809917356,0.08333333333333334
aywiki,False,97.0,0.5,0.045454545454545456,0.8461538461538461,0.008264462809917356,0.08333333333333334
aywiki,False,98.0,0.5,0.045454545454545456,0.8461538461538461,0.008264462809917356,0.08333333333333334
aywiki,False,99.0,1.0,0.045454545454545456,0.8531468531468531,0.0,0.08695652173913045
