wiki_db,user_is_anonymous,threshold,precision,recall,accuracy,fpr,F1
chrwiki,True,0.0,0.3153846153846154,1.0,0.3153846153846154,1.0,0.47953216374269003
chrwiki,True,1.0,0.3153846153846154,1.0,0.3153846153846154,1.0,0.47953216374269003
chrwiki,True,2.0,0.3153846153846154,1.0,0.3153846153846154,1.0,0.47953216374269003
chrwiki,True,3.0,0.3153846153846154,1.0,0.3153846153846154,1.0,0.47953216374269003
chrwiki,True,4.0,0.3153846153846154,1.0,0.3153846153846154,1.0,0.47953216374269003
chrwiki,True,5.0,0.3153846153846154,1.0,0.3153846153846154,1.0,0.47953216374269003
chrwiki,True,6.0,0.3153846153846154,1.0,0.3153846153846154,1.0,0.47953216374269003
chrwiki,True,7.0,0.3153846153846154,1.0,0.3153846153846154,1.0,0.47953216374269003
chrwiki,True,8.0,0.3153846153846154,1.0,0.3153846153846154,1.0,0.47953216374269003
chrwiki,True,9.0,0.3153846153846154,1.0,0.3153846153846154,1.0,0.47953216374269003
chrwiki,True,10.0,0.3153846153846154,1.0,0.3153846153846154,1.0,0.47953216374269003
chrwiki,True,11.0,0.3153846153846154,1.0,0.3153846153846154,1.0,0.47953216374269003
chrwiki,True,12.0,0.3153846153846154,1.0,0.3153846153846154,1.0,0.47953216374269003
chrwiki,True,13.0,0.3153846153846154,1.0,0.3153846153846154,1.0,0.47953216374269003
chrwiki,True,14.0,0.3153846153846154,1.0,0.3153846153846154,1.0,0.47953216374269003
chrwiki,True,15.0,0.3153846153846154,1.0,0.3153846153846154,1.0,0.47953216374269003
chrwiki,True,16.0,0.3153846153846154,1.0,0.3153846153846154,1.0,0.47953216374269003
chrwiki,True,17.0,0.3153846153846154,1.0,0.3153846153846154,1.0,0.47953216374269003
chrwiki,True,18.0,0.3153846153846154,1.0,0.3153846153846154,1.0,0.47953216374269003
chrwiki,True,19.0,0.3153846153846154,1.0,0.3153846153846154,1.0,0.47953216374269003
chrwiki,True,20.0,0.3153846153846154,1.0,0.3153846153846154,1.0,0.47953216374269003
chrwiki,True,21.0,0.3153846153846154,1.0,0.3153846153846154,1.0,0.47953216374269003
chrwiki,True,22.0,0.3153846153846154,1.0,0.3153846153846154,1.0,0.47953216374269003
chrwiki,True,23.0,0.3153846153846154,1.0,0.3153846153846154,1.0,0.47953216374269003
chrwiki,True,24.0,0.3153846153846154,1.0,0.3153846153846154,1.0,0.47953216374269003
chrwiki,True,25.0,0.3153846153846154,1.0,0.3153846153846154,1.0,0.47953216374269003
chrwiki,True,26.0,0.3153846153846154,1.0,0.3153846153846154,1.0,0.47953216374269003
chrwiki,True,27.0,0.3153846153846154,1.0,0.3153846153846154,1.0,0.47953216374269003
chrwiki,True,28.0,0.3153846153846154,1.0,0.3153846153846154,1.0,0.47953216374269003
chrwiki,True,29.0,0.3178294573643411,1.0,0.3230769230769231,0.9887640449438202,0.48235294117647054
chrwiki,True,30.0,0.3178294573643411,1.0,0.3230769230769231,0.9887640449438202,0.48235294117647054
chrwiki,True,31.0,0.3178294573643411,1.0,0.3230769230769231,0.9887640449438202,0.48235294117647054
chrwiki,True,32.0,0.3178294573643411,1.0,0.3230769230769231,0.9887640449438202,0.48235294117647054
chrwiki,True,33.0,0.3178294573643411,1.0,0.3230769230769231,0.9887640449438202,0.48235294117647054
chrwiki,True,34.0,0.3178294573643411,1.0,0.3230769230769231,0.9887640449438202,0.48235294117647054
chrwiki,True,35.0,0.3178294573643411,1.0,0.3230769230769231,0.9887640449438202,0.48235294117647054
chrwiki,True,36.0,0.3178294573643411,1.0,0.3230769230769231,0.9887640449438202,0.48235294117647054
chrwiki,True,37.0,0.3178294573643411,1.0,0.3230769230769231,0.9887640449438202,0.48235294117647054
chrwiki,True,38.0,0.3178294573643411,1.0,0.3230769230769231,0.9887640449438202,0.48235294117647054
chrwiki,True,39.0,0.3203125,1.0,0.33076923076923076,0.9775280898876404,0.48520710059171596
chrwiki,True,40.0,0.3203125,1.0,0.33076923076923076,0.9775280898876404,0.48520710059171596
chrwiki,True,41.0,0.3203125,1.0,0.33076923076923076,0.9775280898876404,0.48520710059171596
chrwiki,True,42.0,0.3203125,1.0,0.33076923076923076,0.9775280898876404,0.48520710059171596
chrwiki,True,43.0,0.3203125,1.0,0.33076923076923076,0.9775280898876404,0.48520710059171596
chrwiki,True,44.0,0.3203125,1.0,0.33076923076923076,0.9775280898876404,0.48520710059171596
chrwiki,True,45.0,0.3203125,1.0,0.33076923076923076,0.9775280898876404,0.48520710059171596
chrwiki,True,46.0,0.3203125,1.0,0.33076923076923076,0.9775280898876404,0.48520710059171596
chrwiki,True,47.0,0.3203125,1.0,0.33076923076923076,0.9775280898876404,0.48520710059171596
chrwiki,True,48.0,0.3203125,1.0,0.33076923076923076,0.9775280898876404,0.48520710059171596
chrwiki,True,49.0,0.3203125,1.0,0.33076923076923076,0.9775280898876404,0.48520710059171596
chrwiki,True,50.0,0.3203125,1.0,0.33076923076923076,0.9775280898876404,0.48520710059171596
chrwiki,True,51.0,0.3203125,1.0,0.33076923076923076,0.9775280898876404,0.48520710059171596
chrwiki,True,52.0,0.3203125,1.0,0.33076923076923076,0.9775280898876404,0.48520710059171596
chrwiki,True,53.0,0.3228346456692913,1.0,0.3384615384615385,0.9662921348314607,0.48809523809523814
chrwiki,True,54.0,0.3228346456692913,1.0,0.3384615384615385,0.9662921348314607,0.48809523809523814
chrwiki,True,55.0,0.3228346456692913,1.0,0.3384615384615385,0.9662921348314607,0.48809523809523814
chrwiki,True,56.0,0.3228346456692913,1.0,0.3384615384615385,0.9662921348314607,0.48809523809523814
chrwiki,True,57.0,0.3228346456692913,1.0,0.3384615384615385,0.9662921348314607,0.48809523809523814
chrwiki,True,58.0,0.3228346456692913,1.0,0.3384615384615385,0.9662921348314607,0.48809523809523814
chrwiki,True,59.0,0.3228346456692913,1.0,0.3384615384615385,0.9662921348314607,0.48809523809523814
chrwiki,True,60.0,0.3228346456692913,1.0,0.3384615384615385,0.9662921348314607,0.48809523809523814
chrwiki,True,61.0,0.312,0.9512195121951219,0.3230769230769231,0.9662921348314607,0.4698795180722891
chrwiki,True,62.0,0.3170731707317073,0.9512195121951219,0.3384615384615385,0.9438202247191011,0.47560975609756095
chrwiki,True,63.0,0.319672131147541,0.9512195121951219,0.34615384615384615,0.9325842696629213,0.47852760736196326
chrwiki,True,64.0,0.31932773109243695,0.926829268292683,0.35384615384615387,0.9101123595505618,0.4749999999999999
chrwiki,True,65.0,0.30973451327433627,0.8536585365853658,0.35384615384615387,0.8764044943820225,0.45454545454545453
chrwiki,True,66.0,0.30973451327433627,0.8536585365853658,0.35384615384615387,0.8764044943820225,0.45454545454545453
chrwiki,True,67.0,0.3090909090909091,0.8292682926829268,0.36153846153846153,0.8539325842696629,0.4503311258278146
chrwiki,True,68.0,0.3142857142857143,0.8048780487804879,0.38461538461538464,0.8089887640449438,0.4520547945205479
chrwiki,True,69.0,0.30851063829787234,0.7073170731707317,0.4076923076923077,0.7303370786516854,0.4296296296296296
chrwiki,True,70.0,0.3010752688172043,0.6829268292682927,0.4,0.7303370786516854,0.417910447761194
chrwiki,True,71.0,0.3010752688172043,0.6829268292682927,0.4,0.7303370786516854,0.417910447761194
chrwiki,True,72.0,0.3010752688172043,0.6829268292682927,0.4,0.7303370786516854,0.417910447761194
chrwiki,True,73.0,0.3010752688172043,0.6829268292682927,0.4,0.7303370786516854,0.417910447761194
chrwiki,True,74.0,0.29545454545454547,0.6341463414634146,0.4076923076923077,0.6966292134831461,0.40310077519379844
chrwiki,True,75.0,0.28205128205128205,0.5365853658536586,0.4230769230769231,0.6292134831460674,0.3697478991596639
chrwiki,True,76.0,0.2857142857142857,0.5365853658536586,0.4307692307692308,0.6179775280898876,0.37288135593220334
chrwiki,True,77.0,0.29333333333333333,0.5365853658536586,0.4461538461538462,0.5955056179775281,0.37931034482758624
chrwiki,True,78.0,0.29333333333333333,0.5365853658536586,0.4461538461538462,0.5955056179775281,0.37931034482758624
chrwiki,True,79.0,0.28169014084507044,0.4878048780487805,0.4461538461538462,0.5730337078651685,0.3571428571428571
chrwiki,True,80.0,0.2753623188405797,0.4634146341463415,0.4461538461538462,0.5617977528089888,0.3454545454545454
chrwiki,True,81.0,0.27941176470588236,0.4634146341463415,0.45384615384615384,0.550561797752809,0.34862385321100914
chrwiki,True,82.0,0.27941176470588236,0.4634146341463415,0.45384615384615384,0.550561797752809,0.34862385321100914
chrwiki,True,83.0,0.28125,0.43902439024390244,0.46923076923076923,0.5168539325842697,0.34285714285714286
chrwiki,True,84.0,0.26666666666666666,0.3902439024390244,0.46923076923076923,0.4943820224719101,0.3168316831683168
chrwiki,True,85.0,0.2727272727272727,0.36585365853658536,0.49230769230769234,0.449438202247191,0.31249999999999994
chrwiki,True,86.0,0.28846153846153844,0.36585365853658536,0.5153846153846153,0.4157303370786517,0.3225806451612903
chrwiki,True,87.0,0.27906976744186046,0.2926829268292683,0.5384615384615384,0.34831460674157305,0.2857142857142857
chrwiki,True,88.0,0.2631578947368421,0.24390243902439024,0.5461538461538461,0.3146067415730337,0.25316455696202533
chrwiki,True,89.0,0.32142857142857145,0.21951219512195122,0.6076923076923076,0.21348314606741572,0.2608695652173913
chrwiki,True,90.0,0.34615384615384615,0.21951219512195122,0.6230769230769231,0.19101123595505617,0.26865671641791045
chrwiki,True,91.0,0.35,0.17073170731707318,0.6384615384615384,0.14606741573033707,0.22950819672131145
chrwiki,True,92.0,0.3,0.07317073170731707,0.6538461538461539,0.07865168539325842,0.11764705882352941
chrwiki,True,93.0,0.42857142857142855,0.07317073170731707,0.676923076923077,0.0449438202247191,0.125
chrwiki,True,94.0,0.6666666666666666,0.04878048780487805,0.6923076923076923,0.011235955056179775,0.0909090909090909
chrwiki,True,95.0,1.0,0.04878048780487805,0.7,0.0,0.09302325581395349
chrwiki,True,96.0,1.0,0.0,0.6846153846153846,0.0,0.0
chrwiki,True,97.0,1.0,0.0,0.6846153846153846,0.0,0.0
chrwiki,True,98.0,1.0,0.0,0.6846153846153846,0.0,0.0
chrwiki,True,99.0,1.0,0.0,0.6846153846153846,0.0,0.0
chrwiki,False,0.0,0.027777777777777776,1.0,0.027777777777777776,1.0,0.05405405405405406
chrwiki,False,1.0,0.027777777777777776,1.0,0.027777777777777776,1.0,0.05405405405405406
chrwiki,False,2.0,0.027777777777777776,1.0,0.027777777777777776,1.0,0.05405405405405406
chrwiki,False,3.0,0.027777777777777776,1.0,0.027777777777777776,1.0,0.05405405405405406
chrwiki,False,4.0,0.027777777777777776,1.0,0.027777777777777776,1.0,0.05405405405405406
chrwiki,False,5.0,0.027777777777777776,1.0,0.027777777777777776,1.0,0.05405405405405406
chrwiki,False,6.0,0.027777777777777776,1.0,0.027777777777777776,1.0,0.05405405405405406
chrwiki,False,7.0,0.027777777777777776,1.0,0.027777777777777776,1.0,0.05405405405405406
chrwiki,False,8.0,0.027777777777777776,1.0,0.027777777777777776,1.0,0.05405405405405406
chrwiki,False,9.0,0.027777777777777776,1.0,0.027777777777777776,1.0,0.05405405405405406
chrwiki,False,10.0,0.027777777777777776,1.0,0.027777777777777776,1.0,0.05405405405405406
chrwiki,False,11.0,0.027777777777777776,1.0,0.027777777777777776,1.0,0.05405405405405406
chrwiki,False,12.0,0.027777777777777776,1.0,0.027777777777777776,1.0,0.05405405405405406
chrwiki,False,13.0,0.027777777777777776,1.0,0.027777777777777776,1.0,0.05405405405405406
chrwiki,False,14.0,0.027777777777777776,1.0,0.027777777777777776,1.0,0.05405405405405406
chrwiki,False,15.0,0.027777777777777776,1.0,0.027777777777777776,1.0,0.05405405405405406
chrwiki,False,16.0,0.027777777777777776,1.0,0.027777777777777776,1.0,0.05405405405405406
chrwiki,False,17.0,0.028037383177570093,1.0,0.037037037037037035,0.9904761904761905,0.05454545454545455
chrwiki,False,18.0,0.028037383177570093,1.0,0.037037037037037035,0.9904761904761905,0.05454545454545455
chrwiki,False,19.0,0.028037383177570093,1.0,0.037037037037037035,0.9904761904761905,0.05454545454545455
chrwiki,False,20.0,0.028037383177570093,1.0,0.037037037037037035,0.9904761904761905,0.05454545454545455
chrwiki,False,21.0,0.028037383177570093,1.0,0.037037037037037035,0.9904761904761905,0.05454545454545455
chrwiki,False,22.0,0.028037383177570093,1.0,0.037037037037037035,0.9904761904761905,0.05454545454545455
chrwiki,False,23.0,0.028037383177570093,1.0,0.037037037037037035,0.9904761904761905,0.05454545454545455
chrwiki,False,24.0,0.02830188679245283,1.0,0.046296296296296294,0.9809523809523809,0.055045871559633024
chrwiki,False,25.0,0.02857142857142857,1.0,0.05555555555555555,0.9714285714285714,0.05555555555555556
chrwiki,False,26.0,0.02857142857142857,1.0,0.05555555555555555,0.9714285714285714,0.05555555555555556
chrwiki,False,27.0,0.029411764705882353,1.0,0.08333333333333333,0.9428571428571428,0.05714285714285715
chrwiki,False,28.0,0.030303030303030304,1.0,0.1111111111111111,0.9142857142857143,0.05882352941176471
chrwiki,False,29.0,0.03125,1.0,0.1388888888888889,0.8857142857142857,0.06060606060606061
chrwiki,False,30.0,0.031578947368421054,1.0,0.14814814814814814,0.8761904761904762,0.061224489795918366
chrwiki,False,31.0,0.03225806451612903,1.0,0.16666666666666666,0.8571428571428571,0.0625
chrwiki,False,32.0,0.03296703296703297,1.0,0.18518518518518517,0.8380952380952381,0.06382978723404255
chrwiki,False,33.0,0.03409090909090909,1.0,0.21296296296296297,0.8095238095238095,0.06593406593406592
chrwiki,False,34.0,0.022988505747126436,0.6666666666666666,0.2037037037037037,0.8095238095238095,0.044444444444444446
chrwiki,False,35.0,0.023255813953488372,0.6666666666666666,0.21296296296296297,0.8,0.0449438202247191
chrwiki,False,36.0,0.023529411764705882,0.6666666666666666,0.2222222222222222,0.7904761904761904,0.045454545454545456
chrwiki,False,37.0,0.024390243902439025,0.6666666666666666,0.25,0.7619047619047619,0.047058823529411764
chrwiki,False,38.0,0.024390243902439025,0.6666666666666666,0.25,0.7619047619047619,0.047058823529411764
chrwiki,False,39.0,0.02531645569620253,0.6666666666666666,0.2777777777777778,0.7333333333333333,0.048780487804878044
chrwiki,False,40.0,0.02631578947368421,0.6666666666666666,0.3055555555555556,0.7047619047619048,0.05063291139240506
chrwiki,False,41.0,0.02631578947368421,0.6666666666666666,0.3055555555555556,0.7047619047619048,0.05063291139240506
chrwiki,False,42.0,0.02631578947368421,0.6666666666666666,0.3055555555555556,0.7047619047619048,0.05063291139240506
chrwiki,False,43.0,0.02666666666666667,0.6666666666666666,0.3148148148148148,0.6952380952380952,0.05128205128205129
chrwiki,False,44.0,0.027777777777777776,0.6666666666666666,0.3425925925925926,0.6666666666666666,0.05333333333333333
chrwiki,False,45.0,0.027777777777777776,0.6666666666666666,0.3425925925925926,0.6666666666666666,0.05333333333333333
chrwiki,False,46.0,0.027777777777777776,0.6666666666666666,0.3425925925925926,0.6666666666666666,0.05333333333333333
chrwiki,False,47.0,0.028985507246376812,0.6666666666666666,0.37037037037037035,0.638095238095238,0.05555555555555555
chrwiki,False,48.0,0.029411764705882353,0.6666666666666666,0.37962962962962965,0.6285714285714286,0.056338028169014086
chrwiki,False,49.0,0.030303030303030304,0.6666666666666666,0.39814814814814814,0.6095238095238096,0.057971014492753624
chrwiki,False,50.0,0.03076923076923077,0.6666666666666666,0.4074074074074074,0.6,0.05882352941176471
chrwiki,False,51.0,0.016129032258064516,0.3333333333333333,0.4166666666666667,0.580952380952381,0.03076923076923077
chrwiki,False,52.0,0.01639344262295082,0.3333333333333333,0.42592592592592593,0.5714285714285714,0.03125
chrwiki,False,53.0,0.01639344262295082,0.3333333333333333,0.42592592592592593,0.5714285714285714,0.03125
chrwiki,False,54.0,0.016666666666666666,0.3333333333333333,0.4351851851851852,0.5619047619047619,0.031746031746031744
chrwiki,False,55.0,0.01694915254237288,0.3333333333333333,0.4444444444444444,0.5523809523809524,0.03225806451612903
chrwiki,False,56.0,0.01694915254237288,0.3333333333333333,0.4444444444444444,0.5523809523809524,0.03225806451612903
chrwiki,False,57.0,0.01818181818181818,0.3333333333333333,0.48148148148148145,0.5142857142857142,0.034482758620689655
chrwiki,False,58.0,0.018867924528301886,0.3333333333333333,0.5,0.49523809523809526,0.03571428571428571
chrwiki,False,59.0,0.02,0.3333333333333333,0.5277777777777778,0.4666666666666667,0.03773584905660377
chrwiki,False,60.0,0.02127659574468085,0.3333333333333333,0.5555555555555556,0.4380952380952381,0.04
chrwiki,False,61.0,0.022222222222222223,0.3333333333333333,0.5740740740740741,0.41904761904761906,0.04166666666666667
chrwiki,False,62.0,0.023809523809523808,0.3333333333333333,0.6018518518518519,0.3904761904761905,0.044444444444444446
chrwiki,False,63.0,0.02564102564102564,0.3333333333333333,0.6296296296296297,0.3619047619047619,0.047619047619047616
chrwiki,False,64.0,0.02702702702702703,0.3333333333333333,0.6481481481481481,0.34285714285714286,0.05
chrwiki,False,65.0,0.029411764705882353,0.3333333333333333,0.6759259259259259,0.3142857142857143,0.05405405405405406
chrwiki,False,66.0,0.030303030303030304,0.3333333333333333,0.6851851851851852,0.3047619047619048,0.05555555555555555
chrwiki,False,67.0,0.03125,0.3333333333333333,0.6944444444444444,0.29523809523809524,0.05714285714285714
chrwiki,False,68.0,0.03333333333333333,0.3333333333333333,0.7129629629629629,0.2761904761904762,0.0606060606060606
chrwiki,False,69.0,0.03333333333333333,0.3333333333333333,0.7129629629629629,0.2761904761904762,0.0606060606060606
chrwiki,False,70.0,0.03333333333333333,0.3333333333333333,0.7129629629629629,0.2761904761904762,0.0606060606060606
chrwiki,False,71.0,0.037037037037037035,0.3333333333333333,0.7407407407407407,0.24761904761904763,0.06666666666666667
chrwiki,False,72.0,0.037037037037037035,0.3333333333333333,0.7407407407407407,0.24761904761904763,0.06666666666666667
chrwiki,False,73.0,0.038461538461538464,0.3333333333333333,0.75,0.23809523809523808,0.06896551724137931
chrwiki,False,74.0,0.041666666666666664,0.3333333333333333,0.7685185185185185,0.21904761904761905,0.07407407407407407
chrwiki,False,75.0,0.041666666666666664,0.3333333333333333,0.7685185185185185,0.21904761904761905,0.07407407407407407
chrwiki,False,76.0,0.045454545454545456,0.3333333333333333,0.7870370370370371,0.2,0.08
chrwiki,False,77.0,0.045454545454545456,0.3333333333333333,0.7870370370370371,0.2,0.08
chrwiki,False,78.0,0.047619047619047616,0.3333333333333333,0.7962962962962963,0.19047619047619047,0.08333333333333333
chrwiki,False,79.0,0.05555555555555555,0.3333333333333333,0.8240740740740741,0.1619047619047619,0.09523809523809525
chrwiki,False,80.0,0.058823529411764705,0.3333333333333333,0.8333333333333334,0.1523809523809524,0.1
chrwiki,False,81.0,0.07142857142857142,0.3333333333333333,0.8611111111111112,0.12380952380952381,0.11764705882352941
chrwiki,False,82.0,0.07142857142857142,0.3333333333333333,0.8611111111111112,0.12380952380952381,0.11764705882352941
chrwiki,False,83.0,0.07692307692307693,0.3333333333333333,0.8703703703703703,0.11428571428571428,0.125
chrwiki,False,84.0,0.08333333333333333,0.3333333333333333,0.8796296296296297,0.10476190476190476,0.13333333333333333
chrwiki,False,85.0,0.08333333333333333,0.3333333333333333,0.8796296296296297,0.10476190476190476,0.13333333333333333
chrwiki,False,86.0,0.09090909090909091,0.3333333333333333,0.8888888888888888,0.09523809523809523,0.14285714285714288
chrwiki,False,87.0,0.1,0.3333333333333333,0.8981481481481481,0.08571428571428572,0.15384615384615383
chrwiki,False,88.0,0.1,0.3333333333333333,0.8981481481481481,0.08571428571428572,0.15384615384615383
chrwiki,False,89.0,0.1111111111111111,0.3333333333333333,0.9074074074074074,0.0761904761904762,0.16666666666666666
chrwiki,False,90.0,0.0,0.0,0.9259259259259259,0.047619047619047616,0.16666666666666666
chrwiki,False,91.0,0.0,0.0,0.9351851851851852,0.0380952380952381,0.16666666666666666
chrwiki,False,92.0,0.0,0.0,0.9444444444444444,0.02857142857142857,0.16666666666666666
chrwiki,False,93.0,0.0,0.0,0.9537037037037037,0.01904761904761905,0.16666666666666666
chrwiki,False,94.0,0.0,0.0,0.9629629629629629,0.009523809523809525,0.16666666666666666
chrwiki,False,95.0,0.0,0.0,0.9722222222222222,0.0,0.16666666666666666
chrwiki,False,96.0,0.0,0.0,0.9722222222222222,0.0,0.16666666666666666
chrwiki,False,97.0,0.0,0.0,0.9722222222222222,0.0,0.16666666666666666
chrwiki,False,98.0,0.0,0.0,0.9722222222222222,0.0,0.16666666666666666
chrwiki,False,99.0,0.0,0.0,0.9722222222222222,0.0,0.16666666666666666
