wiki_db,user_is_anonymous,threshold,precision,recall,accuracy,fpr,F1
ckbwiki,True,0.0,0.3773069036226931,1.0,0.3773069036226931,1.0,0.5478908188585608
ckbwiki,True,1.0,0.3773069036226931,1.0,0.3773069036226931,1.0,0.5478908188585608
ckbwiki,True,2.0,0.3773069036226931,1.0,0.3773069036226931,1.0,0.5478908188585608
ckbwiki,True,3.0,0.3773069036226931,1.0,0.3773069036226931,1.0,0.5478908188585608
ckbwiki,True,4.0,0.3773069036226931,1.0,0.3773069036226931,1.0,0.5478908188585608
ckbwiki,True,5.0,0.3773069036226931,1.0,0.3773069036226931,1.0,0.5478908188585608
ckbwiki,True,6.0,0.3773069036226931,1.0,0.3773069036226931,1.0,0.5478908188585608
ckbwiki,True,7.0,0.3773069036226931,1.0,0.3773069036226931,1.0,0.5478908188585608
ckbwiki,True,8.0,0.3773069036226931,1.0,0.3773069036226931,1.0,0.5478908188585608
ckbwiki,True,9.0,0.3773069036226931,1.0,0.3773069036226931,1.0,0.5478908188585608
ckbwiki,True,10.0,0.3773069036226931,1.0,0.3773069036226931,1.0,0.5478908188585608
ckbwiki,True,11.0,0.3773069036226931,1.0,0.3773069036226931,1.0,0.5478908188585608
ckbwiki,True,12.0,0.37756497948016415,1.0,0.37799043062200954,0.9989023051591658,0.548162859980139
ckbwiki,True,13.0,0.37756497948016415,1.0,0.37799043062200954,0.9989023051591658,0.548162859980139
ckbwiki,True,14.0,0.37782340862423,1.0,0.37867395762132605,0.9978046103183315,0.5484351713859911
ckbwiki,True,15.0,0.3780821917808219,1.0,0.3793574846206425,0.9967069154774972,0.5487077534791253
ckbwiki,True,16.0,0.37834132967786155,1.0,0.380041011619959,0.995609220636663,0.5489806066633516
ckbwiki,True,17.0,0.37834132967786155,1.0,0.380041011619959,0.995609220636663,0.5489806066633516
ckbwiki,True,18.0,0.3786008230452675,1.0,0.38072453861927547,0.9945115257958288,0.5492537313432836
ckbwiki,True,19.0,0.3786008230452675,1.0,0.38072453861927547,0.9945115257958288,0.5492537313432836
ckbwiki,True,20.0,0.37886067261496226,1.0,0.3814080656185919,0.9934138309549945,0.5495271279243404
ckbwiki,True,21.0,0.37886067261496226,1.0,0.3814080656185919,0.9934138309549945,0.5495271279243404
ckbwiki,True,22.0,0.37886067261496226,1.0,0.3814080656185919,0.9934138309549945,0.5495271279243404
ckbwiki,True,23.0,0.3791208791208791,1.0,0.3820915926179084,0.9923161361141603,0.549800796812749
ckbwiki,True,24.0,0.3791208791208791,1.0,0.3820915926179084,0.9923161361141603,0.549800796812749
ckbwiki,True,25.0,0.3791208791208791,1.0,0.3820915926179084,0.9923161361141603,0.549800796812749
ckbwiki,True,26.0,0.37938144329896906,1.0,0.3827751196172249,0.991218441273326,0.5500747384155455
ckbwiki,True,27.0,0.37938144329896906,1.0,0.3827751196172249,0.991218441273326,0.5500747384155455
ckbwiki,True,28.0,0.3796423658872077,1.0,0.38345864661654133,0.9901207464324918,0.5503489531405782
ckbwiki,True,29.0,0.38068965517241377,1.0,0.38619275461380725,0.9857299670691547,0.5514485514485514
ckbwiki,True,30.0,0.38095238095238093,1.0,0.3868762816131237,0.9846322722283205,0.5517241379310345
ckbwiki,True,31.0,0.38095238095238093,1.0,0.3868762816131237,0.9846322722283205,0.5517241379310345
ckbwiki,True,32.0,0.38147892190739463,1.0,0.38824333561175667,0.9824368825466521,0.5522761380690345
ckbwiki,True,33.0,0.3817427385892116,1.0,0.3889268626110731,0.9813391877058177,0.5525525525525525
ckbwiki,True,34.0,0.38200692041522494,1.0,0.38961038961038963,0.9802414928649835,0.5528292438657987
ckbwiki,True,35.0,0.3828016643550624,1.0,0.39166097060833904,0.9769484083424808,0.5536609829488465
ckbwiki,True,36.0,0.3828016643550624,1.0,0.39166097060833904,0.9769484083424808,0.5536609829488465
ckbwiki,True,37.0,0.38333333333333336,1.0,0.39302802460697195,0.9747530186608123,0.5542168674698795
ckbwiki,True,38.0,0.38359972202918696,1.0,0.39371155160628846,0.973655323819978,0.5544952285283777
ckbwiki,True,39.0,0.38440111420612816,1.0,0.39576213260423787,0.9703622392974753,0.5553319919517103
ckbwiki,True,40.0,0.3842398884239888,0.9981884057971014,0.39576213260423787,0.969264544456641,0.5548841893252769
ckbwiki,True,41.0,0.3842398884239888,0.9981884057971014,0.39576213260423787,0.969264544456641,0.5548841893252769
ckbwiki,True,42.0,0.3853146853146853,0.9981884057971014,0.39849624060150374,0.964873765093304,0.5560040363269425
ckbwiki,True,43.0,0.3858543417366947,0.9981884057971014,0.3998632946001367,0.9626783754116356,0.5565656565656566
ckbwiki,True,44.0,0.38666666666666666,0.9981884057971014,0.4019138755980861,0.9593852908891328,0.5574102175012645
ckbwiki,True,45.0,0.386938202247191,0.9981884057971014,0.4025974025974026,0.9582875960482986,0.5576923076923077
ckbwiki,True,46.0,0.38705137227304715,0.9963768115942029,0.4032809295967191,0.9560922063666301,0.5575266092245311
ckbwiki,True,47.0,0.3875968992248062,0.9963768115942029,0.40464798359535203,0.9538968166849616,0.5580923389142568
ckbwiki,True,48.0,0.38787023977433005,0.9963768115942029,0.4053315105946685,0.9527991218441273,0.5583756345177665
ckbwiki,True,49.0,0.3884180790960452,0.9963768115942029,0.40669856459330145,0.9506037321624589,0.5589430894308943
ckbwiki,True,50.0,0.3884180790960452,0.9963768115942029,0.40669856459330145,0.9506037321624589,0.5589430894308943
ckbwiki,True,51.0,0.3895184135977337,0.9963768115942029,0.4094326725905673,0.9462129527991219,0.560081466395112
ckbwiki,True,52.0,0.3895184135977337,0.9963768115942029,0.4094326725905673,0.9462129527991219,0.560081466395112
ckbwiki,True,53.0,0.38979447200566975,0.9963768115942029,0.4101161995898838,0.9451152579582875,0.5603667855323485
ckbwiki,True,54.0,0.39034776437189495,0.9963768115942029,0.41148325358851673,0.9429198682766191,0.5609382967873534
ckbwiki,True,55.0,0.39046941678520625,0.9945652173913043,0.41216678058783324,0.9407244785949506,0.5607763023493361
ckbwiki,True,56.0,0.391025641025641,0.9945652173913043,0.41353383458646614,0.9385290889132821,0.5613496932515337
ckbwiki,True,57.0,0.3917083631165118,0.9927536231884058,0.4155844155844156,0.9341383095499451,0.5617631983598155
ckbwiki,True,58.0,0.39198855507868385,0.9927536231884058,0.41626794258373206,0.9330406147091108,0.5620512820512821
ckbwiki,True,59.0,0.39226914817465997,0.9927536231884058,0.4169514695830485,0.9319429198682766,0.5623396613648025
ckbwiki,True,60.0,0.3938084953203744,0.9909420289855072,0.42105263157894735,0.9242590559824369,0.5636269963936116
ckbwiki,True,61.0,0.394356005788712,0.9873188405797102,0.4231032125768968,0.9187705817782656,0.5635987590486039
ckbwiki,True,62.0,0.3956363636363636,0.9855072463768116,0.42652084757347913,0.9121844127332601,0.564608199273482
ckbwiki,True,63.0,0.39575713240673005,0.980072463768116,0.4278879015721121,0.9066959385290889,0.5638353309015113
ckbwiki,True,64.0,0.3966275659824047,0.980072463768116,0.4299384825700615,0.9034028540065862,0.5647181628392484
ckbwiki,True,65.0,0.3997039230199852,0.9782608695652174,0.4374572795625427,0.8902305159165752,0.5675249605885444
ckbwiki,True,66.0,0.40119760479041916,0.9710144927536232,0.44224196855775805,0.8781558726673985,0.5677966101694915
ckbwiki,True,67.0,0.40348221044663135,0.9655797101449275,0.4483937115516063,0.8649835345773875,0.5691404164442072
ckbwiki,True,68.0,0.40381679389312974,0.9583333333333334,0.4504442925495557,0.8572996706915478,0.5682062298603652
ckbwiki,True,69.0,0.4041411042944785,0.9547101449275363,0.45181134654818866,0.8529088913282108,0.5678879310344828
ckbwiki,True,70.0,0.4046332046332046,0.9492753623188406,0.4538619275461381,0.8463227222832053,0.5674066053059015
ckbwiki,True,71.0,0.40622568093385214,0.9456521739130435,0.4579630895420369,0.8375411635565313,0.568317909635275
ckbwiki,True,72.0,0.4107002360346184,0.9456521739130435,0.4675324675324675,0.8221734357848518,0.5726823916620954
ckbwiki,True,73.0,0.41255961844197137,0.9402173913043478,0.47231715652768286,0.8111964873765093,0.5734806629834254
ckbwiki,True,74.0,0.41821112006446415,0.9402173913043478,0.4839371155160629,0.7925356750823271,0.5789180145008366
ckbwiki,True,75.0,0.42273098937040066,0.9365942028985508,0.4935064935064935,0.7749725576289791,0.5825352112676055
ckbwiki,True,76.0,0.4220939818631492,0.927536231884058,0.4935064935064935,0.7694840834248079,0.5801699716713882
ckbwiki,True,77.0,0.42521008403361343,0.9166666666666666,0.5010252904989747,0.7508232711306256,0.5809414466130883
ckbwiki,True,78.0,0.42967409948542024,0.907608695652174,0.5105946684894054,0.7299670691547749,0.5832363213038417
ckbwiki,True,79.0,0.43221830985915494,0.8894927536231884,0.51742993848257,0.70801317233809,0.5817535545023697
ckbwiki,True,80.0,0.4382940108892922,0.875,0.5297334244702666,0.6794731064763996,0.5840386940749699
ckbwiki,True,81.0,0.44360902255639095,0.855072463768116,0.5406698564593302,0.6498353457738749,0.5841584158415842
ckbwiki,True,82.0,0.45284872298624756,0.8351449275362319,0.5570745044429255,0.6114160263446762,0.5872611464968153
ckbwiki,True,83.0,0.45962732919254656,0.8043478260869565,0.569377990430622,0.5729967069154775,0.5849802371541502
ckbwiki,True,84.0,0.4597826086956522,0.7663043478260869,0.5721120984278879,0.5455543358946213,0.5747282608695652
ckbwiki,True,85.0,0.45886442641946695,0.717391304347826,0.5741626794258373,0.5126234906695939,0.5597173144876325
ckbwiki,True,86.0,0.46532156368221944,0.6684782608695652,0.5850991114149009,0.4654226125137212,0.5486988847583643
ckbwiki,True,87.0,0.47730398899587345,0.6286231884057971,0.6001367053998633,0.41712403951701427,0.5426114151681001
ckbwiki,True,88.0,0.4955223880597015,0.6014492753623188,0.618591934381408,0.37102085620197583,0.5433715220949263
ckbwiki,True,89.0,0.5016233766233766,0.5597826086956522,0.6240601503759399,0.33699231613611413,0.5291095890410961
ckbwiki,True,90.0,0.5153153153153153,0.5181159420289855,0.6343130553656869,0.29527991218441274,0.5167118337850045
ckbwiki,True,91.0,0.5298969072164949,0.46557971014492755,0.6425153793574846,0.2502744237102086,0.4956605593056895
ckbwiki,True,92.0,0.5433255269320844,0.42028985507246375,0.6479835953520164,0.21405049396267836,0.473953013278856
ckbwiki,True,93.0,0.5964912280701754,0.3695652173913043,0.6678058783321941,0.15148188803512624,0.4563758389261745
ckbwiki,True,94.0,0.6403162055335968,0.29347826086956524,0.6712235133287765,0.09989023051591657,0.4024844720496894
ckbwiki,True,95.0,0.712707182320442,0.23369565217391305,0.6753246753246753,0.0570801317233809,0.3519781718963165
ckbwiki,True,96.0,0.7815126050420168,0.16847826086956522,0.6684894053315106,0.02854006586169045,0.27719821162444114
ckbwiki,True,97.0,0.8783783783783784,0.11775362318840579,0.6609706083390294,0.009879253567508232,0.20766773162939298
ckbwiki,True,98.0,0.9347826086956522,0.07789855072463768,0.6500341763499659,0.003293084522502744,0.14381270903010035
ckbwiki,True,99.0,0.9583333333333334,0.041666666666666664,0.6377306903622693,0.0010976948408342481,0.0798611111111111
ckbwiki,False,0.0,0.03975102858951366,1.0,0.03975102858951366,1.0,0.07646259055581485
ckbwiki,False,1.0,0.03975102858951366,1.0,0.03975102858951366,1.0,0.07646259055581485
ckbwiki,False,2.0,0.03995925556522293,0.9994692144373672,0.04544783204979428,0.9940453956186417,0.0768461648335952
ckbwiki,False,3.0,0.0404751145826609,0.9984076433121019,0.05907796181031755,0.979807079607128,0.07779638935417829
ckbwiki,False,4.0,0.04108689944867419,0.9968152866242038,0.07509230931532862,0.9630638746676627,0.0789208270297529
ckbwiki,False,5.0,0.04189517216578261,0.9893842887473461,0.10015824454056335,0.9366526773747006,0.08038640676211835
ckbwiki,False,6.0,0.043569442480795514,0.9814225053078556,0.1428631712205929,0.8918503219002,0.08343486304769641
ckbwiki,False,7.0,0.04610573042776433,0.970276008492569,0.20084397088300454,0.8310078882028521,0.088028508138303
ckbwiki,False,8.0,0.05209727151084996,0.9506369426751592,0.3104757885852938,0.7160246973259212,0.09878109315536925
ckbwiki,False,9.0,0.05877819107938742,0.9309978768577495,0.40464183985652497,0.6171475028015205,0.110575256107171
ckbwiki,False,10.0,0.06234624563980173,0.9012738853503185,0.4572634244118578,0.5611170925710268,0.11662488409629451
ckbwiki,False,11.0,0.06605877199968145,0.8805732484076433,0.5003692372613144,0.5153699105710707,0.12289799244388473
ckbwiki,False,12.0,0.06857754010695187,0.8508492569002123,0.534697752927524,0.4783898398189449,0.12692505641553506
ckbwiki,False,13.0,0.07135031498219666,0.8296178343949044,0.5640046418398565,0.4469908373799741,0.1313997477931904
ckbwiki,False,14.0,0.07326521718076606,0.8030785562632696,0.5883743010866125,0.420513721957329,0.1342800088750832
ckbwiki,False,15.0,0.07518488085456039,0.7770700636942676,0.6111826141998101,0.39568455977675726,0.13710432665293124
ckbwiki,False,16.0,0.07792279008554508,0.7542462845010616,0.6354467770861906,0.36947111687284395,0.14125248508946323
ckbwiki,False,17.0,0.08030391583869083,0.7292993630573248,0.6572212258677076,0.34576256289688206,0.14467726650521218
ckbwiki,False,18.0,0.0824653312788906,0.7101910828025477,0.6743749340647748,0.3271077321966118,0.14777182616378595
ckbwiki,False,19.0,0.08516430099163912,0.697452229299363,0.6901571895769596,0.3101448001582035,0.151793450008664
ckbwiki,False,20.0,0.08763661202185792,0.6809978768577495,0.7054963603755671,0.2934894860583156,0.15528927620430888
ckbwiki,False,21.0,0.09039467086884893,0.6698513800424628,0.7189365966874143,0.27903144294785875,0.15929315241401074
ckbwiki,False,22.0,0.09316489961651252,0.6576433121019108,0.7319337482856841,0.26499088132539383,0.1632088520055325
ckbwiki,False,23.0,0.09617357001972386,0.6470276008492569,0.7442557231775504,0.25171936454922983,0.1674565560821485
ckbwiki,False,24.0,0.09954451345755694,0.638004246284501,0.7561979111720646,0.23890927468084638,0.17221864030374667
ckbwiki,False,25.0,0.10267509306553545,0.6295116772823779,0.7665787530330204,0.22774713805453625,0.17655377744696685
ckbwiki,False,26.0,0.10632865219770199,0.618895966029724,0.7780778563139572,0.2153325569642504,0.18147859922178988
ckbwiki,False,27.0,0.10999521759923482,0.6104033970276008,0.7881844076379365,0.20445606556656631,0.1864008428559851
ckbwiki,False,28.0,0.11293695847027188,0.6019108280254777,0.7962443295706298,0.19571092702863044,0.190188679245283
ckbwiki,False,29.0,0.11519633371523799,0.5870488322717622,0.8043464500474734,0.1866581705521742,0.19259904222899435
ckbwiki,False,30.0,0.11898016997167139,0.5796178343949044,0.8126806625171431,0.1776713322054009,0.19743265232326884
ckbwiki,False,31.0,0.12190692395005676,0.5700636942675159,0.8196856208460808,0.16998088374239195,0.2008602954927997
ckbwiki,False,32.0,0.1191919191919192,0.5323779193205945,0.8250237366810845,0.1628617257366351,0.19477619186328773
ckbwiki,False,33.0,0.12034065662799309,0.517515923566879,0.8304462496043886,0.15659950341675638,0.19527338273583017
ckbwiki,False,34.0,0.11418595629121944,0.4686836518046709,0.8343496149382846,0.15051306277603216,0.183633149630862
ckbwiki,False,35.0,0.11653225806451613,0.4601910828025478,0.8398565249498893,0.14442662213530794,0.18597168597168598
ckbwiki,False,36.0,0.11982662192393737,0.4548832271762208,0.8455111298660196,0.13831820878468942,0.18968570163789286
ckbwiki,False,37.0,0.12312399825149352,0.44851380042462846,0.8511024369659247,0.1322317681439652,0.1932091002629473
ckbwiki,False,38.0,0.12577852043141424,0.4394904458598726,0.8562928578964025,0.12645294544176133,0.19558285106885553
ckbwiki,False,39.0,0.128686327077748,0.43312101910828027,0.8608924992087773,0.12139922216606974,0.198419452887538
ckbwiki,False,40.0,0.13049180327868853,0.42250530785562634,0.8651334528958751,0.11654325327942695,0.1993987975951904
ckbwiki,False,41.0,0.1314843348741654,0.40764331210191085,0.8694166051271232,0.11146755729384104,0.19883495145631072
ckbwiki,False,42.0,0.13481137135705346,0.4002123142250531,0.874058444983648,0.10632594317857222,0.2016851678480674
ckbwiki,False,43.0,0.1379824724967369,0.39278131634819535,0.878320497942821,0.10157983784140098,0.20422243687042912
ckbwiki,False,44.0,0.13522012578616352,0.3651804670912951,0.8819284734676653,0.09667992353496957,0.1973608720596672
ckbwiki,False,45.0,0.13898026315789475,0.35881104033970274,0.886148327882688,0.09202170903737558,0.2003556609365738
ckbwiki,False,46.0,0.12439982540375381,0.30254777070063693,0.887625276927946,0.0881545120959768,0.17630683575626352
ckbwiki,False,47.0,0.12797074954296161,0.29723991507430997,0.8915497415339171,0.08384786095669179,0.17891373801916932
ckbwiki,False,48.0,0.13127690100430417,0.2914012738853503,0.8951788163308366,0.07982685504603283,0.18100890207715134
ckbwiki,False,49.0,0.13379756279532454,0.28556263269639065,0.8981116151492774,0.07653094856188614,0.1822184589331075
ckbwiki,False,50.0,0.137519460300986,0.2813163481953291,0.9012976052326195,0.07303728768869065,0.18473335657023354
ckbwiki,False,51.0,0.14154013015184383,0.2770700636942675,0.9044624960438865,0.06956559952538946,0.18736539842067482
ckbwiki,False,52.0,0.1472934472934473,0.27441613588110403,0.9080071737525055,0.06576432071367362,0.19169447534297365
ckbwiki,False,53.0,0.1524008350730689,0.27123142250530785,0.9110665682033969,0.06244644151963261,0.1951498949780409
ckbwiki,False,54.0,0.15590894917368256,0.2653927813163482,0.913682877940711,0.0594801256839006,0.19642506383814576
ckbwiki,False,55.0,0.16016894087069525,0.2616772823779193,0.9161092942293491,0.05679945507679462,0.19871019750100766
ckbwiki,False,56.0,0.16435576597903281,0.25796178343949044,0.9183669163413862,0.054294566148843135,0.20078496178475522
ckbwiki,False,57.0,0.16521436040432205,0.2515923566878981,0.9197172697541934,0.05262464019687548,0.19945297706711548
ckbwiki,False,58.0,0.17053701015965167,0.2494692144373673,0.9219326933220804,0.05022961481839555,0.2025862068965517
ckbwiki,False,59.0,0.17381489841986456,0.24522292993630573,0.9236628336322397,0.04825207092790754,0.20343461030383092
ckbwiki,False,60.0,0.1771607352366054,0.24044585987261147,0.9254140732144741,0.046230581617630905,0.20400810628236885
ckbwiki,False,61.0,0.18159609120521172,0.2367303609341826,0.927249709885009,0.04416514688756564,0.20552995391705067
ckbwiki,False,62.0,0.18476430976430977,0.23301486199575372,0.9286422618419664,0.042561139065280924,0.20610328638497652
ckbwiki,False,63.0,0.19154557463672392,0.23089171974522293,0.9306888912332525,0.040341895365955484,0.20938628158844766
ckbwiki,False,64.0,0.1952662721893491,0.22770700636942676,0.9319970461019095,0.03884775109314232,0.21024258760107817
ckbwiki,False,65.0,0.19848413074372334,0.2223991507430998,0.933389598058867,0.03717782514117466,0.20976220275344182
ckbwiki,False,66.0,0.20416253716551042,0.21868365180467092,0.9350564405528009,0.03528817209026389,0.21117375704766786
ckbwiki,False,67.0,0.20760534429599178,0.21443736730360935,0.9362379997890072,0.03388191865702797,0.21096605744125324
ckbwiki,False,68.0,0.2121374865735768,0.20966029723991508,0.9376305517459648,0.03223396541495463,0.21089161772557397
ckbwiki,False,69.0,0.21612541993281076,0.20488322717622082,0.9388543095263213,0.03076179385203577,0.2103542234332425
ckbwiki,False,70.0,0.22326674500587543,0.20169851380042464,0.9403734571157295,0.029047922480279494,0.21193530395984383
ckbwiki,False,71.0,0.22871046228710462,0.19957537154989385,0.9414284207194852,0.027861396145986685,0.21315192743764175
ckbwiki,False,72.0,0.2354818123803446,0.19585987261146498,0.9427576748602173,0.026323306453384897,0.2138510576644451
ckbwiki,False,73.0,0.2422192151556157,0.19002123142250532,0.9441713260892499,0.024609435081628616,0.21296847114812614
ckbwiki,False,74.0,0.2503556187766714,0.18683651804670912,0.9454372824137567,0.023159236228604073,0.21398176291793308
ckbwiki,False,75.0,0.2587621178225205,0.18418259023354563,0.946597742377888,0.0218408736349454,0.21519379844961242
ckbwiki,False,76.0,0.2657728706624606,0.17887473460721867,0.947716003797869,0.020456592911603788,0.21383248730964463
ckbwiki,False,77.0,0.2753743760399334,0.1756900212314225,0.9488553644899251,0.019138230317945114,0.2145171743357096
ckbwiki,False,78.0,0.2773851590106007,0.16666666666666666,0.9496149382846292,0.017973676693546613,0.20822281167108755
ckbwiki,False,79.0,0.28944911297852477,0.16454352441613587,0.9507331997046102,0.016721232229570872,0.20981387478849406
ckbwiki,False,80.0,0.297029702970297,0.1592356687898089,0.9515982698596899,0.015600624024960999,0.20732550103662747
ckbwiki,False,81.0,0.3062966915688367,0.15233545647558386,0.9525899356472202,0.014282261431302323,0.20347394540942929
ckbwiki,False,82.0,0.3130733944954128,0.1449044585987261,0.9533706087139994,0.013161653226692448,0.1981132075471698
ckbwiki,False,83.0,0.3231707317073171,0.14065817409766454,0.9541301825087034,0.012194853991342753,0.19600591715976334
ckbwiki,False,84.0,0.328,0.1305732484076433,0.9548053592151071,0.011074245786732878,0.18678815489749429
ckbwiki,False,85.0,0.34017595307917886,0.12314225053078556,0.9556493300981116,0.00988771945244007,0.18082618862042088
ckbwiki,False,86.0,0.34775641025641024,0.11518046709129512,0.9562401097162148,0.008942892926984684,0.17304625199362042
ckbwiki,False,87.0,0.35879218472468916,0.10721868365180467,0.9568941871505433,0.007932148271846367,0.16510012259910092
ckbwiki,False,88.0,0.37573385518590996,0.10191082802547771,0.9575693638569469,0.0070092944562852935,0.1603340292275574
ckbwiki,False,89.0,0.39864864864864863,0.09394904458598727,0.9583500369237261,0.005866713541781108,0.1520618556701031
ckbwiki,False,90.0,0.41624365482233505,0.0870488322717622,0.9588564194535288,0.005053723275691591,0.14398595258999122
ckbwiki,False,91.0,0.436046511627907,0.07961783439490445,0.9593206034391814,0.0042627057194963855,0.13464991023339315
ckbwiki,False,92.0,0.47315436241610737,0.07484076433121019,0.9599113830572845,0.003449715453406869,0.12923923006416133
ckbwiki,False,93.0,0.5098039215686274,0.06900212314225053,0.9603544677708619,0.002746588736788908,0.12155212716222533
ckbwiki,False,94.0,0.558974358974359,0.05785562632696391,0.9607342546682139,0.001889653050910769,0.10485810485810484
ckbwiki,False,95.0,0.5870967741935483,0.048301486199575375,0.9608186517565144,0.001406253433235921,0.08925944090240313
ckbwiki,False,96.0,0.6528925619834711,0.04193205944798301,0.9610296444772656,0.0009228538155610732,0.07880299251870322
ckbwiki,False,97.0,0.7560975609756098,0.032908704883227176,0.9611351408376411,0.0004394541978862253,0.06307222787385554
ckbwiki,False,98.0,0.8181818181818182,0.01910828025477707,0.9608397510285895,0.00017578167915449012,0.03734439834024896
ckbwiki,False,99.0,0.8636363636363636,0.010084925690021231,0.9605865597636881,6.59181296829338e-05,0.019937040923399787
