wiki_db,user_is_anonymous,threshold,precision,recall,accuracy,fpr,F1
crwiki,True,0.0,0.9863013698630136,1.0,0.9863013698630136,1.0,0.993103448275862
crwiki,True,1.0,0.9863013698630136,1.0,0.9863013698630136,1.0,0.993103448275862
crwiki,True,2.0,0.9863013698630136,1.0,0.9863013698630136,1.0,0.993103448275862
crwiki,True,3.0,0.9863013698630136,1.0,0.9863013698630136,1.0,0.993103448275862
crwiki,True,4.0,0.9863013698630136,1.0,0.9863013698630136,1.0,0.993103448275862
crwiki,True,5.0,0.9863013698630136,1.0,0.9863013698630136,1.0,0.993103448275862
crwiki,True,6.0,0.9863013698630136,1.0,0.9863013698630136,1.0,0.993103448275862
crwiki,True,7.0,0.9863013698630136,1.0,0.9863013698630136,1.0,0.993103448275862
crwiki,True,8.0,0.9863013698630136,1.0,0.9863013698630136,1.0,0.993103448275862
crwiki,True,9.0,0.9863013698630136,1.0,0.9863013698630136,1.0,0.993103448275862
crwiki,True,10.0,0.9863013698630136,1.0,0.9863013698630136,1.0,0.993103448275862
crwiki,True,11.0,0.9863013698630136,1.0,0.9863013698630136,1.0,0.993103448275862
crwiki,True,12.0,0.9863013698630136,1.0,0.9863013698630136,1.0,0.993103448275862
crwiki,True,13.0,0.9863013698630136,1.0,0.9863013698630136,1.0,0.993103448275862
crwiki,True,14.0,0.9863013698630136,1.0,0.9863013698630136,1.0,0.993103448275862
crwiki,True,15.0,0.9863013698630136,1.0,0.9863013698630136,1.0,0.993103448275862
crwiki,True,16.0,0.9863013698630136,1.0,0.9863013698630136,1.0,0.993103448275862
crwiki,True,17.0,0.9863013698630136,1.0,0.9863013698630136,1.0,0.993103448275862
crwiki,True,18.0,0.9863013698630136,1.0,0.9863013698630136,1.0,0.993103448275862
crwiki,True,19.0,0.9863013698630136,1.0,0.9863013698630136,1.0,0.993103448275862
crwiki,True,20.0,0.9863013698630136,1.0,0.9863013698630136,1.0,0.993103448275862
crwiki,True,21.0,0.9863013698630136,1.0,0.9863013698630136,1.0,0.993103448275862
crwiki,True,22.0,0.9863013698630136,1.0,0.9863013698630136,1.0,0.993103448275862
crwiki,True,23.0,0.9863013698630136,1.0,0.9863013698630136,1.0,0.993103448275862
crwiki,True,24.0,0.9863013698630136,1.0,0.9863013698630136,1.0,0.993103448275862
crwiki,True,25.0,0.9863013698630136,1.0,0.9863013698630136,1.0,0.993103448275862
crwiki,True,26.0,0.9863013698630136,1.0,0.9863013698630136,1.0,0.993103448275862
crwiki,True,27.0,0.9863013698630136,1.0,0.9863013698630136,1.0,0.993103448275862
crwiki,True,28.0,0.9863013698630136,1.0,0.9863013698630136,1.0,0.993103448275862
crwiki,True,29.0,0.9863013698630136,1.0,0.9863013698630136,1.0,0.993103448275862
crwiki,True,30.0,0.9863013698630136,1.0,0.9863013698630136,1.0,0.993103448275862
crwiki,True,31.0,0.9863013698630136,1.0,0.9863013698630136,1.0,0.993103448275862
crwiki,True,32.0,0.9863013698630136,1.0,0.9863013698630136,1.0,0.993103448275862
crwiki,True,33.0,0.9863013698630136,1.0,0.9863013698630136,1.0,0.993103448275862
crwiki,True,34.0,0.9863013698630136,1.0,0.9863013698630136,1.0,0.993103448275862
crwiki,True,35.0,0.9863013698630136,1.0,0.9863013698630136,1.0,0.993103448275862
crwiki,True,36.0,0.9863013698630136,1.0,0.9863013698630136,1.0,0.993103448275862
crwiki,True,37.0,0.9863013698630136,1.0,0.9863013698630136,1.0,0.993103448275862
crwiki,True,38.0,0.9863013698630136,1.0,0.9863013698630136,1.0,0.993103448275862
crwiki,True,39.0,0.9863013698630136,1.0,0.9863013698630136,1.0,0.993103448275862
crwiki,True,40.0,0.9863013698630136,1.0,0.9863013698630136,1.0,0.993103448275862
crwiki,True,41.0,0.9863013698630136,1.0,0.9863013698630136,1.0,0.993103448275862
crwiki,True,42.0,0.9863013698630136,1.0,0.9863013698630136,1.0,0.993103448275862
crwiki,True,43.0,0.9863013698630136,1.0,0.9863013698630136,1.0,0.993103448275862
crwiki,True,44.0,0.9863013698630136,1.0,0.9863013698630136,1.0,0.993103448275862
crwiki,True,45.0,0.9863013698630136,1.0,0.9863013698630136,1.0,0.993103448275862
crwiki,True,46.0,0.9863013698630136,1.0,0.9863013698630136,1.0,0.993103448275862
crwiki,True,47.0,0.9863013698630136,1.0,0.9863013698630136,1.0,0.993103448275862
crwiki,True,48.0,0.9863013698630136,1.0,0.9863013698630136,1.0,0.993103448275862
crwiki,True,49.0,0.9863013698630136,1.0,0.9863013698630136,1.0,0.993103448275862
crwiki,True,50.0,0.9863013698630136,1.0,0.9863013698630136,1.0,0.993103448275862
crwiki,True,51.0,0.9863013698630136,1.0,0.9863013698630136,1.0,0.993103448275862
crwiki,True,52.0,0.9863013698630136,1.0,0.9863013698630136,1.0,0.993103448275862
crwiki,True,53.0,0.9863013698630136,1.0,0.9863013698630136,1.0,0.993103448275862
crwiki,True,54.0,0.9863013698630136,1.0,0.9863013698630136,1.0,0.993103448275862
crwiki,True,55.0,0.9863013698630136,1.0,0.9863013698630136,1.0,0.993103448275862
crwiki,True,56.0,0.9863013698630136,1.0,0.9863013698630136,1.0,0.993103448275862
crwiki,True,57.0,0.9863013698630136,1.0,0.9863013698630136,1.0,0.993103448275862
crwiki,True,58.0,0.9863013698630136,1.0,0.9863013698630136,1.0,0.993103448275862
crwiki,True,59.0,0.9863013698630136,1.0,0.9863013698630136,1.0,0.993103448275862
crwiki,True,60.0,0.9863013698630136,1.0,0.9863013698630136,1.0,0.993103448275862
crwiki,True,61.0,0.9863013698630136,1.0,0.9863013698630136,1.0,0.993103448275862
crwiki,True,62.0,0.9863013698630136,1.0,0.9863013698630136,1.0,0.993103448275862
crwiki,True,63.0,0.9863013698630136,1.0,0.9863013698630136,1.0,0.993103448275862
crwiki,True,64.0,0.9863013698630136,1.0,0.9863013698630136,1.0,0.993103448275862
crwiki,True,65.0,0.9863013698630136,1.0,0.9863013698630136,1.0,0.993103448275862
crwiki,True,66.0,0.9862385321100917,0.9953703703703703,0.9817351598173516,1.0,0.9907834101382489
crwiki,True,67.0,0.9861111111111112,0.9861111111111112,0.9726027397260274,1.0,0.9861111111111112
crwiki,True,68.0,0.9859154929577465,0.9722222222222222,0.958904109589041,1.0,0.979020979020979
crwiki,True,69.0,0.985781990521327,0.9629629629629629,0.9497716894977168,1.0,0.9742388758782201
crwiki,True,70.0,0.9857142857142858,0.9583333333333334,0.9452054794520548,1.0,0.971830985915493
crwiki,True,71.0,0.9856459330143541,0.9537037037037037,0.9406392694063926,1.0,0.9694117647058824
crwiki,True,72.0,0.9846938775510204,0.8935185185185185,0.8812785388127854,1.0,0.9368932038834951
crwiki,True,73.0,0.9891891891891892,0.8472222222222222,0.8401826484018264,0.6666666666666666,0.9127182044887779
crwiki,True,74.0,0.9888888888888889,0.8240740740740741,0.817351598173516,0.6666666666666666,0.8989898989898991
crwiki,True,75.0,0.9881656804733728,0.7731481481481481,0.7671232876712328,0.6666666666666666,0.8675324675324675
crwiki,True,76.0,0.9871794871794872,0.7129629629629629,0.7077625570776256,0.6666666666666666,0.8279569892473119
crwiki,True,77.0,0.9862068965517241,0.6620370370370371,0.6575342465753424,0.6666666666666666,0.7922437673130193
crwiki,True,78.0,0.9857142857142858,0.6388888888888888,0.634703196347032,0.6666666666666666,0.7752808988764045
crwiki,True,79.0,0.9847328244274809,0.5972222222222222,0.593607305936073,0.6666666666666666,0.7435158501440922
crwiki,True,80.0,0.9833333333333333,0.5462962962962963,0.54337899543379,0.6666666666666666,0.7023809523809523
crwiki,True,81.0,0.9807692307692307,0.4722222222222222,0.4703196347031963,0.6666666666666666,0.6375
crwiki,True,82.0,0.98,0.4537037037037037,0.4520547945205479,0.6666666666666666,0.6202531645569621
crwiki,True,83.0,0.9791666666666666,0.4351851851851852,0.4337899543378995,0.6666666666666666,0.6025641025641025
crwiki,True,84.0,0.9777777777777777,0.4074074074074074,0.4063926940639269,0.6666666666666666,0.5751633986928104
crwiki,True,85.0,0.9764705882352941,0.38425925925925924,0.3835616438356164,0.6666666666666666,0.5514950166112957
crwiki,True,86.0,0.974025974025974,0.3472222222222222,0.3470319634703196,0.6666666666666666,0.5119453924914675
crwiki,True,87.0,0.971830985915493,0.3194444444444444,0.319634703196347,0.6666666666666666,0.4808362369337979
crwiki,True,88.0,0.9672131147540983,0.27314814814814814,0.273972602739726,0.6666666666666666,0.4259927797833935
crwiki,True,89.0,0.9642857142857143,0.25,0.2511415525114155,0.6666666666666666,0.39705882352941174
crwiki,True,90.0,0.9583333333333334,0.21296296296296297,0.2146118721461187,0.6666666666666666,0.3484848484848485
crwiki,True,91.0,0.9473684210526315,0.16666666666666666,0.1689497716894977,0.6666666666666666,0.28346456692913385
crwiki,True,92.0,0.9655172413793104,0.12962962962962962,0.136986301369863,0.3333333333333333,0.22857142857142854
crwiki,True,93.0,0.9615384615384616,0.11574074074074074,0.1232876712328767,0.3333333333333333,0.20661157024793386
crwiki,True,94.0,0.9583333333333334,0.10648148148148148,0.1141552511415525,0.3333333333333333,0.19166666666666668
crwiki,True,95.0,0.9565217391304348,0.10185185185185185,0.1095890410958904,0.3333333333333333,0.18410041841004185
crwiki,True,96.0,0.9473684210526315,0.08333333333333333,0.091324200913242,0.3333333333333333,0.15319148936170213
crwiki,True,97.0,0.9333333333333333,0.06481481481481481,0.0730593607305936,0.3333333333333333,0.12121212121212122
crwiki,True,98.0,1.0,0.046296296296296294,0.0593607305936073,0.0,0.08849557522123894
crwiki,True,99.0,1.0,0.018518518518518517,0.0319634703196347,0.0,0.03636363636363636
crwiki,False,0.0,0.3006535947712418,1.0,0.3006535947712418,1.0,0.46231155778894467
crwiki,False,1.0,0.3006535947712418,1.0,0.3006535947712418,1.0,0.46231155778894467
crwiki,False,2.0,0.3006535947712418,1.0,0.3006535947712418,1.0,0.46231155778894467
crwiki,False,3.0,0.3006535947712418,1.0,0.3006535947712418,1.0,0.46231155778894467
crwiki,False,4.0,0.3006535947712418,1.0,0.3006535947712418,1.0,0.46231155778894467
crwiki,False,5.0,0.3006535947712418,1.0,0.3006535947712418,1.0,0.46231155778894467
crwiki,False,6.0,0.3006535947712418,1.0,0.3006535947712418,1.0,0.46231155778894467
crwiki,False,7.0,0.3006535947712418,1.0,0.3006535947712418,1.0,0.46231155778894467
crwiki,False,8.0,0.3006535947712418,1.0,0.3006535947712418,1.0,0.46231155778894467
crwiki,False,9.0,0.3006535947712418,1.0,0.3006535947712418,1.0,0.46231155778894467
crwiki,False,10.0,0.3006535947712418,1.0,0.3006535947712418,1.0,0.46231155778894467
crwiki,False,11.0,0.3006535947712418,1.0,0.3006535947712418,1.0,0.46231155778894467
crwiki,False,12.0,0.3006535947712418,1.0,0.3006535947712418,1.0,0.46231155778894467
crwiki,False,13.0,0.3006535947712418,1.0,0.3006535947712418,1.0,0.46231155778894467
crwiki,False,14.0,0.3006535947712418,1.0,0.3006535947712418,1.0,0.46231155778894467
crwiki,False,15.0,0.3006535947712418,1.0,0.3006535947712418,1.0,0.46231155778894467
crwiki,False,16.0,0.3006535947712418,1.0,0.3006535947712418,1.0,0.46231155778894467
crwiki,False,17.0,0.3006535947712418,1.0,0.3006535947712418,1.0,0.46231155778894467
crwiki,False,18.0,0.3006535947712418,1.0,0.3006535947712418,1.0,0.46231155778894467
crwiki,False,19.0,0.3006535947712418,1.0,0.3006535947712418,1.0,0.46231155778894467
crwiki,False,20.0,0.3006535947712418,1.0,0.3006535947712418,1.0,0.46231155778894467
crwiki,False,21.0,0.3006535947712418,1.0,0.3006535947712418,1.0,0.46231155778894467
crwiki,False,22.0,0.3006535947712418,1.0,0.3006535947712418,1.0,0.46231155778894467
crwiki,False,23.0,0.3006535947712418,1.0,0.3006535947712418,1.0,0.46231155778894467
crwiki,False,24.0,0.3016393442622951,1.0,0.30392156862745096,0.9953271028037384,0.4634760705289673
crwiki,False,25.0,0.3016393442622951,1.0,0.30392156862745096,0.9953271028037384,0.4634760705289673
crwiki,False,26.0,0.3016393442622951,1.0,0.30392156862745096,0.9953271028037384,0.4634760705289673
crwiki,False,27.0,0.3016393442622951,1.0,0.30392156862745096,0.9953271028037384,0.4634760705289673
crwiki,False,28.0,0.3026315789473684,1.0,0.30718954248366015,0.9906542056074766,0.46464646464646464
crwiki,False,29.0,0.3026315789473684,1.0,0.30718954248366015,0.9906542056074766,0.46464646464646464
crwiki,False,30.0,0.3026315789473684,1.0,0.30718954248366015,0.9906542056074766,0.46464646464646464
crwiki,False,31.0,0.3026315789473684,1.0,0.30718954248366015,0.9906542056074766,0.46464646464646464
crwiki,False,32.0,0.2980132450331126,0.9782608695652174,0.3006535947712418,0.9906542056074766,0.4568527918781726
crwiki,False,33.0,0.2980132450331126,0.9782608695652174,0.3006535947712418,0.9906542056074766,0.4568527918781726
crwiki,False,34.0,0.29900332225913623,0.9782608695652174,0.30392156862745096,0.985981308411215,0.45801526717557256
crwiki,False,35.0,0.29900332225913623,0.9782608695652174,0.30392156862745096,0.985981308411215,0.45801526717557256
crwiki,False,36.0,0.29900332225913623,0.9782608695652174,0.30392156862745096,0.985981308411215,0.45801526717557256
crwiki,False,37.0,0.29900332225913623,0.9782608695652174,0.30392156862745096,0.985981308411215,0.45801526717557256
crwiki,False,38.0,0.3,0.9782608695652174,0.30718954248366015,0.9813084112149533,0.4591836734693877
crwiki,False,39.0,0.2976588628762542,0.967391304347826,0.30392156862745096,0.9813084112149533,0.4552429667519181
crwiki,False,40.0,0.2953020134228188,0.9565217391304348,0.3006535947712418,0.9813084112149533,0.4512820512820513
crwiki,False,41.0,0.2962962962962963,0.9565217391304348,0.30392156862745096,0.9766355140186916,0.4524421593830334
crwiki,False,42.0,0.29591836734693877,0.9456521739130435,0.30718954248366015,0.9672897196261683,0.45077720207253885
crwiki,False,43.0,0.2945205479452055,0.9347826086956522,0.30718954248366015,0.9626168224299065,0.44791666666666674
crwiki,False,44.0,0.2945205479452055,0.9347826086956522,0.30718954248366015,0.9626168224299065,0.44791666666666674
crwiki,False,45.0,0.2951388888888889,0.9239130434782609,0.3137254901960784,0.9485981308411215,0.4473684210526316
crwiki,False,46.0,0.2968197879858657,0.9130434782608695,0.3235294117647059,0.9299065420560748,0.448
crwiki,False,47.0,0.2968197879858657,0.9130434782608695,0.3235294117647059,0.9299065420560748,0.448
crwiki,False,48.0,0.29432624113475175,0.9021739130434783,0.3202614379084967,0.9299065420560748,0.4438502673796791
crwiki,False,49.0,0.29642857142857143,0.9021739130434783,0.32679738562091504,0.9205607476635514,0.4462365591397849
crwiki,False,50.0,0.29642857142857143,0.9021739130434783,0.32679738562091504,0.9205607476635514,0.4462365591397849
crwiki,False,51.0,0.29927007299270075,0.8913043478260869,0.33986928104575165,0.897196261682243,0.44808743169398907
crwiki,False,52.0,0.3014705882352941,0.8913043478260869,0.3464052287581699,0.8878504672897196,0.4505494505494505
crwiki,False,53.0,0.2988929889298893,0.8804347826086957,0.3431372549019608,0.8878504672897196,0.44628099173553715
crwiki,False,54.0,0.30111524163568776,0.8804347826086957,0.34967320261437906,0.8785046728971962,0.4487534626038781
crwiki,False,55.0,0.30566037735849055,0.8804347826086957,0.3627450980392157,0.8598130841121495,0.45378151260504196
crwiki,False,56.0,0.30798479087452474,0.8804347826086957,0.369281045751634,0.8504672897196262,0.45633802816901414
crwiki,False,57.0,0.30916030534351147,0.8804347826086957,0.37254901960784315,0.8457943925233645,0.45762711864406785
crwiki,False,58.0,0.31153846153846154,0.8804347826086957,0.3790849673202614,0.8364485981308412,0.4602272727272728
crwiki,False,59.0,0.31007751937984496,0.8695652173913043,0.3790849673202614,0.8317757009345794,0.45714285714285713
crwiki,False,60.0,0.3137254901960784,0.8695652173913043,0.3888888888888889,0.8177570093457944,0.4610951008645533
crwiki,False,61.0,0.3110236220472441,0.8586956521739131,0.38562091503267976,0.8177570093457944,0.4566473988439307
crwiki,False,62.0,0.3092369477911647,0.8369565217391305,0.3888888888888889,0.8037383177570093,0.45161290322580655
crwiki,False,63.0,0.3117408906882591,0.8369565217391305,0.3954248366013072,0.794392523364486,0.4542772861356932
crwiki,False,64.0,0.30864197530864196,0.8152173913043478,0.3954248366013072,0.7850467289719626,0.4477611940298507
crwiki,False,65.0,0.30864197530864196,0.8152173913043478,0.3954248366013072,0.7850467289719626,0.4477611940298507
crwiki,False,66.0,0.31223628691983124,0.8043478260869565,0.4084967320261438,0.7616822429906542,0.44984802431610943
crwiki,False,67.0,0.3201754385964912,0.7934782608695652,0.43137254901960786,0.7242990654205608,0.45625
crwiki,False,68.0,0.3287671232876712,0.782608695652174,0.4542483660130719,0.6869158878504673,0.46302250803858525
crwiki,False,69.0,0.32558139534883723,0.7608695652173914,0.4542483660130719,0.677570093457944,0.4560260586319219
crwiki,False,70.0,0.330188679245283,0.7608695652173914,0.46405228758169936,0.6635514018691588,0.4605263157894736
crwiki,False,71.0,0.33170731707317075,0.7391304347826086,0.4738562091503268,0.6401869158878505,0.45791245791245794
crwiki,False,72.0,0.3434343434343434,0.7391304347826086,0.49673202614379086,0.6074766355140186,0.4689655172413793
crwiki,False,73.0,0.3434343434343434,0.7391304347826086,0.49673202614379086,0.6074766355140186,0.4689655172413793
crwiki,False,74.0,0.34517766497461927,0.7391304347826086,0.5,0.602803738317757,0.47058823529411764
crwiki,False,75.0,0.3469387755102041,0.7391304347826086,0.5032679738562091,0.5981308411214953,0.4722222222222222
crwiki,False,76.0,0.34574468085106386,0.7065217391304348,0.5098039215686274,0.5747663551401869,0.46428571428571436
crwiki,False,77.0,0.3516483516483517,0.6956521739130435,0.5228758169934641,0.5514018691588785,0.46715328467153283
crwiki,False,78.0,0.37058823529411766,0.6847826086956522,0.5555555555555556,0.5,0.48091603053435106
crwiki,False,79.0,0.35064935064935066,0.5869565217391305,0.5490196078431373,0.4672897196261682,0.43902439024390244
crwiki,False,80.0,0.34868421052631576,0.5760869565217391,0.5490196078431373,0.46261682242990654,0.4344262295081967
crwiki,False,81.0,0.35374149659863946,0.5652173913043478,0.5588235294117647,0.4439252336448598,0.4351464435146443
crwiki,False,82.0,0.3591549295774648,0.5543478260869565,0.5686274509803921,0.4252336448598131,0.43589743589743596
crwiki,False,83.0,0.35877862595419846,0.5108695652173914,0.5784313725490197,0.3925233644859813,0.42152466367713
crwiki,False,84.0,0.36585365853658536,0.4891304347826087,0.5915032679738562,0.3644859813084112,0.41860465116279066
crwiki,False,85.0,0.36134453781512604,0.4673913043478261,0.5915032679738562,0.35514018691588783,0.40758293838862564
crwiki,False,86.0,0.3652173913043478,0.45652173913043476,0.5980392156862745,0.3411214953271028,0.4057971014492754
crwiki,False,87.0,0.3761467889908257,0.44565217391304346,0.6111111111111112,0.3177570093457944,0.40796019900497515
crwiki,False,88.0,0.36082474226804123,0.3804347826086957,0.6111111111111112,0.2897196261682243,0.3703703703703704
crwiki,False,89.0,0.3684210526315789,0.3804347826086957,0.6176470588235294,0.2803738317757009,0.37433155080213903
crwiki,False,90.0,0.3655913978494624,0.3695652173913043,0.6176470588235294,0.2757009345794392,0.3675675675675676
crwiki,False,91.0,0.36470588235294116,0.33695652173913043,0.6241830065359477,0.2523364485981308,0.3502824858757062
crwiki,False,92.0,0.36,0.29347826086956524,0.630718954248366,0.22429906542056074,0.32335329341317365
crwiki,False,93.0,0.35294117647058826,0.2608695652173913,0.6339869281045751,0.205607476635514,0.3
crwiki,False,94.0,0.3333333333333333,0.21739130434782608,0.6339869281045751,0.18691588785046728,0.26315789473684204
crwiki,False,95.0,0.3673469387755102,0.1956521739130435,0.6568627450980392,0.14485981308411214,0.2553191489361702
crwiki,False,96.0,0.32,0.08695652173913043,0.6699346405228758,0.0794392523364486,0.13675213675213677
crwiki,False,97.0,0.4666666666666667,0.07608695652173914,0.696078431372549,0.037383177570093455,0.1308411214953271
crwiki,False,98.0,0.25,0.021739130434782608,0.6862745098039216,0.028037383177570093,0.04
crwiki,False,99.0,0.0,0.0,0.696078431372549,0.004672897196261682,0.04
