wiki_db,user_is_anonymous,threshold,precision,recall,accuracy,fpr,F1
euwiki,True,0.0,0.32499599166265836,1.0,0.32499599166265836,1.0,0.4905614714424008
euwiki,True,1.0,0.32499599166265836,1.0,0.32499599166265836,1.0,0.4905614714424008
euwiki,True,2.0,0.32499599166265836,1.0,0.32499599166265836,1.0,0.4905614714424008
euwiki,True,3.0,0.32499599166265836,1.0,0.32499599166265836,1.0,0.4905614714424008
euwiki,True,4.0,0.32499599166265836,1.0,0.32499599166265836,1.0,0.4905614714424008
euwiki,True,5.0,0.32499599166265836,1.0,0.32499599166265836,1.0,0.4905614714424008
euwiki,True,6.0,0.32499599166265836,1.0,0.32499599166265836,1.0,0.4905614714424008
euwiki,True,7.0,0.32499599166265836,1.0,0.32499599166265836,1.0,0.4905614714424008
euwiki,True,8.0,0.32499599166265836,1.0,0.32499599166265836,1.0,0.4905614714424008
euwiki,True,9.0,0.32499599166265836,1.0,0.32499599166265836,1.0,0.4905614714424008
euwiki,True,10.0,0.32510024057738574,1.0,0.325316658649992,0.9995249406175772,0.4906802227063665
euwiki,True,11.0,0.3251523901187039,1.0,0.3254769921436588,0.9992874109263657,0.49073961990073844
euwiki,True,12.0,0.32520455639339,1.0,0.3256373256373256,0.9990498812351544,0.49079903147699755
euwiki,True,13.0,0.32536115569823437,1.0,0.32611832611832614,0.9983372921615202,0.4909773525493521
euwiki,True,14.0,0.3254656390494541,1.0,0.32643899310565977,0.9978622327790974,0.4910963052695336
euwiki,True,15.0,0.3255701895277867,1.0,0.32675966009299345,0.9973871733966746,0.4912153156427966
euwiki,True,16.0,0.32577949212471874,1.0,0.3274009940676607,0.996437054631829,0.491453509516305
euwiki,True,17.0,0.3259366457629844,1.0,0.32788199454866124,0.9957244655581948,0.49163230657288387
euwiki,True,18.0,0.3260414991153289,1.0,0.32820266153599487,0.995249406175772,0.49175157690441534
euwiki,True,19.0,0.3263564643374658,1.0,0.3291646624979958,0.9938242280285036,0.4921097353726632
euwiki,True,20.0,0.32651417525773196,1.0,0.32964566297899633,0.9931116389548693,0.4922890103217973
euwiki,True,21.0,0.3266720386784851,1.0,0.3301266634599968,0.9923990498812352,0.49246841593780366
euwiki,True,22.0,0.32725217952857605,1.0,0.3318903318903319,0.9897862232779098,0.49312735676924946
euwiki,True,23.0,0.3274636510500808,1.0,0.3325316658649992,0.9888361045130641,0.49336740903005966
euwiki,True,24.0,0.32783438460294356,1.0,0.333654000320667,0.9871733966745844,0.49378806333739345
euwiki,True,25.0,0.3282059585492228,1.0,0.3347763347763348,0.9855106888361045,0.4942094355723516
euwiki,True,26.0,0.32863164721141375,1.0,0.3360590027256694,0.9836104513064133,0.4946918852959122
euwiki,True,27.0,0.32921877537761896,1.0,0.3378226711560045,0.9809976247030879,0.49535679374389047
euwiki,True,28.0,0.3301302931596091,1.0,0.34054834054834054,0.976959619952494,0.4963879025345905
euwiki,True,29.0,0.33056099151989565,1.0,0.34183100849767517,0.9750593824228029,0.4968746169873759
euwiki,True,30.0,0.33137158737943434,1.0,0.3442360109026776,0.9714964370546318,0.49778978388998035
euwiki,True,31.0,0.33202293202293204,1.0,0.3461600128266795,0.9686460807600951,0.49852434825381214
euwiki,True,32.0,0.3329500657030223,1.0,0.34888568221901556,0.9646080760095012,0.49956869993838565
euwiki,True,33.0,0.3337174843595654,1.0,0.3511303511303511,0.9612826603325416,0.5004320454264906
euwiki,True,34.0,0.33459950454170106,0.9995066600888012,0.35385602052268716,0.9570071258907363,0.5013610492452363
euwiki,True,35.0,0.3353749379241847,0.9995066600888012,0.3561006894340228,0.9536817102137767,0.5022310361923649
euwiki,True,36.0,0.3359880537580886,0.9990133201776024,0.35802469135802467,0.9505938242280285,0.5028557238639185
euwiki,True,37.0,0.3369384359400998,0.9990133201776024,0.36075036075036077,0.9465558194774347,0.503919372900336
euwiki,True,38.0,0.33773175212961415,0.9975333004440059,0.3634760301426968,0.9418052256532067,0.5046169203893186
euwiki,True,39.0,0.33886375062845653,0.9975333004440059,0.36668270001603337,0.9370546318289786,0.5058794095571679
euwiki,True,40.0,0.33994953742640877,0.9970399605328071,0.3698893698893699,0.9320665083135392,0.5070245860511792
euwiki,True,41.0,0.34121222353537056,0.9970399605328071,0.3734167067500401,0.9268408551068884,0.5084276729559748
euwiki,True,42.0,0.3421453990849009,0.9960532807104094,0.37630270963604295,0.9220902612826604,0.5093340060544904
euwiki,True,43.0,0.34313392250169955,0.9960532807104094,0.37902837902837905,0.9180522565320665,0.5104285172544558
euwiki,True,44.0,0.3443042291950887,0.9960532807104094,0.38223504890171556,0.9133016627078385,0.5117222151818528
euwiki,True,45.0,0.34560082163642586,0.9960532807104094,0.38576238576238575,0.9080760095011876,0.5131528783835303
euwiki,True,46.0,0.34690721649484535,0.9960532807104094,0.38928972262305594,0.9028503562945368,0.5145915636548999
euwiki,True,47.0,0.3481034482758621,0.9960532807104094,0.3924963924963925,0.8980997624703088,0.515906477577616
euwiki,True,48.0,0.34895383019194187,0.9955599407992106,0.3949013949013949,0.8942992874109263,0.5167733674775927
euwiki,True,49.0,0.35047784535186793,0.9950666008880118,0.3990700657367324,0.8878859857482185,0.5183757388846054
euwiki,True,50.0,0.35165794066317624,0.9940799210656142,0.4024370691037358,0.8824228028503563,0.519530746422586
euwiki,True,51.0,0.3527865404837014,0.9930932412432166,0.4056437389770723,0.8771971496437054,0.5206258890469418
euwiki,True,52.0,0.3544014084507042,0.9930932412432166,0.4098124098124098,0.871021377672209,0.5223822499026859
euwiki,True,53.0,0.3562201380286675,0.9930932412432166,0.4144620811287478,0.8641330166270784,0.5243553008595988
euwiki,True,54.0,0.3579302987197724,0.9930932412432166,0.4187910854577521,0.8577197149643705,0.5262057247418638
euwiki,True,55.0,0.35928571428571426,0.9925999013320178,0.4223184223184223,0.8522565320665083,0.5275993182116167
euwiki,True,56.0,0.3602651379433895,0.992106561420819,0.42488375821709157,0.8482185273159145,0.5285845709028782
euwiki,True,57.0,0.3618859096634875,0.992106561420819,0.42889209555876223,0.8422802850356295,0.5303270042194093
euwiki,True,58.0,0.36373507057546145,0.9916132215096202,0.4335417668751002,0.8351543942992874,0.5322388454918575
euwiki,True,59.0,0.36529015826814626,0.9906265416872225,0.4375501042167709,0.8287410926365796,0.5337586390217969
euwiki,True,60.0,0.3673805601317957,0.9901332017760237,0.4426807760141093,0.8209026128266034,0.5359145527369826
euwiki,True,61.0,0.3692251058347138,0.9896398618648249,0.4471701138367805,0.8140142517814727,0.5378016085790884
euwiki,True,62.0,0.37175685693106003,0.9896398618648249,0.4531024531024531,0.8052256532066508,0.540482284790516
euwiki,True,63.0,0.3742766473772634,0.9891465219536261,0.4590347923681257,0.7961995249406176,0.5430660888407368
euwiki,True,64.0,0.3769288671433948,0.9881598421312284,0.46528779862113195,0.7864608076009502,0.5457022204059393
euwiki,True,65.0,0.3801025251566357,0.9876665022200296,0.4725028058361392,0.7755344418052257,0.5489443378119001
euwiki,True,66.0,0.38279158699808796,0.9876665022200296,0.4784351451018118,0.7667458432304038,0.5517431445500897
euwiki,True,67.0,0.386262782172487,0.9876665022200296,0.48597081930415265,0.755581947743468,0.5553398058252428
euwiki,True,68.0,0.38993955936829794,0.986679822397632,0.493987493987494,0.7432304038004751,0.5589714924538849
euwiki,True,69.0,0.39427443237907206,0.9851998026640355,0.5032868366201699,0.7287410926365796,0.5631697687535251
euwiki,True,70.0,0.3976818545163869,0.9817464232856438,0.5108225108225108,0.7159144893111639,0.5660645711847532
euwiki,True,71.0,0.40109333873253694,0.9773063640848545,0.5183581850248516,0.7026128266033255,0.5687625610106231
euwiki,True,72.0,0.40506068710141946,0.9713862851504687,0.5270161936828603,0.686935866983373,0.571718931475029
euwiki,True,73.0,0.4098223615464995,0.9674395658608781,0.53663620330287,0.6707838479809977,0.5757486788021139
euwiki,True,74.0,0.4144316730523627,0.9605328071040947,0.5460958794292128,0.6534441805225654,0.5790334572490706
euwiki,True,75.0,0.41990871549663117,0.9531327084361125,0.5568382235048902,0.6339667458432304,0.5829812914906457
euwiki,True,76.0,0.4271736713364465,0.9477059694129255,0.56998556998557,0.6118764845605701,0.5889025137952176
euwiki,True,77.0,0.43180788400543724,0.9403058707449433,0.5784832451499118,0.5957244655581948,0.591833566216426
euwiki,True,78.0,0.43892773892773895,0.9289590527873705,0.5909892576559244,0.5717339667458432,0.5961690675953776
euwiki,True,79.0,0.44755244755244755,0.9156388751850024,0.605258938592272,0.5441805225653207,0.6012309685779074
euwiki,True,80.0,0.4546363409147713,0.8973852984706463,0.6168029501362835,0.5182897862232779,0.6035169210351692
euwiki,True,81.0,0.4648254299114122,0.8801184015786877,0.6317139650472984,0.4878859857482185,0.6083546462063085
euwiki,True,82.0,0.47251556999729216,0.8608781450419339,0.6424563091229758,0.46270783847980995,0.6101398601398601
euwiki,True,83.0,0.4819551008809321,0.8367044893931919,0.6546416546416547,0.4330166270783848,0.6116119725928596
euwiki,True,84.0,0.4942942942942943,0.8120374938332511,0.6689113355780022,0.4,0.6145230539481052
euwiki,True,85.0,0.5012795905310301,0.7730636408485446,0.6762866762866763,0.3703087885985748,0.6081894042305453
euwiki,True,86.0,0.5161957270847691,0.7390231869758264,0.6900753567420234,0.3334916864608076,0.6078312030837899
euwiki,True,87.0,0.5329815303430079,0.6975826344351258,0.7030623697290364,0.29429928741092637,0.6042735042735043
euwiki,True,88.0,0.5466830466830467,0.6586087814504193,0.7115600448933782,0.2629453681710214,0.5974490937569925
euwiki,True,89.0,0.5610531093962778,0.6097681302417366,0.7181337181337182,0.22969121140142518,0.5843971631205674
euwiki,True,90.0,0.5801217038539553,0.5643808584114455,0.725669392336059,0.19667458432304039,0.5721430357589397
euwiki,True,91.0,0.5975250441956393,0.5002466699555994,0.7280743947410614,0.16223277909738718,0.5445757250268527
euwiki,True,92.0,0.6523636363636364,0.44252590034533795,0.7421837421837422,0.11353919239904989,0.527336860670194
euwiki,True,93.0,0.6874443455031166,0.38085841144548593,0.7425044091710759,0.0833729216152019,0.4901587301587301
euwiki,True,94.0,0.7298206278026906,0.3211642821904292,0.7407407407407407,0.057244655581947745,0.4460431654676259
euwiki,True,95.0,0.7885196374622356,0.25752343364578195,0.7362514029180696,0.0332541567695962,0.38824841948679806
euwiki,True,96.0,0.8388520971302428,0.18746916625555007,0.7242263908930575,0.017339667458432306,0.30645161290322587
euwiki,True,97.0,0.8976897689768977,0.13418845584607794,0.7136443803110469,0.007363420427553444,0.23347639484978538
euwiki,True,98.0,0.9593023255813954,0.08140108534780464,0.7003367003367004,0.00166270783847981,0.15006821282401095
euwiki,True,99.0,0.9895833333333334,0.04686729156388752,0.6900753567420234,0.00023752969121140142,0.08949599623174752
euwiki,False,0.0,0.007862629914143696,1.0,0.007862629914143696,1.0,0.015602582496413197
euwiki,False,1.0,0.007868053726626283,0.9989550679205852,0.009579755987347493,0.9982609847794763,0.015613133977347888
euwiki,False,2.0,0.008026034026337532,0.9947753396029259,0.03325802078626299,0.974361947034565,0.01592359351347735
euwiki,False,3.0,0.008226970154332028,0.9853709508881923,0.06589984800558682,0.941386906043492,0.016317702024571726
euwiki,False,4.0,0.008370842024371501,0.9561128526645768,0.1091073409193608,0.8976051276105931,0.0165963814447014
euwiki,False,5.0,0.008623932860656923,0.9341692789968652,0.15512467649837736,0.851049205849716,0.017090095773355508
euwiki,False,6.0,0.008874566691402954,0.9122257053291536,0.19827465801257035,0.807383361764852,0.017578125
euwiki,False,7.0,0.009216490627388912,0.8944618599791013,0.24313354968574127,0.7620281886086222,0.01824498582603321
euwiki,False,8.0,0.00945618328679926,0.8599791013584117,0.29060510208273427,0.7139071531492738,0.018706671212637797
euwiki,False,9.0,0.00982707769877498,0.8390804597701149,0.3339851291952512,0.6700177213931996,0.019426636022741018
euwiki,False,10.0,0.010067768831540473,0.8087774294670846,0.373224335537937,0.6302273969426456,0.01988796957705946
euwiki,False,11.0,0.01043406252156511,0.7899686520376176,0.40927576716099084,0.5937412014110867,0.020596087833051818
euwiki,False,12.0,0.010848952590959205,0.7711598746081505,0.44537649426939985,0.5572053197303698,0.021396886144211532
euwiki,False,13.0,0.011274825845611939,0.7492163009404389,0.4814443577209054,0.5206777190745127,0.022215336948102248
euwiki,False,14.0,0.011797374621339616,0.7324973876698014,0.5154664585301729,0.4862534987330032,0.023220762873279562
euwiki,False,15.0,0.01227481136503123,0.7105538140020898,0.5481657971490778,0.45312111826959706,0.024132730015082957
euwiki,False,16.0,0.012735540056259874,0.690700104493208,0.576576428542086,0.4243279948326405,0.025009932083467336
euwiki,False,17.0,0.013288695366414723,0.6760710553814002,0.6027523312656616,0.3978287152818033,0.026065061939772385
euwiki,False,18.0,0.013745854424855996,0.658307210031348,0.6259376412110258,0.37431888570529487,0.0269294064844301
euwiki,False,19.0,0.014098854034031716,0.6363636363636364,0.6472579386271208,0.35265572467248546,0.027586519296974085
euwiki,False,20.0,0.014426858041683052,0.61337513061651,0.6674937353654028,0.33207737789628844,0.02819065914275423
euwiki,False,21.0,0.014949949034264656,0.5977011494252874,0.6871872817647784,0.3121035459348449,0.029170278953541743
euwiki,False,22.0,0.015483226504619994,0.5830721003134797,0.7052129975763053,0.29381904304476725,0.030165423289004217
euwiki,False,23.0,0.01622783766272015,0.5757575757575758,0.722228155938052,0.2766110733864423,0.03156598206868896
euwiki,False,24.0,0.016852007600535776,0.5653082549634274,0.7372714948855934,0.26136570661985126,0.03272837265577738
euwiki,False,25.0,0.017511520737327188,0.5559038662486938,0.751279628640677,0.24717203001043409,0.03395347352969333
euwiki,False,26.0,0.018197694725812084,0.5444096133751306,0.7654767284229552,0.232771327779526,0.03521817014229222
euwiki,False,27.0,0.01898264867269761,0.5350052246603971,0.7789508277533582,0.2191159177859852,0.03666439901177987
euwiki,False,28.0,0.019822578112733552,0.5276907001044933,0.7911268126360761,0.20678547176998624,0.03820981349071236
euwiki,False,29.0,0.020458333333333332,0.5130616509926855,0.8030234564351149,0.1946786134251975,0.03934767800617061
euwiki,False,30.0,0.02135168519498853,0.5057471264367817,0.8138520313847923,0.18370625548617897,0.04097354497354498
euwiki,False,31.0,0.02236989891426432,0.4994775339602926,0.8244341289076942,0.17299060931780919,0.04282194848824188
euwiki,False,32.0,0.023446019629225736,0.4942528735632184,0.8341617713511071,0.16314447075970123,0.04476834981780323
euwiki,False,33.0,0.02418974815435363,0.4827586206896552,0.8428131290309329,0.15433346030904785,0.04607100119664938
euwiki,False,34.0,0.02505959971170372,0.4723092998955068,0.8513741116542743,0.1456218221567101,0.04759397704538275
euwiki,False,35.0,0.025869132623200283,0.4618599791013584,0.8590231277985458,0.13782937776379206,0.048994069722329996
euwiki,False,36.0,0.026343389474983034,0.44618599791013586,0.8659820071478453,0.13069113433478527,0.04974950483513923
euwiki,False,37.0,0.02741777922500814,0.4399164054336468,0.8728998069260157,0.12366882525381341,0.05161844041196665
euwiki,False,38.0,0.02831420520926397,0.43051201671891326,0.8793575155075382,0.11708541049040229,0.05313386639153985
euwiki,False,39.0,0.02933294705584124,0.4231974921630094,0.8853551328924126,0.1109822951688501,0.05486318070983474
euwiki,False,40.0,0.030136148080159093,0.4117032392894462,0.8911966479069958,0.10500339522019245,0.056161356995224856
euwiki,False,41.0,0.030816392384640207,0.3991640543364681,0.8965698558107054,0.09948823266367446,0.05721560697970493
euwiki,False,42.0,0.031899550352082806,0.3928944618599791,0.901474756603541,0.09449477467331358,0.05900816070307596
euwiki,False,43.0,0.032718195595970403,0.3834900731452456,0.9060099412562133,0.08984911972705742,0.060292426482667985
euwiki,False,44.0,0.0337057553281382,0.37513061650992685,0.9105286940804338,0.08522830785538019,0.06185389386629911
euwiki,False,45.0,0.034936658749010294,0.36886102403343785,0.9149242081912665,0.08074827340631677,0.06382786366512974
euwiki,False,46.0,0.03617463617463618,0.36363636363636365,0.918818551534322,0.07678166249855083,0.06580315779521605
euwiki,False,47.0,0.03732638888888889,0.3594566353187043,0.9220720535677608,0.07346925255469616,0.0676300009829942
euwiki,False,48.0,0.038129822968679075,0.3510971786833856,0.9252598282873927,0.07018996671028006,0.0687890265124373
euwiki,False,49.0,0.038612332184863964,0.3396029258098224,0.9283243642936367,0.0670100531641796,0.0693407296778323
euwiki,False,50.0,0.039519326065411295,0.3333333333333333,0.9310602637308466,0.06420278573676279,0.07066120279100675
euwiki,False,51.0,0.040758047767393564,0.3281086729362591,0.9340015610237029,0.06119677371271469,0.07250894815841127
euwiki,False,52.0,0.04228788289509352,0.32601880877742945,0.9366470854044284,0.058513721658192415,0.07486502699460108
euwiki,False,53.0,0.04387957966486793,0.322884012539185,0.9393583370989607,0.05575614037993342,0.07725965745718215
euwiki,False,54.0,0.04515173945225759,0.3187042842215256,0.9416505771679744,0.053412610344656254,0.079097510373444
euwiki,False,55.0,0.045936395759717315,0.3124346917450366,0.9435731010968246,0.05142516437834346,0.08009643718189124
euwiki,False,56.0,0.046870034953924375,0.30825496342737724,0.9452737953415766,0.049677868132960136,0.08136808716039168
euwiki,False,57.0,0.047642516839165434,0.30303030303030304,0.9468923304440702,0.048005101111313536,0.08233957978421352
euwiki,False,58.0,0.04902127659574468,0.30094043887147337,0.9486012406030481,0.04626608589078984,0.08430913348946135
euwiki,False,59.0,0.05005268703898841,0.29780564263322884,0.9500390255925728,0.04479206346577452,0.08570139828597204
euwiki,False,60.0,0.05111879206840095,0.2936259143155695,0.9515918333812595,0.04319382566786466,0.08707778122094825
euwiki,False,61.0,0.052205050885789674,0.2894461859979101,0.9530953456845911,0.0416452740191126,0.08845601149608813
euwiki,False,62.0,0.053790684077177936,0.2884012539184953,0.954516698845664,0.04020437569353583,0.09067017082785807
euwiki,False,63.0,0.05570184322463034,0.28735632183908044,0.9560941543770283,0.03860613789562596,0.09331523583305056
euwiki,False,64.0,0.05644992682416893,0.28213166144200624,0.9572772460255515,0.037372265191540105,0.09407665505226481
euwiki,False,65.0,0.05775862068965517,0.2800417972831766,0.9584192581029454,0.03620464068633134,0.09576558870823657
euwiki,False,66.0,0.05961152042866711,0.27899686520376177,0.9597255884648564,0.03487967670878948,0.09823399558498895
euwiki,False,67.0,0.060542797494780795,0.2727272727272727,0.9610072710840899,0.03353815068152834,0.09908883826879271
euwiki,False,68.0,0.06281710558105823,0.2716823406478579,0.9624039765024853,0.03212209543053048,0.10204081632653061
euwiki,False,69.0,0.06497104004029212,0.26959247648902823,0.9637513864355256,0.030747445303830803,0.10470779220779222
euwiki,False,70.0,0.06705232711017618,0.2664576802507837,0.9650823645401142,0.02938107620199076,0.10714285714285716
euwiki,False,71.0,0.06921175501235924,0.26332288401253917,0.9663640471593476,0.028064393249308536,0.10961287516311438
euwiki,False,72.0,0.0713463751438435,0.25914315569487983,0.9676539456928069,0.026731148246907036,0.11188811188811189
euwiki,False,73.0,0.07211538461538461,0.2507836990595611,0.9687384463706199,0.025571804766557907,0.11201866977829639
euwiki,False,74.0,0.07443467336683417,0.2476489028213166,0.9698722425337879,0.024404180261349145,0.11446510504709008
euwiki,False,75.0,0.07732634338138926,0.24660397074190177,0.9709403113831492,0.023319366004736747,0.11773509603392367
euwiki,False,76.0,0.08056708160442601,0.24346917450365727,0.972205562173931,0.022019245101773794,0.12107040789815536
euwiki,False,77.0,0.08354615103976651,0.2392894461859979,0.9733804379082283,0.02080193444740721,0.12385073012439157
euwiki,False,78.0,0.08636715724244771,0.2330198537095089,0.974588177299429,0.019534937643882807,0.1260243006499011
euwiki,False,79.0,0.08950874271440466,0.22466039707419017,0.9759355872324693,0.018110601368025305,0.12801428996725217
euwiki,False,80.0,0.09519533004041311,0.22152560083594566,0.9773240767366389,0.016686265092167807,0.13316582914572864
euwiki,False,81.0,0.10014800197335964,0.21212121212121213,0.9788193731257445,0.015104589343977211,0.13605898123324398
euwiki,False,82.0,0.10659340659340659,0.2027168234064786,0.9803721809144312,0.013464946421769158,0.13971912135397913
euwiki,False,83.0,0.11233885819521179,0.19122257053291536,0.9817606704186008,0.011974361947034565,0.14153132250580047
euwiki,False,84.0,0.11964038727524205,0.180773249738767,0.9830998644374153,0.010541744646317429,0.143986683312526
euwiki,False,85.0,0.12895569620253164,0.1703239289446186,0.9844308425420039,0.009117408370459929,0.14678072940117062
euwiki,False,86.0,0.13911472448057813,0.16091954022988506,0.9855728546193978,0.007891816691233707,0.14922480620155038
euwiki,False,87.0,0.15058324496288442,0.148380355276907,0.9867230826110175,0.006633100912568939,0.14947368421052631
euwiki,False,88.0,0.17135549872122763,0.1400208986415883,0.9879143901737666,0.005366104109044536,0.1541115583668775
euwiki,False,89.0,0.19623233908948196,0.13061650992685475,0.9889578112804502,0.0042398847281339535,0.15683814303638646
euwiki,False,90.0,0.2174721189591078,0.12225705329153605,0.9896397321611963,0.0034863114659070206,0.15652173913043477
euwiki,False,91.0,0.2579908675799087,0.1180773249738767,0.990395596269975,0.0026913330793819044,0.16200716845878138
euwiki,False,92.0,0.29014084507042254,0.10762800417972831,0.9909131988662039,0.0020868182646284305,0.1570121951219512
euwiki,False,93.0,0.31958762886597936,0.09717868338557993,0.9912746990921415,0.0016396429222080525,0.14903846153846154
euwiki,False,94.0,0.37962962962962965,0.08568443051201671,0.9917101425461118,0.0011096573311913083,0.13981244671781756
euwiki,False,95.0,0.41818181818181815,0.07210031347962383,0.9919155404017582,0.0007949783865251164,0.12299465240641712
euwiki,False,96.0,0.45,0.05642633228840126,0.992038779115146,0.0005465476407360175,0.10027855153203344
euwiki,False,97.0,0.5540540540540541,0.042842215256008356,0.9922030973996632,0.00027327382036800875,0.0795344325897187
euwiki,False,98.0,0.673469387755102,0.034482758620689655,0.9922770406276958,0.00013249639775418605,0.06560636182902585
euwiki,False,99.0,0.84,0.0219435736677116,0.9922770406276958,3.312409943854651e-05,0.04276985743380855
