wiki_db,user_is_anonymous,threshold,precision,recall,accuracy,fpr,F1
fowiki,True,0.0,0.0882016036655212,1.0,0.0882016036655212,1.0,0.16210526315789475
fowiki,True,1.0,0.0882016036655212,1.0,0.0882016036655212,1.0,0.16210526315789475
fowiki,True,2.0,0.0882016036655212,1.0,0.0882016036655212,1.0,0.16210526315789475
fowiki,True,3.0,0.0882016036655212,1.0,0.0882016036655212,1.0,0.16210526315789475
fowiki,True,4.0,0.0882016036655212,1.0,0.0882016036655212,1.0,0.16210526315789475
fowiki,True,5.0,0.0882016036655212,1.0,0.0882016036655212,1.0,0.16210526315789475
fowiki,True,6.0,0.0882016036655212,1.0,0.0882016036655212,1.0,0.16210526315789475
fowiki,True,7.0,0.0882016036655212,1.0,0.0882016036655212,1.0,0.16210526315789475
fowiki,True,8.0,0.0882016036655212,1.0,0.0882016036655212,1.0,0.16210526315789475
fowiki,True,9.0,0.0882016036655212,1.0,0.0882016036655212,1.0,0.16210526315789475
fowiki,True,10.0,0.0882016036655212,1.0,0.0882016036655212,1.0,0.16210526315789475
fowiki,True,11.0,0.0882016036655212,1.0,0.0882016036655212,1.0,0.16210526315789475
fowiki,True,12.0,0.08830275229357798,1.0,0.08934707903780069,0.9987437185929648,0.16227608008429925
fowiki,True,13.0,0.08840413318025259,1.0,0.09049255441008018,0.9974874371859297,0.16244725738396626
fowiki,True,14.0,0.08840413318025259,1.0,0.09049255441008018,0.9974874371859297,0.16244725738396626
fowiki,True,15.0,0.08840413318025259,1.0,0.09049255441008018,0.9974874371859297,0.16244725738396626
fowiki,True,16.0,0.08860759493670886,1.0,0.09278350515463918,0.9949748743718593,0.1627906976744186
fowiki,True,17.0,0.08881199538638986,1.0,0.09507445589919816,0.992462311557789,0.16313559322033896
fowiki,True,18.0,0.08891454965357967,1.0,0.09621993127147767,0.9912060301507538,0.1633085896076352
fowiki,True,19.0,0.08901734104046242,1.0,0.09736540664375716,0.9899497487437185,0.16348195329087048
fowiki,True,20.0,0.08922363847045191,1.0,0.09965635738831616,0.9874371859296482,0.16382978723404254
fowiki,True,21.0,0.08922363847045191,1.0,0.09965635738831616,0.9874371859296482,0.16382978723404254
fowiki,True,22.0,0.08922363847045191,1.0,0.09965635738831616,0.9874371859296482,0.16382978723404254
fowiki,True,23.0,0.08943089430894309,1.0,0.10194730813287514,0.9849246231155779,0.16417910447761194
fowiki,True,24.0,0.08963911525029103,1.0,0.10423825887743414,0.9824120603015075,0.1645299145299145
fowiki,True,25.0,0.08974358974358974,1.0,0.10538373424971363,0.9811557788944724,0.1647058823529412
fowiki,True,26.0,0.08995327102803738,1.0,0.10767468499427263,0.9786432160804021,0.16505894962486603
fowiki,True,27.0,0.0880281690140845,0.974025974025974,0.10767468499427263,0.9761306532663316,0.16146393972012915
fowiki,True,28.0,0.08705882352941176,0.961038961038961,0.10767468499427263,0.9748743718592965,0.15965480043149943
fowiki,True,29.0,0.08726415094339622,0.961038961038961,0.10996563573883161,0.9723618090452262,0.16
fowiki,True,30.0,0.08767772511848342,0.961038961038961,0.1145475372279496,0.9673366834170855,0.16069489685124863
fowiki,True,31.0,0.0880952380952381,0.961038961038961,0.11912943871706758,0.9623115577889447,0.1613958560523446
fowiki,True,32.0,0.08862275449101796,0.961038961038961,0.12485681557846506,0.9560301507537688,0.16228070175438594
fowiki,True,33.0,0.08862275449101796,0.961038961038961,0.12485681557846506,0.9560301507537688,0.16228070175438594
fowiki,True,34.0,0.08763505402160865,0.948051948051948,0.12485681557846506,0.9547738693467337,0.16043956043956045
fowiki,True,35.0,0.08795180722891566,0.948051948051948,0.12829324169530354,0.9510050251256281,0.1609702315325248
fowiki,True,36.0,0.08848484848484849,0.948051948051948,0.13402061855670103,0.9447236180904522,0.16186252771618626
fowiki,True,37.0,0.08902439024390243,0.948051948051948,0.13974799541809851,0.9384422110552764,0.16276477146042362
fowiki,True,38.0,0.08935128518971848,0.948051948051948,0.143184421534937,0.9346733668341709,0.16331096196868009
fowiki,True,39.0,0.0897908979089791,0.948051948051948,0.14776632302405499,0.9296482412060302,0.16404494382022475
fowiki,True,40.0,0.09045848822800495,0.948051948051948,0.15463917525773196,0.9221105527638191,0.16515837104072395
fowiki,True,41.0,0.09113607990012484,0.948051948051948,0.16151202749140894,0.914572864321608,0.1662870159453303
fowiki,True,42.0,0.09205548549810845,0.948051948051948,0.1706758304696449,0.9045226130653267,0.167816091954023
fowiki,True,43.0,0.09252217997465145,0.948051948051948,0.17525773195876287,0.8994974874371859,0.16859122401847576
fowiki,True,44.0,0.0929936305732484,0.948051948051948,0.17983963344788087,0.8944723618090452,0.16937354988399073
fowiki,True,45.0,0.09311224489795919,0.948051948051948,0.18098510882016036,0.8932160804020101,0.16957026713124276
fowiki,True,46.0,0.09335038363171355,0.948051948051948,0.18327605956471935,0.8907035175879398,0.169965075669383
fowiki,True,47.0,0.09383033419023136,0.948051948051948,0.18785796105383734,0.885678391959799,0.17076023391812864
fowiki,True,48.0,0.09407216494845361,0.948051948051948,0.19014891179839633,0.8831658291457286,0.1711606096131301
fowiki,True,49.0,0.09419354838709677,0.948051948051948,0.19129438717067582,0.8819095477386935,0.17136150234741784
fowiki,True,50.0,0.09505208333333333,0.948051948051948,0.19931271477663232,0.8731155778894473,0.1727810650887574
fowiki,True,51.0,0.09448818897637795,0.935064935064935,0.20389461626575028,0.8668341708542714,0.17163289630512515
fowiki,True,52.0,0.09448818897637795,0.935064935064935,0.20389461626575028,0.8668341708542714,0.17163289630512515
fowiki,True,53.0,0.09461235216819974,0.935064935064935,0.20504009163802978,0.8655778894472361,0.17183770883054894
fowiki,True,54.0,0.09486166007905138,0.935064935064935,0.2073310423825888,0.8630653266331658,0.17224880382775118
fowiki,True,55.0,0.09523809523809523,0.935064935064935,0.21076746849942726,0.8592964824120602,0.17286914765906364
fowiki,True,56.0,0.09523809523809523,0.935064935064935,0.21076746849942726,0.8592964824120602,0.17286914765906364
fowiki,True,57.0,0.096,0.935064935064935,0.21764032073310424,0.8517587939698492,0.17412333736396615
fowiki,True,58.0,0.0967741935483871,0.935064935064935,0.22451317296678122,0.8442211055276382,0.17539585870889157
fowiki,True,59.0,0.0975609756097561,0.935064935064935,0.2313860252004582,0.8366834170854272,0.17668711656441718
fowiki,True,60.0,0.09876543209876543,0.935064935064935,0.24169530355097366,0.8253768844221105,0.17866004962779156
fowiki,True,61.0,0.10013908205841446,0.935064935064935,0.2531500572737686,0.8128140703517588,0.18090452261306533
fowiki,True,62.0,0.10126582278481013,0.935064935064935,0.2623138602520046,0.8027638190954773,0.18274111675126903
fowiki,True,63.0,0.10201149425287356,0.922077922077922,0.27720504009163804,0.785175879396985,0.18369987063389392
fowiki,True,64.0,0.10289855072463767,0.922077922077922,0.284077892325315,0.7776381909547738,0.18513689700130379
fowiki,True,65.0,0.10597014925373134,0.922077922077922,0.30698739977090495,0.7525125628140703,0.19009370816599733
fowiki,True,66.0,0.10708898944193061,0.922077922077922,0.3150057273768614,0.7437185929648241,0.19189189189189187
fowiki,True,67.0,0.10889570552147239,0.922077922077922,0.32760595647193586,0.7298994974874372,0.19478737997256518
fowiki,True,68.0,0.10954616588419405,0.9090909090909091,0.3402061855670103,0.714824120603015,0.19553072625698326
fowiki,True,69.0,0.11093247588424437,0.8961038961038961,0.35738831615120276,0.6947236180904522,0.19742489270386263
fowiki,True,70.0,0.11147011308562198,0.8961038961038961,0.36082474226804123,0.6909547738693468,0.19827586206896552
fowiki,True,71.0,0.11386138613861387,0.8961038961038961,0.3757159221076747,0.6746231155778895,0.20204978038067348
fowiki,True,72.0,0.11467116357504216,0.8831168831168831,0.38831615120274915,0.6595477386934674,0.20298507462686569
fowiki,True,73.0,0.11551724137931034,0.8701298701298701,0.4009163802978236,0.6444723618090452,0.2039573820395738
fowiki,True,74.0,0.1169284467713787,0.8701298701298701,0.40893470790378006,0.635678391959799,0.20615384615384613
fowiki,True,75.0,0.12093862815884476,0.8701298701298701,0.4306987399770905,0.6118090452261307,0.21236133122028528
fowiki,True,76.0,0.12267657992565056,0.8571428571428571,0.44673539518900346,0.592964824120603,0.21463414634146344
fowiki,True,77.0,0.12355212355212356,0.8311688311688312,0.4650630011454754,0.5703517587939698,0.21512605042016808
fowiki,True,78.0,0.12298387096774194,0.7922077922077922,0.4833906071019473,0.5464824120603015,0.2129144851657941
fowiki,True,79.0,0.12738853503184713,0.7792207792207793,0.5097365406643757,0.5163316582914573,0.21897810218978103
fowiki,True,80.0,0.1342281879194631,0.7792207792207793,0.5372279495990836,0.4861809045226131,0.22900763358778625
fowiki,True,81.0,0.1351981351981352,0.7532467532467533,0.5532646048109966,0.46608040201005024,0.22924901185770752
fowiki,True,82.0,0.1375921375921376,0.7272727272727273,0.5738831615120275,0.44095477386934673,0.23140495867768593
fowiki,True,83.0,0.14588859416445624,0.7142857142857143,0.6059564719358533,0.4045226130653266,0.24229074889867844
fowiki,True,84.0,0.14814814814814814,0.6753246753246753,0.6288659793814433,0.3756281407035176,0.24299065420560745
fowiki,True,85.0,0.13125,0.5454545454545454,0.6414662084765178,0.3492462311557789,0.2115869017632242
fowiki,True,86.0,0.1414141414141414,0.5454545454545454,0.6678121420389461,0.3203517587939699,0.2245989304812834
fowiki,True,87.0,0.14285714285714285,0.4675324675324675,0.7056128293241696,0.271356783919598,0.2188449848024316
fowiki,True,88.0,0.15348837209302327,0.42857142857142855,0.7411225658648339,0.228643216080402,0.22602739726027396
fowiki,True,89.0,0.14792899408284024,0.3246753246753247,0.7754868270332188,0.18090452261306533,0.20325203252032523
fowiki,True,90.0,0.1527777777777778,0.2857142857142857,0.7972508591065293,0.15326633165829145,0.1990950226244344
fowiki,True,91.0,0.16822429906542055,0.23376623376623376,0.8304696449026346,0.11180904522613065,0.19565217391304346
fowiki,True,92.0,0.14864864864864866,0.14285714285714285,0.852233676975945,0.07914572864321608,0.1456953642384106
fowiki,True,93.0,0.0975609756097561,0.05194805194805195,0.8739977090492554,0.04648241206030151,0.06779661016949154
fowiki,True,94.0,0.047619047619047616,0.012987012987012988,0.8900343642611683,0.02512562814070352,0.020408163265306124
fowiki,True,95.0,0.0,0.0,0.8957617411225659,0.017587939698492462,0.020408163265306124
fowiki,True,96.0,0.0,0.0,0.9049255441008018,0.007537688442211055,0.020408163265306124
fowiki,True,97.0,0.0,0.0,0.9072164948453608,0.005025125628140704,0.020408163265306124
fowiki,True,98.0,0.0,0.0,0.9095074455899198,0.002512562814070352,0.020408163265306124
fowiki,True,99.0,0.0,0.0,0.9117983963344788,0.0,0.020408163265306124
fowiki,False,0.0,0.01559792027729636,1.0,0.01559792027729636,1.0,0.030716723549488054
fowiki,False,1.0,0.01559792027729636,1.0,0.01559792027729636,1.0,0.030716723549488054
fowiki,False,2.0,0.01559792027729636,1.0,0.01559792027729636,1.0,0.030716723549488054
fowiki,False,3.0,0.01559792027729636,1.0,0.01559792027729636,1.0,0.030716723549488054
fowiki,False,4.0,0.015625,1.0,0.01733102253032929,0.9982394366197183,0.03076923076923077
fowiki,False,5.0,0.0156794425087108,1.0,0.02079722703639515,0.9947183098591549,0.030874785591766724
fowiki,False,6.0,0.015734265734265736,1.0,0.024263431542461005,0.9911971830985915,0.03098106712564544
fowiki,False,7.0,0.015957446808510637,1.0,0.038128249566724434,0.977112676056338,0.031413612565445025
fowiki,False,8.0,0.01618705035971223,1.0,0.05199306759098787,0.9630281690140845,0.031858407079646024
fowiki,False,9.0,0.016333938294010888,1.0,0.060658578856152515,0.954225352112676,0.03214285714285714
fowiki,False,10.0,0.016483516483516484,1.0,0.06932409012131716,0.9454225352112676,0.032432432432432434
fowiki,False,11.0,0.01675977653631285,1.0,0.08492201039861352,0.9295774647887324,0.03296703296703297
fowiki,False,12.0,0.016885553470919325,1.0,0.09185441941074524,0.9225352112676056,0.033210332103321034
fowiki,False,13.0,0.017013232514177693,1.0,0.09878682842287695,0.9154929577464789,0.033457249070631974
fowiki,False,14.0,0.01727447216890595,1.0,0.11265164644714037,0.9014084507042254,0.033962264150943396
fowiki,False,15.0,0.017543859649122806,1.0,0.1265164644714038,0.8873239436619719,0.034482758620689655
fowiki,False,16.0,0.01782178217821782,1.0,0.14038128249566725,0.8732394366197183,0.03501945525291828
fowiki,False,17.0,0.01818181818181818,1.0,0.15771230502599654,0.8556338028169014,0.03571428571428572
fowiki,False,18.0,0.01859504132231405,1.0,0.17677642980935876,0.8362676056338029,0.036511156186612576
fowiki,False,19.0,0.018947368421052633,1.0,0.1923743500866551,0.8204225352112676,0.0371900826446281
fowiki,False,20.0,0.019313304721030045,1.0,0.20797227036395147,0.8045774647887324,0.037894736842105266
fowiki,False,21.0,0.019693654266958426,1.0,0.22357019064124783,0.7887323943661971,0.03862660944206009
fowiki,False,22.0,0.019867549668874173,1.0,0.23050259965337955,0.7816901408450704,0.03896103896103896
fowiki,False,23.0,0.020316027088036117,1.0,0.24783362218370883,0.7640845070422535,0.03982300884955752
fowiki,False,24.0,0.020737327188940093,1.0,0.2634315424610052,0.7482394366197183,0.040632054176072234
fowiki,False,25.0,0.02142857142857143,1.0,0.2876949740034662,0.7235915492957746,0.04195804195804196
fowiki,False,26.0,0.021686746987951807,1.0,0.29636048526863085,0.7147887323943662,0.04245283018867924
fowiki,False,27.0,0.022332506203473945,1.0,0.317157712305026,0.6936619718309859,0.04368932038834951
fowiki,False,28.0,0.022727272727272728,1.0,0.3292894280762565,0.6813380281690141,0.044444444444444446
fowiki,False,29.0,0.02313624678663239,1.0,0.341421143847487,0.6690140845070423,0.04522613065326633
fowiki,False,30.0,0.02368421052631579,1.0,0.35701906412478335,0.653169014084507,0.04627249357326479
fowiki,False,31.0,0.02406417112299465,1.0,0.36741767764298094,0.6426056338028169,0.04699738903394255
fowiki,False,32.0,0.02452316076294278,1.0,0.37954939341421146,0.6302816901408451,0.047872340425531915
fowiki,False,33.0,0.02601156069364162,1.0,0.41594454072790293,0.5933098591549296,0.050704225352112685
fowiki,False,34.0,0.026785714285714284,1.0,0.43327556325823224,0.5757042253521126,0.052173913043478265
fowiki,False,35.0,0.02786377708978328,1.0,0.4558058925476603,0.5528169014084507,0.05421686746987951
fowiki,False,36.0,0.028662420382165606,1.0,0.4714038128249567,0.5369718309859155,0.05572755417956656
fowiki,False,37.0,0.029315960912052116,1.0,0.48353552859618715,0.5246478873239436,0.056962025316455694
fowiki,False,38.0,0.029801324503311258,1.0,0.49220103986135183,0.5158450704225352,0.05787781350482315
fowiki,False,39.0,0.030508474576271188,1.0,0.5043327556325823,0.5035211267605634,0.05921052631578948
fowiki,False,40.0,0.031141868512110725,1.0,0.5147313691507799,0.49295774647887325,0.060402684563758385
fowiki,False,41.0,0.031578947368421054,1.0,0.5216637781629117,0.4859154929577465,0.061224489795918366
fowiki,False,42.0,0.029304029304029304,0.8888888888888888,0.5389948006932409,0.4665492957746479,0.05673758865248227
fowiki,False,43.0,0.03018867924528302,0.8888888888888888,0.5528596187175043,0.4524647887323944,0.058394160583941604
fowiki,False,44.0,0.031007751937984496,0.8888888888888888,0.5649913344887348,0.44014084507042256,0.059925093632958795
fowiki,False,45.0,0.0321285140562249,0.8888888888888888,0.5805892547660312,0.4242957746478873,0.06201550387596899
fowiki,False,46.0,0.029166666666666667,0.7777777777777778,0.5927209705372617,0.4102112676056338,0.05622489959839358
fowiki,False,47.0,0.03017241379310345,0.7777777777777778,0.6065857885615251,0.3961267605633803,0.058091286307053944
fowiki,False,48.0,0.030837004405286344,0.7777777777777778,0.6152512998266898,0.3873239436619718,0.059322033898305086
fowiki,False,49.0,0.03153153153153153,0.7777777777777778,0.6239168110918544,0.3785211267605634,0.0606060606060606
fowiki,False,50.0,0.03255813953488372,0.7777777777777778,0.6360485268630849,0.36619718309859156,0.0625
fowiki,False,51.0,0.03333333333333333,0.7777777777777778,0.6447140381282496,0.3573943661971831,0.0639269406392694
fowiki,False,52.0,0.03349282296650718,0.7777777777777778,0.6464471403812825,0.35563380281690143,0.06422018348623854
fowiki,False,53.0,0.03414634146341464,0.7777777777777778,0.6533795493934142,0.3485915492957746,0.06542056074766354
fowiki,False,54.0,0.030456852791878174,0.6666666666666666,0.6637781629116117,0.3362676056338028,0.05825242718446602
fowiki,False,55.0,0.03076923076923077,0.6666666666666666,0.6672443674176777,0.33274647887323944,0.05882352941176471
fowiki,False,56.0,0.03125,0.6666666666666666,0.6724436741767764,0.3274647887323944,0.05970149253731343
fowiki,False,57.0,0.03278688524590164,0.6666666666666666,0.6880415944540728,0.31161971830985913,0.0625
fowiki,False,58.0,0.03296703296703297,0.6666666666666666,0.6897746967071057,0.30985915492957744,0.06282722513089005
fowiki,False,59.0,0.03428571428571429,0.6666666666666666,0.7019064124783362,0.2975352112676056,0.06521739130434784
fowiki,False,60.0,0.029069767441860465,0.5555555555555556,0.7036395147313691,0.29401408450704225,0.055248618784530384
fowiki,False,61.0,0.03048780487804878,0.5555555555555556,0.7175043327556326,0.27992957746478875,0.057803468208092484
fowiki,False,62.0,0.03125,0.5555555555555556,0.7244367417677643,0.272887323943662,0.05917159763313609
fowiki,False,63.0,0.032679738562091505,0.5555555555555556,0.7365684575389948,0.2605633802816901,0.0617283950617284
fowiki,False,64.0,0.034013605442176874,0.5555555555555556,0.7469670710571924,0.25,0.0641025641025641
fowiki,False,65.0,0.0364963503649635,0.5555555555555556,0.7642980935875217,0.2323943661971831,0.0684931506849315
fowiki,False,66.0,0.03759398496240601,0.5555555555555556,0.7712305025996534,0.22535211267605634,0.0704225352112676
fowiki,False,67.0,0.03937007874015748,0.5555555555555556,0.7816291161178509,0.2147887323943662,0.07352941176470588
fowiki,False,68.0,0.04032258064516129,0.5555555555555556,0.7868284228769498,0.20950704225352113,0.07518796992481203
fowiki,False,69.0,0.0423728813559322,0.5555555555555556,0.7972270363951474,0.198943661971831,0.07874015748031496
fowiki,False,70.0,0.043859649122807015,0.5555555555555556,0.804159445407279,0.19190140845070422,0.08130081300813007
fowiki,False,71.0,0.045871559633027525,0.5555555555555556,0.8128249566724437,0.18309859154929578,0.08474576271186442
fowiki,False,72.0,0.04854368932038835,0.5555555555555556,0.8232235701906413,0.17253521126760563,0.08928571428571429
fowiki,False,73.0,0.053763440860215055,0.5555555555555556,0.8405545927209706,0.15492957746478872,0.09803921568627452
fowiki,False,74.0,0.056179775280898875,0.5555555555555556,0.8474870017331022,0.14788732394366197,0.1020408163265306
fowiki,False,75.0,0.06097560975609756,0.5555555555555556,0.8596187175043327,0.13556338028169015,0.10989010989010989
fowiki,False,76.0,0.06329113924050633,0.5555555555555556,0.8648180242634316,0.13028169014084506,0.11363636363636365
fowiki,False,77.0,0.0684931506849315,0.5555555555555556,0.8752166377816292,0.11971830985915492,0.1219512195121951
fowiki,False,78.0,0.05970149253731343,0.4444444444444444,0.8821490467937608,0.11091549295774648,0.10526315789473685
fowiki,False,79.0,0.06557377049180328,0.4444444444444444,0.8925476603119584,0.10035211267605634,0.1142857142857143
fowiki,False,80.0,0.06896551724137931,0.4444444444444444,0.8977469670710572,0.09507042253521127,0.11940298507462686
fowiki,False,81.0,0.07407407407407407,0.4444444444444444,0.9046793760831889,0.0880281690140845,0.12698412698412698
fowiki,False,82.0,0.061224489795918366,0.3333333333333333,0.9098786828422877,0.08098591549295775,0.10344827586206896
fowiki,False,83.0,0.05128205128205128,0.2222222222222222,0.9237435008665511,0.06514084507042253,0.08333333333333333
fowiki,False,84.0,0.05405405405405406,0.2222222222222222,0.9272097053726169,0.061619718309859156,0.08695652173913043
fowiki,False,85.0,0.06060606060606061,0.2222222222222222,0.9341421143847487,0.05457746478873239,0.09523809523809523
fowiki,False,86.0,0.06666666666666667,0.2222222222222222,0.9393414211438474,0.04929577464788732,0.10256410256410256
fowiki,False,87.0,0.07142857142857142,0.2222222222222222,0.9428076256499134,0.045774647887323945,0.10810810810810811
fowiki,False,88.0,0.08333333333333333,0.2222222222222222,0.949740034662045,0.03873239436619718,0.12121212121212122
fowiki,False,89.0,0.09523809523809523,0.2222222222222222,0.9549393414211439,0.03345070422535211,0.13333333333333333
fowiki,False,90.0,0.1111111111111111,0.2222222222222222,0.9601386481802426,0.028169014084507043,0.14814814814814814
fowiki,False,91.0,0.07692307692307693,0.1111111111111111,0.9653379549393414,0.02112676056338028,0.09090909090909093
fowiki,False,92.0,0.1111111111111111,0.1111111111111111,0.9722703639514731,0.014084507042253521,0.1111111111111111
fowiki,False,93.0,0.0,0.0,0.9774696707105719,0.007042253521126761,0.1111111111111111
fowiki,False,94.0,0.0,0.0,0.9774696707105719,0.007042253521126761,0.1111111111111111
fowiki,False,95.0,0.0,0.0,0.9826689774696707,0.0017605633802816902,0.1111111111111111
fowiki,False,96.0,0.0,0.0,0.9826689774696707,0.0017605633802816902,0.1111111111111111
fowiki,False,97.0,0.0,0.0,0.9826689774696707,0.0017605633802816902,0.1111111111111111
fowiki,False,98.0,0.0,0.0,0.9844020797227037,0.0,0.1111111111111111
fowiki,False,99.0,0.0,0.0,0.9844020797227037,0.0,0.1111111111111111
