wiki_db,user_is_anonymous,threshold,precision,recall,accuracy,fpr,F1
frpwiki,True,0.0,0.40789473684210525,1.0,0.40789473684210525,1.0,0.5794392523364486
frpwiki,True,1.0,0.40789473684210525,1.0,0.40789473684210525,1.0,0.5794392523364486
frpwiki,True,2.0,0.40789473684210525,1.0,0.40789473684210525,1.0,0.5794392523364486
frpwiki,True,3.0,0.40789473684210525,1.0,0.40789473684210525,1.0,0.5794392523364486
frpwiki,True,4.0,0.40789473684210525,1.0,0.40789473684210525,1.0,0.5794392523364486
frpwiki,True,5.0,0.40789473684210525,1.0,0.40789473684210525,1.0,0.5794392523364486
frpwiki,True,6.0,0.40789473684210525,1.0,0.40789473684210525,1.0,0.5794392523364486
frpwiki,True,7.0,0.40789473684210525,1.0,0.40789473684210525,1.0,0.5794392523364486
frpwiki,True,8.0,0.40789473684210525,1.0,0.40789473684210525,1.0,0.5794392523364486
frpwiki,True,9.0,0.40789473684210525,1.0,0.40789473684210525,1.0,0.5794392523364486
frpwiki,True,10.0,0.40789473684210525,1.0,0.40789473684210525,1.0,0.5794392523364486
frpwiki,True,11.0,0.40789473684210525,1.0,0.40789473684210525,1.0,0.5794392523364486
frpwiki,True,12.0,0.40789473684210525,1.0,0.40789473684210525,1.0,0.5794392523364486
frpwiki,True,13.0,0.40789473684210525,1.0,0.40789473684210525,1.0,0.5794392523364486
frpwiki,True,14.0,0.40789473684210525,1.0,0.40789473684210525,1.0,0.5794392523364486
frpwiki,True,15.0,0.40789473684210525,1.0,0.40789473684210525,1.0,0.5794392523364486
frpwiki,True,16.0,0.40789473684210525,1.0,0.40789473684210525,1.0,0.5794392523364486
frpwiki,True,17.0,0.40789473684210525,1.0,0.40789473684210525,1.0,0.5794392523364486
frpwiki,True,18.0,0.40789473684210525,1.0,0.40789473684210525,1.0,0.5794392523364486
frpwiki,True,19.0,0.40789473684210525,1.0,0.40789473684210525,1.0,0.5794392523364486
frpwiki,True,20.0,0.40789473684210525,1.0,0.40789473684210525,1.0,0.5794392523364486
frpwiki,True,21.0,0.40789473684210525,1.0,0.40789473684210525,1.0,0.5794392523364486
frpwiki,True,22.0,0.40789473684210525,1.0,0.40789473684210525,1.0,0.5794392523364486
frpwiki,True,23.0,0.40789473684210525,1.0,0.40789473684210525,1.0,0.5794392523364486
frpwiki,True,24.0,0.40789473684210525,1.0,0.40789473684210525,1.0,0.5794392523364486
frpwiki,True,25.0,0.40789473684210525,1.0,0.40789473684210525,1.0,0.5794392523364486
frpwiki,True,26.0,0.40789473684210525,1.0,0.40789473684210525,1.0,0.5794392523364486
frpwiki,True,27.0,0.40789473684210525,1.0,0.40789473684210525,1.0,0.5794392523364486
frpwiki,True,28.0,0.40789473684210525,1.0,0.40789473684210525,1.0,0.5794392523364486
frpwiki,True,29.0,0.40789473684210525,1.0,0.40789473684210525,1.0,0.5794392523364486
frpwiki,True,30.0,0.40789473684210525,1.0,0.40789473684210525,1.0,0.5794392523364486
frpwiki,True,31.0,0.40789473684210525,1.0,0.40789473684210525,1.0,0.5794392523364486
frpwiki,True,32.0,0.40789473684210525,1.0,0.40789473684210525,1.0,0.5794392523364486
frpwiki,True,33.0,0.40789473684210525,1.0,0.40789473684210525,1.0,0.5794392523364486
frpwiki,True,34.0,0.40789473684210525,1.0,0.40789473684210525,1.0,0.5794392523364486
frpwiki,True,35.0,0.41333333333333333,1.0,0.42105263157894735,0.9777777777777777,0.5849056603773585
frpwiki,True,36.0,0.41333333333333333,1.0,0.42105263157894735,0.9777777777777777,0.5849056603773585
frpwiki,True,37.0,0.41333333333333333,1.0,0.42105263157894735,0.9777777777777777,0.5849056603773585
frpwiki,True,38.0,0.41333333333333333,1.0,0.42105263157894735,0.9777777777777777,0.5849056603773585
frpwiki,True,39.0,0.41333333333333333,1.0,0.42105263157894735,0.9777777777777777,0.5849056603773585
frpwiki,True,40.0,0.41333333333333333,1.0,0.42105263157894735,0.9777777777777777,0.5849056603773585
frpwiki,True,41.0,0.41333333333333333,1.0,0.42105263157894735,0.9777777777777777,0.5849056603773585
frpwiki,True,42.0,0.41333333333333333,1.0,0.42105263157894735,0.9777777777777777,0.5849056603773585
frpwiki,True,43.0,0.41333333333333333,1.0,0.42105263157894735,0.9777777777777777,0.5849056603773585
frpwiki,True,44.0,0.41333333333333333,1.0,0.42105263157894735,0.9777777777777777,0.5849056603773585
frpwiki,True,45.0,0.41333333333333333,1.0,0.42105263157894735,0.9777777777777777,0.5849056603773585
frpwiki,True,46.0,0.4189189189189189,1.0,0.4342105263157895,0.9555555555555556,0.5904761904761905
frpwiki,True,47.0,0.4189189189189189,1.0,0.4342105263157895,0.9555555555555556,0.5904761904761905
frpwiki,True,48.0,0.4189189189189189,1.0,0.4342105263157895,0.9555555555555556,0.5904761904761905
frpwiki,True,49.0,0.4246575342465753,1.0,0.4473684210526316,0.9333333333333333,0.5961538461538461
frpwiki,True,50.0,0.4246575342465753,1.0,0.4473684210526316,0.9333333333333333,0.5961538461538461
frpwiki,True,51.0,0.4246575342465753,1.0,0.4473684210526316,0.9333333333333333,0.5961538461538461
frpwiki,True,52.0,0.4246575342465753,1.0,0.4473684210526316,0.9333333333333333,0.5961538461538461
frpwiki,True,53.0,0.4305555555555556,1.0,0.4605263157894737,0.9111111111111111,0.6019417475728156
frpwiki,True,54.0,0.4305555555555556,1.0,0.4605263157894737,0.9111111111111111,0.6019417475728156
frpwiki,True,55.0,0.4305555555555556,1.0,0.4605263157894737,0.9111111111111111,0.6019417475728156
frpwiki,True,56.0,0.4305555555555556,1.0,0.4605263157894737,0.9111111111111111,0.6019417475728156
frpwiki,True,57.0,0.4305555555555556,1.0,0.4605263157894737,0.9111111111111111,0.6019417475728156
frpwiki,True,58.0,0.4305555555555556,1.0,0.4605263157894737,0.9111111111111111,0.6019417475728156
frpwiki,True,59.0,0.4305555555555556,1.0,0.4605263157894737,0.9111111111111111,0.6019417475728156
frpwiki,True,60.0,0.4305555555555556,1.0,0.4605263157894737,0.9111111111111111,0.6019417475728156
frpwiki,True,61.0,0.4305555555555556,1.0,0.4605263157894737,0.9111111111111111,0.6019417475728156
frpwiki,True,62.0,0.44285714285714284,1.0,0.4868421052631579,0.8666666666666667,0.6138613861386139
frpwiki,True,63.0,0.4492753623188406,1.0,0.5,0.8444444444444444,0.62
frpwiki,True,64.0,0.4492753623188406,1.0,0.5,0.8444444444444444,0.62
frpwiki,True,65.0,0.4492753623188406,1.0,0.5,0.8444444444444444,0.62
frpwiki,True,66.0,0.4492753623188406,1.0,0.5,0.8444444444444444,0.62
frpwiki,True,67.0,0.4492753623188406,1.0,0.5,0.8444444444444444,0.62
frpwiki,True,68.0,0.45588235294117646,1.0,0.5131578947368421,0.8222222222222222,0.6262626262626263
frpwiki,True,69.0,0.45588235294117646,1.0,0.5131578947368421,0.8222222222222222,0.6262626262626263
frpwiki,True,70.0,0.45588235294117646,1.0,0.5131578947368421,0.8222222222222222,0.6262626262626263
frpwiki,True,71.0,0.45588235294117646,1.0,0.5131578947368421,0.8222222222222222,0.6262626262626263
frpwiki,True,72.0,0.44776119402985076,0.967741935483871,0.5,0.8222222222222222,0.6122448979591837
frpwiki,True,73.0,0.44776119402985076,0.967741935483871,0.5,0.8222222222222222,0.6122448979591837
frpwiki,True,74.0,0.4393939393939394,0.9354838709677419,0.4868421052631579,0.8222222222222222,0.5979381443298969
frpwiki,True,75.0,0.4375,0.9032258064516129,0.4868421052631579,0.8,0.5894736842105263
frpwiki,True,76.0,0.4444444444444444,0.9032258064516129,0.5,0.7777777777777778,0.5957446808510638
frpwiki,True,77.0,0.4444444444444444,0.9032258064516129,0.5,0.7777777777777778,0.5957446808510638
frpwiki,True,78.0,0.4666666666666667,0.9032258064516129,0.5394736842105263,0.7111111111111111,0.6153846153846154
frpwiki,True,79.0,0.49122807017543857,0.9032258064516129,0.5789473684210527,0.6444444444444445,0.6363636363636364
frpwiki,True,80.0,0.5,0.9032258064516129,0.5921052631578947,0.6222222222222222,0.6436781609195402
frpwiki,True,81.0,0.5294117647058824,0.8709677419354839,0.631578947368421,0.5333333333333333,0.6585365853658537
frpwiki,True,82.0,0.5434782608695652,0.8064516129032258,0.6447368421052632,0.4666666666666667,0.6493506493506493
frpwiki,True,83.0,0.5116279069767442,0.7096774193548387,0.6052631578947368,0.4666666666666667,0.5945945945945946
frpwiki,True,84.0,0.5121951219512195,0.6774193548387096,0.6052631578947368,0.4444444444444444,0.5833333333333334
frpwiki,True,85.0,0.5555555555555556,0.6451612903225806,0.6447368421052632,0.35555555555555557,0.5970149253731343
frpwiki,True,86.0,0.6060606060606061,0.6451612903225806,0.6842105263157895,0.28888888888888886,0.625
frpwiki,True,87.0,0.5806451612903226,0.5806451612903226,0.6578947368421053,0.28888888888888886,0.5806451612903226
frpwiki,True,88.0,0.5925925925925926,0.5161290322580645,0.6578947368421053,0.24444444444444444,0.5517241379310345
frpwiki,True,89.0,0.6086956521739131,0.45161290322580644,0.6578947368421053,0.2,0.5185185185185185
frpwiki,True,90.0,0.5789473684210527,0.3548387096774194,0.631578947368421,0.17777777777777778,0.44000000000000006
frpwiki,True,91.0,0.6923076923076923,0.2903225806451613,0.6578947368421053,0.08888888888888889,0.4090909090909091
frpwiki,True,92.0,0.8,0.25806451612903225,0.6710526315789473,0.044444444444444446,0.3902439024390244
frpwiki,True,93.0,0.6666666666666666,0.12903225806451613,0.618421052631579,0.044444444444444446,0.2162162162162162
frpwiki,True,94.0,0.6666666666666666,0.06451612903225806,0.6052631578947368,0.022222222222222223,0.1176470588235294
frpwiki,True,95.0,0.6666666666666666,0.06451612903225806,0.6052631578947368,0.022222222222222223,0.1176470588235294
frpwiki,True,96.0,1.0,0.03225806451612903,0.6052631578947368,0.0,0.0625
frpwiki,True,97.0,1.0,0.0,0.5921052631578947,0.0,0.0
frpwiki,True,98.0,1.0,0.0,0.5921052631578947,0.0,0.0
frpwiki,True,99.0,1.0,0.0,0.5921052631578947,0.0,0.0
frpwiki,False,0.0,0.016457211250748054,1.0,0.016457211250748054,1.0,0.03238151309979394
frpwiki,False,1.0,0.01646213708470518,1.0,0.016756433273488927,0.9996957712199575,0.032391048292108364
frpwiki,False,2.0,0.016702095353780748,1.0,0.031119090365050867,0.985092789777913,0.032855436081242535
frpwiki,False,3.0,0.017101990049751242,1.0,0.05415918611609814,0.9616671737146334,0.03362885967594007
frpwiki,False,4.0,0.017449238578680203,1.0,0.07330939557151406,0.9421965317919075,0.034299968818210166
frpwiki,False,5.0,0.018151815181518153,1.0,0.10981448234590066,0.9050806206267112,0.03565640194489465
frpwiki,False,6.0,0.019197207678883072,1.0,0.15918611609814481,0.8548828719196836,0.03767123287671233
frpwiki,False,7.0,0.019350127783862723,0.9636363636363636,0.19569120287253142,0.8171585031944022,0.03793843951324266
frpwiki,False,8.0,0.019854906452844597,0.9454545454545454,0.23099940155595453,0.7809552783693338,0.03889304412864623
frpwiki,False,9.0,0.02090032154340836,0.9454545454545454,0.27019748653500897,0.7411013081837542,0.04089657884388517
frpwiki,False,10.0,0.022033898305084745,0.9454545454545454,0.3084979054458408,0.7021600243383024,0.043064182194616975
frpwiki,False,11.0,0.02186523873270861,0.8909090909090909,0.34230999401555956,0.6668694858533617,0.04268292682926829
frpwiki,False,12.0,0.02247191011235955,0.8727272727272727,0.37312986235786955,0.6352296927289321,0.04381560931081698
frpwiki,False,13.0,0.022222222222222223,0.8181818181818182,0.4045481747456613,0.6023729844843322,0.04326923076923077
frpwiki,False,14.0,0.021320852834113363,0.7454545454545455,0.4326750448833034,0.5725585640401581,0.04145601617795753
frpwiki,False,15.0,0.020218579234972677,0.6727272727272727,0.4581089168162777,0.5454822026163675,0.03925729442970822
frpwiki,False,16.0,0.02116704805491991,0.6727272727272727,0.4826451226810293,0.520535442652875,0.04104270660011093
frpwiki,False,17.0,0.020531400966183576,0.6181818181818182,0.5083782166367444,0.4934590812290843,0.03974284044418469
frpwiki,False,18.0,0.021573604060913704,0.6181818181818182,0.5323159784560144,0.46912077882567693,0.041692213366033105
frpwiki,False,19.0,0.022651565622918056,0.6181818181818182,0.5547576301615799,0.4463036203224825,0.043701799485861184
frpwiki,False,20.0,0.02309307207837649,0.6,0.5757031717534411,0.4247033769394585,0.0444743935309973
frpwiki,False,21.0,0.024372230428360415,0.6,0.5981448234590065,0.4018862184362641,0.0468417317246274
frpwiki,False,22.0,0.02494154325798909,0.5818181818181818,0.6187911430281269,0.3805902038332826,0.04783258594917788
frpwiki,False,23.0,0.02557755775577558,0.5636363636363636,0.6394374625972472,0.3592941892303012,0.04893449092344121
frpwiki,False,24.0,0.0274822695035461,0.5636363636363636,0.6645721125074806,0.33373897170672345,0.052409129332206254
frpwiki,False,25.0,0.029495718363463368,0.5636363636363636,0.6876122082585279,0.31031335564344387,0.05605786618444846
frpwiki,False,26.0,0.030927835051546393,0.5454545454545454,0.7112507480550568,0.2859750532400365,0.058536585365853655
frpwiki,False,27.0,0.032329988851727984,0.5272727272727272,0.7324955116696589,0.2640705810769699,0.060924369747899165
frpwiki,False,28.0,0.032569360675512665,0.4909090909090909,0.7516457211250748,0.24399148159415882,0.061085972850678724
frpwiki,False,29.0,0.03412073490813648,0.4727272727272727,0.7710951526032316,0.22391238211134773,0.06364749082007345
frpwiki,False,30.0,0.03651685393258427,0.4727272727272727,0.7860562537402753,0.20870094310921813,0.06779661016949153
frpwiki,False,31.0,0.038880248833592534,0.45454545454545453,0.8061041292639138,0.18801338606632187,0.07163323782234957
frpwiki,False,32.0,0.04054054054054054,0.43636363636363634,0.8207660083782167,0.17280194706419227,0.0741885625965997
frpwiki,False,33.0,0.04204753199268738,0.41818181818181815,0.8336325553560742,0.15941588074231822,0.07641196013289037
frpwiki,False,34.0,0.0412573673870334,0.38181818181818183,0.8438061041292639,0.1484636446607849,0.07446808510638299
frpwiki,False,35.0,0.037894736842105266,0.32727272727272727,0.8521843207660084,0.13903255247946456,0.0679245283018868
frpwiki,False,36.0,0.04176334106728538,0.32727272727272727,0.8653500897666068,0.1256464861575905,0.07407407407407406
frpwiki,False,37.0,0.039603960396039604,0.2909090909090909,0.8722321962896469,0.11804076665652571,0.06971677559912855
frpwiki,False,38.0,0.04289544235924933,0.2909090909090909,0.881508078994614,0.10860967447520535,0.07476635514018691
frpwiki,False,39.0,0.0436046511627907,0.2727272727272727,0.8895870736086176,0.10009126863401278,0.07518796992481203
frpwiki,False,40.0,0.047021943573667714,0.2727272727272727,0.8970676241771395,0.09248554913294797,0.08021390374331551
frpwiki,False,41.0,0.04861111111111111,0.2545454545454545,0.9057450628366248,0.08335868573167021,0.08163265306122448
frpwiki,False,42.0,0.052434456928838954,0.2545454545454545,0.9120287253141831,0.07696988135077579,0.08695652173913043
frpwiki,False,43.0,0.05555555555555555,0.2545454545454545,0.9165170556552962,0.0724064496501369,0.09120521172638435
frpwiki,False,44.0,0.05752212389380531,0.23636363636363636,0.9236983842010772,0.0648007301490721,0.09252669039145907
frpwiki,False,45.0,0.06220095693779904,0.23636363636363636,0.9287851585876721,0.059628840888348036,0.09848484848484848
frpwiki,False,46.0,0.06565656565656566,0.23636363636363636,0.9320766008378216,0.05628232430787952,0.10276679841897234
frpwiki,False,47.0,0.07222222222222222,0.23636363636363636,0.9374625972471574,0.050806206267112866,0.11063829787234042
frpwiki,False,48.0,0.07738095238095238,0.23636363636363636,0.9410532615200479,0.04715546090660176,0.11659192825112107
frpwiki,False,49.0,0.08333333333333333,0.23636363636363636,0.9446439257929383,0.04350471554609066,0.12322274881516586
frpwiki,False,50.0,0.08904109589041095,0.23636363636363636,0.9476361460203471,0.04046242774566474,0.12935323383084577
frpwiki,False,51.0,0.08029197080291971,0.2,0.9491322561340515,0.0383328262853666,0.11458333333333333
frpwiki,False,52.0,0.08396946564885496,0.2,0.9509275882704967,0.03650745360511105,0.11827956989247312
frpwiki,False,53.0,0.08264462809917356,0.18181818181818182,0.9533213644524237,0.03376939458472771,0.11363636363636365
frpwiki,False,54.0,0.08928571428571429,0.18181818181818182,0.9560143626570916,0.031031335564344387,0.11976047904191617
frpwiki,False,55.0,0.09523809523809523,0.18181818181818182,0.9581089168162776,0.028901734104046242,0.125
frpwiki,False,56.0,0.0891089108910891,0.16363636363636364,0.9587073608617595,0.027989047763918466,0.11538461538461538
frpwiki,False,57.0,0.08421052631578947,0.14545454545454545,0.959904248952723,0.026467903863705507,0.10666666666666666
frpwiki,False,58.0,0.08888888888888889,0.14545454545454545,0.9614003590664273,0.024946759963492545,0.1103448275862069
frpwiki,False,59.0,0.08433734939759036,0.12727272727272726,0.9628964691801316,0.023121387283236993,0.10144927536231883
frpwiki,False,60.0,0.0875,0.12727272727272726,0.9637941352483543,0.022208700943109217,0.1037037037037037
frpwiki,False,61.0,0.09722222222222222,0.12727272727272726,0.9661879114302813,0.019774870702768482,0.11023622047244094
frpwiki,False,62.0,0.1111111111111111,0.12727272727272726,0.9688809096349491,0.017036811682385154,0.11864406779661016
frpwiki,False,63.0,0.11475409836065574,0.12727272727272726,0.9694793536804309,0.016428354122299968,0.12068965517241378
frpwiki,False,64.0,0.125,0.12727272727272726,0.9709754637941352,0.014907210222087009,0.12612612612612611
frpwiki,False,65.0,0.13725490196078433,0.12727272727272726,0.9724715739078397,0.013386066321874049,0.1320754716981132
frpwiki,False,66.0,0.14893617021276595,0.12727272727272726,0.9736684619988031,0.012169151201703681,0.1372549019607843
frpwiki,False,67.0,0.15217391304347827,0.12727272727272726,0.973967684021544,0.01186492242166109,0.1386138613861386
frpwiki,False,68.0,0.13636363636363635,0.10909090909090909,0.973967684021544,0.011560693641618497,0.12121212121212122
frpwiki,False,69.0,0.13953488372093023,0.10909090909090909,0.9742669060442849,0.011256464861575905,0.12244897959183672
frpwiki,False,70.0,0.13513513513513514,0.09090909090909091,0.9754637941352483,0.009735320961362945,0.10869565217391305
frpwiki,False,71.0,0.1388888888888889,0.09090909090909091,0.9757630161579892,0.009431092181320353,0.1098901098901099
frpwiki,False,72.0,0.14705882352941177,0.09090909090909091,0.9763614602034709,0.008822634621235169,0.11235955056179776
frpwiki,False,73.0,0.15151515151515152,0.09090909090909091,0.9766606822262118,0.008518405841192577,0.11363636363636363
frpwiki,False,74.0,0.15151515151515152,0.09090909090909091,0.9766606822262118,0.008518405841192577,0.11363636363636363
frpwiki,False,75.0,0.17857142857142858,0.09090909090909091,0.9781567923399163,0.0069972619409796166,0.12048192771084339
frpwiki,False,76.0,0.20833333333333334,0.09090909090909091,0.9793536804308797,0.005780346820809248,0.12658227848101267
frpwiki,False,77.0,0.20833333333333334,0.09090909090909091,0.9793536804308797,0.005780346820809248,0.12658227848101267
frpwiki,False,78.0,0.18181818181818182,0.07272727272727272,0.9793536804308797,0.005476118040766657,0.1038961038961039
frpwiki,False,79.0,0.21052631578947367,0.07272727272727272,0.9802513464991023,0.004563431700638881,0.1081081081081081
frpwiki,False,80.0,0.21052631578947367,0.07272727272727272,0.9802513464991023,0.004563431700638881,0.1081081081081081
frpwiki,False,81.0,0.21052631578947367,0.07272727272727272,0.9802513464991023,0.004563431700638881,0.1081081081081081
frpwiki,False,82.0,0.23529411764705882,0.07272727272727272,0.9808497905445841,0.003954974140553696,0.11111111111111113
frpwiki,False,83.0,0.23529411764705882,0.07272727272727272,0.9808497905445841,0.003954974140553696,0.11111111111111113
frpwiki,False,84.0,0.1875,0.05454545454545454,0.9805505685218432,0.003954974140553696,0.08450704225352113
frpwiki,False,85.0,0.14285714285714285,0.03636363636363636,0.9805505685218432,0.0036507453605111044,0.05797101449275361
frpwiki,False,86.0,0.15384615384615385,0.03636363636363636,0.9808497905445841,0.003346516580468512,0.0588235294117647
frpwiki,False,87.0,0.2,0.03636363636363636,0.9817474566128067,0.002433830240340736,0.061538461538461535
frpwiki,False,88.0,0.2,0.03636363636363636,0.9817474566128067,0.002433830240340736,0.061538461538461535
frpwiki,False,89.0,0.2222222222222222,0.03636363636363636,0.9820466786355476,0.0021296014602981443,0.0625
frpwiki,False,90.0,0.3333333333333333,0.03636363636363636,0.9829443447037702,0.001216915120170368,0.06557377049180327
frpwiki,False,91.0,0.5,0.03636363636363636,0.9835427887492519,0.000608457560085184,0.06779661016949153
frpwiki,False,92.0,0.6666666666666666,0.03636363636363636,0.9838420107719928,0.000304228780042592,0.06896551724137931
frpwiki,False,93.0,0.6666666666666666,0.03636363636363636,0.9838420107719928,0.000304228780042592,0.06896551724137931
frpwiki,False,94.0,0.6666666666666666,0.03636363636363636,0.9838420107719928,0.000304228780042592,0.06896551724137931
frpwiki,False,95.0,1.0,0.01818181818181818,0.9838420107719928,0.0,0.03571428571428572
frpwiki,False,96.0,1.0,0.0,0.9835427887492519,0.0,0.0
frpwiki,False,97.0,1.0,0.0,0.9835427887492519,0.0,0.0
frpwiki,False,98.0,1.0,0.0,0.9835427887492519,0.0,0.0
frpwiki,False,99.0,1.0,0.0,0.9835427887492519,0.0,0.0
