wiki_db,user_is_anonymous,threshold,precision,recall,accuracy,fpr,F1
hawiki,True,0.0,0.26666666666666666,1.0,0.26666666666666666,1.0,0.4210526315789474
hawiki,True,1.0,0.26666666666666666,1.0,0.26666666666666666,1.0,0.4210526315789474
hawiki,True,2.0,0.26666666666666666,1.0,0.26666666666666666,1.0,0.4210526315789474
hawiki,True,3.0,0.26666666666666666,1.0,0.26666666666666666,1.0,0.4210526315789474
hawiki,True,4.0,0.26666666666666666,1.0,0.26666666666666666,1.0,0.4210526315789474
hawiki,True,5.0,0.26666666666666666,1.0,0.26666666666666666,1.0,0.4210526315789474
hawiki,True,6.0,0.26666666666666666,1.0,0.26666666666666666,1.0,0.4210526315789474
hawiki,True,7.0,0.26666666666666666,1.0,0.26666666666666666,1.0,0.4210526315789474
hawiki,True,8.0,0.26666666666666666,1.0,0.26666666666666666,1.0,0.4210526315789474
hawiki,True,9.0,0.26666666666666666,1.0,0.26666666666666666,1.0,0.4210526315789474
hawiki,True,10.0,0.26666666666666666,1.0,0.26666666666666666,1.0,0.4210526315789474
hawiki,True,11.0,0.26666666666666666,1.0,0.26666666666666666,1.0,0.4210526315789474
hawiki,True,12.0,0.26666666666666666,1.0,0.26666666666666666,1.0,0.4210526315789474
hawiki,True,13.0,0.26666666666666666,1.0,0.26666666666666666,1.0,0.4210526315789474
hawiki,True,14.0,0.26666666666666666,1.0,0.26666666666666666,1.0,0.4210526315789474
hawiki,True,15.0,0.26666666666666666,1.0,0.26666666666666666,1.0,0.4210526315789474
hawiki,True,16.0,0.26785714285714285,1.0,0.27111111111111114,0.9939393939393939,0.4225352112676056
hawiki,True,17.0,0.26785714285714285,1.0,0.27111111111111114,0.9939393939393939,0.4225352112676056
hawiki,True,18.0,0.26785714285714285,1.0,0.27111111111111114,0.9939393939393939,0.4225352112676056
hawiki,True,19.0,0.26785714285714285,1.0,0.27111111111111114,0.9939393939393939,0.4225352112676056
hawiki,True,20.0,0.26785714285714285,1.0,0.27111111111111114,0.9939393939393939,0.4225352112676056
hawiki,True,21.0,0.26905829596412556,1.0,0.27555555555555555,0.9878787878787879,0.42402826855123676
hawiki,True,22.0,0.2702702702702703,1.0,0.28,0.9818181818181818,0.4255319148936171
hawiki,True,23.0,0.27149321266968324,1.0,0.28444444444444444,0.9757575757575757,0.42704626334519574
hawiki,True,24.0,0.2727272727272727,1.0,0.28888888888888886,0.9696969696969697,0.42857142857142855
hawiki,True,25.0,0.2727272727272727,1.0,0.28888888888888886,0.9696969696969697,0.42857142857142855
hawiki,True,26.0,0.27522935779816515,1.0,0.29777777777777775,0.9575757575757575,0.4316546762589928
hawiki,True,27.0,0.27522935779816515,1.0,0.29777777777777775,0.9575757575757575,0.4316546762589928
hawiki,True,28.0,0.27522935779816515,1.0,0.29777777777777775,0.9575757575757575,0.4316546762589928
hawiki,True,29.0,0.27522935779816515,1.0,0.29777777777777775,0.9575757575757575,0.4316546762589928
hawiki,True,30.0,0.2764976958525346,1.0,0.3022222222222222,0.9515151515151515,0.4332129963898917
hawiki,True,31.0,0.2777777777777778,1.0,0.30666666666666664,0.9454545454545454,0.4347826086956522
hawiki,True,32.0,0.2777777777777778,1.0,0.30666666666666664,0.9454545454545454,0.4347826086956522
hawiki,True,33.0,0.2777777777777778,1.0,0.30666666666666664,0.9454545454545454,0.4347826086956522
hawiki,True,34.0,0.27906976744186046,1.0,0.3111111111111111,0.9393939393939394,0.43636363636363634
hawiki,True,35.0,0.2803738317757009,1.0,0.31555555555555553,0.9333333333333333,0.437956204379562
hawiki,True,36.0,0.2783018867924528,0.9833333333333333,0.31555555555555553,0.9272727272727272,0.4338235294117647
hawiki,True,37.0,0.28095238095238095,0.9833333333333333,0.3244444444444444,0.9151515151515152,0.43703703703703706
hawiki,True,38.0,0.28095238095238095,0.9833333333333333,0.3244444444444444,0.9151515151515152,0.43703703703703706
hawiki,True,39.0,0.2822966507177033,0.9833333333333333,0.3288888888888889,0.9090909090909091,0.43866171003717475
hawiki,True,40.0,0.28019323671497587,0.9666666666666667,0.3288888888888889,0.9030303030303031,0.4344569288389514
hawiki,True,41.0,0.28019323671497587,0.9666666666666667,0.3288888888888889,0.9030303030303031,0.4344569288389514
hawiki,True,42.0,0.28019323671497587,0.9666666666666667,0.3288888888888889,0.9030303030303031,0.4344569288389514
hawiki,True,43.0,0.28292682926829266,0.9666666666666667,0.3377777777777778,0.8909090909090909,0.4377358490566038
hawiki,True,44.0,0.28431372549019607,0.9666666666666667,0.3422222222222222,0.8848484848484849,0.43939393939393934
hawiki,True,45.0,0.28431372549019607,0.9666666666666667,0.3422222222222222,0.8848484848484849,0.43939393939393934
hawiki,True,46.0,0.28431372549019607,0.9666666666666667,0.3422222222222222,0.8848484848484849,0.43939393939393934
hawiki,True,47.0,0.28431372549019607,0.9666666666666667,0.3422222222222222,0.8848484848484849,0.43939393939393934
hawiki,True,48.0,0.2857142857142857,0.9666666666666667,0.3466666666666667,0.8787878787878788,0.4410646387832699
hawiki,True,49.0,0.2878787878787879,0.95,0.36,0.8545454545454545,0.44186046511627913
hawiki,True,50.0,0.29081632653061223,0.95,0.3688888888888889,0.8424242424242424,0.44531249999999994
hawiki,True,51.0,0.29081632653061223,0.95,0.3688888888888889,0.8424242424242424,0.44531249999999994
hawiki,True,52.0,0.296875,0.95,0.38666666666666666,0.8181818181818182,0.45238095238095244
hawiki,True,53.0,0.2931937172774869,0.9333333333333333,0.38222222222222224,0.8181818181818182,0.446215139442231
hawiki,True,54.0,0.2978723404255319,0.9333333333333333,0.39555555555555555,0.8,0.4516129032258065
hawiki,True,55.0,0.30726256983240224,0.9166666666666666,0.4266666666666667,0.7515151515151515,0.4602510460251047
hawiki,True,56.0,0.3160919540229885,0.9166666666666666,0.4488888888888889,0.7212121212121212,0.4700854700854701
hawiki,True,57.0,0.3179190751445087,0.9166666666666666,0.4533333333333333,0.7151515151515152,0.47210300429184554
hawiki,True,58.0,0.3179190751445087,0.9166666666666666,0.4533333333333333,0.7151515151515152,0.47210300429184554
hawiki,True,59.0,0.3235294117647059,0.9166666666666666,0.4666666666666667,0.696969696969697,0.4782608695652174
hawiki,True,60.0,0.3235294117647059,0.9166666666666666,0.4666666666666667,0.696969696969697,0.4782608695652174
hawiki,True,61.0,0.3254437869822485,0.9166666666666666,0.4711111111111111,0.6909090909090909,0.4803493449781659
hawiki,True,62.0,0.32934131736526945,0.9166666666666666,0.48,0.6787878787878788,0.4845814977973568
hawiki,True,63.0,0.3313253012048193,0.9166666666666666,0.48444444444444446,0.6727272727272727,0.4867256637168142
hawiki,True,64.0,0.3333333333333333,0.9166666666666666,0.4888888888888889,0.6666666666666666,0.4888888888888888
hawiki,True,65.0,0.33540372670807456,0.9,0.49777777777777776,0.6484848484848484,0.48868778280542985
hawiki,True,66.0,0.33540372670807456,0.9,0.49777777777777776,0.6484848484848484,0.48868778280542985
hawiki,True,67.0,0.34838709677419355,0.9,0.5244444444444445,0.6121212121212121,0.5023255813953488
hawiki,True,68.0,0.35526315789473684,0.9,0.5377777777777778,0.593939393939394,0.5094339622641509
hawiki,True,69.0,0.35333333333333333,0.8833333333333333,0.5377777777777778,0.5878787878787879,0.5047619047619049
hawiki,True,70.0,0.35333333333333333,0.8833333333333333,0.5377777777777778,0.5878787878787879,0.5047619047619049
hawiki,True,71.0,0.35135135135135137,0.8666666666666667,0.5377777777777778,0.5818181818181818,0.5000000000000001
hawiki,True,72.0,0.35135135135135137,0.8666666666666667,0.5377777777777778,0.5818181818181818,0.5000000000000001
hawiki,True,73.0,0.35172413793103446,0.85,0.5422222222222223,0.5696969696969697,0.49756097560975604
hawiki,True,74.0,0.36428571428571427,0.85,0.5644444444444444,0.5393939393939394,0.51
hawiki,True,75.0,0.373134328358209,0.8333333333333334,0.5822222222222222,0.509090909090909,0.5154639175257731
hawiki,True,76.0,0.3712121212121212,0.8166666666666667,0.5822222222222222,0.503030303030303,0.5104166666666666
hawiki,True,77.0,0.3779527559055118,0.8,0.5955555555555555,0.47878787878787876,0.5133689839572192
hawiki,True,78.0,0.3884297520661157,0.7833333333333333,0.6133333333333333,0.4484848484848485,0.5193370165745856
hawiki,True,79.0,0.391304347826087,0.75,0.6222222222222222,0.42424242424242425,0.5142857142857143
hawiki,True,80.0,0.39090909090909093,0.7166666666666667,0.6266666666666667,0.40606060606060607,0.5058823529411764
hawiki,True,81.0,0.39622641509433965,0.7,0.6355555555555555,0.3878787878787879,0.5060240963855422
hawiki,True,82.0,0.39603960396039606,0.6666666666666666,0.64,0.3696969696969697,0.49689440993788814
hawiki,True,83.0,0.41935483870967744,0.65,0.6666666666666666,0.32727272727272727,0.5098039215686274
hawiki,True,84.0,0.4090909090909091,0.6,0.6622222222222223,0.3151515151515151,0.4864864864864865
hawiki,True,85.0,0.4166666666666667,0.5833333333333334,0.6711111111111111,0.296969696969697,0.48611111111111116
hawiki,True,86.0,0.4342105263157895,0.55,0.6888888888888889,0.2606060606060606,0.4852941176470588
hawiki,True,87.0,0.4626865671641791,0.5166666666666667,0.7111111111111111,0.21818181818181817,0.4881889763779528
hawiki,True,88.0,0.46875,0.5,0.7155555555555555,0.20606060606060606,0.4838709677419355
hawiki,True,89.0,0.4666666666666667,0.4666666666666667,0.7155555555555555,0.19393939393939394,0.4666666666666667
hawiki,True,90.0,0.4807692307692308,0.4166666666666667,0.7244444444444444,0.16363636363636364,0.44642857142857145
hawiki,True,91.0,0.5217391304347826,0.4,0.7422222222222222,0.13333333333333333,0.4528301886792453
hawiki,True,92.0,0.55,0.36666666666666664,0.7511111111111111,0.10909090909090909,0.43999999999999995
hawiki,True,93.0,0.5833333333333334,0.35,0.76,0.09090909090909091,0.4375
hawiki,True,94.0,0.6129032258064516,0.31666666666666665,0.7644444444444445,0.07272727272727272,0.4175824175824176
hawiki,True,95.0,0.6296296296296297,0.2833333333333333,0.7644444444444445,0.06060606060606061,0.3908045977011494
hawiki,True,96.0,0.5909090909090909,0.21666666666666667,0.7511111111111111,0.05454545454545454,0.3170731707317074
hawiki,True,97.0,0.5714285714285714,0.2,0.7466666666666667,0.05454545454545454,0.29629629629629634
hawiki,True,98.0,0.7777777777777778,0.11666666666666667,0.7555555555555555,0.012121212121212121,0.2028985507246377
hawiki,True,99.0,1.0,0.03333333333333333,0.7422222222222222,0.0,0.06451612903225806
hawiki,False,0.0,0.005578302327498557,1.0,0.005578302327498557,1.0,0.011094714980597912
hawiki,False,1.0,0.005578302327498557,1.0,0.005578302327498557,1.0,0.011094714980597912
hawiki,False,2.0,0.00559228650137741,1.0,0.00807892061223929,0.997485354261081,0.011122373503547655
hawiki,False,3.0,0.005610098176718092,0.9852216748768473,0.025775603858096782,0.9796064993920637,0.011156667503416729
hawiki,False,4.0,0.0057019438444924405,0.9753694581280788,0.051084059245417826,0.954100806897314,0.011337608795235914
hawiki,False,5.0,0.005833854213173795,0.9655172413793104,0.08197081696023742,0.9229855200618989,0.011597633136094673
hawiki,False,6.0,0.005845059533013762,0.9310344827586207,0.11626501057953889,0.8883055156405438,0.011617186059376729
hawiki,False,7.0,0.005890305137118579,0.9014778325123153,0.15075155945151272,0.853459710401238,0.01170413482140002
hawiki,False,8.0,0.006023088505939435,0.8866995073891626,0.18309472122228024,0.8208522162042666,0.011964902951342728
hawiki,False,9.0,0.0060960741282614,0.8620689655172413,0.21519056909675469,0.7884381562949044,0.012106537530266345
hawiki,False,10.0,0.006095581605049594,0.8325123152709359,0.24184551125278228,0.7614678899082569,0.012102549412775707
hawiki,False,11.0,0.006101190476190476,0.8078817733990148,0.2647907449644143,0.7382557753951586,0.012110918288225086
hawiki,False,12.0,0.006213085832630206,0.7980295566502463,0.2868291610563051,0.7160384657897646,0.012330174677474597
hawiki,False,13.0,0.006325110689437065,0.7881773399014779,0.3080981561375065,0.6945948933348072,0.012549511745558649
hawiki,False,14.0,0.006463225067495705,0.7783251231527094,0.3313456623890522,0.6711617110644412,0.012819992697472514
hawiki,False,15.0,0.006668648855286072,0.7733990147783252,0.3561045313401665,0.6462363214325191,0.013223279710266992
hawiki,False,16.0,0.006861443116423196,0.7635467980295566,0.382182407738177,0.6199568917873328,0.013600666871407886
hawiki,False,17.0,0.0068685751163969945,0.7339901477832512,0.4065016075403259,0.5953354703216536,0.01360979174278407
hawiki,False,18.0,0.007044632086851629,0.7192118226600985,0.4329367151218708,0.568669172101249,0.013952599388379207
hawiki,False,19.0,0.007225871652349672,0.7044334975369458,0.45846500508367455,0.5429147783795734,0.014305006752363328
hawiki,False,20.0,0.007426267769997878,0.6896551724137931,0.4840757330109093,0.5170774842489223,0.01469430595644188
hawiki,False,21.0,0.00754906894816306,0.6650246305418719,0.5104284026270232,0.4904388194981762,0.014928674112573261
hawiki,False,22.0,0.007614515169541939,0.6305418719211823,0.5395290044241708,0.46098154084226817,0.015047316757773467
hawiki,False,23.0,0.007874015748031496,0.6157635467980296,0.5650572943859745,0.43522714712059246,0.015549197661400671
hawiki,False,24.0,0.008139378447464011,0.5960591133004927,0.5925640955181226,0.4074555101138499,0.016059459818169752
hawiki,False,25.0,0.008520693111843048,0.5862068965517241,0.6171855678601852,0.3826406543605615,0.016797233396852285
hawiki,False,26.0,0.008977900552486187,0.5763546798029556,0.6427413371437993,0.35688626063888584,0.017680392897619947
hawiki,False,27.0,0.009590950077875235,0.5763546798029556,0.6656316122118107,0.3338675804133967,0.018867924528301883
hawiki,False,28.0,0.009826285313212845,0.5517241379310345,0.6873677557637877,0.3118713385652703,0.01930868028618223
hawiki,False,29.0,0.010203126462604137,0.5369458128078818,0.7068505949273172,0.29219630816845366,0.020025721109682162
hawiki,False,30.0,0.01069144684252598,0.5270935960591133,0.7252892198620539,0.2735989830883166,0.020957790617961023
hawiki,False,31.0,0.01098901098901099,0.5073891625615764,0.7425187546371356,0.25616226373383444,0.02151211361737678
hawiki,False,32.0,0.011618635379883814,0.5024630541871922,0.7587865131488555,0.2397756162263734,0.022712090848363394
hawiki,False,33.0,0.011920690913514172,0.4827586206896552,0.7739001401445412,0.2244666740355919,0.023266856600189935
hawiki,False,34.0,0.011852615305333677,0.45320197044334976,0.7861833969937622,0.21194871228031392,0.02310106716886378
hawiki,False,35.0,0.012360939431396786,0.4433497536945813,0.7992910334972932,0.19871228031391622,0.024051309460181722
hawiki,False,36.0,0.013206162876008804,0.4433497536945813,0.8120963974609107,0.18583508345307836,0.025648332858364205
hawiki,False,37.0,0.01387373343725643,0.43842364532019706,0.8230331675414251,0.1748093290593567,0.026896343306134784
hawiki,False,38.0,0.014392059553349877,0.42857142857142855,0.8330905993240086,0.164640212225047,0.027848911651728554
hawiki,False,39.0,0.014933239634574842,0.4187192118226601,0.8426808826358165,0.1549408643749309,0.02883799830364716
hawiki,False,40.0,0.015651201788708775,0.41379310344827586,0.8515567035805557,0.14598762020559303,0.03016157989228007
hawiki,False,41.0,0.01651084145613686,0.4088669950738916,0.8608447143524498,0.13661987399137837,0.03173996175908221
hawiki,False,42.0,0.017041868293709236,0.39901477832512317,0.8682641312412409,0.12910357024427987,0.03268765133171913
hawiki,False,43.0,0.018100558659217877,0.39901477832512317,0.8759033827045148,0.12142146567923068,0.03463018383924754
hawiki,False,44.0,0.018988844054118204,0.39408866995073893,0.8830480063752026,0.11420913009837515,0.036231884057971016
hawiki,False,45.0,0.019602915305353102,0.3842364532019704,0.8893682503915803,0.10779816513761468,0.03730272596843615
hawiki,False,46.0,0.02058590657165479,0.3842364532019704,0.8945893215355445,0.10254780590250911,0.03907815631262525
hawiki,False,47.0,0.020955574182732608,0.3694581280788177,0.9001951031848534,0.0968276776832099,0.03966155473294554
hawiki,False,48.0,0.02039609813774756,0.3399014778325123,0.9052512983979555,0.09157731844810435,0.0384829894032348
hawiki,False,49.0,0.019140257295262003,0.30049261083743845,0.9101975763238164,0.08638222615231568,0.03598820058997051
hawiki,False,50.0,0.019523494374586368,0.29064039408866993,0.9146217471352807,0.08187797059798828,0.0365891472868217
hawiki,False,51.0,0.019971969166082692,0.28078817733990147,0.9191283559121761,0.07729081463468553,0.03729146221786065
hawiki,False,52.0,0.020573108008817047,0.27586206896551724,0.92270066774752,0.07367083010942854,0.03829059829059829
hawiki,False,53.0,0.02150117279124316,0.270935960591133,0.9271523178807947,0.06916657455510114,0.03984063745019921
hawiki,False,54.0,0.02300292764533668,0.270935960591133,0.9317413646231211,0.06455178512213994,0.04240555127216654
hawiki,False,55.0,0.025056947608200455,0.270935960591133,0.9371273116979473,0.059135625069083673,0.045871559633027525
hawiki,False,56.0,0.02669902912621359,0.270935960591133,0.9408370201423429,0.05540510666519288,0.048608042421564294
hawiki,False,57.0,0.0279831045406547,0.26108374384236455,0.9452886702756176,0.05087321764120703,0.05054840247973295
hawiki,False,58.0,0.029792017987633503,0.26108374384236455,0.9484487922838064,0.04769536863048524,0.053481331987891026
hawiki,False,59.0,0.03204353083434099,0.26108374384236455,0.9518837075100987,0.04424118492317895,0.05708131394722672
hawiki,False,60.0,0.03443794671864847,0.26108374384236455,0.9550438295182875,0.041063335912457165,0.060849598163031
hawiki,False,61.0,0.03669724770642202,0.2561576354679803,0.9583413481355281,0.03771968608378468,0.06419753086419754
hawiki,False,62.0,0.03684210526315789,0.2413793103448276,0.9605671732021653,0.035398474632474856,0.0639269406392694
hawiki,False,63.0,0.04036243822075782,0.2413793103448276,0.9637547745321645,0.03219299215209462,0.06916019760056456
hawiki,False,64.0,0.044424297370806894,0.2413793103448276,0.966804979253112,0.02912567702000663,0.07503828483920368
hawiki,False,65.0,0.0458984375,0.2315270935960591,0.9688659283888874,0.02699789985630596,0.07660961695191523
hawiki,False,66.0,0.04890738813735692,0.2315270935960591,0.9705971256629387,0.02525699126782359,0.08075601374570447
hawiki,False,67.0,0.052455357142857144,0.2315270935960591,0.9723832815806106,0.02346081574002432,0.08553230209281164
hawiki,False,68.0,0.05497076023391813,0.2315270935960591,0.9735099337748344,0.022327843484027856,0.0888468809073724
hawiki,False,69.0,0.056320400500625784,0.22167487684729065,0.974938858508972,0.020835636122471538,0.08982035928143714
hawiki,False,70.0,0.055782312925170066,0.2019704433497537,0.9764777005303509,0.019177627942964518,0.08742004264392324
hawiki,False,71.0,0.05813953488372093,0.19704433497536947,0.9777142700118161,0.017906488338675804,0.08978675645342311
hawiki,False,72.0,0.05727554179566564,0.18226600985221675,0.9787035255969883,0.01682878302199624,0.08716136631330978
hawiki,False,73.0,0.056291390728476824,0.16748768472906403,0.9796927811821604,0.01575107770531668,0.08426270136307311
hawiki,False,74.0,0.058823529411764705,0.1625615763546798,0.9808194333763842,0.014590471979661766,0.08638743455497383
hawiki,False,75.0,0.060546875,0.15270935960591134,0.9820560028578494,0.013291698905714602,0.08671328671328672
hawiki,False,76.0,0.06458333333333334,0.15270935960591134,0.9829353411557803,0.012407427876644192,0.09077598828696924
hawiki,False,77.0,0.06711409395973154,0.1477832512315271,0.9837872001319008,0.011523156847573782,0.09230769230769231
hawiki,False,78.0,0.0705596107055961,0.14285714285714285,0.9847214970734522,0.01055598540952802,0.09446254071661238
hawiki,False,79.0,0.07349081364829396,0.13793103448275862,0.9854909180841417,0.009754614789432962,0.0958904109589041
hawiki,False,80.0,0.07871720116618076,0.1330049261083744,0.9864801736693138,0.0087321764120703,0.09890109890109892
hawiki,False,81.0,0.08463949843260188,0.1330049261083744,0.987139677392762,0.008068973140267492,0.10344827586206896
hawiki,False,82.0,0.08934707903780069,0.12807881773399016,0.9878541397598307,0.007322869459489334,0.10526315789473685
hawiki,False,83.0,0.09195402298850575,0.11822660098522167,0.9885686021268995,0.006549132309052724,0.10344827586206896
hawiki,False,84.0,0.09871244635193133,0.11330049261083744,0.9892830644939683,0.005803028628274566,0.10550458715596331
hawiki,False,85.0,0.08866995073891626,0.08866995073891626,0.989832650930175,0.005112191886813308,0.08866995073891626
hawiki,False,86.0,0.07471264367816093,0.06403940886699508,0.9903547580445715,0.004448988615010501,0.06896551724137932
hawiki,False,87.0,0.06944444444444445,0.04926108374384237,0.9910142617680195,0.003702884934232342,0.05763688760806917
hawiki,False,88.0,0.072,0.04433497536945813,0.9914814102387953,0.0032054824803802364,0.054878048780487805
hawiki,False,89.0,0.08490566037735849,0.04433497536945813,0.9920035173531917,0.0026804465568696805,0.05825242718446603
hawiki,False,90.0,0.10588235294117647,0.04433497536945813,0.9925805831112088,0.002100143694042224,0.0625
hawiki,False,91.0,0.11594202898550725,0.03940886699507389,0.9929652936165535,0.0016856416491654693,0.058823529411764705
hawiki,False,92.0,0.12727272727272726,0.034482758620689655,0.9932950454782776,0.0013264065436056152,0.05426356589147286
hawiki,False,93.0,0.11363636363636363,0.024630541871921183,0.99348740073095,0.0010777053166795623,0.04048582995951417
hawiki,False,94.0,0.08333333333333333,0.009852216748768473,0.9938721112362947,0.000607936332485907,0.01762114537444934
hawiki,False,95.0,0.0,0.0,0.9939545492017257,0.00046976898419365536,0.01762114537444934
hawiki,False,96.0,0.0,0.0,0.9940644664889671,0.0003592351055598541,0.01762114537444934
hawiki,False,97.0,0.0,0.0,0.994146904454398,0.0002763346965845032,0.01762114537444934
hawiki,False,98.0,0.0,0.0,0.9942293424198291,0.0001934342876091522,0.01762114537444934
hawiki,False,99.0,0.0,0.0,0.9944216976725014,0.0,0.01762114537444934
