wiki_db,user_is_anonymous,threshold,precision,recall,accuracy,fpr,F1
igwiki,True,0.0,0.3147410358565737,1.0,0.3147410358565737,1.0,0.4787878787878788
igwiki,True,1.0,0.3147410358565737,1.0,0.3147410358565737,1.0,0.4787878787878788
igwiki,True,2.0,0.3147410358565737,1.0,0.3147410358565737,1.0,0.4787878787878788
igwiki,True,3.0,0.3147410358565737,1.0,0.3147410358565737,1.0,0.4787878787878788
igwiki,True,4.0,0.3147410358565737,1.0,0.3147410358565737,1.0,0.4787878787878788
igwiki,True,5.0,0.3147410358565737,1.0,0.3147410358565737,1.0,0.4787878787878788
igwiki,True,6.0,0.3147410358565737,1.0,0.3147410358565737,1.0,0.4787878787878788
igwiki,True,7.0,0.3147410358565737,1.0,0.3147410358565737,1.0,0.4787878787878788
igwiki,True,8.0,0.3147410358565737,1.0,0.3147410358565737,1.0,0.4787878787878788
igwiki,True,9.0,0.3147410358565737,1.0,0.3147410358565737,1.0,0.4787878787878788
igwiki,True,10.0,0.3147410358565737,1.0,0.3147410358565737,1.0,0.4787878787878788
igwiki,True,11.0,0.3147410358565737,1.0,0.3147410358565737,1.0,0.4787878787878788
igwiki,True,12.0,0.316,1.0,0.3187250996015936,0.9941860465116279,0.4802431610942249
igwiki,True,13.0,0.316,1.0,0.3187250996015936,0.9941860465116279,0.4802431610942249
igwiki,True,14.0,0.316,1.0,0.3187250996015936,0.9941860465116279,0.4802431610942249
igwiki,True,15.0,0.316,1.0,0.3187250996015936,0.9941860465116279,0.4802431610942249
igwiki,True,16.0,0.316,1.0,0.3187250996015936,0.9941860465116279,0.4802431610942249
igwiki,True,17.0,0.316,1.0,0.3187250996015936,0.9941860465116279,0.4802431610942249
igwiki,True,18.0,0.3172690763052209,1.0,0.32270916334661354,0.9883720930232558,0.48170731707317077
igwiki,True,19.0,0.3172690763052209,1.0,0.32270916334661354,0.9883720930232558,0.48170731707317077
igwiki,True,20.0,0.3172690763052209,1.0,0.32270916334661354,0.9883720930232558,0.48170731707317077
igwiki,True,21.0,0.3172690763052209,1.0,0.32270916334661354,0.9883720930232558,0.48170731707317077
igwiki,True,22.0,0.3172690763052209,1.0,0.32270916334661354,0.9883720930232558,0.48170731707317077
igwiki,True,23.0,0.3172690763052209,1.0,0.32270916334661354,0.9883720930232558,0.48170731707317077
igwiki,True,24.0,0.3172690763052209,1.0,0.32270916334661354,0.9883720930232558,0.48170731707317077
igwiki,True,25.0,0.3172690763052209,1.0,0.32270916334661354,0.9883720930232558,0.48170731707317077
igwiki,True,26.0,0.3172690763052209,1.0,0.32270916334661354,0.9883720930232558,0.48170731707317077
igwiki,True,27.0,0.3172690763052209,1.0,0.32270916334661354,0.9883720930232558,0.48170731707317077
igwiki,True,28.0,0.3172690763052209,1.0,0.32270916334661354,0.9883720930232558,0.48170731707317077
igwiki,True,29.0,0.3172690763052209,1.0,0.32270916334661354,0.9883720930232558,0.48170731707317077
igwiki,True,30.0,0.3172690763052209,1.0,0.32270916334661354,0.9883720930232558,0.48170731707317077
igwiki,True,31.0,0.3172690763052209,1.0,0.32270916334661354,0.9883720930232558,0.48170731707317077
igwiki,True,32.0,0.3172690763052209,1.0,0.32270916334661354,0.9883720930232558,0.48170731707317077
igwiki,True,33.0,0.3185483870967742,1.0,0.32669322709163345,0.9825581395348837,0.4831804281345565
igwiki,True,34.0,0.31983805668016196,1.0,0.33067729083665337,0.9767441860465116,0.4846625766871166
igwiki,True,35.0,0.31983805668016196,1.0,0.33067729083665337,0.9767441860465116,0.4846625766871166
igwiki,True,36.0,0.31983805668016196,1.0,0.33067729083665337,0.9767441860465116,0.4846625766871166
igwiki,True,37.0,0.31983805668016196,1.0,0.33067729083665337,0.9767441860465116,0.4846625766871166
igwiki,True,38.0,0.32113821138211385,1.0,0.3346613545816733,0.9709302325581395,0.48615384615384616
igwiki,True,39.0,0.32113821138211385,1.0,0.3346613545816733,0.9709302325581395,0.48615384615384616
igwiki,True,40.0,0.3224489795918367,1.0,0.3386454183266932,0.9651162790697675,0.4876543209876543
igwiki,True,41.0,0.3224489795918367,1.0,0.3386454183266932,0.9651162790697675,0.4876543209876543
igwiki,True,42.0,0.3224489795918367,1.0,0.3386454183266932,0.9651162790697675,0.4876543209876543
igwiki,True,43.0,0.319672131147541,0.9873417721518988,0.3346613545816733,0.9651162790697675,0.4829721362229103
igwiki,True,44.0,0.319672131147541,0.9873417721518988,0.3346613545816733,0.9651162790697675,0.4829721362229103
igwiki,True,45.0,0.319672131147541,0.9873417721518988,0.3346613545816733,0.9651162790697675,0.4829721362229103
igwiki,True,46.0,0.32231404958677684,0.9873417721518988,0.3426294820717131,0.9534883720930233,0.4859813084112149
igwiki,True,47.0,0.3236514522821577,0.9873417721518988,0.3466135458167331,0.9476744186046512,0.4875
igwiki,True,48.0,0.3236514522821577,0.9873417721518988,0.3466135458167331,0.9476744186046512,0.4875
igwiki,True,49.0,0.3236514522821577,0.9873417721518988,0.3466135458167331,0.9476744186046512,0.4875
igwiki,True,50.0,0.3236514522821577,0.9873417721518988,0.3466135458167331,0.9476744186046512,0.4875
igwiki,True,51.0,0.3236514522821577,0.9873417721518988,0.3466135458167331,0.9476744186046512,0.4875
igwiki,True,52.0,0.325,0.9873417721518988,0.350597609561753,0.9418604651162791,0.48902821316614425
igwiki,True,53.0,0.32217573221757323,0.9746835443037974,0.3466135458167331,0.9418604651162791,0.48427672955974843
igwiki,True,54.0,0.3235294117647059,0.9746835443037974,0.350597609561753,0.936046511627907,0.48580441640378547
igwiki,True,55.0,0.326271186440678,0.9746835443037974,0.35856573705179284,0.9244186046511628,0.4888888888888889
igwiki,True,56.0,0.32340425531914896,0.9620253164556962,0.3545816733067729,0.9244186046511628,0.4840764331210191
igwiki,True,57.0,0.3247863247863248,0.9620253164556962,0.35856573705179284,0.9186046511627907,0.48562300319488816
igwiki,True,58.0,0.3275862068965517,0.9620253164556962,0.3665338645418327,0.9069767441860465,0.48874598070739544
igwiki,True,59.0,0.329004329004329,0.9620253164556962,0.3705179282868526,0.9011627906976745,0.4903225806451613
igwiki,True,60.0,0.33043478260869563,0.9620253164556962,0.3745019920318725,0.8953488372093024,0.4919093851132686
igwiki,True,61.0,0.32751091703056767,0.9493670886075949,0.3705179282868526,0.8953488372093024,0.487012987012987
igwiki,True,62.0,0.33185840707964603,0.9493670886075949,0.38247011952191234,0.877906976744186,0.49180327868852464
igwiki,True,63.0,0.33482142857142855,0.9493670886075949,0.3904382470119522,0.8662790697674418,0.495049504950495
igwiki,True,64.0,0.336322869955157,0.9493670886075949,0.3944223107569721,0.8604651162790697,0.4966887417218543
igwiki,True,65.0,0.3393665158371041,0.9493670886075949,0.40239043824701193,0.8488372093023255,0.5000000000000001
igwiki,True,66.0,0.3302752293577982,0.9113924050632911,0.3904382470119522,0.8488372093023255,0.48484848484848486
igwiki,True,67.0,0.3333333333333333,0.9113924050632911,0.398406374501992,0.8372093023255814,0.48813559322033895
igwiki,True,68.0,0.3333333333333333,0.9113924050632911,0.398406374501992,0.8372093023255814,0.48813559322033895
igwiki,True,69.0,0.3364485981308411,0.9113924050632911,0.4063745019920319,0.8255813953488372,0.49146757679180886
igwiki,True,70.0,0.34134615384615385,0.8987341772151899,0.42231075697211157,0.7965116279069767,0.49477351916376305
igwiki,True,71.0,0.33658536585365856,0.8734177215189873,0.41832669322709165,0.7906976744186046,0.4859154929577465
igwiki,True,72.0,0.34,0.8607594936708861,0.4302788844621514,0.7674418604651163,0.48745519713261654
igwiki,True,73.0,0.3434343434343434,0.8607594936708861,0.43824701195219123,0.7558139534883721,0.4909747292418772
igwiki,True,74.0,0.34196891191709844,0.8354430379746836,0.44223107569721115,0.7383720930232558,0.4852941176470589
igwiki,True,75.0,0.34574468085106386,0.8227848101265823,0.4541832669322709,0.7151162790697675,0.48689138576779023
igwiki,True,76.0,0.34444444444444444,0.7848101265822784,0.46215139442231074,0.686046511627907,0.47876447876447875
igwiki,True,77.0,0.3505747126436782,0.7721518987341772,0.47808764940239046,0.6569767441860465,0.48221343873517786
igwiki,True,78.0,0.3719512195121951,0.7721518987341772,0.5179282868525896,0.5988372093023255,0.5020576131687243
igwiki,True,79.0,0.3790849673202614,0.7341772151898734,0.5378486055776892,0.5523255813953488,0.5
igwiki,True,80.0,0.3916083916083916,0.7088607594936709,0.5617529880478087,0.5058139534883721,0.5045045045045046
igwiki,True,81.0,0.40441176470588236,0.6962025316455697,0.5816733067729084,0.47093023255813954,0.5116279069767442
igwiki,True,82.0,0.41732283464566927,0.6708860759493671,0.601593625498008,0.43023255813953487,0.5145631067961165
igwiki,True,83.0,0.43089430894308944,0.6708860759493671,0.6175298804780877,0.4069767441860465,0.5247524752475248
igwiki,True,84.0,0.44166666666666665,0.6708860759493671,0.6294820717131474,0.38953488372093026,0.5326633165829145
igwiki,True,85.0,0.43859649122807015,0.6329113924050633,0.6294820717131474,0.37209302325581395,0.5181347150259067
igwiki,True,86.0,0.45794392523364486,0.620253164556962,0.649402390438247,0.3372093023255814,0.5268817204301076
igwiki,True,87.0,0.47474747474747475,0.5949367088607594,0.6653386454183267,0.3023255813953488,0.5280898876404494
igwiki,True,88.0,0.4777777777777778,0.5443037974683544,0.6693227091633466,0.27325581395348836,0.5088757396449705
igwiki,True,89.0,0.4691358024691358,0.4810126582278481,0.6653386454183267,0.25,0.475
igwiki,True,90.0,0.5070422535211268,0.45569620253164556,0.6892430278884463,0.20348837209302326,0.48
igwiki,True,91.0,0.5423728813559322,0.4050632911392405,0.7051792828685259,0.1569767441860465,0.46376811594202894
igwiki,True,92.0,0.5,0.27848101265822783,0.6852589641434262,0.12790697674418605,0.35772357723577236
igwiki,True,93.0,0.4857142857142857,0.21518987341772153,0.6812749003984063,0.10465116279069768,0.2982456140350877
igwiki,True,94.0,0.5172413793103449,0.189873417721519,0.6892430278884463,0.08139534883720931,0.2777777777777778
igwiki,True,95.0,0.45454545454545453,0.12658227848101267,0.6772908366533864,0.06976744186046512,0.198019801980198
igwiki,True,96.0,0.3333333333333333,0.06329113924050633,0.6653386454183267,0.05813953488372093,0.10638297872340426
igwiki,True,97.0,0.3333333333333333,0.05063291139240506,0.6693227091633466,0.046511627906976744,0.0879120879120879
igwiki,True,98.0,0.5,0.0379746835443038,0.6852589641434262,0.01744186046511628,0.07058823529411765
igwiki,True,99.0,0.5,0.0,0.6852589641434262,0.0,0.0
igwiki,False,0.0,0.0070539695215279166,1.0,0.0070539695215279166,1.0,0.014009119143593471
igwiki,False,1.0,0.0070539695215279166,1.0,0.0070539695215279166,1.0,0.014009119143593471
igwiki,False,2.0,0.007054908485856905,1.0,0.007187063286085047,0.9998659607264928,0.014010970854537045
igwiki,False,3.0,0.007059136920618008,1.0,0.007785985226592134,0.9992627839957108,0.014019309615130274
igwiki,False,4.0,0.007065253615943478,1.0,0.008651094696213482,0.9983915287179144,0.014031372029915945
igwiki,False,5.0,0.007080355353683789,1.0,0.010780594929127571,0.9962469003418002,0.014061152749220667
igwiki,False,6.0,0.007105986458403164,1.0,0.014374126572170094,0.9926278399571075,0.014111695400386075
igwiki,False,7.0,0.007137085914354969,1.0,0.018699673920276834,0.9882715635681255,0.014173017783126088
igwiki,False,8.0,0.007108523458127412,0.9905660377358491,0.02395687762028349,0.98290999262784,0.014115749142972374
igwiki,False,9.0,0.0070917149676099555,0.9811320754716981,0.030877753377254277,0.9758729307687153,0.014081646469433348
igwiki,False,10.0,0.006934431857191899,0.9528301886792453,0.03713316031143941,0.969372026003619,0.01376865925976416
igwiki,False,11.0,0.006991070810548903,0.9528301886792453,0.04498569242031011,0.961463708866698,0.013880299594585309
igwiki,False,12.0,0.006992518005733864,0.9433962264150944,0.0545684434684235,0.9517458615374305,0.013882140626084543
igwiki,False,13.0,0.006992513066817347,0.9339622641509434,0.06395155386970121,0.9422290731184237,0.013881099270891756
igwiki,False,14.0,0.007031137896398336,0.9245283018867925,0.07845877420642842,0.9275517726693921,0.013956137852463685
igwiki,False,15.0,0.007062249726974882,0.9150943396226415,0.09183469754442004,0.9140138060451712,0.014016328299978327
igwiki,False,16.0,0.007177741601302353,0.9150943396226415,0.10654155852798296,0.8992024663226326,0.014243759177679881
igwiki,False,17.0,0.0071638639619938166,0.8962264150943396,0.12311173221534571,0.8823805374974868,0.014214109373831076
igwiki,False,18.0,0.00730319803198032,0.8962264150943396,0.1399480934318227,0.8654245693988338,0.014488333079152052
igwiki,False,19.0,0.007480314960629921,0.8962264150943396,0.1604445331736208,0.8447825212787347,0.01483679525222552
igwiki,False,20.0,0.007648953301127214,0.8962264150943396,0.17907766021161908,0.8260170229877354,0.015168449624780457
igwiki,False,21.0,0.007735352205398289,0.8867924528301887,0.19677913089771745,0.8081227799745325,0.01533692282590961
igwiki,False,22.0,0.007842145206172527,0.8773584905660378,0.21614427364077993,0.7885530460424904,0.015545340576681988
igwiki,False,23.0,0.007857019513037472,0.8584905660377359,0.23431157250282825,0.770122645935259,0.015571526351813825
igwiki,False,24.0,0.008053097345132744,0.8584905660377359,0.25307779330538366,0.7512231083707527,0.015956514115377872
igwiki,False,25.0,0.007909090909090909,0.8207547169811321,0.2725094829307247,0.7313852958916963,0.015667206915180983
igwiki,False,26.0,0.008130841121495327,0.8207547169811321,0.2924735476142943,0.7112794048656256,0.016102165463631316
igwiki,False,27.0,0.00837424198671672,0.8207547169811321,0.3131696280029281,0.6904362978352657,0.01657932348737494
igwiki,False,28.0,0.008329201784828953,0.7924528301886793,0.3330005989219405,0.6702633871724415,0.016485133941713276
igwiki,False,29.0,0.008391322144903807,0.7735849056603774,0.3535635855460172,0.6494202801420816,0.016602551123709255
igwiki,False,30.0,0.008448621818565847,0.7547169811320755,0.3734611033473082,0.6292473694792574,0.016710182767624024
igwiki,False,31.0,0.008739348918505571,0.7547169811320755,0.3944233712650562,0.6081361839018833,0.017278617710583154
igwiki,False,32.0,0.008954885513489004,0.7452830188679245,0.4163838424169828,0.585952684136452,0.017697132616487452
igwiki,False,33.0,0.009151707145371349,0.7358490566037735,0.4361482664537166,0.5659808323838885,0.018078572256344884
igwiki,False,34.0,0.009398266813133162,0.7264150943396226,0.457975643841086,0.5439313718919644,0.018556452584648754
igwiki,False,35.0,0.009632446134347276,0.7169811320754716,0.4780062554069342,0.5236914415923866,0.01900950475237619
igwiki,False,36.0,0.010035652977683877,0.7169811320754716,0.4991016170892394,0.5024462167415052,0.019794244042192995
igwiki,False,37.0,0.010380622837370242,0.7075471698113207,0.522126838357623,0.4791904027880169,0.020461055790478785
igwiki,False,38.0,0.01039411000433088,0.6792452830188679,0.541558527982964,0.45941960994571407,0.02047490402388739
igwiki,False,39.0,0.010612492419648272,0.660377358490566,0.5633193584880548,0.43737014945378994,0.020889286780065654
igwiki,False,40.0,0.010776545166402536,0.6415094339622641,0.5820855792906102,0.41833657261577645,0.021197007481296756
igwiki,False,41.0,0.011083540115798181,0.6320754716981132,0.5995874093298729,0.40064338851283426,0.02178507559746383
igwiki,False,42.0,0.011631944444444445,0.6320754716981132,0.618553270779264,0.3815427920380672,0.022843504943743605
igwiki,False,43.0,0.0121012101210121,0.6226415094339622,0.6387835229919478,0.3611018028282287,0.023741007194244605
igwiki,False,44.0,0.012714313234444231,0.6226415094339622,0.6562853530312105,0.3434756383620401,0.02491976590522937
igwiki,False,45.0,0.013311819281968536,0.6226415094339622,0.6717907766021162,0.32786006299845855,0.026066350710900472
igwiki,False,46.0,0.013788714467543487,0.6132075471698113,0.687895122113529,0.3115742912673413,0.02697095435684647
igwiki,False,47.0,0.01434012995742774,0.6037735849056604,0.7044652958008917,0.29481938207894914,0.0280148829065441
igwiki,False,48.0,0.014622641509433962,0.5849056603773585,0.7190390630198975,0.2800080423564104,0.028531983433041877
igwiki,False,49.0,0.015087806084590651,0.5754716981132075,0.7320157050642178,0.26687219355271097,0.029404675825500114
igwiki,False,50.0,0.015706806282722512,0.5660377358490566,0.7467225660477806,0.2519938341934187,0.030565461029037188
igwiki,False,51.0,0.016226622662266228,0.5566037735849056,0.7588340986224795,0.23972924066751558,0.03153393907001603
igwiki,False,52.0,0.017012687427912343,0.5566037735849056,0.7700139748452784,0.228469941692916,0.03301622831561276
igwiki,False,53.0,0.017549167927382755,0.5471698113207547,0.7807280228921275,0.21761276053883788,0.03400762239812372
igwiki,False,54.0,0.018441971383147855,0.5471698113207547,0.791375524056698,0.20688961865826688,0.035681328821900955
igwiki,False,55.0,0.019230769230769232,0.5471698113207547,0.7999600718706329,0.1982440855170565,0.037155669442664956
igwiki,False,56.0,0.02027972027972028,0.5471698113207547,0.810341385506089,0.18778902218349977,0.03910991233985165
igwiki,False,57.0,0.020139143170999633,0.5188679245283019,0.8185266520263526,0.1793445479525501,0.03877335213253436
igwiki,False,58.0,0.02108087389804523,0.5188679245283019,0.8266453716643375,0.1711681522686147,0.040515653775322284
igwiki,False,59.0,0.021643286573146292,0.5094339622641509,0.8340986224795368,0.16359493331546143,0.04152249134948097
igwiki,False,60.0,0.021973287376130978,0.4811320754716981,0.8452784987023358,0.15213457543060116,0.04202719406674907
igwiki,False,61.0,0.022675736961451247,0.4716981132075472,0.8528648432820922,0.14442731720394075,0.04327131112072696
igwiki,False,62.0,0.023422562141491396,0.46226415094339623,0.860251547215013,0.13692111788754105,0.044585987261146494
igwiki,False,63.0,0.024193548387096774,0.4528301886792453,0.8673055167365409,0.1297500167549092,0.04593301435406699
igwiki,False,64.0,0.024828314844162706,0.44339622641509435,0.8732281892593332,0.123718249447088,0.04702351175587794
igwiki,False,65.0,0.02545655783065855,0.4339622641509434,0.8788181273707327,0.11802158032303466,0.04809200209095662
igwiki,False,66.0,0.02571595558153127,0.41509433962264153,0.8849404405403607,0.11172173446819918,0.048431480462300495
igwiki,False,67.0,0.025157232704402517,0.37735849056603776,0.8924602382378386,0.10388043696803163,0.04716981132075472
igwiki,False,68.0,0.025537634408602152,0.3584905660377358,0.898981832701138,0.09717847329267475,0.04767879548306149
igwiki,False,69.0,0.026334519572953737,0.3490566037735849,0.9043721301657017,0.09168286307888211,0.04897418927862343
igwiki,False,70.0,0.02811550151975684,0.3490566037735849,0.910294802688494,0.08571811540781449,0.052039381153305204
igwiki,False,71.0,0.027755102040816326,0.32075471698113206,0.915951287682172,0.07982038737350043,0.05108940646130729
igwiki,False,72.0,0.02912621359223301,0.3113207547169811,0.921940507087243,0.07372160042892567,0.053268765133171914
igwiki,False,73.0,0.029495718363463368,0.29245283018867924,0.9271311639049711,0.06836002948864017,0.05358686257562662
igwiki,False,74.0,0.031185031185031187,0.2830188679245283,0.9329207426632062,0.062462301454326116,0.05617977528089888
igwiki,False,75.0,0.03258426966292135,0.27358490566037735,0.9375790244227058,0.05770390724482273,0.05823293172690763
igwiki,False,76.0,0.03402187120291616,0.2641509433962264,0.9419045717708125,0.05328061121908719,0.06027987082884822
igwiki,False,77.0,0.031914893617021274,0.22641509433962265,0.9460970253543621,0.048790295556598084,0.055944055944055944
igwiki,False,78.0,0.03197674418604651,0.20754716981132076,0.9500898382910761,0.04463507807787682,0.055415617128463476
igwiki,False,79.0,0.035256410256410256,0.20754716981132076,0.9543488387569042,0.040345821325648415,0.06027397260273973
igwiki,False,80.0,0.03616636528028933,0.18867924528301888,0.9588074798695682,0.035721466389652165,0.0606980273141123
igwiki,False,81.0,0.0389344262295082,0.1792452830188679,0.9629999334531177,0.03143220963742376,0.06397306397306399
igwiki,False,82.0,0.03881278538812785,0.16037735849056603,0.9660610900379317,0.028215267073252462,0.0625
igwiki,False,83.0,0.037037037037037035,0.1320754716981132,0.9696546216809743,0.024395147778299042,0.05785123966942149
igwiki,False,84.0,0.04,0.12264150943396226,0.9730485126771811,0.020910126667113463,0.060324825986078884
igwiki,False,85.0,0.04240282685512368,0.11320754716981132,0.9757103879683237,0.018162321560217142,0.06169665809768638
igwiki,False,86.0,0.045454545454545456,0.10377358490566038,0.9783057163771878,0.015481536090074391,0.06321839080459771
igwiki,False,87.0,0.03414634146341464,0.0660377358490566,0.9802355759632662,0.013269888077206622,0.045016077170418015
igwiki,False,88.0,0.04242424242424243,0.0660377358490566,0.9828974512544087,0.01058910260706387,0.051660516605166046
igwiki,False,89.0,0.050359712230215826,0.0660377358490566,0.9846276701936514,0.008846592051471081,0.057142857142857134
igwiki,False,90.0,0.061946902654867256,0.0660377358490566,0.9863578891328941,0.007104081495878292,0.0639269406392694
igwiki,False,91.0,0.07142857142857142,0.05660377358490566,0.9881546549544153,0.005227531666778366,0.06315789473684211
igwiki,False,92.0,0.1016949152542373,0.05660377358490566,0.9898183270113795,0.003552040747939146,0.07272727272727274
igwiki,False,93.0,0.12,0.05660377358490566,0.9904172489518867,0.002948864017157027,0.07692307692307693
igwiki,False,94.0,0.15151515151515152,0.04716981132075472,0.9914154521860651,0.0018765498290999262,0.07194244604316546
igwiki,False,95.0,0.18181818181818182,0.03773584905660377,0.9920143741265721,0.0012063534615642383,0.0625
igwiki,False,96.0,0.16666666666666666,0.018867924528301886,0.9924136554202435,0.0006701963675356879,0.03389830508474576
igwiki,False,97.0,0.25,0.018867924528301886,0.9926798429493578,0.00040211782052141276,0.03508771929824561
igwiki,False,98.0,0.4,0.018867924528301886,0.9928794835961935,0.00020105891026070638,0.036036036036036036
igwiki,False,99.0,0.0,0.0,0.9928794835961935,6.70196367535688e-05,0.036036036036036036
