wiki_db,user_is_anonymous,threshold,precision,recall,accuracy,fpr,F1
lezwiki,True,0.0,0.6,1.0,0.6,1.0,0.7499999999999999
lezwiki,True,1.0,0.6,1.0,0.6,1.0,0.7499999999999999
lezwiki,True,2.0,0.6,1.0,0.6,1.0,0.7499999999999999
lezwiki,True,3.0,0.6,1.0,0.6,1.0,0.7499999999999999
lezwiki,True,4.0,0.6,1.0,0.6,1.0,0.7499999999999999
lezwiki,True,5.0,0.6,1.0,0.6,1.0,0.7499999999999999
lezwiki,True,6.0,0.6,1.0,0.6,1.0,0.7499999999999999
lezwiki,True,7.0,0.6,1.0,0.6,1.0,0.7499999999999999
lezwiki,True,8.0,0.6,1.0,0.6,1.0,0.7499999999999999
lezwiki,True,9.0,0.6,1.0,0.6,1.0,0.7499999999999999
lezwiki,True,10.0,0.6,1.0,0.6,1.0,0.7499999999999999
lezwiki,True,11.0,0.6,1.0,0.6,1.0,0.7499999999999999
lezwiki,True,12.0,0.6,1.0,0.6,1.0,0.7499999999999999
lezwiki,True,13.0,0.6,1.0,0.6,1.0,0.7499999999999999
lezwiki,True,14.0,0.6,1.0,0.6,1.0,0.7499999999999999
lezwiki,True,15.0,0.6,1.0,0.6,1.0,0.7499999999999999
lezwiki,True,16.0,0.6,1.0,0.6,1.0,0.7499999999999999
lezwiki,True,17.0,0.6,1.0,0.6,1.0,0.7499999999999999
lezwiki,True,18.0,0.6,1.0,0.6,1.0,0.7499999999999999
lezwiki,True,19.0,0.6,1.0,0.6,1.0,0.7499999999999999
lezwiki,True,20.0,0.6,1.0,0.6,1.0,0.7499999999999999
lezwiki,True,21.0,0.6,1.0,0.6,1.0,0.7499999999999999
lezwiki,True,22.0,0.6,1.0,0.6,1.0,0.7499999999999999
lezwiki,True,23.0,0.6,1.0,0.6,1.0,0.7499999999999999
lezwiki,True,24.0,0.6,1.0,0.6,1.0,0.7499999999999999
lezwiki,True,25.0,0.6,1.0,0.6,1.0,0.7499999999999999
lezwiki,True,26.0,0.6,1.0,0.6,1.0,0.7499999999999999
lezwiki,True,27.0,0.6,1.0,0.6,1.0,0.7499999999999999
lezwiki,True,28.0,0.6,1.0,0.6,1.0,0.7499999999999999
lezwiki,True,29.0,0.6,1.0,0.6,1.0,0.7499999999999999
lezwiki,True,30.0,0.6,1.0,0.6,1.0,0.7499999999999999
lezwiki,True,31.0,0.6,1.0,0.6,1.0,0.7499999999999999
lezwiki,True,32.0,0.6,1.0,0.6,1.0,0.7499999999999999
lezwiki,True,33.0,0.6,1.0,0.6,1.0,0.7499999999999999
lezwiki,True,34.0,0.6,1.0,0.6,1.0,0.7499999999999999
lezwiki,True,35.0,0.6,1.0,0.6,1.0,0.7499999999999999
lezwiki,True,36.0,0.6,1.0,0.6,1.0,0.7499999999999999
lezwiki,True,37.0,0.6,1.0,0.6,1.0,0.7499999999999999
lezwiki,True,38.0,0.6,1.0,0.6,1.0,0.7499999999999999
lezwiki,True,39.0,0.6,1.0,0.6,1.0,0.7499999999999999
lezwiki,True,40.0,0.6,1.0,0.6,1.0,0.7499999999999999
lezwiki,True,41.0,0.6,1.0,0.6,1.0,0.7499999999999999
lezwiki,True,42.0,0.6,1.0,0.6,1.0,0.7499999999999999
lezwiki,True,43.0,0.6,1.0,0.6,1.0,0.7499999999999999
lezwiki,True,44.0,0.6,1.0,0.6,1.0,0.7499999999999999
lezwiki,True,45.0,0.6,1.0,0.6,1.0,0.7499999999999999
lezwiki,True,46.0,0.6,1.0,0.6,1.0,0.7499999999999999
lezwiki,True,47.0,0.6,1.0,0.6,1.0,0.7499999999999999
lezwiki,True,48.0,0.6,1.0,0.6,1.0,0.7499999999999999
lezwiki,True,49.0,0.6,1.0,0.6,1.0,0.7499999999999999
lezwiki,True,50.0,0.6,1.0,0.6,1.0,0.7499999999999999
lezwiki,True,51.0,0.6,1.0,0.6,1.0,0.7499999999999999
lezwiki,True,52.0,0.6,1.0,0.6,1.0,0.7499999999999999
lezwiki,True,53.0,0.6,1.0,0.6,1.0,0.7499999999999999
lezwiki,True,54.0,0.6,1.0,0.6,1.0,0.7499999999999999
lezwiki,True,55.0,0.6,1.0,0.6,1.0,0.7499999999999999
lezwiki,True,56.0,0.6,1.0,0.6,1.0,0.7499999999999999
lezwiki,True,57.0,0.6,1.0,0.6,1.0,0.7499999999999999
lezwiki,True,58.0,0.6,1.0,0.6,1.0,0.7499999999999999
lezwiki,True,59.0,0.6,1.0,0.6,1.0,0.7499999999999999
lezwiki,True,60.0,0.6,1.0,0.6,1.0,0.7499999999999999
lezwiki,True,61.0,0.6,1.0,0.6,1.0,0.7499999999999999
lezwiki,True,62.0,0.6,1.0,0.6,1.0,0.7499999999999999
lezwiki,True,63.0,0.6,1.0,0.6,1.0,0.7499999999999999
lezwiki,True,64.0,0.6,1.0,0.6,1.0,0.7499999999999999
lezwiki,True,65.0,0.6,1.0,0.6,1.0,0.7499999999999999
lezwiki,True,66.0,0.6,1.0,0.6,1.0,0.7499999999999999
lezwiki,True,67.0,0.6,1.0,0.6,1.0,0.7499999999999999
lezwiki,True,68.0,0.6,1.0,0.6,1.0,0.7499999999999999
lezwiki,True,69.0,0.6,1.0,0.6,1.0,0.7499999999999999
lezwiki,True,70.0,0.6,1.0,0.6,1.0,0.7499999999999999
lezwiki,True,71.0,0.6,1.0,0.6,1.0,0.7499999999999999
lezwiki,True,72.0,0.6,1.0,0.6,1.0,0.7499999999999999
lezwiki,True,73.0,0.6,1.0,0.6,1.0,0.7499999999999999
lezwiki,True,74.0,0.5789473684210527,0.9166666666666666,0.55,1.0,0.7096774193548387
lezwiki,True,75.0,0.5789473684210527,0.9166666666666666,0.55,1.0,0.7096774193548387
lezwiki,True,76.0,0.5882352941176471,0.8333333333333334,0.55,0.875,0.6896551724137931
lezwiki,True,77.0,0.625,0.8333333333333334,0.6,0.75,0.7142857142857143
lezwiki,True,78.0,0.6666666666666666,0.8333333333333334,0.65,0.625,0.7407407407407408
lezwiki,True,79.0,0.6666666666666666,0.8333333333333334,0.65,0.625,0.7407407407407408
lezwiki,True,80.0,0.7142857142857143,0.8333333333333334,0.7,0.5,0.7692307692307692
lezwiki,True,81.0,0.6666666666666666,0.6666666666666666,0.6,0.5,0.6666666666666666
lezwiki,True,82.0,0.6666666666666666,0.6666666666666666,0.6,0.5,0.6666666666666666
lezwiki,True,83.0,0.6666666666666666,0.6666666666666666,0.6,0.5,0.6666666666666666
lezwiki,True,84.0,0.7,0.5833333333333334,0.6,0.375,0.6363636363636365
lezwiki,True,85.0,0.7,0.5833333333333334,0.6,0.375,0.6363636363636365
lezwiki,True,86.0,0.6666666666666666,0.5,0.55,0.375,0.5714285714285715
lezwiki,True,87.0,0.6666666666666666,0.5,0.55,0.375,0.5714285714285715
lezwiki,True,88.0,0.75,0.5,0.6,0.25,0.6
lezwiki,True,89.0,0.75,0.5,0.6,0.25,0.6
lezwiki,True,90.0,0.75,0.5,0.6,0.25,0.6
lezwiki,True,91.0,0.7142857142857143,0.4166666666666667,0.55,0.25,0.5263157894736842
lezwiki,True,92.0,0.6666666666666666,0.3333333333333333,0.5,0.25,0.4444444444444444
lezwiki,True,93.0,0.6,0.25,0.45,0.25,0.35294117647058826
lezwiki,True,94.0,0.75,0.25,0.5,0.125,0.375
lezwiki,True,95.0,1.0,0.25,0.55,0.0,0.4
lezwiki,True,96.0,1.0,0.25,0.55,0.0,0.4
lezwiki,True,97.0,1.0,0.25,0.55,0.0,0.4
lezwiki,True,98.0,1.0,0.25,0.55,0.0,0.4
lezwiki,True,99.0,1.0,0.16666666666666666,0.5,0.0,0.2857142857142857
lezwiki,False,0.0,0.09593023255813954,1.0,0.09593023255813954,1.0,0.17506631299734748
lezwiki,False,1.0,0.09593023255813954,1.0,0.09593023255813954,1.0,0.17506631299734748
lezwiki,False,2.0,0.09620991253644315,1.0,0.09883720930232558,0.9967845659163987,0.17553191489361702
lezwiki,False,3.0,0.09620991253644315,1.0,0.09883720930232558,0.9967845659163987,0.17553191489361702
lezwiki,False,4.0,0.09734513274336283,1.0,0.11046511627906977,0.9839228295819936,0.1774193548387097
lezwiki,False,5.0,0.09734513274336283,1.0,0.11046511627906977,0.9839228295819936,0.1774193548387097
lezwiki,False,6.0,0.09880239520958084,1.0,0.125,0.9678456591639871,0.17983651226158037
lezwiki,False,7.0,0.09939759036144578,1.0,0.1308139534883721,0.9614147909967846,0.18082191780821918
lezwiki,False,8.0,0.10030395136778116,1.0,0.13953488372093023,0.9517684887459807,0.18232044198895025
lezwiki,False,9.0,0.10122699386503067,1.0,0.14825581395348839,0.9421221864951769,0.18384401114206125
lezwiki,False,10.0,0.10344827586206896,1.0,0.1686046511627907,0.9196141479099679,0.1875
lezwiki,False,11.0,0.10543130990415335,1.0,0.18604651162790697,0.9003215434083601,0.19075144508670522
lezwiki,False,12.0,0.10784313725490197,1.0,0.2063953488372093,0.8778135048231511,0.19469026548672566
lezwiki,False,13.0,0.10927152317880795,1.0,0.2180232558139535,0.864951768488746,0.19701492537313434
lezwiki,False,14.0,0.11073825503355705,1.0,0.22965116279069767,0.8520900321543409,0.19939577039274928
lezwiki,False,15.0,0.11379310344827587,1.0,0.25290697674418605,0.8263665594855305,0.2043343653250774
lezwiki,False,16.0,0.11827956989247312,1.0,0.28488372093023256,0.7909967845659164,0.21153846153846156
lezwiki,False,17.0,0.12222222222222222,1.0,0.311046511627907,0.7620578778135049,0.21782178217821782
lezwiki,False,18.0,0.12547528517110265,1.0,0.3313953488372093,0.7395498392282959,0.22297297297297294
lezwiki,False,19.0,0.132,1.0,0.3691860465116279,0.6977491961414791,0.2332155477031802
lezwiki,False,20.0,0.13414634146341464,1.0,0.3808139534883721,0.684887459807074,0.23655913978494622
lezwiki,False,21.0,0.14163090128755365,1.0,0.4186046511627907,0.6430868167202572,0.2481203007518797
lezwiki,False,22.0,0.14798206278026907,1.0,0.4476744186046512,0.6109324758842444,0.2578125
lezwiki,False,23.0,0.14746543778801843,0.9696969696969697,0.45930232558139533,0.594855305466238,0.256
lezwiki,False,24.0,0.15165876777251186,0.9696969696969697,0.47674418604651164,0.5755627009646302,0.26229508196721313
lezwiki,False,25.0,0.1568627450980392,0.9696969696969697,0.49709302325581395,0.5530546623794212,0.27004219409282704
lezwiki,False,26.0,0.16326530612244897,0.9696969696969697,0.5203488372093024,0.5273311897106109,0.2794759825327511
lezwiki,False,27.0,0.17679558011049723,0.9696969696969697,0.563953488372093,0.4790996784565916,0.29906542056074764
lezwiki,False,28.0,0.1781609195402299,0.9393939393939394,0.5784883720930233,0.45980707395498394,0.2995169082125604
lezwiki,False,29.0,0.1791907514450867,0.9393939393939394,0.5813953488372093,0.4565916398713826,0.30097087378640774
lezwiki,False,30.0,0.17751479289940827,0.9090909090909091,0.5872093023255814,0.44694533762057875,0.29702970297029707
lezwiki,False,31.0,0.17964071856287425,0.9090909090909091,0.5930232558139535,0.4405144694533762,0.30000000000000004
lezwiki,False,32.0,0.18633540372670807,0.9090909090909091,0.6104651162790697,0.4212218649517685,0.3092783505154639
lezwiki,False,33.0,0.19230769230769232,0.9090909090909091,0.625,0.40514469453376206,0.31746031746031744
lezwiki,False,34.0,0.2,0.9090909090909091,0.6424418604651163,0.3858520900321543,0.32786885245901637
lezwiki,False,35.0,0.20270270270270271,0.9090909090909091,0.6482558139534884,0.37942122186495175,0.3314917127071823
lezwiki,False,36.0,0.20689655172413793,0.9090909090909091,0.6569767441860465,0.36977491961414793,0.3370786516853932
lezwiki,False,37.0,0.2097902097902098,0.9090909090909091,0.6627906976744186,0.3633440514469453,0.34090909090909094
lezwiki,False,38.0,0.2097902097902098,0.9090909090909091,0.6627906976744186,0.3633440514469453,0.34090909090909094
lezwiki,False,39.0,0.2112676056338028,0.9090909090909091,0.6656976744186046,0.36012861736334406,0.3428571428571428
lezwiki,False,40.0,0.2116788321167883,0.8787878787878788,0.6744186046511628,0.34726688102893893,0.3411764705882353
lezwiki,False,41.0,0.21481481481481482,0.8787878787878788,0.6802325581395349,0.3408360128617363,0.34523809523809523
lezwiki,False,42.0,0.208955223880597,0.8484848484848485,0.6773255813953488,0.3408360128617363,0.33532934131736525
lezwiki,False,43.0,0.21212121212121213,0.8484848484848485,0.6831395348837209,0.33440514469453375,0.33939393939393947
lezwiki,False,44.0,0.21705426356589147,0.8484848484848485,0.6918604651162791,0.3247588424437299,0.345679012345679
lezwiki,False,45.0,0.2204724409448819,0.8484848484848485,0.6976744186046512,0.3183279742765273,0.35000000000000003
lezwiki,False,46.0,0.22580645161290322,0.8484848484848485,0.7063953488372093,0.3086816720257235,0.356687898089172
lezwiki,False,47.0,0.22950819672131148,0.8484848484848485,0.7122093023255814,0.3022508038585209,0.3612903225806452
lezwiki,False,48.0,0.23728813559322035,0.8484848484848485,0.7238372093023255,0.28938906752411575,0.3708609271523179
lezwiki,False,49.0,0.23728813559322035,0.8484848484848485,0.7238372093023255,0.28938906752411575,0.3708609271523179
lezwiki,False,50.0,0.24778761061946902,0.8484848484848485,0.7383720930232558,0.2733118971061093,0.3835616438356164
lezwiki,False,51.0,0.25225225225225223,0.8484848484848485,0.7441860465116279,0.26688102893890675,0.38888888888888884
lezwiki,False,52.0,0.25925925925925924,0.8484848484848485,0.752906976744186,0.2572347266881029,0.3971631205673759
lezwiki,False,53.0,0.2641509433962264,0.8484848484848485,0.7587209302325582,0.2508038585209003,0.40287769784172656
lezwiki,False,54.0,0.2692307692307692,0.8484848484848485,0.7645348837209303,0.24437299035369775,0.40875912408759124
lezwiki,False,55.0,0.2692307692307692,0.8484848484848485,0.7645348837209303,0.24437299035369775,0.40875912408759124
lezwiki,False,56.0,0.2647058823529412,0.8181818181818182,0.7645348837209303,0.24115755627009647,0.39999999999999997
lezwiki,False,57.0,0.2727272727272727,0.8181818181818182,0.7732558139534884,0.2315112540192926,0.4090909090909091
lezwiki,False,58.0,0.2755102040816326,0.8181818181818182,0.7761627906976745,0.2282958199356913,0.4122137404580152
lezwiki,False,59.0,0.2872340425531915,0.8181818181818182,0.7877906976744186,0.21543408360128619,0.4251968503937008
lezwiki,False,60.0,0.29347826086956524,0.8181818181818182,0.7936046511627907,0.2090032154340836,0.432
lezwiki,False,61.0,0.30337078651685395,0.8181818181818182,0.8023255813953488,0.19935691318327975,0.4426229508196722
lezwiki,False,62.0,0.3068181818181818,0.8181818181818182,0.8052325581395349,0.19614147909967847,0.44628099173553726
lezwiki,False,63.0,0.3253012048192771,0.8181818181818182,0.8197674418604651,0.18006430868167203,0.46551724137931033
lezwiki,False,64.0,0.3375,0.8181818181818182,0.8284883720930233,0.17041800643086816,0.4778761061946903
lezwiki,False,65.0,0.34615384615384615,0.8181818181818182,0.8343023255813954,0.1639871382636656,0.4864864864864865
lezwiki,False,66.0,0.35526315789473684,0.8181818181818182,0.8401162790697675,0.15755627009646303,0.4954128440366972
lezwiki,False,67.0,0.3698630136986301,0.8181818181818182,0.8488372093023255,0.14790996784565916,0.5094339622641509
lezwiki,False,68.0,0.38571428571428573,0.8181818181818182,0.8575581395348837,0.1382636655948553,0.5242718446601942
lezwiki,False,69.0,0.391304347826087,0.8181818181818182,0.8604651162790697,0.13504823151125403,0.5294117647058824
lezwiki,False,70.0,0.40298507462686567,0.8181818181818182,0.8662790697674418,0.12861736334405144,0.54
lezwiki,False,71.0,0.42857142857142855,0.8181818181818182,0.877906976744186,0.1157556270096463,0.5625
lezwiki,False,72.0,0.4262295081967213,0.7878787878787878,0.877906976744186,0.11254019292604502,0.5531914893617021
lezwiki,False,73.0,0.423728813559322,0.7575757575757576,0.877906976744186,0.10932475884244373,0.5434782608695652
lezwiki,False,74.0,0.43636363636363634,0.7272727272727273,0.8837209302325582,0.09967845659163987,0.5454545454545455
lezwiki,False,75.0,0.46,0.696969696969697,0.8924418604651163,0.08681672025723473,0.5542168674698795
lezwiki,False,76.0,0.45652173913043476,0.6363636363636364,0.8924418604651163,0.08038585209003216,0.5316455696202532
lezwiki,False,77.0,0.5128205128205128,0.6060606060606061,0.9069767441860465,0.06109324758842444,0.5555555555555556
lezwiki,False,78.0,0.5405405405405406,0.6060606060606061,0.9127906976744186,0.05466237942122187,0.5714285714285714
lezwiki,False,79.0,0.6,0.5454545454545454,0.9215116279069767,0.03858520900321544,0.5714285714285713
lezwiki,False,80.0,0.5833333333333334,0.42424242424242425,0.9156976744186046,0.03215434083601286,0.4912280701754386
lezwiki,False,81.0,0.5789473684210527,0.3333333333333333,0.9127906976744186,0.02572347266881029,0.4230769230769231
lezwiki,False,82.0,0.5555555555555556,0.30303030303030304,0.9098837209302325,0.02572347266881029,0.3921568627450981
lezwiki,False,83.0,0.5,0.21212121212121213,0.9040697674418605,0.022508038585209004,0.2978723404255319
lezwiki,False,84.0,0.5,0.18181818181818182,0.9040697674418605,0.01929260450160772,0.26666666666666666
lezwiki,False,85.0,0.45454545454545453,0.15151515151515152,0.9011627906976745,0.01929260450160772,0.22727272727272727
lezwiki,False,86.0,0.5,0.15151515151515152,0.9040697674418605,0.01607717041800643,0.23255813953488375
lezwiki,False,87.0,0.5,0.15151515151515152,0.9040697674418605,0.01607717041800643,0.23255813953488375
lezwiki,False,88.0,0.2857142857142857,0.06060606060606061,0.8953488372093024,0.01607717041800643,0.1
lezwiki,False,89.0,0.2857142857142857,0.06060606060606061,0.8953488372093024,0.01607717041800643,0.1
lezwiki,False,90.0,0.2,0.030303030303030304,0.8953488372093024,0.012861736334405145,0.052631578947368425
lezwiki,False,91.0,0.0,0.0,0.9011627906976745,0.003215434083601286,0.052631578947368425
lezwiki,False,92.0,0.0,0.0,0.9040697674418605,0.0,0.052631578947368425
lezwiki,False,93.0,0.0,0.0,0.9040697674418605,0.0,0.052631578947368425
lezwiki,False,94.0,0.0,0.0,0.9040697674418605,0.0,0.052631578947368425
lezwiki,False,95.0,0.0,0.0,0.9040697674418605,0.0,0.052631578947368425
lezwiki,False,96.0,0.0,0.0,0.9040697674418605,0.0,0.052631578947368425
lezwiki,False,97.0,0.0,0.0,0.9040697674418605,0.0,0.052631578947368425
lezwiki,False,98.0,0.0,0.0,0.9040697674418605,0.0,0.052631578947368425
lezwiki,False,99.0,0.0,0.0,0.9040697674418605,0.0,0.052631578947368425
