wiki_db,user_is_anonymous,threshold,precision,recall,accuracy,fpr,F1
lldwiki,True,0.0,0.23232323232323232,1.0,0.23232323232323232,1.0,0.3770491803278689
lldwiki,True,1.0,0.23232323232323232,1.0,0.23232323232323232,1.0,0.3770491803278689
lldwiki,True,2.0,0.23232323232323232,1.0,0.23232323232323232,1.0,0.3770491803278689
lldwiki,True,3.0,0.23232323232323232,1.0,0.23232323232323232,1.0,0.3770491803278689
lldwiki,True,4.0,0.23232323232323232,1.0,0.23232323232323232,1.0,0.3770491803278689
lldwiki,True,5.0,0.23232323232323232,1.0,0.23232323232323232,1.0,0.3770491803278689
lldwiki,True,6.0,0.23232323232323232,1.0,0.23232323232323232,1.0,0.3770491803278689
lldwiki,True,7.0,0.23232323232323232,1.0,0.23232323232323232,1.0,0.3770491803278689
lldwiki,True,8.0,0.23232323232323232,1.0,0.23232323232323232,1.0,0.3770491803278689
lldwiki,True,9.0,0.23232323232323232,1.0,0.23232323232323232,1.0,0.3770491803278689
lldwiki,True,10.0,0.23232323232323232,1.0,0.23232323232323232,1.0,0.3770491803278689
lldwiki,True,11.0,0.23232323232323232,1.0,0.23232323232323232,1.0,0.3770491803278689
lldwiki,True,12.0,0.23232323232323232,1.0,0.23232323232323232,1.0,0.3770491803278689
lldwiki,True,13.0,0.23232323232323232,1.0,0.23232323232323232,1.0,0.3770491803278689
lldwiki,True,14.0,0.23232323232323232,1.0,0.23232323232323232,1.0,0.3770491803278689
lldwiki,True,15.0,0.23232323232323232,1.0,0.23232323232323232,1.0,0.3770491803278689
lldwiki,True,16.0,0.23232323232323232,1.0,0.23232323232323232,1.0,0.3770491803278689
lldwiki,True,17.0,0.23232323232323232,1.0,0.23232323232323232,1.0,0.3770491803278689
lldwiki,True,18.0,0.23232323232323232,1.0,0.23232323232323232,1.0,0.3770491803278689
lldwiki,True,19.0,0.23232323232323232,1.0,0.23232323232323232,1.0,0.3770491803278689
lldwiki,True,20.0,0.23232323232323232,1.0,0.23232323232323232,1.0,0.3770491803278689
lldwiki,True,21.0,0.23232323232323232,1.0,0.23232323232323232,1.0,0.3770491803278689
lldwiki,True,22.0,0.23232323232323232,1.0,0.23232323232323232,1.0,0.3770491803278689
lldwiki,True,23.0,0.23232323232323232,1.0,0.23232323232323232,1.0,0.3770491803278689
lldwiki,True,24.0,0.23232323232323232,1.0,0.23232323232323232,1.0,0.3770491803278689
lldwiki,True,25.0,0.23232323232323232,1.0,0.23232323232323232,1.0,0.3770491803278689
lldwiki,True,26.0,0.23232323232323232,1.0,0.23232323232323232,1.0,0.3770491803278689
lldwiki,True,27.0,0.23232323232323232,1.0,0.23232323232323232,1.0,0.3770491803278689
lldwiki,True,28.0,0.23232323232323232,1.0,0.23232323232323232,1.0,0.3770491803278689
lldwiki,True,29.0,0.23232323232323232,1.0,0.23232323232323232,1.0,0.3770491803278689
lldwiki,True,30.0,0.23232323232323232,1.0,0.23232323232323232,1.0,0.3770491803278689
lldwiki,True,31.0,0.23711340206185566,1.0,0.25252525252525254,0.9736842105263158,0.3833333333333333
lldwiki,True,32.0,0.23958333333333334,1.0,0.26262626262626265,0.9605263157894737,0.3865546218487395
lldwiki,True,33.0,0.23958333333333334,1.0,0.26262626262626265,0.9605263157894737,0.3865546218487395
lldwiki,True,34.0,0.24210526315789474,1.0,0.2727272727272727,0.9473684210526315,0.38983050847457623
lldwiki,True,35.0,0.24210526315789474,1.0,0.2727272727272727,0.9473684210526315,0.38983050847457623
lldwiki,True,36.0,0.24210526315789474,1.0,0.2727272727272727,0.9473684210526315,0.38983050847457623
lldwiki,True,37.0,0.24468085106382978,1.0,0.2828282828282828,0.9342105263157895,0.39316239316239315
lldwiki,True,38.0,0.25274725274725274,1.0,0.31313131313131315,0.8947368421052632,0.40350877192982454
lldwiki,True,39.0,0.25555555555555554,1.0,0.32323232323232326,0.881578947368421,0.4070796460176991
lldwiki,True,40.0,0.25555555555555554,1.0,0.32323232323232326,0.881578947368421,0.4070796460176991
lldwiki,True,41.0,0.25555555555555554,1.0,0.32323232323232326,0.881578947368421,0.4070796460176991
lldwiki,True,42.0,0.26136363636363635,1.0,0.3434343434343434,0.8552631578947368,0.41441441441441446
lldwiki,True,43.0,0.26136363636363635,1.0,0.3434343434343434,0.8552631578947368,0.41441441441441446
lldwiki,True,44.0,0.26136363636363635,1.0,0.3434343434343434,0.8552631578947368,0.41441441441441446
lldwiki,True,45.0,0.2558139534883721,0.9565217391304348,0.3434343434343434,0.8421052631578947,0.4036697247706422
lldwiki,True,46.0,0.2682926829268293,0.9565217391304348,0.3838383838383838,0.7894736842105263,0.4190476190476191
lldwiki,True,47.0,0.2682926829268293,0.9565217391304348,0.3838383838383838,0.7894736842105263,0.4190476190476191
lldwiki,True,48.0,0.2716049382716049,0.9565217391304348,0.3939393939393939,0.7763157894736842,0.423076923076923
lldwiki,True,49.0,0.2716049382716049,0.9565217391304348,0.3939393939393939,0.7763157894736842,0.423076923076923
lldwiki,True,50.0,0.275,0.9565217391304348,0.40404040404040403,0.7631578947368421,0.42718446601941745
lldwiki,True,51.0,0.27848101265822783,0.9565217391304348,0.41414141414141414,0.75,0.4313725490196078
lldwiki,True,52.0,0.28205128205128205,0.9565217391304348,0.42424242424242425,0.7368421052631579,0.43564356435643564
lldwiki,True,53.0,0.2857142857142857,0.9565217391304348,0.43434343434343436,0.7236842105263158,0.44
lldwiki,True,54.0,0.2894736842105263,0.9565217391304348,0.4444444444444444,0.7105263157894737,0.4444444444444444
lldwiki,True,55.0,0.2972972972972973,0.9565217391304348,0.46464646464646464,0.6842105263157895,0.4536082474226804
lldwiki,True,56.0,0.2972972972972973,0.9565217391304348,0.46464646464646464,0.6842105263157895,0.4536082474226804
lldwiki,True,57.0,0.30985915492957744,0.9565217391304348,0.494949494949495,0.6447368421052632,0.46808510638297873
lldwiki,True,58.0,0.3142857142857143,0.9565217391304348,0.5050505050505051,0.631578947368421,0.47311827956989244
lldwiki,True,59.0,0.3283582089552239,0.9565217391304348,0.5353535353535354,0.5921052631578947,0.48888888888888893
lldwiki,True,60.0,0.3384615384615385,0.9565217391304348,0.5555555555555556,0.5657894736842105,0.5000000000000001
lldwiki,True,61.0,0.3384615384615385,0.9565217391304348,0.5555555555555556,0.5657894736842105,0.5000000000000001
lldwiki,True,62.0,0.3384615384615385,0.9565217391304348,0.5555555555555556,0.5657894736842105,0.5000000000000001
lldwiki,True,63.0,0.3384615384615385,0.9565217391304348,0.5555555555555556,0.5657894736842105,0.5000000000000001
lldwiki,True,64.0,0.34375,0.9565217391304348,0.5656565656565656,0.5526315789473685,0.5057471264367817
lldwiki,True,65.0,0.3548387096774194,0.9565217391304348,0.5858585858585859,0.5263157894736842,0.5176470588235295
lldwiki,True,66.0,0.3442622950819672,0.9130434782608695,0.5757575757575758,0.5263157894736842,0.5
lldwiki,True,67.0,0.3559322033898305,0.9130434782608695,0.5959595959595959,0.5,0.5121951219512195
lldwiki,True,68.0,0.375,0.9130434782608695,0.6262626262626263,0.4605263157894737,0.5316455696202531
lldwiki,True,69.0,0.375,0.9130434782608695,0.6262626262626263,0.4605263157894737,0.5316455696202531
lldwiki,True,70.0,0.375,0.9130434782608695,0.6262626262626263,0.4605263157894737,0.5316455696202531
lldwiki,True,71.0,0.375,0.9130434782608695,0.6262626262626263,0.4605263157894737,0.5316455696202531
lldwiki,True,72.0,0.375,0.9130434782608695,0.6262626262626263,0.4605263157894737,0.5316455696202531
lldwiki,True,73.0,0.37735849056603776,0.8695652173913043,0.6363636363636364,0.4342105263157895,0.5263157894736843
lldwiki,True,74.0,0.32653061224489793,0.6956521739130435,0.5959595959595959,0.4342105263157895,0.4444444444444445
lldwiki,True,75.0,0.28888888888888886,0.5652173913043478,0.5757575757575758,0.42105263157894735,0.38235294117647056
lldwiki,True,76.0,0.2857142857142857,0.5217391304347826,0.5858585858585859,0.39473684210526316,0.3692307692307692
lldwiki,True,77.0,0.3157894736842105,0.5217391304347826,0.6262626262626263,0.34210526315789475,0.39344262295081966
lldwiki,True,78.0,0.3333333333333333,0.4782608695652174,0.6565656565656566,0.2894736842105263,0.3928571428571428
lldwiki,True,79.0,0.26666666666666666,0.34782608695652173,0.6262626262626263,0.2894736842105263,0.30188679245283023
lldwiki,True,80.0,0.2857142857142857,0.34782608695652173,0.6464646464646465,0.2631578947368421,0.3137254901960784
lldwiki,True,81.0,0.2692307692307692,0.30434782608695654,0.6464646464646465,0.25,0.28571428571428575
lldwiki,True,82.0,0.2916666666666667,0.30434782608695654,0.6666666666666666,0.2236842105263158,0.2978723404255319
lldwiki,True,83.0,0.2727272727272727,0.2608695652173913,0.6666666666666666,0.21052631578947367,0.2666666666666666
lldwiki,True,84.0,0.2727272727272727,0.2608695652173913,0.6666666666666666,0.21052631578947367,0.2666666666666666
lldwiki,True,85.0,0.2857142857142857,0.2608695652173913,0.6767676767676768,0.19736842105263158,0.2727272727272727
lldwiki,True,86.0,0.35294117647058826,0.2608695652173913,0.7171717171717171,0.14473684210526316,0.3
lldwiki,True,87.0,0.45454545454545453,0.21739130434782608,0.7575757575757576,0.07894736842105263,0.29411764705882354
lldwiki,True,88.0,0.4,0.17391304347826086,0.7474747474747475,0.07894736842105263,0.24242424242424243
lldwiki,True,89.0,0.42857142857142855,0.13043478260869565,0.7575757575757576,0.05263157894736842,0.2
lldwiki,True,90.0,0.25,0.043478260869565216,0.7474747474747475,0.039473684210526314,0.07407407407407408
lldwiki,True,91.0,0.5,0.043478260869565216,0.7676767676767676,0.013157894736842105,0.08
lldwiki,True,92.0,0.5,0.043478260869565216,0.7676767676767676,0.013157894736842105,0.08
lldwiki,True,93.0,1.0,0.043478260869565216,0.7777777777777778,0.0,0.08333333333333333
lldwiki,True,94.0,1.0,0.043478260869565216,0.7777777777777778,0.0,0.08333333333333333
lldwiki,True,95.0,1.0,0.043478260869565216,0.7777777777777778,0.0,0.08333333333333333
lldwiki,True,96.0,1.0,0.043478260869565216,0.7777777777777778,0.0,0.08333333333333333
lldwiki,True,97.0,1.0,0.043478260869565216,0.7777777777777778,0.0,0.08333333333333333
lldwiki,True,98.0,1.0,0.0,0.7676767676767676,0.0,0.0
lldwiki,True,99.0,1.0,0.0,0.7676767676767676,0.0,0.0
lldwiki,False,0.0,0.0030111412225233363,1.0,0.0030111412225233363,1.0,0.006004202942059442
lldwiki,False,1.0,0.0030111412225233363,1.0,0.0030111412225233363,1.0,0.006004202942059442
lldwiki,False,2.0,0.0030138637733574444,1.0,0.003914483589280337,0.9990939293264874,0.006009615384615385
lldwiki,False,3.0,0.0029505220154334997,0.975,0.007828967178560674,0.9950921171851405,0.005883240307738723
lldwiki,False,4.0,0.001995548392048507,0.65,0.02009936766034327,0.98180308064029,0.00397888132221287
lldwiki,False,5.0,0.002053874713642468,0.65,0.047952423968684134,0.9538659015403201,0.004094810615009056
lldwiki,False,6.0,0.002673521850899743,0.65,0.26881963264077086,0.7323316218665056,0.005325140809011777
lldwiki,False,7.0,0.0028477047499715228,0.625,0.3398825654923216,0.6609785563273936,0.005669577049552102
lldwiki,False,8.0,0.0029850746268656717,0.6,0.3953628425173141,0.6052552099063727,0.005940594059405941
lldwiki,False,9.0,0.0033812341504649195,0.6,0.46627521830773866,0.5341286620356388,0.006724572709442421
lldwiki,False,10.0,0.0034482758620689655,0.575,0.4983438723276122,0.5018876472364845,0.006855439642324887
lldwiki,False,11.0,0.003556417717426447,0.55,0.5346281240590184,0.465418302627605,0.00706713780918728
lldwiki,False,12.0,0.003639514731369151,0.525,0.5657934357121349,0.43408335850196317,0.007228915662650603
lldwiki,False,13.0,0.0039548022598870055,0.525,0.6004215597711533,0.39935064935064934,0.007850467289719625
lldwiki,False,14.0,0.004365904365904366,0.525,0.638060825052695,0.3615977046209604,0.00865979381443299
lldwiki,False,15.0,0.0044822949350067235,0.5,0.6641071966275218,0.3353971609785563,0.00888494002665482
lldwiki,False,16.0,0.004331087584215592,0.45,0.686841312857573,0.31244337058290544,0.008579599618684462
lldwiki,False,17.0,0.004678970626462178,0.45,0.7101023788015658,0.2891120507399577,0.009261641368664782
lldwiki,False,18.0,0.005008347245409015,0.45,0.7291478470340259,0.27000906070673514,0.009906439185470555
lldwiki,False,19.0,0.005439709882139619,0.45,0.7506022282445046,0.24848988221081245,0.010749477455957003
lldwiki,False,20.0,0.00548033526756931,0.425,0.7660343270099368,0.2329356689821806,0.010821133036282621
lldwiki,False,21.0,0.0055768560474032764,0.4,0.783423667570009,0.21541830262760495,0.011000343760742522
lldwiki,False,22.0,0.005965697240865026,0.4,0.7975007527853056,0.2012987012987013,0.011756061719324026
lldwiki,False,23.0,0.005579912315663611,0.35,0.8102228244504667,0.1883871942011477,0.010984699882306787
lldwiki,False,24.0,0.0055178268251273345,0.325,0.8215898825654924,0.17691029900332225,0.010851419031719533
lldwiki,False,25.0,0.005461993627674101,0.3,0.8334086118638964,0.16498036846874056,0.010728654447921324
lldwiki,False,26.0,0.005429417571569595,0.275,0.8461306835290575,0.15214436726064634,0.010648596321393998
lldwiki,False,27.0,0.005817028027498678,0.275,0.8562932851550737,0.14195107218363032,0.011393060590367685
lldwiki,False,28.0,0.0057110222729868645,0.25,0.8666817223727793,0.1314557535487768,0.011166945840312675
lldwiki,False,29.0,0.006184291898577613,0.25,0.8767690454682324,0.12133796436122017,0.012070006035003017
lldwiki,False,30.0,0.006688963210702341,0.25,0.8859530261969286,0.11212624584717608,0.013029315960912053
lldwiki,False,31.0,0.007293946024799417,0.25,0.895287563986751,0.10276351555421323,0.014174344436569808
lldwiki,False,32.0,0.006344171292624901,0.2,0.9032670882264379,0.09460887949260043,0.012298232129131437
lldwiki,False,33.0,0.006926406926406926,0.2,0.9112466124661247,0.08660525520990638,0.013389121338912133
lldwiki,False,34.0,0.007386888273314866,0.2,0.9166666666666666,0.08116883116883117,0.014247551202137132
lldwiki,False,35.0,0.00708502024291498,0.175,0.9236675700090334,0.07407127755964965,0.013618677042801557
lldwiki,False,36.0,0.0077348066298342545,0.175,0.9299156880457693,0.0678042887345213,0.014814814814814815
lldwiki,False,37.0,0.00842358604091456,0.175,0.9354862993074375,0.06221685291452733,0.016073478760045924
lldwiki,False,38.0,0.00903225806451613,0.175,0.9397018970189702,0.057988523104802174,0.01717791411042945
lldwiki,False,39.0,0.0070126227208976155,0.125,0.944068051791629,0.053458169737239505,0.013280212483399735
lldwiki,False,40.0,0.007587253414264037,0.125,0.9481330924420356,0.0493808517064331,0.014306151645207441
lldwiki,False,41.0,0.008130081300813009,0.125,0.9514453477868112,0.04605859257022048,0.015267175572519087
lldwiki,False,42.0,0.008896797153024912,0.125,0.9554351099066546,0.04205678042887345,0.016611295681063124
lldwiki,False,43.0,0.007827788649706457,0.1,0.9591237579042458,0.03828148595590456,0.014519056261343012
lldwiki,False,44.0,0.008421052631578947,0.1,0.9618337850045167,0.03556327393536696,0.015533980582524273
lldwiki,False,45.0,0.009009009009009009,0.1,0.9641674194519723,0.03322259136212625,0.016528925619834708
lldwiki,False,46.0,0.00966183574879227,0.1,0.9664257753688648,0.03095741467834491,0.017621145374449337
lldwiki,False,47.0,0.007832898172323759,0.075,0.9686088527551943,0.028692237994563576,0.014184397163120567
lldwiki,False,48.0,0.008241758241758242,0.075,0.9700391448358928,0.027257626094835397,0.01485148514851485
lldwiki,False,49.0,0.006024096385542169,0.05,0.9722975007527853,0.024916943521594685,0.010752688172043012
lldwiki,False,50.0,0.00641025641025641,0.05,0.973803071364047,0.023406825732407127,0.011363636363636364
lldwiki,False,51.0,0.006896551724137931,0.05,0.9754591990364349,0.021745696164300814,0.012121212121212121
lldwiki,False,52.0,0.007434944237918215,0.05,0.9770400481782595,0.02016007248565388,0.012944983818770227
lldwiki,False,53.0,0.00784313725490196,0.05,0.9780939476061428,0.01910299003322259,0.013559322033898306
lldwiki,False,54.0,0.00851063829787234,0.05,0.9795995182174044,0.017592872244035034,0.014545454545454547
lldwiki,False,55.0,0.004545454545454545,0.025,0.9805781391147245,0.016535789791603746,0.007692307692307692
lldwiki,False,56.0,0.0049504950495049506,0.025,0.98193315266486,0.015176683781334945,0.008264462809917356
lldwiki,False,57.0,0.005813953488372093,0.025,0.9841915085817525,0.012911507097553608,0.009433962264150943
lldwiki,False,58.0,0.006289308176100629,0.025,0.9851701294790726,0.011929930534581697,0.010050251256281409
lldwiki,False,59.0,0.006622516556291391,0.025,0.9857723577235772,0.011325883418906675,0.010471204188481676
lldwiki,False,60.0,0.007692307692307693,0.025,0.987353206865402,0.00974025974025974,0.011764705882352943
lldwiki,False,61.0,0.008620689655172414,0.025,0.9884071062932852,0.00868317728782845,0.012820512820512822
lldwiki,False,62.0,0.009259259259259259,0.025,0.9890093345377898,0.008079130172153427,0.013513513513513514
lldwiki,False,63.0,0.010101010101010102,0.025,0.9896868413128576,0.007399577167019027,0.014388489208633094
lldwiki,False,64.0,0.010752688172043012,0.025,0.9901385124962361,0.00694654183026276,0.01503759398496241
lldwiki,False,65.0,0.012195121951219513,0.025,0.99096657633243,0.006115977046209605,0.01639344262295082
lldwiki,False,66.0,0.012987012987012988,0.025,0.9913429689852454,0.005738447598912715,0.017094017094017096
lldwiki,False,67.0,0.014084507042253521,0.025,0.991794640168624,0.005285412262156448,0.018018018018018018
lldwiki,False,68.0,0.014925373134328358,0.025,0.9920957542908763,0.0049833887043189366,0.018691588785046728
lldwiki,False,69.0,0.015625,0.025,0.9923215898825655,0.0047568710359408035,0.019230769230769232
lldwiki,False,70.0,0.017241379310344827,0.025,0.992773261065944,0.0043038356991845364,0.02040816326530612
lldwiki,False,71.0,0.0196078431372549,0.025,0.9933002107798856,0.0037752944729688917,0.021978021978021976
lldwiki,False,72.0,0.02040816326530612,0.025,0.9934507678410117,0.003624282694050136,0.022471910112359546
lldwiki,False,73.0,0.02127659574468085,0.025,0.9936013249021379,0.00347327091513138,0.02298850574712644
lldwiki,False,74.0,0.022222222222222223,0.025,0.993751881963264,0.0033222591362126247,0.023529411764705882
lldwiki,False,75.0,0.024390243902439025,0.025,0.9940529960855164,0.0030202355783751134,0.02469135802469136
lldwiki,False,76.0,0.02564102564102564,0.025,0.9942035531466425,0.0028692237994563576,0.02531645569620253
lldwiki,False,77.0,0.02631578947368421,0.025,0.9942788316772057,0.00279371790999698,0.02564102564102564
lldwiki,False,78.0,0.029411764705882353,0.025,0.994579945799458,0.0024916943521594683,0.027027027027027025
lldwiki,False,79.0,0.030303030303030304,0.025,0.9946552243300211,0.0024161884627000906,0.027397260273972605
lldwiki,False,80.0,0.030303030303030304,0.025,0.9946552243300211,0.0024161884627000906,0.027397260273972605
lldwiki,False,81.0,0.03225806451612903,0.025,0.9948057813911473,0.0022651766837813348,0.028169014084507043
lldwiki,False,82.0,0.037037037037037035,0.025,0.9951068955133996,0.0019631531259438235,0.02985074626865672
lldwiki,False,83.0,0.043478260869565216,0.025,0.9954080096356519,0.0016611295681063123,0.03174603174603175
lldwiki,False,84.0,0.058823529411764705,0.025,0.9958596808190304,0.0012080942313500453,0.03508771929824561
lldwiki,False,85.0,0.07142857142857142,0.025,0.9960855164107196,0.0009815765629719118,0.03703703703703704
lldwiki,False,86.0,0.08333333333333333,0.025,0.9962360734718458,0.0008305647840531562,0.03846153846153846
lldwiki,False,87.0,0.14285714285714285,0.025,0.9966124661246613,0.000453035336756267,0.0425531914893617
lldwiki,False,88.0,0.0,0.0,0.9966124661246613,0.0003775294472968892,0.0425531914893617
lldwiki,False,89.0,0.0,0.0,0.9966124661246613,0.0003775294472968892,0.0425531914893617
lldwiki,False,90.0,0.0,0.0,0.9966877446552244,0.0003020235578375113,0.0425531914893617
lldwiki,False,91.0,0.0,0.0,0.9968383017163505,0.00015101177891875566,0.0425531914893617
lldwiki,False,92.0,0.0,0.0,0.9968383017163505,0.00015101177891875566,0.0425531914893617
lldwiki,False,93.0,0.0,0.0,0.9968383017163505,0.00015101177891875566,0.0425531914893617
lldwiki,False,94.0,0.0,0.0,0.9969135802469136,7.550588945937783e-05,0.0425531914893617
lldwiki,False,95.0,0.0,0.0,0.9969135802469136,7.550588945937783e-05,0.0425531914893617
lldwiki,False,96.0,0.0,0.0,0.9969135802469136,7.550588945937783e-05,0.0425531914893617
lldwiki,False,97.0,0.0,0.0,0.9969888587774767,0.0,0.0425531914893617
lldwiki,False,98.0,0.0,0.0,0.9969888587774767,0.0,0.0425531914893617
lldwiki,False,99.0,0.0,0.0,0.9969888587774767,0.0,0.0425531914893617
