wiki_db,user_is_anonymous,threshold,precision,recall,accuracy,fpr,F1
mlwiki,True,0.0,0.11446023104501395,1.0,0.11446023104501395,1.0,0.2054092696294531
mlwiki,True,1.0,0.11446023104501395,1.0,0.11446023104501395,1.0,0.2054092696294531
mlwiki,True,2.0,0.11446023104501395,1.0,0.11446023104501395,1.0,0.2054092696294531
mlwiki,True,3.0,0.11446023104501395,1.0,0.11446023104501395,1.0,0.2054092696294531
mlwiki,True,4.0,0.11446023104501395,1.0,0.11446023104501395,1.0,0.2054092696294531
mlwiki,True,5.0,0.11446023104501395,1.0,0.11446023104501395,1.0,0.2054092696294531
mlwiki,True,6.0,0.11446023104501395,1.0,0.11446023104501395,1.0,0.2054092696294531
mlwiki,True,7.0,0.11446023104501395,1.0,0.11446023104501395,1.0,0.2054092696294531
mlwiki,True,8.0,0.11449063620666755,1.0,0.1147258000265569,0.9997001049632629,0.20545822905493982
mlwiki,True,9.0,0.1145058448459086,1.0,0.11485858451732837,0.9995501574448943,0.20548271752085814
mlwiki,True,10.0,0.1145514950166113,1.0,0.11525693798964282,0.9991003148897886,0.20555621795636103
mlwiki,True,11.0,0.1145819486906819,1.0,0.11552250697118577,0.9988004198530515,0.2056052474657126
mlwiki,True,12.0,0.11467340694425968,1.0,0.11631921391581464,0.99790073474284,0.20575247642916816
mlwiki,True,13.0,0.1147039254823686,1.0,0.11658478289735759,0.9976008397061029,0.2058015996180017
mlwiki,True,14.0,0.11471919084375831,1.0,0.11671756738812906,0.9974508921877343,0.20582617000955108
mlwiki,True,15.0,0.11478029294274301,1.0,0.11724870535121498,0.99685110211426,0.20592451027233635
mlwiki,True,16.0,0.11487206823027718,1.0,0.11804541229584385,0.9959514170040485,0.2060721969878078
mlwiki,True,17.0,0.11493333333333333,1.0,0.11857655025892976,0.9953516269305743,0.20617077254245395
mlwiki,True,18.0,0.1149486598213095,1.0,0.11870933474970123,0.9952016794122057,0.20619543116852052
mlwiki,True,19.0,0.11505605979711693,1.0,0.11963882618510158,0.9941520467836257,0.20636820684701943
mlwiki,True,20.0,0.11513289702150394,1.0,0.12030274863895897,0.9934023091917829,0.20649179542460172
mlwiki,True,21.0,0.11519444073232661,1.0,0.12083388660204489,0.9928025191183086,0.20659077291791492
mlwiki,True,22.0,0.11536402569593147,1.0,0.12229451600053114,0.9911530964162543,0.2068634509239261
mlwiki,True,23.0,0.1154412749430829,1.0,0.12295843845438853,0.9904033588244114,0.20698763356945613
mlwiki,True,24.0,0.1155650891540421,1.0,0.12402071438056035,0.9892037786774629,0.207186636221608
mlwiki,True,25.0,0.115642607995707,1.0,0.12468463683441774,0.9884540410856201,0.2073112073112073
mlwiki,True,26.0,0.11573576799140708,1.0,0.1254813437790466,0.9875543559754086,0.20746089049338146
mlwiki,True,27.0,0.11577248890681727,0.9988399071925754,0.1266764041959899,0.9860548807917229,0.2074948789010724
mlwiki,True,28.0,0.11588156123822342,0.9988399071925754,0.12760589563139024,0.9850052481631429,0.2076700434153401
mlwiki,True,29.0,0.11597521551724138,0.9988399071925754,0.12840260257601913,0.9841055630529315,0.20782041998551773
mlwiki,True,30.0,0.11616297895304911,0.9988399071925754,0.12999601646527686,0.9823061928325086,0.20812182741116753
mlwiki,True,31.0,0.11628849270664506,0.9988399071925754,0.13105829239144867,0.9811066126855601,0.20832325187515122
mlwiki,True,32.0,0.11643002028397566,0.9988399071925754,0.13225335280839198,0.979757085020243,0.20855032093980863
mlwiki,True,33.0,0.11658767772511848,0.9988399071925754,0.13358119771610677,0.9782576098365572,0.20880320116405962
mlwiki,True,34.0,0.11649959360606882,0.9976798143851509,0.13371398220687825,0.9779577147998201,0.20863658418243572
mlwiki,True,35.0,0.11664180116641801,0.9976798143851509,0.13490904262382153,0.9766081871345029,0.20886460230722523
mlwiki,True,36.0,0.11670511602659792,0.9976798143851509,0.13544018058690746,0.9760083970610286,0.20896610375410035
mlwiki,True,37.0,0.1168637043076505,0.9976798143851509,0.13676802549462222,0.974508921877343,0.2092202895024936
mlwiki,True,38.0,0.11692726036709722,0.9976798143851509,0.13729916345770815,0.9739091318038686,0.20932213703298042
mlwiki,True,39.0,0.11698215988015798,0.9965197215777262,0.1386270083654229,0.9722597091018144,0.20938452163315052
mlwiki,True,40.0,0.11728563626433643,0.9965197215777262,0.141149913690081,0.9694107062528116,0.20987051062790127
mlwiki,True,41.0,0.11752633739225612,0.9965197215777262,0.14314168105165317,0.967161493477283,0.21025578264594297
mlwiki,True,42.0,0.11771961079895847,0.9965197215777262,0.1447350949409109,0.9653621232568601,0.21056502022306653
mlwiki,True,43.0,0.11791352093342485,0.9965197215777262,0.14632850883016862,0.9635627530364372,0.21087516877378176
mlwiki,True,44.0,0.11807560137457045,0.9965197215777262,0.1476563537378834,0.9620632778527516,0.21113432468968907
mlwiki,True,45.0,0.11817306369514376,0.9965197215777262,0.1484530606825123,0.9611635927425402,0.2112901242159636
mlwiki,True,46.0,0.11841742486903777,0.9965197215777262,0.15044482804408446,0.9589143799670116,0.21168063085263678
mlwiki,True,47.0,0.11863002347742024,0.9965197215777262,0.15217102642411368,0.9569650622282201,0.2120202394174997
mlwiki,True,48.0,0.11877765486725664,0.9965197215777262,0.15336608684105696,0.9556155345629029,0.21225599209290835
mlwiki,True,49.0,0.11909053098572023,0.9965197215777262,0.15588899216571506,0.9527665317139001,0.21275541795665637
mlwiki,True,50.0,0.11930555555555555,0.9965197215777262,0.15761519054574424,0.9508172139751088,0.21309848672785908
mlwiki,True,51.0,0.11948196629995822,0.9953596287703016,0.1598725268888594,0.9481181586444745,0.21335322640805668
mlwiki,True,52.0,0.11962590731434952,0.994199535962877,0.16186429425043156,0.9457189983505773,0.21355594318464988
mlwiki,True,53.0,0.11984337854845477,0.994199535962877,0.16359049263046077,0.9437696806117859,0.2139024085860477
mlwiki,True,54.0,0.1200280112044818,0.994199535962877,0.165051122028947,0.9421202579097316,0.21419645088727818
mlwiki,True,55.0,0.12036516853932584,0.994199535962877,0.16770681184437658,0.9391213075423602,0.21473314958656975
mlwiki,True,56.0,0.12082334696179332,0.994199535962877,0.17129199309520649,0.9350727245464088,0.21546197360150848
mlwiki,True,57.0,0.12116499363777747,0.994199535962877,0.17394768291063603,0.9320737741790374,0.21600504095778197
mlwiki,True,58.0,0.12142249929158402,0.994199535962877,0.1759394502722082,0.9298245614035088,0.21641414141414142
mlwiki,True,59.0,0.12166382737081204,0.994199535962877,0.1777984331430089,0.9277252961463488,0.21679736908676955
mlwiki,True,60.0,0.12209716483829605,0.994199535962877,0.18111804541229584,0.9239766081871345,0.21748509072452735
mlwiki,True,61.0,0.12226824739322954,0.9930394431554525,0.18324259726463948,0.9214275003748688,0.21772860231463817
mlwiki,True,62.0,0.12259822196730714,0.9918793503480279,0.18656220953392644,0.9175288648972859,0.21822358346094947
mlwiki,True,63.0,0.12275406065832974,0.9907192575406032,0.1885539768954986,0.9151297046033888,0.21844225604297224
mlwiki,True,64.0,0.12307248883124369,0.9907192575406032,0.1909440977293852,0.9124306492727545,0.21894628893731571
mlwiki,True,65.0,0.12337286664738212,0.9895591647331786,0.1939981410171292,0.9088319088319088,0.21939300411522636
mlwiki,True,66.0,0.12335121032033627,0.9872389791183295,0.19545877041561546,0.9068825910931174,0.2193016363870635
mlwiki,True,67.0,0.12385254261984555,0.9860788863109049,0.1999734431018457,0.9016344279502174,0.22006472491909382
mlwiki,True,68.0,0.12437738060357456,0.9849187935034803,0.20462090027884744,0.8962363172889488,0.2208636836628512
mlwiki,True,69.0,0.12520301195924996,0.9837587006960556,0.2113929093081928,0.8884390463337831,0.22213490504256714
mlwiki,True,70.0,0.12589285714285714,0.9814385150812065,0.21789934935599523,0.880791722896986,0.22316011606436295
mlwiki,True,71.0,0.1264644037248423,0.9767981438515081,0.22506971185765504,0.8720947668316089,0.22393617021276596
mlwiki,True,72.0,0.1270684681949294,0.9709976798143851,0.23316956579471518,0.8621982306192832,0.22472815142972208
mlwiki,True,73.0,0.1281067812212335,0.968677494199536,0.24180055769486125,0.852151746888589,0.22628726287262874
mlwiki,True,74.0,0.12884675163195525,0.9617169373549884,0.25136104103040763,0.8404558404558404,0.22724780701754388
mlwiki,True,75.0,0.12989267676767677,0.9547563805104409,0.2627805072367547,0.8266606687659319,0.2286746318421784
mlwiki,True,76.0,0.13077663671373554,0.9454756380510441,0.2744655424246448,0.8122657070025491,0.22977163800394698
mlwiki,True,77.0,0.13174239947695326,0.9350348027842227,0.2872128535387067,0.7965212175738492,0.23094555873925504
mlwiki,True,78.0,0.13334448720093692,0.9245939675174014,0.30354534590359844,0.7767281451491977,0.23307501096651556
mlwiki,True,79.0,0.1349819680577022,0.9118329466357309,0.32107289868543354,0.7552856500224921,0.2351533283470456
mlwiki,True,80.0,0.13753987947536334,0.9002320185614849,0.3424512016996415,0.7296446243814665,0.23862238622386223
mlwiki,True,81.0,0.14005499541704858,0.8863109048723898,0.3640950736953924,0.7034038086669666,0.2418869716637645
mlwiki,True,82.0,0.14269319051262433,0.8654292343387471,0.38945691143274463,0.6720647773279352,0.24499178981937603
mlwiki,True,83.0,0.14505187549880288,0.8433874709976799,0.41309255079006774,0.6425251162093267,0.247531494722506
mlwiki,True,84.0,0.14803116445567488,0.8155452436194895,0.44164121630593545,0.6066876593192383,0.250579219390483
mlwiki,True,85.0,0.1509686038744155,0.7865429234338747,0.4692603903864029,0.5717498875393612,0.25331589762749857
mlwiki,True,86.0,0.15263534462198902,0.7424593967517401,0.498738547337671,0.5327635327635327,0.2532146389713155
mlwiki,True,87.0,0.15651287280142748,0.7122969837587007,0.5276855663258532,0.49617633828160146,0.25663531870428424
mlwiki,True,88.0,0.15984513274336284,0.6705336426914154,0.5588899216571505,0.4555405608037187,0.25815096025011164
mlwiki,True,89.0,0.1652542372881356,0.6334106728538283,0.5918204753684769,0.4135552556605188,0.26212193951032164
mlwiki,True,90.0,0.17273954116059378,0.5939675174013921,0.6279378568583189,0.3676713150397361,0.2676424464192368
mlwiki,True,91.0,0.18027079303675048,0.5406032482598608,0.6660470057097331,0.31773879142300193,0.2703800406150276
mlwiki,True,92.0,0.20045871559633027,0.5069605568445475,0.7121232240074359,0.2613585245164193,0.2873109796186719
mlwiki,True,93.0,0.21892816419612315,0.44547563805104406,0.7546142610543088,0.20542810016494226,0.29357798165137616
mlwiki,True,94.0,0.25235109717868337,0.37354988399071926,0.801619970787412,0.14304993252361672,0.3012160898035547
mlwiki,True,95.0,0.319377990430622,0.30974477958236657,0.8454388527419997,0.0853201379517169,0.3144876325088339
mlwiki,True,96.0,0.3849056603773585,0.23665893271461716,0.8693400610808657,0.04888289098815415,0.29310344827586204
mlwiki,True,97.0,0.46296296296296297,0.1740139211136891,0.8823529411764706,0.026090868196131354,0.25295109612141653
mlwiki,True,98.0,0.6411764705882353,0.12645011600928074,0.891913424512017,0.009146798620482831,0.2112403100775194
mlwiki,True,99.0,0.7916666666666666,0.06612529002320186,0.8911167175673881,0.002249212775528565,0.12205567451820129
mlwiki,False,0.0,0.019916229785581538,1.0,0.019916229785581538,1.0,0.03905463841823276
mlwiki,False,1.0,0.01991843981468638,1.0,0.020027183711963607,0.9998867913848244,0.03905888752889977
mlwiki,False,2.0,0.020055944055944058,0.9986072423398329,0.02821003578264126,0.9915093538618289,0.0393221454425798
mlwiki,False,3.0,0.020629055253280574,0.9874651810584958,0.0660730631605226,0.9526504967027991,0.04041382848348391
mlwiki,False,4.0,0.021478399216742137,0.9777158774373259,0.11242406590663227,0.9051594826366286,0.042033411172983655
mlwiki,False,5.0,0.022442605531764175,0.9707520891364902,0.15727719064658402,0.8592533891829168,0.04387096774193549
mlwiki,False,6.0,0.023542600896860985,0.9651810584958217,0.20201936146015367,0.8134888064981746,0.04596405120382038
mlwiki,False,7.0,0.024768800630869597,0.9623955431754875,0.24457019222767745,0.7700166982707384,0.04829466032988538
mlwiki,False,8.0,0.025842440801457194,0.9484679665738162,0.2868991151424371,0.7265445900433023,0.05031400073882527
mlwiki,False,9.0,0.027181342983514274,0.9415041782729805,0.32773016005103883,0.6847423088897066,0.052837267469126155
mlwiki,False,10.0,0.0285031575354156,0.9303621169916435,0.3670633269534826,0.6443834375795998,0.05531174960669041
mlwiki,False,11.0,0.029810911064869265,0.9178272980501393,0.4034562148068015,0.606996292417853,0.05774623203645286
mlwiki,False,12.0,0.031227549212127018,0.9080779944289693,0.43710299298216415,0.5724676647892905,0.06037875630874658
mlwiki,False,13.0,0.03284653090100561,0.9052924791086351,0.4672269839948961,0.5416749214615232,0.06339298776027698
mlwiki,False,14.0,0.03421122638999734,0.8955431754874652,0.49441069595850323,0.5137406956669403,0.06590478142776611
mlwiki,False,15.0,0.03557312252964427,0.8899721448467967,0.5172672047932096,0.490306512325588,0.06841175525935443
mlwiki,False,16.0,0.03662706461895103,0.8802228412256268,0.5365177110204987,0.4704667025160615,0.0703277137929116
mlwiki,False,17.0,0.03808487486398259,0.8774373259052924,0.5561842944717206,0.4503438711685959,0.07300115874855156
mlwiki,False,18.0,0.039269981120201386,0.8690807799442897,0.5739369226928518,0.4320606798177341,0.07514450867052024
mlwiki,False,19.0,0.04035639412997904,0.8579387186629527,0.5908573964661175,0.41456994877310166,0.07708672256288325
mlwiki,False,20.0,0.041422137300395796,0.8454038997214485,0.6072785775706638,0.3975603543429655,0.07897475930262816
mlwiki,False,21.0,0.042575800510059505,0.8370473537604457,0.621869018889906,0.38250360852460874,0.08103006606444653
mlwiki,False,22.0,0.04361623616236163,0.8231197771587744,0.6370142298410585,0.3667676110151983,0.08284272497897392
mlwiki,False,23.0,0.044608521765882175,0.807799442896936,0.6516046711603006,0.35156935442787196,0.08454810495626824
mlwiki,False,24.0,0.04589585172109444,0.7966573816155988,0.6661118970347564,0.3365409107633091,0.08679159396100447
mlwiki,False,25.0,0.04740839662799432,0.7910863509749304,0.6792599373110316,0.3230124812498231,0.08945586266635167
mlwiki,False,26.0,0.04883761276891048,0.7841225626740947,0.6915480846578458,0.31033311635015426,0.09194839131144862
mlwiki,False,27.0,0.050157586672669965,0.775766016713092,0.7029486005936035,0.2985311182180964,0.09422312441850629
mlwiki,False,28.0,0.05161952767665453,0.7701949860724234,0.7136001775262822,0.28754988254606173,0.09675443968156766
mlwiki,False,29.0,0.05317806889859292,0.7632311977715878,0.7246400932012982,0.27614411456711857,0.09942846774925157
mlwiki,False,30.0,0.05438950554994955,0.7506963788300836,0.7350975007628082,0.26521948320267175,0.10143018441851713
mlwiki,False,31.0,0.05589473684210526,0.7395543175487466,0.7460264625114421,0.25384201737752243,0.10393423370522607
mlwiki,False,32.0,0.0573339180004385,0.7284122562674095,0.7560677928490195,0.24337022047377804,0.10630081300813007
mlwiki,False,33.0,0.059104341895885426,0.724233983286908,0.764888629996394,0.23428522910593497,0.1092896174863388
mlwiki,False,34.0,0.06029498525073746,0.7116991643454039,0.7733488668830268,0.2253983528146492,0.11117154356575654
mlwiki,False,35.0,0.061879671608871464,0.7033426183844012,0.7817258883248731,0.21668128944612686,0.11375154859781508
mlwiki,False,36.0,0.06334094947956334,0.6949860724233984,0.7892430168372583,0.20884159284521553,0.11610051186598418
mlwiki,False,37.0,0.0647586388815616,0.6838440111420613,0.7970097916840032,0.20069057255257125,0.11831325301204819
mlwiki,False,38.0,0.06607629427792916,0.6754874651810585,0.8033896424509722,0.19401126425720996,0.12037726482998264
mlwiki,False,39.0,0.06757900677200902,0.6671309192200557,0.8100468780338964,0.18704893442390966,0.12272610812195746
mlwiki,False,40.0,0.0697878566203365,0.6643454038997214,0.8169537599511802,0.17994509382163984,0.1263074275122468
mlwiki,False,41.0,0.07070401211203634,0.6504178272980501,0.8227788410862389,0.17371861998698102,0.1275433565478629
mlwiki,False,42.0,0.07213423239767916,0.6406685236768802,0.8287148761476797,0.1674638439985283,0.12966878083157155
mlwiki,False,43.0,0.07363151945745196,0.6350974930362117,0.8335968489084907,0.16236945631562563,0.13196353639126032
mlwiki,False,44.0,0.07533333333333334,0.6295264623955432,0.8387284680036615,0.15702034924857783,0.13456385829115808
mlwiki,False,45.0,0.07767826386496728,0.628133704735376,0.8440542564700009,0.1515580335663544,0.13825873697118332
mlwiki,False,46.0,0.07992168031327875,0.6253481894150418,0.849158137083576,0.14629383296068832,0.14172979797979798
mlwiki,False,47.0,0.08174136664217486,0.6197771587743732,0.853762725028432,0.14148246681572468,0.14443362544628366
mlwiki,False,48.0,0.08336505519604111,0.6100278551532033,0.858644697789243,0.1363031726714403,0.1466845277963831
mlwiki,False,49.0,0.08535630383711824,0.6072423398328691,0.8625835621758065,0.13222766252511817,0.1496738757294885
mlwiki,False,50.0,0.08765182186234818,0.6030640668523677,0.8670771961942804,0.12755780714912404,0.15305761753269706
mlwiki,False,51.0,0.089401888772298,0.5933147632311978,0.8715430917311586,0.12280304531174822,0.155389385372971
mlwiki,False,52.0,0.09193408499566348,0.5905292479108635,0.8756761254888907,0.11852942008886876,0.15909943714821764
mlwiki,False,53.0,0.09337483325922633,0.584958217270195,0.8786164045380156,0.11541618317153936,0.16104294478527606
mlwiki,False,54.0,0.0955340699815838,0.5779944289693594,0.8826107458877701,0.1111991622562477,0.16396681153694193
mlwiki,False,55.0,0.0974103112378237,0.5710306406685237,0.8860780560872098,0.10751988226304021,0.16642987619240918
mlwiki,False,56.0,0.09899534427836315,0.5626740947075209,0.8892957199522898,0.10406701950018396,0.16836841008543446
mlwiki,False,57.0,0.10063051702395964,0.5557103064066853,0.8922359990014147,0.10092548042906065,0.17040358744394618
mlwiki,False,58.0,0.10186142709410548,0.5487465181058496,0.8946492469002247,0.09832168228002151,0.17182730047972086
mlwiki,False,59.0,0.1039787798408488,0.5459610027855153,0.8972566641702033,0.09560467551580676,0.1746880570409982
mlwiki,False,60.0,0.1062894809118374,0.5389972144846796,0.9005575434800699,0.09209520844536269,0.1775636613902271
mlwiki,False,61.0,0.10899801305705364,0.5348189415041783,0.9036642534187679,0.08884046075906377,0.18108936571563308
mlwiki,False,62.0,0.11009445100354191,0.5194986072423399,0.9067987018390613,0.08533099368861971,0.181685338528982
mlwiki,False,63.0,0.11179361179361179,0.5069637883008357,0.9099608887409503,0.08184982877196954,0.1831907398087569
mlwiki,False,64.0,0.11468620579802485,0.5013927576601671,0.9129843832348618,0.07865168539325842,0.18667358050298158
mlwiki,False,65.0,0.11499176276771005,0.4860724233983287,0.9152589387256942,0.07601958509042538,0.1859845456967759
mlwiki,False,66.0,0.11592226389362427,0.4735376044568245,0.9175889711797176,0.07338748478759234,0.18625034237195287
mlwiki,False,67.0,0.11741752394466123,0.4610027855153203,0.9202518654128873,0.07041575863923244,0.18716426350014134
mlwiki,False,68.0,0.11862527716186252,0.44707520891364905,0.9228315442012704,0.06750063679846036,0.1875
mlwiki,False,69.0,0.12072279892349097,0.4373259052924791,0.9253557460264625,0.0647270257266578,0.18921361855980717
mlwiki,False,70.0,0.12086158755484643,0.4220055710306407,0.9273529167013398,0.06237794696176379,0.18790697674418605
mlwiki,False,71.0,0.12203248646397334,0.40807799442896936,0.9297384261185543,0.059660940197549035,0.18788073100352679
mlwiki,False,72.0,0.12483745123537061,0.4011142061281337,0.9320684585725777,0.0571420485098916,0.19041322314049586
mlwiki,False,73.0,0.12704918032786885,0.38857938718662954,0.9346481373609609,0.05425522882291342,0.1914893617021277
mlwiki,False,74.0,0.1291866028708134,0.37604456824512533,0.9370891237413664,0.05150991990490476,0.19230769230769232
mlwiki,False,75.0,0.13218970736629668,0.3649025069637883,0.939641064048154,0.04867970452551439,0.19407407407407407
mlwiki,False,76.0,0.13286334056399132,0.3412256267409471,0.9425258661340878,0.045255143916452044,0.1912568306010929
mlwiki,False,77.0,0.13321799307958476,0.32172701949860727,0.9448004216249203,0.04253813715223728,0.18841761827079934
mlwiki,False,78.0,0.13795217657878603,0.31337047353760444,0.9473246234501124,0.039792828234228625,0.19157088122605362
mlwiki,False,79.0,0.1394736842105263,0.29526462395543174,0.9496823943857313,0.03701921716242606,0.18945487042001785
mlwiki,False,80.0,0.13771626297577855,0.27715877437325903,0.9510415799839117,0.03526448362720403,0.18400369856680535
mlwiki,False,81.0,0.1411589895988113,0.2646239554317549,0.9532883969931486,0.032717289785752696,0.18410852713178294
mlwiki,False,82.0,0.14570063694267515,0.25487465181058494,0.9553965215944079,0.03036821102085869,0.18541033434650453
mlwiki,False,83.0,0.15175438596491228,0.24094707520891365,0.9580594158275776,0.027368182718704892,0.18622174381054898
mlwiki,False,84.0,0.15281757402101243,0.22284122562674094,0.9599178940944773,0.025104010415192595,0.18130311614730876
mlwiki,False,85.0,0.15084388185654007,0.1991643454038997,0.961720895398186,0.02278323380409249,0.17166866746698678
mlwiki,False,86.0,0.15402567094515754,0.18384401114206128,0.9636348506282766,0.020519061500580194,0.16761904761904764
mlwiki,False,87.0,0.15584415584415584,0.1671309192200557,0.9653823749687942,0.018396399966037414,0.16129032258064516
mlwiki,False,88.0,0.16592592592592592,0.15598885793871867,0.9675737150148401,0.015934112585967792,0.16080402010050254
mlwiki,False,89.0,0.1692047377326565,0.1392757660167131,0.9692380239105711,0.013896357512806724,0.15278838808250572
mlwiki,False,90.0,0.18482490272373542,0.13231197771587744,0.9710965021774708,0.011858602439645658,0.15422077922077923
mlwiki,False,91.0,0.21395348837209302,0.12813370473537605,0.9732601037419212,0.009566127982339455,0.16027874564459932
mlwiki,False,92.0,0.24079320113314448,0.11838440111420613,0.9750076280824388,0.007584977216766196,0.15873015873015872
mlwiki,False,93.0,0.25547445255474455,0.09749303621169916,0.9763668136806192,0.005773639373956358,0.14112903225806453
mlwiki,False,94.0,0.2955665024630542,0.08356545961002786,0.9777814762419905,0.004047207992528231,0.13029315960912052
mlwiki,False,95.0,0.3357142857142857,0.06545961002785515,0.9788078000610246,0.0026321003028330456,0.10955710955710955
mlwiki,False,96.0,0.42168674698795183,0.04874651810584958,0.9797231699536767,0.0013585033821073783,0.08739076154806492
mlwiki,False,97.0,0.5192307692307693,0.037604456824512536,0.9801392471776095,0.0007075538448475929,0.07012987012987014
mlwiki,False,98.0,0.6060606060606061,0.027855153203342618,0.9802779395855871,0.0003679279993207483,0.05326231691078562
mlwiki,False,99.0,0.7272727272727273,0.011142061281337047,0.9802224626223961,8.490646138171115e-05,0.021947873799725647
