wiki_db,user_is_anonymous,threshold,precision,recall,accuracy,fpr,F1
mswiki,True,0.0,0.0694107575973748,1.0,0.0694107575973748,1.0,0.12981122006537257
mswiki,True,1.0,0.0694107575973748,1.0,0.0694107575973748,1.0,0.12981122006537257
mswiki,True,2.0,0.0694107575973748,1.0,0.0694107575973748,1.0,0.12981122006537257
mswiki,True,3.0,0.0694107575973748,1.0,0.0694107575973748,1.0,0.12981122006537257
mswiki,True,4.0,0.0694107575973748,1.0,0.0694107575973748,1.0,0.12981122006537257
mswiki,True,5.0,0.0694107575973748,1.0,0.0694107575973748,1.0,0.12981122006537257
mswiki,True,6.0,0.0694107575973748,1.0,0.0694107575973748,1.0,0.12981122006537257
mswiki,True,7.0,0.0694107575973748,1.0,0.0694107575973748,1.0,0.12981122006537257
mswiki,True,8.0,0.06941158286468427,1.0,0.06942264707281115,0.999987223712789,0.12981266329423538
mswiki,True,9.0,0.0694124081516182,1.0,0.0694345365482475,0.9999744474255782,0.1298141065551899
mswiki,True,10.0,0.06941488413017372,1.0,0.06947020497455653,0.9999361185639453,0.12981843653061453
mswiki,True,11.0,0.06941619988821102,0.9998287084618019,0.06963665763066533,0.9997444742557813,0.1298192938559911
mswiki,True,12.0,0.06938760944042634,0.9991435423090099,0.06981499976221049,0.9995017247987735,0.12976352027763566
mswiki,True,13.0,0.06940825093111531,0.9991435423090099,0.07011223664811908,0.9991823176185001,0.1297996150294291
mswiki,True,14.0,0.06942807831934773,0.9991435423090099,0.07039758405859134,0.9988756867254376,0.1298342848875385
mswiki,True,15.0,0.0694406402210287,0.9988009592326139,0.07087316307604509,0.9983390826625782,0.12985335545435311
mswiki,True,16.0,0.0694485806520781,0.9986296676944159,0.07113473153564465,0.9980452280567267,0.12986579049952665
mswiki,True,17.0,0.06945123041172616,0.9982870846180198,0.07146763684786227,0.9976619394403986,0.12986752531948795
mswiki,True,18.0,0.06946663169690756,0.9981157930798219,0.07183621058638893,0.9972530982496487,0.12989300044583146
mswiki,True,19.0,0.06948287377158668,0.9979445015416238,0.07221667380035193,0.9968314807716877,0.1299199429119372
mswiki,True,20.0,0.06949217258495609,0.9976019184652278,0.0726446949160603,0.9963459818576722,0.12993329317537872
mswiki,True,21.0,0.0695059503204937,0.9974306269270298,0.07298948970371427,0.995962693241344,0.12995592255760754
mswiki,True,22.0,0.06952471936947695,0.9972593353888318,0.0734056213439863,0.9955027469017503,0.12998727366094354
mswiki,True,23.0,0.06954599761051374,0.9970880438506338,0.07385742141056736,0.9950044717005239,0.13002300699144495
mswiki,True,24.0,0.06956116337728474,0.9967454607742378,0.07436866885433015,0.9944295387760317,0.1300465968644892
mswiki,True,25.0,0.06959746396315569,0.9965741692360397,0.0750344794787654,0.9937012904050083,0.1301085728981472
mswiki,True,26.0,0.06961654036322715,0.9960602946214457,0.07574784800494602,0.9928963843107194,0.1301375227992436
mswiki,True,27.0,0.06966294827400281,0.9958890030832477,0.0765563323346174,0.9920148204931647,0.13021714055343406
mswiki,True,28.0,0.06968461446216573,0.9953751284686536,0.07730536928710706,0.9911715855372428,0.13025059398395125
mswiki,True,29.0,0.06970631653484716,0.9948612538540597,0.07805440623959671,0.9903283505813211,0.13028409919357553
mswiki,True,30.0,0.06975487311290729,0.9948612538540597,0.07874399581490464,0.9895873259230867,0.13036890719520544
mswiki,True,31.0,0.06981692291048096,0.9948612538540597,0.07962381699719408,0.9886418806694774,0.13047727094027656
mswiki,True,32.0,0.06987377717881767,0.9946899623158616,0.08057497503210158,0.9876070014053916,0.13057507448423183
mswiki,True,33.0,0.069949278941725,0.9945186707776635,0.08178770152660865,0.9862910438226651,0.13070541754370166
mswiki,True,34.0,0.06999939697280347,0.9941760877012675,0.08278641746326153,0.9851922831225246,0.13078994512861536
mswiki,True,35.0,0.07003754814251391,0.9936622130866736,0.0837613544490417,0.984106298709595,0.13085208368578358
mswiki,True,36.0,0.07011966638462468,0.9936622130866736,0.08491463356636705,0.9828669988501342,0.13099539337006594
mswiki,True,37.0,0.07018520760198523,0.9931483384720795,0.08627003376611024,0.9813721732464545,0.13110528219971057
mswiki,True,38.0,0.07022924824517802,0.9922918807810894,0.08761354449041708,0.979864571355564,0.1311746391168978
mswiki,True,39.0,0.07031667395211035,0.9919492977046934,0.08912350787083274,0.9782164303053532,0.1313241263578021
mswiki,True,40.0,0.07040712096891873,0.9917780061664954,0.09052646597232131,0.9766960521272519,0.13148034607262077
mswiki,True,41.0,0.07047503045066991,0.9910928400137033,0.0920483188281733,0.9750095822154082,0.13159271304782916
mswiki,True,42.0,0.07055622659004673,0.9905789653991093,0.09360584011033433,0.9732975597291427,0.13172970695094588
mswiki,True,43.0,0.07067954045465656,0.9905789653991093,0.09530603509773149,0.9714705506579788,0.1319446028884985
mswiki,True,44.0,0.07075159797222834,0.9897225077081192,0.09701811956056498,0.9695668838635493,0.132062534284147
mswiki,True,45.0,0.07087821755453587,0.9895512161699213,0.0988966566795073,0.9675354541970104,0.13228155339805828
mswiki,True,46.0,0.07098329009332464,0.9888660500171291,0.1009059780282494,0.9653251565095183,0.13245838448036526
mswiki,True,47.0,0.0710158319472679,0.987324426173347,0.10264184144195558,0.9633448319918232,0.1325011781202947
mswiki,True,48.0,0.07107495154261163,0.986125385405961,0.10444904170827983,0.9613134023252843,0.1325932494213296
mswiki,True,49.0,0.0710972004008264,0.9844124700239808,0.10618490512198601,0.9593203015203782,0.1326164461007719
mswiki,True,50.0,0.07113899254887861,0.9828708461801987,0.10803966329005564,0.9572122141305737,0.13267512168052073
mswiki,True,51.0,0.07112513353042009,0.9808153477218226,0.10957340562134399,0.9554107576338317,0.13263226165107014
mswiki,True,52.0,0.07089487185873328,0.9751627269612881,0.11121415323155942,0.9532260125207614,0.13218017181332714
mswiki,True,53.0,0.07083468577563606,0.9719081877355259,0.11314024825224711,0.950913504535582,0.13204561321852457
mswiki,True,54.0,0.0708806267128859,0.9701952723535457,0.11519712750273457,0.9485754439759806,0.1321095781776622
mswiki,True,55.0,0.07093310587910641,0.9686536485097637,0.11719455937604033,0.9463140411396448,0.13218639333341123
mswiki,True,56.0,0.07095971027614305,0.9665981500513875,0.11927521757740049,0.9439248754311997,0.1322133970619245
mswiki,True,57.0,0.07097481660742645,0.9645426515930113,0.12120131259808817,0.9417018014564967,0.13222034375880531
mswiki,True,58.0,0.07095991201122616,0.961459403905447,0.12359109716079326,0.9389037945573017,0.1321654363719846
mswiki,True,59.0,0.07094303251661341,0.9582048646796848,0.1260997764778618,0.9359652484987863,0.13210532530405006
mswiki,True,60.0,0.07089148716904795,0.9544364508393285,0.12858467684405764,0.9330139261530599,0.1319800561365278
mswiki,True,61.0,0.07089990301669134,0.9516957862281603,0.1309982403576354,0.9302159192538648,0.13196836179663193
mswiki,True,62.0,0.07078195623503503,0.946899623158616,0.13348314072383127,0.9271879391848729,0.13171783599604467
mswiki,True,63.0,0.07075641487118836,0.9427886262418637,0.13661007276358966,0.9235211447553341,0.13163370243704112
mswiki,True,64.0,0.07067251839421712,0.9378211716341213,0.13970133637703905,0.9198287977513735,0.13143995774715514
mswiki,True,65.0,0.07070720165942827,0.934224049331963,0.14318495267988776,0.9158170435671394,0.13146445229170933
mswiki,True,66.0,0.07068141258613728,0.9294278862624187,0.146894469016027,0.911473105915421,0.13137219296652744
mswiki,True,67.0,0.07072758480627875,0.9246317231928742,0.15153136443620108,0.9061326178612495,0.13140374152557846
mswiki,True,68.0,0.07075104550071899,0.9186365193559438,0.15688162838255576,0.8999361185639453,0.1313832849495952
mswiki,True,69.0,0.07098326443259913,0.9146968139773896,0.16313549246207257,0.8929219368851412,0.1317428793467132
mswiki,True,70.0,0.07109328898664234,0.908016443987667,0.17011461454320637,0.8849239810910949,0.13186239148279894
mswiki,True,71.0,0.07109017569506483,0.8996231586159644,0.17710562609977648,0.8767854861377283,0.13176777560339203
mswiki,True,72.0,0.0714217341957363,0.894655704008222,0.18532125362629,0.867586559345854,0.13228310560107387
mswiki,True,73.0,0.07184377335510837,0.8891743747858856,0.19496361820516478,0.8568161492270346,0.13294575628745584
mswiki,True,74.0,0.07235835147089799,0.8826652963343611,0.20641318305036382,0.8440270857288872,0.1337520927154037
mswiki,True,75.0,0.07280632974552713,0.8747858855772525,0.218041090027108,0.8309441676248882,0.13442480554860955
mswiki,True,76.0,0.07340792486738747,0.867591640972936,0.2306796024159414,0.8168263702568034,0.13536265968250577
mswiki,True,77.0,0.07384569995574569,0.8574854402192532,0.2436391306415561,0.8021464162514373,0.1359808768403325
mswiki,True,78.0,0.07435951470632507,0.8461801986981843,0.25819184857564087,0.7856650057493293,0.13670577817135265
mswiki,True,79.0,0.07506549545384497,0.8343610825625214,0.27490845103914013,0.7668199821131979,0.13773894355842098
mswiki,True,80.0,0.07550062429865183,0.8182596779719082,0.29192229038854806,0.7473361441165197,0.13824538048589907
mswiki,True,81.0,0.07626430057202288,0.8038711887632751,0.3105530983972987,0.7262424939312636,0.13931190073322053
mswiki,True,82.0,0.07671939938329535,0.7841726618705036,0.3299805012602844,0.7038967675993356,0.13976492138604793
mswiki,True,83.0,0.07756762394826507,0.7643028434395341,0.35276073619631904,0.6779353519867126,0.1408415138411035
mswiki,True,84.0,0.0785005792064871,0.7428914011647825,0.3768488134303514,0.6504535581959883,0.14199652948302394
mswiki,True,85.0,0.07951551452887769,0.7185680027406646,0.4030888857183621,0.6204420595374984,0.14318627869272121
mswiki,True,86.0,0.08063095524061174,0.6899623158615964,0.43242022161982213,0.5867893190238916,0.14438828547872531
mswiki,True,87.0,0.08181741084679642,0.6610140459061322,0.461573215389737,0.5533026702440271,0.14561165195079617
mswiki,True,88.0,0.08315837517115472,0.6241863651935594,0.49624292576211537,0.5133001149865849,0.14676386483547463
mswiki,True,89.0,0.08467863230722952,0.578622816032888,0.5366195843439387,0.46651335122013543,0.1477367155040455
mswiki,True,90.0,0.08843345643165225,0.5373415553271669,0.5834284491368241,0.4131340232528427,0.15187238265837189
mswiki,True,91.0,0.09403639261522115,0.4850976361767729,0.6398677890331479,0.34858822026319153,0.15753462757968514
mswiki,True,92.0,0.10060072086503805,0.4302843439534087,0.6934417653493128,0.286929858183212,0.16307452609711762
mswiki,True,93.0,0.11198458183293604,0.37821171634121276,0.7486683787511295,0.2237000127762872,0.17280375660340444
mswiki,True,94.0,0.12997720874111812,0.33213429256594723,0.7993294335853902,0.16582343171074485,0.1868375409520139
mswiki,True,95.0,0.16099311414993697,0.2843439534087016,0.847469919627146,0.11052766066181167,0.20558548516936034
mswiki,True,96.0,0.21713021491782553,0.23535457348406988,0.8880249203405146,0.06329372684297943,0.2258753904323524
mswiki,True,97.0,0.3251440703670003,0.18362452894826994,0.9168806772245208,0.028427239044333717,0.23470169677066227
mswiki,True,98.0,0.5706214689265536,0.13840356286399452,0.9329671374898939,0.007767982624249393,0.22277364212848083
mswiki,True,99.0,0.7879699248120301,0.08975676601575883,0.9351429114947448,0.0018014564967420467,0.1611563893587575
mswiki,False,0.0,0.03412720581984236,1.0,0.03412720581984236,1.0,0.06600194952377597
mswiki,False,1.0,0.0341504320455015,1.0,0.034807320953618576,0.9992958543424412,0.0660453856368914
mswiki,False,2.0,0.03446668057276776,0.999644128113879,0.04430464300027933,0.9894503891662161,0.06663582772894946
mswiki,False,3.0,0.03477270194296187,0.999288256227758,0.053340458349020514,0.9800827371147631,0.06720677811950265
mswiki,False,4.0,0.03511734974728519,0.998932384341637,0.0632871421804977,0.9697720328433653,0.06784945976650311
mswiki,False,5.0,0.03557924121304403,0.997864768683274,0.07684086520360947,0.955701693721787,0.06870864984072532
mswiki,False,6.0,0.03621595053935898,0.99644128113879,0.09491249590109183,0.9369412415596826,0.06989166791473217
mswiki,False,7.0,0.03693948859124358,0.9932384341637011,0.11604464470056716,0.914949263790567,0.07122987009672563
mswiki,False,8.0,0.037721793308953,0.9911032028469751,0.13686102575936068,0.89332193287983,0.07267745302713986
mswiki,False,9.0,0.038475942133514573,0.9871886120996441,0.15764097207884478,0.8716694539098945,0.07406517414927843
mswiki,False,10.0,0.03922570390554042,0.9836298932384342,0.1772307169142205,0.8512618038702863,0.07544285831263478
mswiki,False,11.0,0.039922683408905944,0.9775800711743772,0.1969297659675245,0.8306529693570899,0.07671255829540059
mswiki,False,12.0,0.04074829223282187,0.9743772241992883,0.21632519219324986,0.8104590778206692,0.07822521891918917
mswiki,False,13.0,0.04156102031464793,0.9683274021352313,0.2368379504244647,0.789007783324322,0.079701230228471
mswiki,False,14.0,0.042378053551587615,0.9637010676156583,0.25557755134262017,0.7694425932678646,0.08118601130248385
mswiki,False,15.0,0.043213741070711936,0.9580071174377224,0.27469364456697315,0.7494498862050322,0.0826971814760771
mswiki,False,16.0,0.04408199614097003,0.9512455516014234,0.29436840379407087,0.7288410516918357,0.08425930304033287
mswiki,False,17.0,0.044979593219190844,0.9451957295373665,0.3132415987563609,0.7090872511913893,0.08587271051908373
mswiki,False,18.0,0.045847961347283535,0.9387900355871887,0.33115534558350235,0.6903142249996856,0.08742626101942069
mswiki,False,19.0,0.04682507096060125,0.9334519572953737,0.3492634110202941,0.6713777364231915,0.08917673857242422
mswiki,False,20.0,0.04772919190806623,0.9252669039145908,0.36744434593570485,0.6522652114323078,0.09077578381397947
mswiki,False,21.0,0.048783717323043166,0.9177935943060498,0.38646327985523266,0.6323102264582731,0.09264314965155543
mswiki,False,22.0,0.04984326629154417,0.9110320284697508,0.4042798673775489,0.6136252184737643,0.09451551568182238
mswiki,False,23.0,0.05078125,0.902135231316726,0.421173441504026,0.5958203925612041,0.09615019912763133
mswiki,False,24.0,0.05179422628505396,0.8932384341637011,0.4382856240663598,0.5777892341158571,0.09791109984201596
mswiki,False,25.0,0.052776717152433074,0.8854092526690391,0.4537703882728719,0.5614807177256095,0.09961563100576554
mswiki,False,26.0,0.05388659816305605,0.8790035587188612,0.46918228300076514,0.5452979416313546,0.10154788578946286
mswiki,False,27.0,0.05474559137369426,0.8672597864768683,0.48443629385831743,0.5290900174779012,0.10298996302165873
mswiki,False,28.0,0.05562751538141278,0.8558718861209964,0.49921665310484703,0.5133850545084183,0.10446529406654505
mswiki,False,29.0,0.05651842681649367,0.8448398576512456,0.5134019116093225,0.49830879301889874,0.10594903378408534
mswiki,False,30.0,0.05739736448185321,0.8323843416370107,0.527769343810345,0.48299362496699316,0.10738963751979982
mswiki,False,31.0,0.05814804532720894,0.8199288256227758,0.5406186618734743,0.4692502106149958,0.10859472580303066
mswiki,False,32.0,0.059225571725571725,0.8110320284697509,0.5538930518952137,0.45519244552301674,0.11038992492128845
mswiki,False,33.0,0.06016747371518767,0.800355871886121,0.5665359064355895,0.44172565982220324,0.1119211724601259
mswiki,False,34.0,0.06128026057912607,0.7900355871886121,0.579822441370432,0.4276050245822279,0.11373824832850886
mswiki,False,35.0,0.0623239136002732,0.7793594306049823,0.5923074120404669,0.4143017012662048,0.11541806108197844
mswiki,False,36.0,0.06340919755983107,0.7693950177935943,0.6042944412732727,0.40153906122295013,0.11716252099929551
mswiki,False,37.0,0.06427751947346175,0.7576512455516015,0.6153220223709299,0.3897068993700411,0.11850161416008015
mswiki,False,38.0,0.06516665110633928,0.7451957295373666,0.6264831975127217,0.37771127513234165,0.11985233093895774
mswiki,False,39.0,0.0664246940545402,0.7359430604982207,0.6379965751345049,0.3654641703026569,0.12185133900951596
mswiki,False,40.0,0.0676746576478,0.7263345195729537,0.6491698951893999,0.3535565642721523,0.12381327914101126
mswiki,False,41.0,0.06863549357396773,0.7145907473309608,0.6593351874567337,0.34261715852079117,0.12524168901640365
mswiki,False,42.0,0.07007515613422251,0.7067615658362989,0.6699134067695746,0.3313885500886469,0.1275079451702995
mswiki,False,43.0,0.07108003787051198,0.6946619217081851,0.6797629312962266,0.3207634950772674,0.12896405919661733
mswiki,False,44.0,0.07226972697269728,0.6857651245551601,0.6888473262973803,0.31104377019703505,0.13075931329307186
mswiki,False,45.0,0.0732576608685546,0.6729537366548043,0.6983082136047316,0.30079593607363353,0.13213150263773887
mswiki,False,46.0,0.07425504645946812,0.6597864768683274,0.7076719416072578,0.29063612015742685,0.13348693210454315
mswiki,False,47.0,0.07568171473496917,0.6508896797153025,0.716792771347721,0.2808786731883967,0.1355969900285428
mswiki,False,48.0,0.07705472125957301,0.6409252669039146,0.7257557172178433,0.2712469665153592,0.137570179123859
mswiki,False,49.0,0.07890184946999601,0.6330960854092527,0.735253039264504,0.26113744671754957,0.14031628347201955
mswiki,False,50.0,0.08011569716725586,0.6209964412811388,0.7437301886105004,0.2519332570508871,0.14192184132406163
mswiki,False,51.0,0.08146987608602763,0.61067615658363,0.7517458312585773,0.24326975065699305,0.14376073388346666
mswiki,False,52.0,0.08285012285012285,0.6,0.7596764595149321,0.2346816884406946,0.1455958549222798
mswiki,False,53.0,0.08343508343508343,0.5836298932384342,0.7669876972030265,0.22653371726037044,0.14599839757856314
mswiki,False,54.0,0.08458864426419467,0.5715302491103202,0.7742989348911209,0.21853663443523746,0.14736648926408516
mswiki,False,55.0,0.08554894360430201,0.5576512455516014,0.7814765785350806,0.21061499578770007,0.14834098546883137
mswiki,False,56.0,0.08724186704384725,0.5487544483985766,0.7886663670921434,0.20285681952495316,0.15054918232853307
mswiki,False,57.0,0.08865580686745576,0.5384341637010677,0.7953582142119773,0.19556388235737907,0.15224391225598713
mswiki,False,58.0,0.09013450185624734,0.5270462633451958,0.8022929595938741,0.18798174250902186,0.1539421028013097
mswiki,False,59.0,0.09189018617860524,0.5181494661921708,0.8088026330171607,0.18092771190383383,0.15609756097560976
mswiki,False,60.0,0.09439547427970003,0.5106761565836299,0.816101725792152,0.17310666549309056,0.15933821896513434
mswiki,False,61.0,0.09666598206339426,0.502491103202847,0.8227692830857796,0.1659143205623106,0.16214043750358842
mswiki,False,62.0,0.09899090392268334,0.49572953736654807,0.8288053048980435,0.1594261212890895,0.1650278403032816
mswiki,False,63.0,0.10157060305230405,0.4879003558718861,0.8352421088427112,0.15248525695029486,0.1681383370125092
mswiki,False,64.0,0.10417310664605874,0.4797153024911032,0.8414603043515224,0.14575815111468773,0.17117460317460317
mswiki,False,65.0,0.1064684612294094,0.47153024911032027,0.8469133703348353,0.13982320914383434,0.17371353654539493
mswiki,False,66.0,0.10842466326445244,0.46120996441281137,0.852184262621601,0.13400143343937432,0.1755740703109124
mswiki,False,67.0,0.11069434752267969,0.4516014234875445,0.8574672998214697,0.12819223176451358,0.17780580075662042
mswiki,False,68.0,0.11375227686703096,0.44448398576512455,0.862859641239267,0.12235788203045429,0.18114575779550396
mswiki,False,69.0,0.11646586345381527,0.43345195729537367,0.8684463012667144,0.11618403349721486,0.18359963822731384
mswiki,False,70.0,0.11927156293776266,0.42419928825622777,0.8734500054652109,0.11067660853273649,0.18619181505779442
mswiki,False,71.0,0.1210016835016835,0.4092526690391459,0.8783808401850884,0.10504344327226546,0.1867792756212441
mswiki,False,72.0,0.12479329732113328,0.402846975088968,0.8832023706870378,0.0998252209885702,0.1905563504755492
mswiki,False,73.0,0.1280776788810542,0.3943060498220641,0.8877202783614083,0.094845905267261,0.1933513655003926
mswiki,False,74.0,0.13193093385214008,0.3861209964412811,0.8923474902537072,0.08976599730915767,0.1966648540873663
mswiki,False,75.0,0.1362993442201363,0.37722419928825623,0.8971690207556565,0.08445975681826755,0.20024558420704638
mswiki,False,76.0,0.14054861488321566,0.3683274021352313,0.9015776242120987,0.07958103333375247,0.20345979948889326
mswiki,False,77.0,0.14514038876889848,0.35871886120996443,0.9060105174947474,0.07465201373084032,0.20666324961558175
mswiki,False,78.0,0.1491160645657187,0.34519572953736655,0.9104312658642928,0.06959725383193552,0.2082662372517445
mswiki,False,79.0,0.15344433561867452,0.33451957295373663,0.9143054931441965,0.0652089175017918,0.2103849597135184
mswiki,False,80.0,0.15747485258411378,0.3231316725978648,0.917900387422728,0.06108463579323266,0.2117537313432836
mswiki,False,81.0,0.16046165301563664,0.30676156583629893,0.9215681511798783,0.0567088734926882,0.21070642874602788
mswiki,False,82.0,0.16231826329416452,0.2900355871886121,0.924689393847387,0.052886368494511435,0.20814710764908695
mswiki,False,83.0,0.16645105648986633,0.27473309608540925,0.9282964330390217,0.04861119843076111,0.20730397422126748
mswiki,False,84.0,0.17350746268656717,0.26476868327402137,0.9318670374913467,0.04456236089979756,0.20963651732882504
mswiki,False,85.0,0.178544061302682,0.24875444839857652,0.9353040478995372,0.040438079191238416,0.2078810408921933
mswiki,False,86.0,0.18410744264129827,0.23416370106761566,0.9384495803932523,0.036665870311458716,0.20614035087719298
mswiki,False,87.0,0.19326952763198518,0.22277580071174377,0.9417408518442051,0.03285593934288121,0.2069763597288808
mswiki,False,88.0,0.20424495476687543,0.20889679715302492,0.9452264419048082,0.028756805693520602,0.20654468684025334
mswiki,False,89.0,0.21448248720975993,0.19395017793594305,0.9482505252674918,0.02509776308013429,0.2037002429452439
mswiki,False,90.0,0.22820629849383842,0.17793594306049823,0.9514082026743098,0.02126268405235826,0.19996000799840033
mswiki,False,91.0,0.24093816631130063,0.1608540925266904,0.954067938643899,0.017905418149354323,0.19291506615450277
mswiki,False,92.0,0.25362776025236594,0.14306049822064057,0.9563876170466,0.014875077015931295,0.18293515358361775
mswiki,False,93.0,0.26880877742946707,0.12206405693950179,0.9587072954493011,0.011731569616114877,0.1678903573176701
mswiki,False,94.0,0.2724580454096742,0.09822064056939502,0.9602739892396069,0.009267059814658803,0.14438922312320168
mswiki,False,95.0,0.2804718217562254,0.07615658362989323,0.9618042482906035,0.006903142249996857,0.11978729359082002
mswiki,False,96.0,0.31001890359168244,0.058362989323843414,0.9634316666464251,0.004589520803731972,0.09823300389338126
mswiki,False,97.0,0.36826347305389223,0.043772241992882564,0.9648040418270807,0.0026531202454450576,0.07824427480916031
mswiki,False,98.0,0.4810126582278481,0.02704626334519573,0.9657999247015387,0.0010310704271397854,0.05121293800539083
mswiki,False,99.0,0.6341463414634146,0.009252669039145907,0.9660063882242923,0.00018861044398898514,0.01823921431076815
