wiki_db,user_is_anonymous,threshold,precision,recall,accuracy,fpr,F1
mznwiki,True,0.0,0.484375,1.0,0.484375,1.0,0.6526315789473685
mznwiki,True,1.0,0.484375,1.0,0.484375,1.0,0.6526315789473685
mznwiki,True,2.0,0.484375,1.0,0.484375,1.0,0.6526315789473685
mznwiki,True,3.0,0.484375,1.0,0.484375,1.0,0.6526315789473685
mznwiki,True,4.0,0.484375,1.0,0.484375,1.0,0.6526315789473685
mznwiki,True,5.0,0.484375,1.0,0.484375,1.0,0.6526315789473685
mznwiki,True,6.0,0.484375,1.0,0.484375,1.0,0.6526315789473685
mznwiki,True,7.0,0.484375,1.0,0.484375,1.0,0.6526315789473685
mznwiki,True,8.0,0.484375,1.0,0.484375,1.0,0.6526315789473685
mznwiki,True,9.0,0.484375,1.0,0.484375,1.0,0.6526315789473685
mznwiki,True,10.0,0.484375,1.0,0.484375,1.0,0.6526315789473685
mznwiki,True,11.0,0.484375,1.0,0.484375,1.0,0.6526315789473685
mznwiki,True,12.0,0.484375,1.0,0.484375,1.0,0.6526315789473685
mznwiki,True,13.0,0.484375,1.0,0.484375,1.0,0.6526315789473685
mznwiki,True,14.0,0.484375,1.0,0.484375,1.0,0.6526315789473685
mznwiki,True,15.0,0.484375,1.0,0.484375,1.0,0.6526315789473685
mznwiki,True,16.0,0.484375,1.0,0.484375,1.0,0.6526315789473685
mznwiki,True,17.0,0.484375,1.0,0.484375,1.0,0.6526315789473685
mznwiki,True,18.0,0.484375,1.0,0.484375,1.0,0.6526315789473685
mznwiki,True,19.0,0.484375,1.0,0.484375,1.0,0.6526315789473685
mznwiki,True,20.0,0.484375,1.0,0.484375,1.0,0.6526315789473685
mznwiki,True,21.0,0.48532289628180036,1.0,0.486328125,0.9962121212121212,0.6534914361001317
mznwiki,True,22.0,0.48532289628180036,1.0,0.486328125,0.9962121212121212,0.6534914361001317
mznwiki,True,23.0,0.48532289628180036,1.0,0.486328125,0.9962121212121212,0.6534914361001317
mznwiki,True,24.0,0.48627450980392156,1.0,0.48828125,0.9924242424242424,0.6543535620052771
mznwiki,True,25.0,0.48722986247544203,1.0,0.490234375,0.9886363636363636,0.6552179656538969
mznwiki,True,26.0,0.48722986247544203,1.0,0.490234375,0.9886363636363636,0.6552179656538969
mznwiki,True,27.0,0.48722986247544203,1.0,0.490234375,0.9886363636363636,0.6552179656538969
mznwiki,True,28.0,0.4881889763779528,1.0,0.4921875,0.9848484848484849,0.656084656084656
mznwiki,True,29.0,0.4881889763779528,1.0,0.4921875,0.9848484848484849,0.656084656084656
mznwiki,True,30.0,0.4881889763779528,1.0,0.4921875,0.9848484848484849,0.656084656084656
mznwiki,True,31.0,0.4881889763779528,1.0,0.4921875,0.9848484848484849,0.656084656084656
mznwiki,True,32.0,0.4881889763779528,1.0,0.4921875,0.9848484848484849,0.656084656084656
mznwiki,True,33.0,0.4881889763779528,1.0,0.4921875,0.9848484848484849,0.656084656084656
mznwiki,True,34.0,0.4891518737672584,1.0,0.494140625,0.9810606060606061,0.6569536423841059
mznwiki,True,35.0,0.4901185770750988,1.0,0.49609375,0.9772727272727273,0.6578249336870027
mznwiki,True,36.0,0.4901185770750988,1.0,0.49609375,0.9772727272727273,0.6578249336870027
mznwiki,True,37.0,0.4910891089108911,1.0,0.498046875,0.9734848484848485,0.6586985391766268
mznwiki,True,38.0,0.4910891089108911,1.0,0.498046875,0.9734848484848485,0.6586985391766268
mznwiki,True,39.0,0.4910891089108911,1.0,0.498046875,0.9734848484848485,0.6586985391766268
mznwiki,True,40.0,0.49206349206349204,1.0,0.5,0.9696969696969697,0.6595744680851063
mznwiki,True,41.0,0.49206349206349204,1.0,0.5,0.9696969696969697,0.6595744680851063
mznwiki,True,42.0,0.49304174950298213,1.0,0.501953125,0.9659090909090909,0.6604527296937417
mznwiki,True,43.0,0.49304174950298213,1.0,0.501953125,0.9659090909090909,0.6604527296937417
mznwiki,True,44.0,0.4940239043824701,1.0,0.50390625,0.9621212121212122,0.6613333333333333
mznwiki,True,45.0,0.4940239043824701,1.0,0.50390625,0.9621212121212122,0.6613333333333333
mznwiki,True,46.0,0.4940239043824701,1.0,0.50390625,0.9621212121212122,0.6613333333333333
mznwiki,True,47.0,0.4940239043824701,1.0,0.50390625,0.9621212121212122,0.6613333333333333
mznwiki,True,48.0,0.4940239043824701,1.0,0.50390625,0.9621212121212122,0.6613333333333333
mznwiki,True,49.0,0.49500998003992014,1.0,0.505859375,0.9583333333333334,0.6622162883845126
mznwiki,True,50.0,0.49500998003992014,1.0,0.505859375,0.9583333333333334,0.6622162883845126
mznwiki,True,51.0,0.49500998003992014,1.0,0.505859375,0.9583333333333334,0.6622162883845126
mznwiki,True,52.0,0.49500998003992014,1.0,0.505859375,0.9583333333333334,0.6622162883845126
mznwiki,True,53.0,0.49500998003992014,1.0,0.505859375,0.9583333333333334,0.6622162883845126
mznwiki,True,54.0,0.496,1.0,0.5078125,0.9545454545454546,0.6631016042780749
mznwiki,True,55.0,0.496,1.0,0.5078125,0.9545454545454546,0.6631016042780749
mznwiki,True,56.0,0.496,1.0,0.5078125,0.9545454545454546,0.6631016042780749
mznwiki,True,57.0,0.49498997995991983,0.9959677419354839,0.505859375,0.9545454545454546,0.6613119143239624
mznwiki,True,58.0,0.49498997995991983,0.9959677419354839,0.505859375,0.9545454545454546,0.6613119143239624
mznwiki,True,59.0,0.49498997995991983,0.9959677419354839,0.505859375,0.9545454545454546,0.6613119143239624
mznwiki,True,60.0,0.4939759036144578,0.9919354838709677,0.50390625,0.9545454545454546,0.6595174262734584
mznwiki,True,61.0,0.4949698189134809,0.9919354838709677,0.505859375,0.9507575757575758,0.6604026845637584
mznwiki,True,62.0,0.4959677419354839,0.9919354838709677,0.5078125,0.946969696969697,0.6612903225806452
mznwiki,True,63.0,0.4949290060851927,0.9838709677419355,0.505859375,0.9431818181818182,0.6585695006747638
mznwiki,True,64.0,0.4949290060851927,0.9838709677419355,0.505859375,0.9431818181818182,0.6585695006747638
mznwiki,True,65.0,0.4949290060851927,0.9838709677419355,0.505859375,0.9431818181818182,0.6585695006747638
mznwiki,True,66.0,0.4949290060851927,0.9838709677419355,0.505859375,0.9431818181818182,0.6585695006747638
mznwiki,True,67.0,0.49795918367346936,0.9838709677419355,0.51171875,0.9318181818181818,0.6612466124661247
mznwiki,True,68.0,0.49795918367346936,0.9838709677419355,0.51171875,0.9318181818181818,0.6612466124661247
mznwiki,True,69.0,0.49795918367346936,0.9838709677419355,0.51171875,0.9318181818181818,0.6612466124661247
mznwiki,True,70.0,0.5020661157024794,0.9798387096774194,0.51953125,0.9128787878787878,0.6639344262295083
mznwiki,True,71.0,0.5031185031185031,0.9758064516129032,0.521484375,0.9053030303030303,0.663923182441701
mznwiki,True,72.0,0.5031315240083507,0.9717741935483871,0.521484375,0.9015151515151515,0.6629986244841816
mznwiki,True,73.0,0.5042016806722689,0.967741935483871,0.5234375,0.8939393939393939,0.6629834254143646
mznwiki,True,74.0,0.5052854122621564,0.9637096774193549,0.525390625,0.8863636363636364,0.6629680998613038
mznwiki,True,75.0,0.5085470085470085,0.9596774193548387,0.53125,0.8712121212121212,0.664804469273743
mznwiki,True,76.0,0.5097613882863341,0.9475806451612904,0.533203125,0.8560606060606061,0.6629055007052187
mznwiki,True,77.0,0.512087912087912,0.9395161290322581,0.537109375,0.8409090909090909,0.662873399715505
mznwiki,True,78.0,0.5145413870246085,0.9274193548387096,0.541015625,0.821969696969697,0.6618705035971223
mznwiki,True,79.0,0.5184331797235023,0.907258064516129,0.546875,0.7916666666666666,0.6598240469208212
mznwiki,True,80.0,0.5277108433734939,0.8830645161290323,0.560546875,0.7424242424242424,0.660633484162896
mznwiki,True,81.0,0.5388471177944862,0.8669354838709677,0.576171875,0.696969696969697,0.6646058732612056
mznwiki,True,82.0,0.546875,0.8467741935483871,0.5859375,0.6590909090909091,0.6645569620253164
mznwiki,True,83.0,0.556786703601108,0.8104838709677419,0.595703125,0.6060606060606061,0.6600985221674877
mznwiki,True,84.0,0.5808383233532934,0.782258064516129,0.62109375,0.5303030303030303,0.6666666666666666
mznwiki,True,85.0,0.5993485342019544,0.7419354838709677,0.634765625,0.4659090909090909,0.6630630630630631
mznwiki,True,86.0,0.6200716845878136,0.6975806451612904,0.646484375,0.4015151515151515,0.6565464895635674
mznwiki,True,87.0,0.6335877862595419,0.6693548387096774,0.65234375,0.36363636363636365,0.6509803921568628
mznwiki,True,88.0,0.6506024096385542,0.6532258064516129,0.662109375,0.32954545454545453,0.6519114688128773
mznwiki,True,89.0,0.6593886462882096,0.6088709677419355,0.658203125,0.29545454545454547,0.6331236897274634
mznwiki,True,90.0,0.6666666666666666,0.5403225806451613,0.646484375,0.2537878787878788,0.5968819599109131
mznwiki,True,91.0,0.6628571428571428,0.46774193548387094,0.626953125,0.22348484848484848,0.5484633569739953
mznwiki,True,92.0,0.6715328467153284,0.3709677419354839,0.607421875,0.17045454545454544,0.4779220779220779
mznwiki,True,93.0,0.7058823529411765,0.2903225806451613,0.59765625,0.11363636363636363,0.4114285714285714
mznwiki,True,94.0,0.7654320987654321,0.25,0.599609375,0.07196969696969698,0.37689969604863227
mznwiki,True,95.0,0.8059701492537313,0.21774193548387097,0.595703125,0.04924242424242424,0.34285714285714286
mznwiki,True,96.0,0.8333333333333334,0.20161290322580644,0.59375,0.03787878787878788,0.3246753246753247
mznwiki,True,97.0,0.84,0.1693548387096774,0.58203125,0.030303030303030304,0.28187919463087246
mznwiki,True,98.0,0.8333333333333334,0.14112903225806453,0.5703125,0.026515151515151516,0.24137931034482762
mznwiki,True,99.0,0.75,0.06048387096774194,0.53515625,0.01893939393939394,0.11194029850746268
mznwiki,False,0.0,0.135,1.0,0.135,1.0,0.2378854625550661
mznwiki,False,1.0,0.135,1.0,0.135,1.0,0.2378854625550661
mznwiki,False,2.0,0.13533834586466165,1.0,0.1375,0.9971098265895953,0.23841059602649003
mznwiki,False,3.0,0.13602015113350127,1.0,0.1425,0.9913294797687862,0.2394678492239468
mznwiki,False,4.0,0.13705583756345177,1.0,0.15,0.9826589595375722,0.24107142857142855
mznwiki,False,5.0,0.13763806287170774,1.0,0.15416666666666667,0.9778420038535646,0.24197162061239733
mznwiki,False,6.0,0.1386986301369863,1.0,0.16166666666666665,0.9691714836223507,0.24360902255639097
mznwiki,False,7.0,0.13843508168529664,0.9938271604938271,0.16416666666666666,0.9653179190751445,0.2430188679245283
mznwiki,False,8.0,0.13987836663770634,0.9938271604938271,0.17416666666666666,0.953757225433526,0.24523990860624523
mznwiki,False,9.0,0.1411042944785276,0.9938271604938271,0.1825,0.9441233140655106,0.24712202609363004
mznwiki,False,10.0,0.142226148409894,0.9938271604938271,0.19,0.9354527938342967,0.24884080370942813
mznwiki,False,11.0,0.14298480786416443,0.9876543209876543,0.19916666666666666,0.9238921001926782,0.24980483996877437
mznwiki,False,12.0,0.14363143631436315,0.9814814814814815,0.2075,0.9132947976878613,0.25059101654846333
mznwiki,False,13.0,0.14494074749316319,0.9814814814814815,0.21583333333333332,0.9036608863198459,0.2525814138204925
mznwiki,False,14.0,0.1464318813716404,0.9753086419753086,0.22916666666666666,0.8872832369942196,0.25463336019339244
mznwiki,False,15.0,0.147834274952919,0.9691358024691358,0.24166666666666667,0.871868978805395,0.2565359477124183
mznwiki,False,16.0,0.15067178502879078,0.9691358024691358,0.25833333333333336,0.8526011560693642,0.260797342192691
mznwiki,False,17.0,0.15249266862170088,0.9629629629629629,0.2725,0.8352601156069365,0.26329113924050634
mznwiki,False,18.0,0.15392254220456802,0.9567901234567902,0.2841666666666667,0.8208092485549133,0.2651839178785287
mznwiki,False,19.0,0.15423387096774194,0.9444444444444444,0.29333333333333333,0.8082851637764933,0.2651646447140381
mznwiki,False,20.0,0.15660184237461616,0.9444444444444444,0.30583333333333335,0.7938342967244701,0.26865671641791045
mznwiki,False,21.0,0.15911485774499473,0.9320987654320988,0.3258333333333333,0.7687861271676301,0.27182718271827183
mznwiki,False,22.0,0.16146393972012918,0.9259259259259259,0.3408333333333333,0.7504816955684007,0.2749770852428964
mznwiki,False,23.0,0.16482300884955753,0.9197530864197531,0.36,0.7273603082851637,0.2795497185741088
mznwiki,False,24.0,0.16970387243735763,0.9197530864197531,0.38166666666666665,0.7023121387283237,0.2865384615384615
mznwiki,False,25.0,0.17345750873108265,0.9197530864197531,0.3975,0.6840077071290944,0.2918707149853085
mznwiki,False,26.0,0.17695961995249407,0.9197530864197531,0.4116666666666667,0.6676300578034682,0.2968127490039841
mznwiki,False,27.0,0.18237454100367198,0.9197530864197531,0.4325,0.6435452793834296,0.30439223697650664
mznwiki,False,28.0,0.18829516539440203,0.9135802469135802,0.45666666666666667,0.6146435452793835,0.31223628691983124
mznwiki,False,29.0,0.19626168224299065,0.9074074074074074,0.48583333333333334,0.5799614643545279,0.32272228320526897
mznwiki,False,30.0,0.20388349514563106,0.9074074074074074,0.5091666666666667,0.5529865125240848,0.33295583238958104
mznwiki,False,31.0,0.21030042918454936,0.9074074074074074,0.5275,0.5317919075144508,0.3414634146341463
mznwiki,False,32.0,0.21973094170403587,0.9074074074074074,0.5525,0.5028901734104047,0.3537906137184116
mznwiki,False,33.0,0.22720247295208656,0.9074074074074074,0.5708333333333333,0.4816955684007707,0.36341161928306553
mznwiki,False,34.0,0.23557692307692307,0.9074074074074074,0.59,0.4595375722543353,0.3740458015267175
mznwiki,False,35.0,0.24257425742574257,0.9074074074074074,0.605,0.4421965317919075,0.3828125
mznwiki,False,36.0,0.2508532423208191,0.9074074074074074,0.6216666666666667,0.4229287090558767,0.393048128342246
mznwiki,False,37.0,0.26344086021505375,0.9074074074074074,0.645,0.3959537572254335,0.4083333333333333
mznwiki,False,38.0,0.2722222222222222,0.9074074074074074,0.66,0.3786127167630058,0.4188034188034188
mznwiki,False,39.0,0.28107074569789675,0.9074074074074074,0.6741666666666667,0.3622350674373796,0.42919708029197084
mznwiki,False,40.0,0.29025844930417494,0.9012345679012346,0.6891666666666667,0.3439306358381503,0.43909774436090226
mznwiki,False,41.0,0.2985685071574642,0.9012345679012346,0.7008333333333333,0.3304431599229287,0.4485407066052227
mznwiki,False,42.0,0.31130063965884863,0.9012345679012346,0.7175,0.3111753371868979,0.46275752773375595
mznwiki,False,43.0,0.3230088495575221,0.9012345679012346,0.7316666666666667,0.2947976878612717,0.4755700325732899
mznwiki,False,44.0,0.34032634032634035,0.9012345679012346,0.7508333333333334,0.2726396917148362,0.494077834179357
mznwiki,False,45.0,0.3492822966507177,0.9012345679012346,0.76,0.26204238921001927,0.503448275862069
mznwiki,False,46.0,0.35872235872235875,0.9012345679012346,0.7691666666666667,0.2514450867052023,0.5131810193321618
mznwiki,False,47.0,0.3634085213032581,0.8950617283950617,0.7741666666666667,0.24470134874759153,0.5169340463458111
mznwiki,False,48.0,0.3717948717948718,0.8950617283950617,0.7816666666666666,0.23603082851637766,0.5253623188405797
mznwiki,False,49.0,0.3776041666666667,0.8950617283950617,0.7866666666666666,0.2302504816955684,0.5311355311355311
mznwiki,False,50.0,0.38258575197889183,0.8950617283950617,0.7908333333333334,0.2254335260115607,0.5360443622920518
mznwiki,False,51.0,0.3897849462365591,0.8950617283950617,0.7966666666666666,0.2186897880539499,0.5430711610486891
mznwiki,False,52.0,0.3983516483516483,0.8950617283950617,0.8033333333333333,0.21098265895953758,0.5513307984790874
mznwiki,False,53.0,0.4084507042253521,0.8950617283950617,0.8108333333333333,0.2023121387283237,0.5609284332688589
mznwiki,False,54.0,0.414985590778098,0.8888888888888888,0.8158333333333333,0.1955684007707129,0.5658153241650294
mznwiki,False,55.0,0.4198250728862974,0.8888888888888888,0.8191666666666667,0.19171483622350674,0.5702970297029704
mznwiki,False,56.0,0.4298507462686567,0.8888888888888888,0.8258333333333333,0.18400770712909442,0.579476861167002
mznwiki,False,57.0,0.4376899696048632,0.8888888888888888,0.8308333333333333,0.17822736030828518,0.5865580448065173
mznwiki,False,58.0,0.4472049689440994,0.8888888888888888,0.8366666666666667,0.17148362235067438,0.5950413223140496
mznwiki,False,59.0,0.45425867507886436,0.8888888888888888,0.8408333333333333,0.16666666666666666,0.6012526096033403
mznwiki,False,60.0,0.4585987261146497,0.8888888888888888,0.8433333333333334,0.16377649325626203,0.6050420168067228
mznwiki,False,61.0,0.46254071661237783,0.8765432098765432,0.8458333333333333,0.15895953757225434,0.6055437100213219
mznwiki,False,62.0,0.4713804713804714,0.8641975308641975,0.8508333333333333,0.151252408477842,0.6100217864923748
mznwiki,False,63.0,0.4711864406779661,0.8580246913580247,0.8508333333333333,0.15028901734104047,0.6083150984682713
mznwiki,False,64.0,0.4791666666666667,0.8518518518518519,0.855,0.14450867052023122,0.6133333333333334
mznwiki,False,65.0,0.4946236559139785,0.8518518518518519,0.8625,0.13583815028901733,0.6258503401360543
mznwiki,False,66.0,0.5018315018315018,0.845679012345679,0.8658333333333333,0.13102119460500963,0.6298850574712643
mznwiki,False,67.0,0.5092936802973977,0.845679012345679,0.8691666666666666,0.12716763005780346,0.6357308584686775
mznwiki,False,68.0,0.5210727969348659,0.8395061728395061,0.8741666666666666,0.12042389210019268,0.6430260047281323
mznwiki,False,69.0,0.5275590551181102,0.8271604938271605,0.8766666666666667,0.11560693641618497,0.6442307692307692
mznwiki,False,70.0,0.5338645418326693,0.8271604938271605,0.8791666666666667,0.11271676300578035,0.648910411622276
mznwiki,False,71.0,0.5432098765432098,0.8148148148148148,0.8825,0.1069364161849711,0.6518518518518519
mznwiki,False,72.0,0.5517241379310345,0.7901234567901234,0.885,0.1001926782273603,0.649746192893401
mznwiki,False,73.0,0.5669642857142857,0.7839506172839507,0.89,0.09344894026974952,0.6580310880829016
mznwiki,False,74.0,0.5668202764976958,0.7592592592592593,0.8891666666666667,0.0905587668593449,0.6490765171503957
mznwiki,False,75.0,0.5761904761904761,0.7469135802469136,0.8916666666666667,0.08574181117533719,0.6505376344086021
mznwiki,False,76.0,0.5756097560975609,0.7283950617283951,0.8908333333333334,0.0838150289017341,0.6430517711171662
mznwiki,False,77.0,0.5743589743589743,0.691358024691358,0.8891666666666667,0.07996146435452794,0.6274509803921567
mznwiki,False,78.0,0.6022099447513812,0.6728395061728395,0.8958333333333334,0.06936416184971098,0.6355685131195336
mznwiki,False,79.0,0.5953757225433526,0.6358024691358025,0.8925,0.0674373795761079,0.6149253731343284
mznwiki,False,80.0,0.610062893081761,0.5987654320987654,0.8941666666666667,0.05973025048169557,0.6043613707165107
mznwiki,False,81.0,0.6209150326797386,0.5864197530864198,0.8958333333333334,0.055876685934489405,0.6031746031746033
mznwiki,False,82.0,0.6344827586206897,0.5679012345679012,0.8975,0.051059730250481696,0.5993485342019544
mznwiki,False,83.0,0.6590909090909091,0.5370370370370371,0.9,0.04335260115606936,0.5918367346938775
mznwiki,False,84.0,0.6504065040650406,0.49382716049382713,0.8958333333333334,0.041425818882466284,0.5614035087719298
mznwiki,False,85.0,0.6607142857142857,0.4567901234567901,0.895,0.036608863198458574,0.5401459854014599
mznwiki,False,86.0,0.6699029126213593,0.42592592592592593,0.8941666666666667,0.03275529865125241,0.5207547169811321
mznwiki,False,87.0,0.7126436781609196,0.38271604938271603,0.8958333333333334,0.024084778420038536,0.497991967871486
mznwiki,False,88.0,0.7368421052631579,0.345679012345679,0.895,0.019267822736030827,0.4705882352941177
mznwiki,False,89.0,0.7567567567567568,0.345679012345679,0.8966666666666666,0.017341040462427744,0.47457627118644063
mznwiki,False,90.0,0.7714285714285715,0.3333333333333333,0.8966666666666666,0.015414258188824663,0.4655172413793103
mznwiki,False,91.0,0.7903225806451613,0.30246913580246915,0.895,0.012524084778420038,0.4375
mznwiki,False,92.0,0.851063829787234,0.24691358024691357,0.8925,0.00674373795761079,0.3827751196172248
mznwiki,False,93.0,0.8888888888888888,0.19753086419753085,0.8883333333333333,0.0038535645472061657,0.3232323232323232
mznwiki,False,94.0,0.92,0.1419753086419753,0.8825,0.0019267822736030828,0.24598930481283418
mznwiki,False,95.0,0.9473684210526315,0.1111111111111111,0.8791666666666667,0.0009633911368015414,0.1988950276243094
mznwiki,False,96.0,1.0,0.09259259259259259,0.8775,0.0,0.1694915254237288
mznwiki,False,97.0,1.0,0.08024691358024691,0.8758333333333334,0.0,0.14857142857142858
mznwiki,False,98.0,1.0,0.030864197530864196,0.8691666666666666,0.0,0.059880239520958084
mznwiki,False,99.0,1.0,0.012345679012345678,0.8666666666666667,0.0,0.024390243902439022
