wiki_db,user_is_anonymous,threshold,precision,recall,accuracy,fpr,F1
oswiki,True,0.0,0.7692307692307693,1.0,0.7692307692307693,1.0,0.8695652173913044
oswiki,True,1.0,0.7692307692307693,1.0,0.7692307692307693,1.0,0.8695652173913044
oswiki,True,2.0,0.7692307692307693,1.0,0.7692307692307693,1.0,0.8695652173913044
oswiki,True,3.0,0.7692307692307693,1.0,0.7692307692307693,1.0,0.8695652173913044
oswiki,True,4.0,0.7692307692307693,1.0,0.7692307692307693,1.0,0.8695652173913044
oswiki,True,5.0,0.7692307692307693,1.0,0.7692307692307693,1.0,0.8695652173913044
oswiki,True,6.0,0.7692307692307693,1.0,0.7692307692307693,1.0,0.8695652173913044
oswiki,True,7.0,0.7692307692307693,1.0,0.7692307692307693,1.0,0.8695652173913044
oswiki,True,8.0,0.7692307692307693,1.0,0.7692307692307693,1.0,0.8695652173913044
oswiki,True,9.0,0.7692307692307693,1.0,0.7692307692307693,1.0,0.8695652173913044
oswiki,True,10.0,0.7692307692307693,1.0,0.7692307692307693,1.0,0.8695652173913044
oswiki,True,11.0,0.7692307692307693,1.0,0.7692307692307693,1.0,0.8695652173913044
oswiki,True,12.0,0.7692307692307693,1.0,0.7692307692307693,1.0,0.8695652173913044
oswiki,True,13.0,0.7692307692307693,1.0,0.7692307692307693,1.0,0.8695652173913044
oswiki,True,14.0,0.7692307692307693,1.0,0.7692307692307693,1.0,0.8695652173913044
oswiki,True,15.0,0.7692307692307693,1.0,0.7692307692307693,1.0,0.8695652173913044
oswiki,True,16.0,0.7692307692307693,1.0,0.7692307692307693,1.0,0.8695652173913044
oswiki,True,17.0,0.7692307692307693,1.0,0.7692307692307693,1.0,0.8695652173913044
oswiki,True,18.0,0.7692307692307693,1.0,0.7692307692307693,1.0,0.8695652173913044
oswiki,True,19.0,0.7692307692307693,1.0,0.7692307692307693,1.0,0.8695652173913044
oswiki,True,20.0,0.7692307692307693,1.0,0.7692307692307693,1.0,0.8695652173913044
oswiki,True,21.0,0.7692307692307693,1.0,0.7692307692307693,1.0,0.8695652173913044
oswiki,True,22.0,0.7692307692307693,1.0,0.7692307692307693,1.0,0.8695652173913044
oswiki,True,23.0,0.7692307692307693,1.0,0.7692307692307693,1.0,0.8695652173913044
oswiki,True,24.0,0.7692307692307693,1.0,0.7692307692307693,1.0,0.8695652173913044
oswiki,True,25.0,0.7692307692307693,1.0,0.7692307692307693,1.0,0.8695652173913044
oswiki,True,26.0,0.7692307692307693,1.0,0.7692307692307693,1.0,0.8695652173913044
oswiki,True,27.0,0.7692307692307693,1.0,0.7692307692307693,1.0,0.8695652173913044
oswiki,True,28.0,0.7692307692307693,1.0,0.7692307692307693,1.0,0.8695652173913044
oswiki,True,29.0,0.7692307692307693,1.0,0.7692307692307693,1.0,0.8695652173913044
oswiki,True,30.0,0.7692307692307693,1.0,0.7692307692307693,1.0,0.8695652173913044
oswiki,True,31.0,0.7692307692307693,1.0,0.7692307692307693,1.0,0.8695652173913044
oswiki,True,32.0,0.7692307692307693,1.0,0.7692307692307693,1.0,0.8695652173913044
oswiki,True,33.0,0.7692307692307693,1.0,0.7692307692307693,1.0,0.8695652173913044
oswiki,True,34.0,0.7692307692307693,1.0,0.7692307692307693,1.0,0.8695652173913044
oswiki,True,35.0,0.7692307692307693,1.0,0.7692307692307693,1.0,0.8695652173913044
oswiki,True,36.0,0.7692307692307693,1.0,0.7692307692307693,1.0,0.8695652173913044
oswiki,True,37.0,0.7692307692307693,1.0,0.7692307692307693,1.0,0.8695652173913044
oswiki,True,38.0,0.7692307692307693,1.0,0.7692307692307693,1.0,0.8695652173913044
oswiki,True,39.0,0.7692307692307693,1.0,0.7692307692307693,1.0,0.8695652173913044
oswiki,True,40.0,0.7692307692307693,1.0,0.7692307692307693,1.0,0.8695652173913044
oswiki,True,41.0,0.7692307692307693,1.0,0.7692307692307693,1.0,0.8695652173913044
oswiki,True,42.0,0.7692307692307693,1.0,0.7692307692307693,1.0,0.8695652173913044
oswiki,True,43.0,0.7692307692307693,1.0,0.7692307692307693,1.0,0.8695652173913044
oswiki,True,44.0,0.7692307692307693,1.0,0.7692307692307693,1.0,0.8695652173913044
oswiki,True,45.0,0.7692307692307693,1.0,0.7692307692307693,1.0,0.8695652173913044
oswiki,True,46.0,0.7692307692307693,1.0,0.7692307692307693,1.0,0.8695652173913044
oswiki,True,47.0,0.7692307692307693,1.0,0.7692307692307693,1.0,0.8695652173913044
oswiki,True,48.0,0.7692307692307693,1.0,0.7692307692307693,1.0,0.8695652173913044
oswiki,True,49.0,0.7692307692307693,1.0,0.7692307692307693,1.0,0.8695652173913044
oswiki,True,50.0,0.7692307692307693,1.0,0.7692307692307693,1.0,0.8695652173913044
oswiki,True,51.0,0.7692307692307693,1.0,0.7692307692307693,1.0,0.8695652173913044
oswiki,True,52.0,0.7692307692307693,1.0,0.7692307692307693,1.0,0.8695652173913044
oswiki,True,53.0,0.7692307692307693,1.0,0.7692307692307693,1.0,0.8695652173913044
oswiki,True,54.0,0.7692307692307693,1.0,0.7692307692307693,1.0,0.8695652173913044
oswiki,True,55.0,0.7692307692307693,1.0,0.7692307692307693,1.0,0.8695652173913044
oswiki,True,56.0,0.7692307692307693,1.0,0.7692307692307693,1.0,0.8695652173913044
oswiki,True,57.0,0.7692307692307693,1.0,0.7692307692307693,1.0,0.8695652173913044
oswiki,True,58.0,0.7692307692307693,1.0,0.7692307692307693,1.0,0.8695652173913044
oswiki,True,59.0,0.7692307692307693,1.0,0.7692307692307693,1.0,0.8695652173913044
oswiki,True,60.0,0.7692307692307693,1.0,0.7692307692307693,1.0,0.8695652173913044
oswiki,True,61.0,0.7692307692307693,1.0,0.7692307692307693,1.0,0.8695652173913044
oswiki,True,62.0,0.7692307692307693,1.0,0.7692307692307693,1.0,0.8695652173913044
oswiki,True,63.0,0.7692307692307693,1.0,0.7692307692307693,1.0,0.8695652173913044
oswiki,True,64.0,0.7843137254901961,1.0,0.7884615384615384,0.9166666666666666,0.8791208791208792
oswiki,True,65.0,0.78,0.975,0.7692307692307693,0.9166666666666666,0.8666666666666667
oswiki,True,66.0,0.78,0.975,0.7692307692307693,0.9166666666666666,0.8666666666666667
oswiki,True,67.0,0.78,0.975,0.7692307692307693,0.9166666666666666,0.8666666666666667
oswiki,True,68.0,0.78,0.975,0.7692307692307693,0.9166666666666666,0.8666666666666667
oswiki,True,69.0,0.78,0.975,0.7692307692307693,0.9166666666666666,0.8666666666666667
oswiki,True,70.0,0.78,0.975,0.7692307692307693,0.9166666666666666,0.8666666666666667
oswiki,True,71.0,0.78,0.975,0.7692307692307693,0.9166666666666666,0.8666666666666667
oswiki,True,72.0,0.78,0.975,0.7692307692307693,0.9166666666666666,0.8666666666666667
oswiki,True,73.0,0.7959183673469388,0.975,0.7884615384615384,0.8333333333333334,0.8764044943820225
oswiki,True,74.0,0.8085106382978723,0.95,0.7884615384615384,0.75,0.8735632183908046
oswiki,True,75.0,0.8085106382978723,0.95,0.7884615384615384,0.75,0.8735632183908046
oswiki,True,76.0,0.8085106382978723,0.95,0.7884615384615384,0.75,0.8735632183908046
oswiki,True,77.0,0.7954545454545454,0.875,0.7307692307692307,0.75,0.8333333333333334
oswiki,True,78.0,0.813953488372093,0.875,0.75,0.6666666666666666,0.8433734939759036
oswiki,True,79.0,0.8095238095238095,0.85,0.7307692307692307,0.6666666666666666,0.8292682926829269
oswiki,True,80.0,0.825,0.825,0.7307692307692307,0.5833333333333334,0.825
oswiki,True,81.0,0.825,0.825,0.7307692307692307,0.5833333333333334,0.825
oswiki,True,82.0,0.8611111111111112,0.775,0.7307692307692307,0.4166666666666667,0.8157894736842106
oswiki,True,83.0,0.8571428571428571,0.75,0.7115384615384616,0.4166666666666667,0.7999999999999999
oswiki,True,84.0,0.8571428571428571,0.75,0.7115384615384616,0.4166666666666667,0.7999999999999999
oswiki,True,85.0,0.8529411764705882,0.725,0.6923076923076923,0.4166666666666667,0.7837837837837837
oswiki,True,86.0,0.8529411764705882,0.725,0.6923076923076923,0.4166666666666667,0.7837837837837837
oswiki,True,87.0,0.84375,0.675,0.6538461538461539,0.4166666666666667,0.75
oswiki,True,88.0,0.84375,0.675,0.6538461538461539,0.4166666666666667,0.75
oswiki,True,89.0,0.8333333333333334,0.625,0.6153846153846154,0.4166666666666667,0.7142857142857143
oswiki,True,90.0,0.8214285714285714,0.575,0.5769230769230769,0.4166666666666667,0.676470588235294
oswiki,True,91.0,0.8461538461538461,0.55,0.5769230769230769,0.3333333333333333,0.6666666666666667
oswiki,True,92.0,0.8333333333333334,0.5,0.5384615384615384,0.3333333333333333,0.625
oswiki,True,93.0,0.875,0.35,0.46153846153846156,0.16666666666666666,0.4999999999999999
oswiki,True,94.0,0.9166666666666666,0.275,0.4230769230769231,0.08333333333333333,0.4230769230769231
oswiki,True,95.0,0.9,0.225,0.38461538461538464,0.08333333333333333,0.36000000000000004
oswiki,True,96.0,0.9,0.225,0.38461538461538464,0.08333333333333333,0.36000000000000004
oswiki,True,97.0,0.8333333333333334,0.125,0.3076923076923077,0.08333333333333333,0.21739130434782608
oswiki,True,98.0,1.0,0.025,0.25,0.0,0.04878048780487806
oswiki,True,99.0,1.0,0.0,0.23076923076923078,0.0,0.0
oswiki,False,0.0,0.007028973084176239,1.0,0.007028973084176239,1.0,0.013959822948586996
oswiki,False,1.0,0.007030178326474623,1.0,0.007200411452082976,0.9998273480662984,0.013962199897837563
oswiki,False,2.0,0.007039835164835165,1.0,0.008571918395336876,0.9984461325966851,0.013981244671781757
oswiki,False,3.0,0.0071279554937413074,1.0,0.02091548088462198,0.9860151933701657,0.014155014672881062
oswiki,False,4.0,0.007386888273314866,0.975609756097561,0.07834733413337905,0.9280041436464088,0.014662756598240467
oswiki,False,5.0,0.007636502481863307,0.975609756097561,0.1086919252528716,0.8974447513812155,0.01515438530024626
oswiki,False,6.0,0.008162411050648808,0.9512195121951219,0.18721069775415738,0.8181975138121547,0.016185930691014733
oswiki,False,7.0,0.008746355685131196,0.9512195121951219,0.24189953711640666,0.763121546961326,0.017333333333333336
oswiki,False,8.0,0.009047619047619047,0.926829268292683,0.2859591976684382,0.7185773480662984,0.017920301815609524
oswiki,False,9.0,0.008880994671403197,0.8536585365853658,0.3293331047488428,0.674378453038674,0.01757910597689603
oswiki,False,10.0,0.009365801445009366,0.8536585365853658,0.36430653180181727,0.6391574585635359,0.0185283218634198
oswiki,False,11.0,0.009667330110889964,0.8292682926829268,0.40168009600548604,0.6013466850828729,0.01911186059584036
oswiki,False,12.0,0.010278113663845224,0.8292682926829268,0.43751071489799415,0.5652624309392266,0.02030456852791878
oswiki,False,13.0,0.010628321350422007,0.8292682926829268,0.4561974969998286,0.5464433701657458,0.020987654320987655
oswiki,False,14.0,0.01035263668715626,0.7804878048780488,0.4740270872621293,0.5281422651933702,0.02043422733077906
oswiki,False,15.0,0.010596026490066225,0.7804878048780488,0.48619921138350763,0.5158839779005525,0.020908199934661875
oswiki,False,16.0,0.01093269559275709,0.7804878048780488,0.5021429795988342,0.49982734806629836,0.021563342318059297
oswiki,False,17.0,0.010903974674639466,0.7560975609756098,0.5162009257671867,0.48549723756906077,0.021497919556171988
oswiki,False,18.0,0.010865628395508874,0.7317073170731707,0.5299159951997257,0.4715124309392265,0.021413276231263385
oswiki,False,19.0,0.011235955056179775,0.7317073170731707,0.5455168866792388,0.4558011049723757,0.022132054592401328
oswiki,False,20.0,0.011205564142194745,0.7073170731707317,0.5592319561117778,0.44181629834254144,0.022061620387980218
oswiki,False,21.0,0.01157684630738523,0.7073170731707317,0.573461340648037,0.42748618784530384,0.022780832678711706
oswiki,False,22.0,0.011968633924886504,0.7073170731707317,0.5875192868163895,0.41332872928176795,0.02353896103896104
oswiki,False,23.0,0.012430347192456065,0.7073170731707317,0.6029487399279959,0.39779005524861877,0.024431339511373208
oswiki,False,24.0,0.012877442273534635,0.7073170731707317,0.6168352477284417,0.3838052486187845,0.02529437418229394
oswiki,False,25.0,0.013494648673801768,0.7073170731707317,0.6344933996228356,0.3660220994475138,0.026484018264840183
oswiki,False,26.0,0.014146341463414635,0.7073170731707317,0.6514657980456026,0.34892955801104975,0.02773792443806791
oswiki,False,27.0,0.014917695473251029,0.7073170731707317,0.6696382650437168,0.33062845303867405,0.029219143576826194
oswiki,False,28.0,0.015217391304347827,0.6829268292682927,0.687124978570204,0.31284530386740333,0.029771398192450824
oswiki,False,29.0,0.014551804423748545,0.6097560975609756,0.7070118292473856,0.2922997237569061,0.02842524161455372
oswiki,False,30.0,0.014215080346106305,0.5609756097560976,0.7234699125664323,0.27537983425414364,0.02772754671488849
oswiki,False,31.0,0.015343562374916611,0.5609756097560976,0.7438710783473341,0.2548342541436464,0.029870129870129873
oswiki,False,32.0,0.015895953757225433,0.5365853658536586,0.7632436139207954,0.23515193370165746,0.030877192982456142
oswiki,False,33.0,0.016706443914081145,0.5121951219512195,0.7846734099091377,0.21339779005524862,0.032357473035439135
oswiki,False,34.0,0.016725352112676055,0.4634146341463415,0.8047316989542259,0.19285220994475138,0.03228547153780798
oswiki,False,35.0,0.017769002961500493,0.43902439024390244,0.8254757414709412,0.17178867403314918,0.03415559772296015
oswiki,False,36.0,0.019672131147540985,0.43902439024390244,0.8422767015258015,0.15486878453038674,0.03765690376569038
oswiki,False,37.0,0.020706455542021926,0.4146341463414634,0.8580490313732213,0.1388121546961326,0.03944315545243619
oswiki,False,38.0,0.02288021534320323,0.4146341463414634,0.8714212240699468,0.1253453038674033,0.04336734693877551
oswiki,False,39.0,0.02391629297458894,0.3902439024390244,0.883764786559232,0.11274171270718232,0.04507042253521127
oswiki,False,40.0,0.026490066225165563,0.3902439024390244,0.89490828047317,0.10151933701657459,0.049612403100775186
oswiki,False,41.0,0.030418250950570342,0.3902439024390244,0.9082804731698955,0.08805248618784531,0.0564373897707231
oswiki,False,42.0,0.029411764705882353,0.34146341463414637,0.9161666380936053,0.07976519337016574,0.05415860735009671
oswiki,False,43.0,0.03294117647058824,0.34146341463414637,0.924909994856849,0.07095994475138122,0.060085836909871244
oswiki,False,44.0,0.036458333333333336,0.34146341463414637,0.9319389679410252,0.06388121546961326,0.06588235294117648
oswiki,False,45.0,0.03977272727272727,0.34146341463414637,0.9374249957140408,0.05835635359116022,0.07124681933842239
oswiki,False,46.0,0.04126984126984127,0.3170731707317073,0.9434253385907766,0.05214088397790055,0.07303370786516852
oswiki,False,47.0,0.04529616724738676,0.3170731707317073,0.9482256128921652,0.04730662983425414,0.07926829268292683
oswiki,False,48.0,0.041044776119402986,0.2682926829268293,0.9507971884107663,0.04437154696132597,0.07119741100323625
oswiki,False,49.0,0.044897959183673466,0.2682926829268293,0.9547402708726213,0.040400552486187846,0.07692307692307693
oswiki,False,50.0,0.048034934497816595,0.2682926829268293,0.9574832847591291,0.03763812154696133,0.08148148148148147
oswiki,False,51.0,0.05045871559633028,0.2682926829268293,0.9593691068061032,0.035738950276243096,0.08494208494208494
oswiki,False,52.0,0.054187192118226604,0.2682926829268293,0.9619406823247043,0.03314917127071823,0.09016393442622953
oswiki,False,53.0,0.05263157894736842,0.24390243902439024,0.9638265043716784,0.031077348066298343,0.08658008658008658
oswiki,False,54.0,0.055248618784530384,0.24390243902439024,0.965369449682839,0.029523480662983426,0.0900900900900901
oswiki,False,55.0,0.057803468208092484,0.24390243902439024,0.9667409566260929,0.028142265193370167,0.09345794392523366
oswiki,False,56.0,0.06060606060606061,0.24390243902439024,0.9681124635693468,0.026761049723756907,0.0970873786407767
oswiki,False,57.0,0.06666666666666667,0.24390243902439024,0.9706840390879479,0.024171270718232045,0.10471204188481675
oswiki,False,58.0,0.07194244604316546,0.24390243902439024,0.9725698611349219,0.02227209944751381,0.1111111111111111
oswiki,False,59.0,0.07462686567164178,0.24390243902439024,0.9734270529744556,0.021408839779005526,0.11428571428571427
oswiki,False,60.0,0.07936507936507936,0.24390243902439024,0.9747985599177096,0.020027624309392266,0.11976047904191615
oswiki,False,61.0,0.0847457627118644,0.24390243902439024,0.9761700668609635,0.018646408839779006,0.12578616352201258
oswiki,False,62.0,0.09259259259259259,0.24390243902439024,0.9778844505400308,0.01691988950276243,0.1342281879194631
oswiki,False,63.0,0.10204081632653061,0.24390243902439024,0.9795988342190982,0.015193370165745856,0.14388489208633093
oswiki,False,64.0,0.1111111111111111,0.24390243902439024,0.9809703411623522,0.013812154696132596,0.15267175572519084
oswiki,False,65.0,0.11363636363636363,0.24390243902439024,0.9813132178981656,0.013466850828729282,0.15503875968992248
oswiki,False,66.0,0.11627906976744186,0.24390243902439024,0.9816560946339791,0.013121546961325966,0.15748031496062992
oswiki,False,67.0,0.11688311688311688,0.21951219512195122,0.9828561632093262,0.011740331491712707,0.15254237288135594
oswiki,False,68.0,0.1095890410958904,0.1951219512195122,0.9831990399451397,0.011222375690607736,0.14035087719298245
oswiki,False,69.0,0.12307692307692308,0.1951219512195122,0.9845705468883936,0.009841160220994474,0.15094339622641512
oswiki,False,70.0,0.0967741935483871,0.14634146341463414,0.9843991085204868,0.009668508287292817,0.11650485436893203
oswiki,False,71.0,0.1016949152542373,0.14634146341463414,0.9849134236242071,0.009150552486187844,0.12
oswiki,False,72.0,0.10526315789473684,0.14634146341463414,0.9852563003600205,0.00880524861878453,0.12244897959183672
oswiki,False,73.0,0.11538461538461539,0.14634146341463414,0.9861134921995542,0.007941988950276244,0.12903225806451613
oswiki,False,74.0,0.10416666666666667,0.12195121951219512,0.9864563689353677,0.007424033149171271,0.11235955056179774
oswiki,False,75.0,0.11363636363636363,0.12195121951219512,0.9871421224069947,0.006733425414364641,0.1176470588235294
oswiki,False,76.0,0.11904761904761904,0.12195121951219512,0.9874849991428082,0.006388121546961326,0.12048192771084337
oswiki,False,77.0,0.12121212121212122,0.0975609756097561,0.9886850677181553,0.0050069060773480665,0.1081081081081081
oswiki,False,78.0,0.12121212121212122,0.0975609756097561,0.9886850677181553,0.0050069060773480665,0.1081081081081081
oswiki,False,79.0,0.13333333333333333,0.0975609756097561,0.9891993828218756,0.004488950276243094,0.11267605633802817
oswiki,False,80.0,0.13793103448275862,0.0975609756097561,0.9893708211897823,0.004316298342541437,0.1142857142857143
oswiki,False,81.0,0.14814814814814814,0.0975609756097561,0.9897136979255957,0.003970994475138122,0.11764705882352941
oswiki,False,82.0,0.15384615384615385,0.0975609756097561,0.9898851362935025,0.003798342541436464,0.11940298507462689
oswiki,False,83.0,0.16,0.0975609756097561,0.9900565746614092,0.0036256906077348065,0.12121212121212122
oswiki,False,84.0,0.19047619047619047,0.0975609756097561,0.9907423281330362,0.0029350828729281767,0.12903225806451615
oswiki,False,85.0,0.2,0.0975609756097561,0.9909137665009429,0.0027624309392265192,0.13114754098360656
oswiki,False,86.0,0.2222222222222222,0.0975609756097561,0.9912566432367564,0.0024171270718232043,0.13559322033898308
oswiki,False,87.0,0.25,0.0975609756097561,0.9915995199725699,0.0020718232044198894,0.14035087719298248
oswiki,False,88.0,0.26666666666666666,0.0975609756097561,0.9917709583404766,0.001899171270718232,0.14285714285714285
oswiki,False,89.0,0.23076923076923078,0.07317073170731707,0.9917709583404766,0.0017265193370165745,0.1111111111111111
oswiki,False,90.0,0.25,0.04878048780487805,0.9922852734441968,0.0010359116022099447,0.0816326530612245
oswiki,False,91.0,0.2857142857142857,0.04878048780487805,0.9924567118121036,0.0008632596685082873,0.08333333333333334
oswiki,False,92.0,0.4,0.04878048780487805,0.9927995885479171,0.0005179558011049724,0.08695652173913045
oswiki,False,93.0,0.4,0.04878048780487805,0.9927995885479171,0.0005179558011049724,0.08695652173913045
oswiki,False,94.0,0.4,0.04878048780487805,0.9927995885479171,0.0005179558011049724,0.08695652173913045
oswiki,False,95.0,0.6666666666666666,0.04878048780487805,0.9931424652837305,0.00017265193370165745,0.0909090909090909
oswiki,False,96.0,0.5,0.024390243902439025,0.9929710269158237,0.00017265193370165745,0.046511627906976744
oswiki,False,97.0,0.5,0.024390243902439025,0.9929710269158237,0.00017265193370165745,0.046511627906976744
oswiki,False,98.0,0.5,0.0,0.9929710269158237,0.0,0.0
oswiki,False,99.0,0.5,0.0,0.9929710269158237,0.0,0.0
