wiki_db,user_is_anonymous,threshold,precision,recall,accuracy,fpr,F1
rnwiki,True,0.0,0.25,1.0,0.25,1.0,0.4
rnwiki,True,1.0,0.25,1.0,0.25,1.0,0.4
rnwiki,True,2.0,0.25,1.0,0.25,1.0,0.4
rnwiki,True,3.0,0.25,1.0,0.25,1.0,0.4
rnwiki,True,4.0,0.25,1.0,0.25,1.0,0.4
rnwiki,True,5.0,0.25,1.0,0.25,1.0,0.4
rnwiki,True,6.0,0.25,1.0,0.25,1.0,0.4
rnwiki,True,7.0,0.25,1.0,0.25,1.0,0.4
rnwiki,True,8.0,0.25,1.0,0.25,1.0,0.4
rnwiki,True,9.0,0.25,1.0,0.25,1.0,0.4
rnwiki,True,10.0,0.25,1.0,0.25,1.0,0.4
rnwiki,True,11.0,0.25,1.0,0.25,1.0,0.4
rnwiki,True,12.0,0.25,1.0,0.25,1.0,0.4
rnwiki,True,13.0,0.25,1.0,0.25,1.0,0.4
rnwiki,True,14.0,0.25,1.0,0.25,1.0,0.4
rnwiki,True,15.0,0.25,1.0,0.25,1.0,0.4
rnwiki,True,16.0,0.25,1.0,0.25,1.0,0.4
rnwiki,True,17.0,0.26666666666666666,1.0,0.3125,0.9166666666666666,0.4210526315789474
rnwiki,True,18.0,0.26666666666666666,1.0,0.3125,0.9166666666666666,0.4210526315789474
rnwiki,True,19.0,0.2857142857142857,1.0,0.375,0.8333333333333334,0.4444444444444445
rnwiki,True,20.0,0.2857142857142857,1.0,0.375,0.8333333333333334,0.4444444444444445
rnwiki,True,21.0,0.2857142857142857,1.0,0.375,0.8333333333333334,0.4444444444444445
rnwiki,True,22.0,0.3076923076923077,1.0,0.4375,0.75,0.47058823529411764
rnwiki,True,23.0,0.3076923076923077,1.0,0.4375,0.75,0.47058823529411764
rnwiki,True,24.0,0.3076923076923077,1.0,0.4375,0.75,0.47058823529411764
rnwiki,True,25.0,0.3076923076923077,1.0,0.4375,0.75,0.47058823529411764
rnwiki,True,26.0,0.3076923076923077,1.0,0.4375,0.75,0.47058823529411764
rnwiki,True,27.0,0.3076923076923077,1.0,0.4375,0.75,0.47058823529411764
rnwiki,True,28.0,0.3333333333333333,1.0,0.5,0.6666666666666666,0.5
rnwiki,True,29.0,0.3333333333333333,1.0,0.5,0.6666666666666666,0.5
rnwiki,True,30.0,0.3333333333333333,1.0,0.5,0.6666666666666666,0.5
rnwiki,True,31.0,0.3333333333333333,1.0,0.5,0.6666666666666666,0.5
rnwiki,True,32.0,0.36363636363636365,1.0,0.5625,0.5833333333333334,0.5333333333333333
rnwiki,True,33.0,0.36363636363636365,1.0,0.5625,0.5833333333333334,0.5333333333333333
rnwiki,True,34.0,0.36363636363636365,1.0,0.5625,0.5833333333333334,0.5333333333333333
rnwiki,True,35.0,0.36363636363636365,1.0,0.5625,0.5833333333333334,0.5333333333333333
rnwiki,True,36.0,0.36363636363636365,1.0,0.5625,0.5833333333333334,0.5333333333333333
rnwiki,True,37.0,0.36363636363636365,1.0,0.5625,0.5833333333333334,0.5333333333333333
rnwiki,True,38.0,0.4,1.0,0.625,0.5,0.5714285714285715
rnwiki,True,39.0,0.4,1.0,0.625,0.5,0.5714285714285715
rnwiki,True,40.0,0.4,1.0,0.625,0.5,0.5714285714285715
rnwiki,True,41.0,0.4,1.0,0.625,0.5,0.5714285714285715
rnwiki,True,42.0,0.4,1.0,0.625,0.5,0.5714285714285715
rnwiki,True,43.0,0.4,1.0,0.625,0.5,0.5714285714285715
rnwiki,True,44.0,0.4,1.0,0.625,0.5,0.5714285714285715
rnwiki,True,45.0,0.4,1.0,0.625,0.5,0.5714285714285715
rnwiki,True,46.0,0.4,1.0,0.625,0.5,0.5714285714285715
rnwiki,True,47.0,0.4,1.0,0.625,0.5,0.5714285714285715
rnwiki,True,48.0,0.4,1.0,0.625,0.5,0.5714285714285715
rnwiki,True,49.0,0.4,1.0,0.625,0.5,0.5714285714285715
rnwiki,True,50.0,0.4,1.0,0.625,0.5,0.5714285714285715
rnwiki,True,51.0,0.4,1.0,0.625,0.5,0.5714285714285715
rnwiki,True,52.0,0.4444444444444444,1.0,0.6875,0.4166666666666667,0.6153846153846153
rnwiki,True,53.0,0.4444444444444444,1.0,0.6875,0.4166666666666667,0.6153846153846153
rnwiki,True,54.0,0.4444444444444444,1.0,0.6875,0.4166666666666667,0.6153846153846153
rnwiki,True,55.0,0.5,1.0,0.75,0.3333333333333333,0.6666666666666666
rnwiki,True,56.0,0.5,1.0,0.75,0.3333333333333333,0.6666666666666666
rnwiki,True,57.0,0.5,1.0,0.75,0.3333333333333333,0.6666666666666666
rnwiki,True,58.0,0.5,1.0,0.75,0.3333333333333333,0.6666666666666666
rnwiki,True,59.0,0.5,1.0,0.75,0.3333333333333333,0.6666666666666666
rnwiki,True,60.0,0.5,1.0,0.75,0.3333333333333333,0.6666666666666666
rnwiki,True,61.0,0.5,1.0,0.75,0.3333333333333333,0.6666666666666666
rnwiki,True,62.0,0.5,1.0,0.75,0.3333333333333333,0.6666666666666666
rnwiki,True,63.0,0.5,1.0,0.75,0.3333333333333333,0.6666666666666666
rnwiki,True,64.0,0.5,1.0,0.75,0.3333333333333333,0.6666666666666666
rnwiki,True,65.0,0.5,1.0,0.75,0.3333333333333333,0.6666666666666666
rnwiki,True,66.0,0.5,1.0,0.75,0.3333333333333333,0.6666666666666666
rnwiki,True,67.0,0.5,1.0,0.75,0.3333333333333333,0.6666666666666666
rnwiki,True,68.0,0.5,1.0,0.75,0.3333333333333333,0.6666666666666666
rnwiki,True,69.0,0.5,1.0,0.75,0.3333333333333333,0.6666666666666666
rnwiki,True,70.0,0.5,1.0,0.75,0.3333333333333333,0.6666666666666666
rnwiki,True,71.0,0.5714285714285714,1.0,0.8125,0.25,0.7272727272727273
rnwiki,True,72.0,0.5714285714285714,1.0,0.8125,0.25,0.7272727272727273
rnwiki,True,73.0,0.5714285714285714,1.0,0.8125,0.25,0.7272727272727273
rnwiki,True,74.0,0.5714285714285714,1.0,0.8125,0.25,0.7272727272727273
rnwiki,True,75.0,0.5714285714285714,1.0,0.8125,0.25,0.7272727272727273
rnwiki,True,76.0,0.6,0.75,0.8125,0.16666666666666666,0.6666666666666665
rnwiki,True,77.0,0.6,0.75,0.8125,0.16666666666666666,0.6666666666666665
rnwiki,True,78.0,0.6,0.75,0.8125,0.16666666666666666,0.6666666666666665
rnwiki,True,79.0,0.5,0.5,0.75,0.16666666666666666,0.5
rnwiki,True,80.0,0.5,0.5,0.75,0.16666666666666666,0.5
rnwiki,True,81.0,0.5,0.5,0.75,0.16666666666666666,0.5
rnwiki,True,82.0,0.3333333333333333,0.25,0.6875,0.16666666666666666,0.28571428571428575
rnwiki,True,83.0,0.3333333333333333,0.25,0.6875,0.16666666666666666,0.28571428571428575
rnwiki,True,84.0,0.3333333333333333,0.25,0.6875,0.16666666666666666,0.28571428571428575
rnwiki,True,85.0,0.3333333333333333,0.25,0.6875,0.16666666666666666,0.28571428571428575
rnwiki,True,86.0,0.3333333333333333,0.25,0.6875,0.16666666666666666,0.28571428571428575
rnwiki,True,87.0,1.0,0.25,0.8125,0.0,0.4
rnwiki,True,88.0,1.0,0.25,0.8125,0.0,0.4
rnwiki,True,89.0,1.0,0.25,0.8125,0.0,0.4
rnwiki,True,90.0,1.0,0.0,0.75,0.0,0.0
rnwiki,True,91.0,1.0,0.0,0.75,0.0,0.0
rnwiki,True,92.0,1.0,0.0,0.75,0.0,0.0
rnwiki,True,93.0,1.0,0.0,0.75,0.0,0.0
rnwiki,True,94.0,1.0,0.0,0.75,0.0,0.0
rnwiki,True,95.0,1.0,0.0,0.75,0.0,0.0
rnwiki,True,96.0,1.0,0.0,0.75,0.0,0.0
rnwiki,True,97.0,1.0,0.0,0.75,0.0,0.0
rnwiki,True,98.0,1.0,0.0,0.75,0.0,0.0
rnwiki,True,99.0,1.0,0.0,0.75,0.0,0.0
rnwiki,False,0.0,0.02936096718480138,1.0,0.02936096718480138,1.0,0.057046979865771806
rnwiki,False,1.0,0.02936096718480138,1.0,0.02936096718480138,1.0,0.057046979865771806
rnwiki,False,2.0,0.02936096718480138,1.0,0.02936096718480138,1.0,0.057046979865771806
rnwiki,False,3.0,0.02936096718480138,1.0,0.02936096718480138,1.0,0.057046979865771806
rnwiki,False,4.0,0.02936096718480138,1.0,0.02936096718480138,1.0,0.057046979865771806
rnwiki,False,5.0,0.02936096718480138,1.0,0.02936096718480138,1.0,0.057046979865771806
rnwiki,False,6.0,0.02936096718480138,1.0,0.02936096718480138,1.0,0.057046979865771806
rnwiki,False,7.0,0.02936096718480138,1.0,0.02936096718480138,1.0,0.057046979865771806
rnwiki,False,8.0,0.029411764705882353,1.0,0.031088082901554404,0.998220640569395,0.05714285714285715
rnwiki,False,9.0,0.029411764705882353,1.0,0.031088082901554404,0.998220640569395,0.05714285714285715
rnwiki,False,10.0,0.029411764705882353,1.0,0.031088082901554404,0.998220640569395,0.05714285714285715
rnwiki,False,11.0,0.029411764705882353,1.0,0.031088082901554404,0.998220640569395,0.05714285714285715
rnwiki,False,12.0,0.029462738301559793,1.0,0.03281519861830743,0.99644128113879,0.05723905723905724
rnwiki,False,13.0,0.029513888888888888,1.0,0.03454231433506045,0.994661921708185,0.05733558178752108
rnwiki,False,14.0,0.029565217391304348,1.0,0.03626943005181347,0.9928825622775801,0.05743243243243243
rnwiki,False,15.0,0.02972027972027972,1.0,0.04145077720207254,0.9875444839857651,0.057724957555178265
rnwiki,False,16.0,0.0297723292469352,1.0,0.04317789291882556,0.9857651245551602,0.05782312925170068
rnwiki,False,17.0,0.0297723292469352,1.0,0.04317789291882556,0.9857651245551602,0.05782312925170068
rnwiki,False,18.0,0.029876977152899824,1.0,0.046632124352331605,0.9822064056939501,0.05802047781569966
rnwiki,False,19.0,0.030035335689045935,1.0,0.05181347150259067,0.9768683274021353,0.05831903945111492
rnwiki,False,20.0,0.03019538188277087,1.0,0.05699481865284974,0.9715302491103203,0.05862068965517241
rnwiki,False,21.0,0.030357142857142857,1.0,0.06217616580310881,0.9661921708185054,0.058925476603119586
rnwiki,False,22.0,0.03052064631956912,1.0,0.06735751295336788,0.9608540925266904,0.059233449477351915
rnwiki,False,23.0,0.030797101449275364,1.0,0.07599309153713299,0.9519572953736655,0.05975395430579965
rnwiki,False,24.0,0.030852994555353903,1.0,0.07772020725388601,0.9501779359430605,0.05985915492957746
rnwiki,False,25.0,0.03125,1.0,0.08981001727115717,0.9377224199288257,0.06060606060606061
rnwiki,False,26.0,0.03130755064456722,1.0,0.09153713298791019,0.9359430604982206,0.06071428571428572
rnwiki,False,27.0,0.031423290203327174,1.0,0.09499136442141623,0.9323843416370107,0.06093189964157707
rnwiki,False,28.0,0.03165735567970205,1.0,0.10189982728842832,0.9252669039145908,0.06137184115523466
rnwiki,False,29.0,0.030303030303030304,0.9411764705882353,0.11398963730569948,0.9110320284697508,0.05871559633027523
rnwiki,False,30.0,0.03065134099616858,0.9411764705882353,0.12435233160621761,0.900355871886121,0.05936920222634508
rnwiki,False,31.0,0.031007751937984496,0.9411764705882353,0.13471502590673576,0.8896797153024911,0.0600375234521576
rnwiki,False,32.0,0.031189083820662766,0.9411764705882353,0.13989637305699482,0.8843416370106761,0.06037735849056604
rnwiki,False,33.0,0.03162055335968379,0.9411764705882353,0.15198618307426598,0.8718861209964412,0.06118546845124282
rnwiki,False,34.0,0.03187250996015936,0.9411764705882353,0.15889464594127806,0.8647686832740213,0.06165703275529865
rnwiki,False,35.0,0.032454361054766734,0.9411764705882353,0.17443868739205526,0.8487544483985765,0.06274509803921569
rnwiki,False,36.0,0.03292181069958848,0.9411764705882353,0.18652849740932642,0.8362989323843416,0.06361829025844931
rnwiki,False,37.0,0.03333333333333333,0.9411764705882353,0.19689119170984457,0.8256227758007118,0.06438631790744467
rnwiki,False,38.0,0.03389830508474576,0.9411764705882353,0.21070811744386875,0.8113879003558719,0.06543967280163598
rnwiki,False,39.0,0.034334763948497854,0.9411764705882353,0.22107081174438686,0.800711743772242,0.06625258799171843
rnwiki,False,40.0,0.034782608695652174,0.9411764705882353,0.231433506044905,0.7900355871886121,0.0670859538784067
rnwiki,False,41.0,0.035794183445190156,0.9411764705882353,0.2538860103626943,0.7669039145907474,0.06896551724137931
rnwiki,False,42.0,0.03416856492027335,0.8823529411764706,0.26424870466321243,0.7544483985765125,0.06578947368421054
rnwiki,False,43.0,0.03496503496503497,0.8823529411764706,0.2815198618307427,0.7366548042704626,0.06726457399103139
rnwiki,False,44.0,0.03597122302158273,0.8823529411764706,0.3022452504317789,0.7153024911032029,0.06912442396313363
rnwiki,False,45.0,0.03722084367245657,0.8823529411764706,0.32642487046632124,0.6903914590747331,0.07142857142857142
rnwiki,False,46.0,0.03807106598984772,0.8823529411764706,0.34196891191709844,0.6743772241992882,0.072992700729927
rnwiki,False,47.0,0.0390625,0.8823529411764706,0.3592400690846287,0.6565836298932385,0.07481296758104738
rnwiki,False,48.0,0.04076086956521739,0.8823529411764706,0.38687392055267705,0.6281138790035588,0.07792207792207792
rnwiki,False,49.0,0.0423728813559322,0.8823529411764706,0.4110535405872193,0.603202846975089,0.08086253369272237
rnwiki,False,50.0,0.04398826979472141,0.8823529411764706,0.43350604490500866,0.5800711743772242,0.08379888268156424
rnwiki,False,51.0,0.04573170731707317,0.8823529411764706,0.45595854922279794,0.5569395017793595,0.08695652173913043
rnwiki,False,52.0,0.04746835443037975,0.8823529411764706,0.47668393782383417,0.5355871886120996,0.09009009009009009
rnwiki,False,53.0,0.049342105263157895,0.8823529411764706,0.49740932642487046,0.5142348754448398,0.09345794392523364
rnwiki,False,54.0,0.050505050505050504,0.8823529411764706,0.5094991364421416,0.501779359430605,0.09554140127388536
rnwiki,False,55.0,0.05154639175257732,0.8823529411764706,0.5198618307426598,0.49110320284697506,0.0974025974025974
rnwiki,False,56.0,0.053003533568904596,0.8823529411764706,0.533678756476684,0.47686832740213525,0.1
rnwiki,False,57.0,0.05555555555555555,0.8823529411764706,0.5561312607944733,0.45373665480427045,0.10452961672473866
rnwiki,False,58.0,0.05859375,0.8823529411764706,0.5803108808290155,0.4288256227758007,0.10989010989010989
rnwiki,False,59.0,0.06072874493927125,0.8823529411764706,0.5958549222797928,0.4128113879003559,0.11363636363636362
rnwiki,False,60.0,0.06302521008403361,0.8823529411764706,0.6113989637305699,0.39679715302491103,0.11764705882352941
rnwiki,False,61.0,0.06086956521739131,0.8235294117647058,0.6217616580310881,0.38434163701067614,0.11336032388663969
rnwiki,False,62.0,0.05752212389380531,0.7647058823529411,0.6252158894645942,0.3790035587188612,0.10699588477366256
rnwiki,False,63.0,0.05909090909090909,0.7647058823529411,0.6355785837651122,0.3683274021352313,0.10970464135021096
rnwiki,False,64.0,0.0625,0.7647058823529411,0.6563039723661486,0.3469750889679715,0.11555555555555555
rnwiki,False,65.0,0.06532663316582915,0.7647058823529411,0.6718480138169257,0.3309608540925267,0.12037037037037039
rnwiki,False,66.0,0.06842105263157895,0.7647058823529411,0.687392055267703,0.31494661921708184,0.12560386473429952
rnwiki,False,67.0,0.07303370786516854,0.7647058823529411,0.7081174438687392,0.29359430604982206,0.13333333333333333
rnwiki,False,68.0,0.07784431137724551,0.7647058823529411,0.7271157167530224,0.27402135231316727,0.14130434782608695
rnwiki,False,69.0,0.08176100628930817,0.7647058823529411,0.7409326424870466,0.2597864768683274,0.1477272727272727
rnwiki,False,70.0,0.087248322147651,0.7647058823529411,0.7582037996545768,0.24199288256227758,0.1566265060240964
rnwiki,False,71.0,0.09285714285714286,0.7647058823529411,0.7737478411053541,0.22597864768683273,0.16560509554140126
rnwiki,False,72.0,0.10236220472440945,0.7647058823529411,0.7962003454231433,0.20284697508896798,0.18055555555555555
rnwiki,False,73.0,0.11403508771929824,0.7647058823529411,0.8186528497409327,0.1797153024911032,0.19847328244274806
rnwiki,False,74.0,0.12037037037037036,0.7647058823529411,0.8290155440414507,0.16903914590747332,0.208
rnwiki,False,75.0,0.12871287128712872,0.7647058823529411,0.8411053540587219,0.15658362989323843,0.22033898305084745
rnwiki,False,76.0,0.13541666666666666,0.7647058823529411,0.8497409326424871,0.14768683274021352,0.2300884955752212
rnwiki,False,77.0,0.14772727272727273,0.7647058823529411,0.8635578583765112,0.13345195729537365,0.24761904761904763
rnwiki,False,78.0,0.15853658536585366,0.7647058823529411,0.8739205526770294,0.12277580071174377,0.26262626262626265
rnwiki,False,79.0,0.18309859154929578,0.7647058823529411,0.8929188255613126,0.10320284697508897,0.29545454545454547
rnwiki,False,80.0,0.19402985074626866,0.7647058823529411,0.8998272884283247,0.09608540925266904,0.30952380952380953
rnwiki,False,81.0,0.20967741935483872,0.7647058823529411,0.9084628670120898,0.08718861209964412,0.3291139240506329
rnwiki,False,82.0,0.22807017543859648,0.7647058823529411,0.917098445595855,0.07829181494661921,0.3513513513513513
rnwiki,False,83.0,0.24074074074074073,0.7647058823529411,0.9222797927461139,0.07295373665480427,0.36619718309859156
rnwiki,False,84.0,0.26666666666666666,0.7058823529411765,0.9343696027633851,0.05871886120996441,0.3870967741935483
rnwiki,False,85.0,0.2682926829268293,0.6470588235294118,0.9378238341968912,0.05338078291814947,0.3793103448275862
rnwiki,False,86.0,0.2777777777777778,0.5882352941176471,0.9430051813471503,0.046263345195729534,0.3773584905660377
rnwiki,False,87.0,0.3333333333333333,0.5882352941176471,0.9533678756476683,0.03558718861209965,0.42553191489361697
rnwiki,False,88.0,0.35714285714285715,0.5882352941176471,0.9568221070811744,0.03202846975088968,0.4444444444444445
rnwiki,False,89.0,0.375,0.5294117647058824,0.9602763385146805,0.026690391459074734,0.4390243902439025
rnwiki,False,90.0,0.4090909090909091,0.5294117647058824,0.9637305699481865,0.023131672597864767,0.46153846153846156
rnwiki,False,91.0,0.5,0.5294117647058824,0.9706390328151986,0.01601423487544484,0.5142857142857143
rnwiki,False,92.0,0.5294117647058824,0.5294117647058824,0.9723661485319517,0.014234875444839857,0.5294117647058824
rnwiki,False,93.0,0.7272727272727273,0.47058823529411764,0.9792746113989638,0.005338078291814947,0.5714285714285714
rnwiki,False,94.0,0.7,0.4117647058823529,0.9775474956822107,0.005338078291814947,0.5185185185185185
rnwiki,False,95.0,0.7,0.4117647058823529,0.9775474956822107,0.005338078291814947,0.5185185185185185
rnwiki,False,96.0,0.7,0.4117647058823529,0.9775474956822107,0.005338078291814947,0.5185185185185185
rnwiki,False,97.0,0.7,0.4117647058823529,0.9775474956822107,0.005338078291814947,0.5185185185185185
rnwiki,False,98.0,0.7,0.4117647058823529,0.9775474956822107,0.005338078291814947,0.5185185185185185
rnwiki,False,99.0,0.75,0.35294117647058826,0.9775474956822107,0.0035587188612099642,0.48
