wiki_db,user_is_anonymous,threshold,precision,recall,accuracy,fpr,F1
scnwiki,True,0.0,0.24812030075187969,1.0,0.24812030075187969,1.0,0.3975903614457831
scnwiki,True,1.0,0.24812030075187969,1.0,0.24812030075187969,1.0,0.3975903614457831
scnwiki,True,2.0,0.24812030075187969,1.0,0.24812030075187969,1.0,0.3975903614457831
scnwiki,True,3.0,0.24812030075187969,1.0,0.24812030075187969,1.0,0.3975903614457831
scnwiki,True,4.0,0.24812030075187969,1.0,0.24812030075187969,1.0,0.3975903614457831
scnwiki,True,5.0,0.24812030075187969,1.0,0.24812030075187969,1.0,0.3975903614457831
scnwiki,True,6.0,0.24812030075187969,1.0,0.24812030075187969,1.0,0.3975903614457831
scnwiki,True,7.0,0.24812030075187969,1.0,0.24812030075187969,1.0,0.3975903614457831
scnwiki,True,8.0,0.24812030075187969,1.0,0.24812030075187969,1.0,0.3975903614457831
scnwiki,True,9.0,0.24812030075187969,1.0,0.24812030075187969,1.0,0.3975903614457831
scnwiki,True,10.0,0.24812030075187969,1.0,0.24812030075187969,1.0,0.3975903614457831
scnwiki,True,11.0,0.24812030075187969,1.0,0.24812030075187969,1.0,0.3975903614457831
scnwiki,True,12.0,0.2490566037735849,1.0,0.2518796992481203,0.995,0.3987915407854985
scnwiki,True,13.0,0.2490566037735849,1.0,0.2518796992481203,0.995,0.3987915407854985
scnwiki,True,14.0,0.2490566037735849,1.0,0.2518796992481203,0.995,0.3987915407854985
scnwiki,True,15.0,0.25,1.0,0.2556390977443609,0.99,0.4
scnwiki,True,16.0,0.25,1.0,0.2556390977443609,0.99,0.4
scnwiki,True,17.0,0.25,1.0,0.2556390977443609,0.99,0.4
scnwiki,True,18.0,0.2509505703422053,1.0,0.2593984962406015,0.985,0.4012158054711246
scnwiki,True,19.0,0.2509505703422053,1.0,0.2593984962406015,0.985,0.4012158054711246
scnwiki,True,20.0,0.2509505703422053,1.0,0.2593984962406015,0.985,0.4012158054711246
scnwiki,True,21.0,0.25287356321839083,1.0,0.2669172932330827,0.975,0.4036697247706423
scnwiki,True,22.0,0.25384615384615383,1.0,0.2706766917293233,0.97,0.4049079754601227
scnwiki,True,23.0,0.25384615384615383,1.0,0.2706766917293233,0.97,0.4049079754601227
scnwiki,True,24.0,0.25384615384615383,1.0,0.2706766917293233,0.97,0.4049079754601227
scnwiki,True,25.0,0.25384615384615383,1.0,0.2706766917293233,0.97,0.4049079754601227
scnwiki,True,26.0,0.2548262548262548,1.0,0.2744360902255639,0.965,0.40615384615384614
scnwiki,True,27.0,0.25680933852140075,1.0,0.2819548872180451,0.955,0.40866873065015474
scnwiki,True,28.0,0.2578125,1.0,0.2857142857142857,0.95,0.40993788819875776
scnwiki,True,29.0,0.2578125,1.0,0.2857142857142857,0.95,0.40993788819875776
scnwiki,True,30.0,0.2578125,1.0,0.2857142857142857,0.95,0.40993788819875776
scnwiki,True,31.0,0.2578125,1.0,0.2857142857142857,0.95,0.40993788819875776
scnwiki,True,32.0,0.25882352941176473,1.0,0.2894736842105263,0.945,0.4112149532710281
scnwiki,True,33.0,0.2608695652173913,1.0,0.29699248120300753,0.935,0.41379310344827586
scnwiki,True,34.0,0.2619047619047619,1.0,0.3007518796992481,0.93,0.41509433962264153
scnwiki,True,35.0,0.264,1.0,0.3082706766917293,0.92,0.4177215189873418
scnwiki,True,36.0,0.26506024096385544,1.0,0.31203007518796994,0.915,0.4190476190476191
scnwiki,True,37.0,0.2661290322580645,1.0,0.3157894736842105,0.91,0.4203821656050955
scnwiki,True,38.0,0.26720647773279355,1.0,0.31954887218045114,0.905,0.42172523961661346
scnwiki,True,39.0,0.2682926829268293,1.0,0.3233082706766917,0.9,0.4230769230769231
scnwiki,True,40.0,0.2693877551020408,1.0,0.32706766917293234,0.895,0.42443729903536975
scnwiki,True,41.0,0.27049180327868855,1.0,0.3308270676691729,0.89,0.42580645161290326
scnwiki,True,42.0,0.2727272727272727,1.0,0.3383458646616541,0.88,0.42857142857142855
scnwiki,True,43.0,0.27385892116182575,1.0,0.34210526315789475,0.875,0.4299674267100978
scnwiki,True,44.0,0.27385892116182575,1.0,0.34210526315789475,0.875,0.4299674267100978
scnwiki,True,45.0,0.275,1.0,0.3458646616541353,0.87,0.4313725490196079
scnwiki,True,46.0,0.27615062761506276,1.0,0.34962406015037595,0.865,0.43278688524590164
scnwiki,True,47.0,0.28085106382978725,1.0,0.36466165413533835,0.845,0.4385382059800665
scnwiki,True,48.0,0.28448275862068967,1.0,0.37593984962406013,0.83,0.44295302013422816
scnwiki,True,49.0,0.28448275862068967,1.0,0.37593984962406013,0.83,0.44295302013422816
scnwiki,True,50.0,0.28695652173913044,1.0,0.38345864661654133,0.82,0.44594594594594594
scnwiki,True,51.0,0.28695652173913044,1.0,0.38345864661654133,0.82,0.44594594594594594
scnwiki,True,52.0,0.28695652173913044,1.0,0.38345864661654133,0.82,0.44594594594594594
scnwiki,True,53.0,0.2894736842105263,1.0,0.39097744360902253,0.81,0.4489795918367347
scnwiki,True,54.0,0.2907488986784141,1.0,0.39473684210526316,0.805,0.45051194539249145
scnwiki,True,55.0,0.2907488986784141,1.0,0.39473684210526316,0.805,0.45051194539249145
scnwiki,True,56.0,0.2907488986784141,1.0,0.39473684210526316,0.805,0.45051194539249145
scnwiki,True,57.0,0.2907488986784141,1.0,0.39473684210526316,0.805,0.45051194539249145
scnwiki,True,58.0,0.2907488986784141,1.0,0.39473684210526316,0.805,0.45051194539249145
scnwiki,True,59.0,0.29333333333333333,1.0,0.40225563909774437,0.795,0.45360824742268036
scnwiki,True,60.0,0.29464285714285715,1.0,0.40601503759398494,0.79,0.4551724137931034
scnwiki,True,61.0,0.29464285714285715,1.0,0.40601503759398494,0.79,0.4551724137931034
scnwiki,True,62.0,0.29464285714285715,1.0,0.40601503759398494,0.79,0.4551724137931034
scnwiki,True,63.0,0.29464285714285715,1.0,0.40601503759398494,0.79,0.4551724137931034
scnwiki,True,64.0,0.29596412556053814,1.0,0.40977443609022557,0.785,0.4567474048442907
scnwiki,True,65.0,0.2972972972972973,1.0,0.41353383458646614,0.78,0.4583333333333333
scnwiki,True,66.0,0.3,1.0,0.42105263157894735,0.77,0.4615384615384615
scnwiki,True,67.0,0.3,1.0,0.42105263157894735,0.77,0.4615384615384615
scnwiki,True,68.0,0.3,1.0,0.42105263157894735,0.77,0.4615384615384615
scnwiki,True,69.0,0.3013698630136986,1.0,0.424812030075188,0.765,0.4631578947368421
scnwiki,True,70.0,0.30275229357798167,1.0,0.42857142857142855,0.76,0.46478873239436624
scnwiki,True,71.0,0.30985915492957744,1.0,0.4473684210526316,0.735,0.47311827956989244
scnwiki,True,72.0,0.3113207547169811,1.0,0.45112781954887216,0.73,0.4748201438848921
scnwiki,True,73.0,0.3080568720379147,0.9848484848484849,0.4473684210526316,0.73,0.46931407942238274
scnwiki,True,74.0,0.30917874396135264,0.9696969696969697,0.4548872180451128,0.715,0.4688644688644688
scnwiki,True,75.0,0.3106796116504854,0.9696969696969697,0.45864661654135336,0.71,0.47058823529411764
scnwiki,True,76.0,0.3121951219512195,0.9696969696969697,0.462406015037594,0.705,0.47232472324723246
scnwiki,True,77.0,0.31840796019900497,0.9696969696969697,0.4774436090225564,0.685,0.4794007490636704
scnwiki,True,78.0,0.3316062176165803,0.9696969696969697,0.5075187969924813,0.645,0.4942084942084942
scnwiki,True,79.0,0.33507853403141363,0.9696969696969697,0.5150375939849624,0.635,0.49805447470817127
scnwiki,True,80.0,0.3386243386243386,0.9696969696969697,0.5225563909774437,0.625,0.5019607843137255
scnwiki,True,81.0,0.3387096774193548,0.9545454545454546,0.5263157894736842,0.615,0.5
scnwiki,True,82.0,0.3442622950819672,0.9545454545454546,0.5375939849624061,0.6,0.5060240963855422
scnwiki,True,83.0,0.35795454545454547,0.9545454545454546,0.5639097744360902,0.565,0.5206611570247934
scnwiki,True,84.0,0.3684210526315789,0.9545454545454546,0.5827067669172933,0.54,0.5316455696202531
scnwiki,True,85.0,0.3795180722891566,0.9545454545454546,0.6015037593984962,0.515,0.5431034482758621
scnwiki,True,86.0,0.39622641509433965,0.9545454545454546,0.6278195488721805,0.48,0.5599999999999999
scnwiki,True,87.0,0.42,0.9545454545454546,0.6616541353383458,0.435,0.5833333333333334
scnwiki,True,88.0,0.44776119402985076,0.9090909090909091,0.6992481203007519,0.37,0.6
scnwiki,True,89.0,0.45689655172413796,0.803030303030303,0.7142857142857143,0.315,0.5824175824175825
scnwiki,True,90.0,0.46153846153846156,0.7272727272727273,0.7218045112781954,0.28,0.5647058823529413
scnwiki,True,91.0,0.4659090909090909,0.6212121212121212,0.7293233082706767,0.235,0.5324675324675324
scnwiki,True,92.0,0.5205479452054794,0.5757575757575758,0.7631578947368421,0.175,0.5467625899280576
scnwiki,True,93.0,0.5606060606060606,0.5606060606060606,0.7819548872180451,0.145,0.5606060606060606
scnwiki,True,94.0,0.55,0.3333333333333333,0.7669172932330827,0.09,0.4150943396226416
scnwiki,True,95.0,0.5652173913043478,0.19696969696969696,0.7631578947368421,0.05,0.29213483146067415
scnwiki,True,96.0,0.7692307692307693,0.15151515151515152,0.7781954887218046,0.015,0.25316455696202533
scnwiki,True,97.0,0.6666666666666666,0.09090909090909091,0.7631578947368421,0.015,0.16
scnwiki,True,98.0,0.8571428571428571,0.09090909090909091,0.7706766917293233,0.005,0.1643835616438356
scnwiki,True,99.0,0.6666666666666666,0.030303030303030304,0.7556390977443609,0.005,0.057971014492753624
scnwiki,False,0.0,0.030710172744721688,1.0,0.030710172744721688,1.0,0.0595903165735568
scnwiki,False,1.0,0.030710172744721688,1.0,0.030710172744721688,1.0,0.0595903165735568
scnwiki,False,2.0,0.030710172744721688,1.0,0.030710172744721688,1.0,0.0595903165735568
scnwiki,False,3.0,0.030710172744721688,1.0,0.030710172744721688,1.0,0.0595903165735568
scnwiki,False,4.0,0.030710172744721688,1.0,0.030710172744721688,1.0,0.0595903165735568
scnwiki,False,5.0,0.030710172744721688,1.0,0.030710172744721688,1.0,0.0595903165735568
scnwiki,False,6.0,0.030710172744721688,1.0,0.030710172744721688,1.0,0.0595903165735568
scnwiki,False,7.0,0.030710172744721688,1.0,0.030710172744721688,1.0,0.0595903165735568
scnwiki,False,8.0,0.030710172744721688,1.0,0.030710172744721688,1.0,0.0595903165735568
scnwiki,False,9.0,0.030828516377649325,1.0,0.0345489443378119,0.996039603960396,0.05981308411214953
scnwiki,False,10.0,0.030947775628626693,1.0,0.03838771593090211,0.9920792079207921,0.0600375234521576
scnwiki,False,11.0,0.031067961165048542,1.0,0.04222648752399232,0.9881188118811881,0.06026365348399246
scnwiki,False,12.0,0.031067961165048542,1.0,0.04222648752399232,0.9881188118811881,0.06026365348399246
scnwiki,False,13.0,0.031067961165048542,1.0,0.04222648752399232,0.9881188118811881,0.06026365348399246
scnwiki,False,14.0,0.0311284046692607,1.0,0.044145873320537425,0.9861386138613861,0.060377358490566045
scnwiki,False,15.0,0.031189083820662766,1.0,0.046065259117082535,0.9841584158415841,0.060491493383742906
scnwiki,False,16.0,0.03143418467583497,1.0,0.053742802303262956,0.9762376237623762,0.060952380952380945
scnwiki,False,17.0,0.03155818540433925,1.0,0.05758157389635317,0.9722772277227723,0.061185468451242835
scnwiki,False,18.0,0.03162055335968379,1.0,0.05950095969289827,0.9702970297029703,0.06130268199233716
scnwiki,False,19.0,0.031746031746031744,1.0,0.06333973128598848,0.9663366336633663,0.06153846153846154
scnwiki,False,20.0,0.03180914512922465,1.0,0.06525911708253358,0.9643564356435643,0.06165703275529865
scnwiki,False,21.0,0.0321285140562249,1.0,0.07485604606525911,0.9544554455445544,0.062256809338521395
scnwiki,False,22.0,0.032388663967611336,1.0,0.08253358925143954,0.9465346534653465,0.06274509803921569
scnwiki,False,23.0,0.0326530612244898,1.0,0.09021113243761997,0.9386138613861386,0.0632411067193676
scnwiki,False,24.0,0.032989690721649485,1.0,0.09980806142034548,0.9287128712871288,0.06387225548902195
scnwiki,False,25.0,0.033126293995859216,1.0,0.1036468330134357,0.9247524752475248,0.06412825651302606
scnwiki,False,26.0,0.03347280334728033,1.0,0.11324376199616124,0.9148514851485149,0.06477732793522266
scnwiki,False,27.0,0.03389830508474576,1.0,0.12476007677543186,0.902970297029703,0.06557377049180328
scnwiki,False,28.0,0.03470715835140998,1.0,0.14587332053742802,0.8811881188118812,0.06708595387840671
scnwiki,False,29.0,0.03532008830022075,1.0,0.16122840690978887,0.8653465346534653,0.06823027718550106
scnwiki,False,30.0,0.03211009174311927,0.875,0.18618042226487524,0.8356435643564356,0.061946902654867256
scnwiki,False,31.0,0.03263403263403263,0.875,0.19961612284069097,0.8217821782178217,0.06292134831460673
scnwiki,False,32.0,0.0332541567695962,0.875,0.21497120921305182,0.805940594059406,0.06407322654462243
scnwiki,False,33.0,0.034229828850855744,0.875,0.2380038387715931,0.7821782178217822,0.06588235294117646
scnwiki,False,34.0,0.03526448362720403,0.875,0.26103646833013433,0.7584158415841584,0.06779661016949153
scnwiki,False,35.0,0.03608247422680412,0.875,0.2783109404990403,0.7405940594059406,0.0693069306930693
scnwiki,False,36.0,0.036939313984168866,0.875,0.29558541266794625,0.7227722772277227,0.07088607594936709
scnwiki,False,37.0,0.03773584905660377,0.875,0.31094049904030713,0.7069306930693069,0.07235142118863049
scnwiki,False,38.0,0.03867403314917127,0.875,0.32821497120921306,0.689108910891089,0.07407407407407407
scnwiki,False,39.0,0.04011461318051576,0.875,0.3531669865642994,0.6633663366336634,0.07671232876712328
scnwiki,False,40.0,0.041176470588235294,0.875,0.3704414587332054,0.6455445544554456,0.07865168539325842
scnwiki,False,41.0,0.04242424242424243,0.875,0.3896353166986564,0.6257425742574257,0.08092485549132948
scnwiki,False,42.0,0.04361370716510903,0.875,0.4069097888675624,0.6079207920792079,0.0830860534124629
scnwiki,False,43.0,0.04487179487179487,0.875,0.42418426103646834,0.5900990099009901,0.08536585365853659
scnwiki,False,44.0,0.046822742474916385,0.875,0.4491362763915547,0.5643564356435643,0.08888888888888889
scnwiki,False,45.0,0.0456140350877193,0.8125,0.472168905950096,0.5386138613861386,0.08637873754152825
scnwiki,False,46.0,0.046263345195729534,0.8125,0.4798464491362764,0.5306930693069307,0.08754208754208753
scnwiki,False,47.0,0.04744525547445255,0.8125,0.4932821497120921,0.5168316831683168,0.0896551724137931
scnwiki,False,48.0,0.04961832061068702,0.8125,0.5163147792706334,0.49306930693069306,0.09352517985611511
scnwiki,False,49.0,0.05179282868525897,0.8125,0.5374280230326296,0.47128712871287126,0.09737827715355807
scnwiki,False,50.0,0.052845528455284556,0.8125,0.5470249520153551,0.4613861386138614,0.09923664122137404
scnwiki,False,51.0,0.05371900826446281,0.8125,0.5547024952015355,0.4534653465346535,0.10077519379844961
scnwiki,False,52.0,0.05555555555555555,0.8125,0.5700575815738963,0.4376237623762376,0.104
scnwiki,False,53.0,0.05726872246696035,0.8125,0.5834932821497121,0.42376237623762375,0.10699588477366255
scnwiki,False,54.0,0.05909090909090909,0.8125,0.5969289827255279,0.4099009900990099,0.11016949152542373
scnwiki,False,55.0,0.06103286384976526,0.8125,0.6103646833013435,0.39603960396039606,0.11353711790393013
scnwiki,False,56.0,0.05687203791469194,0.75,0.6103646833013435,0.3940594059405941,0.10572687224669602
scnwiki,False,57.0,0.057971014492753624,0.75,0.6180422264875239,0.38613861386138615,0.10762331838565022
scnwiki,False,58.0,0.05970149253731343,0.75,0.6295585412667947,0.37425742574257426,0.11059907834101383
scnwiki,False,59.0,0.06091370558375635,0.75,0.6372360844529751,0.36633663366336633,0.11267605633802817
scnwiki,False,60.0,0.06153846153846154,0.75,0.6410748560460653,0.36237623762376237,0.1137440758293839
scnwiki,False,61.0,0.0625,0.75,0.6468330134357005,0.3564356435643564,0.11538461538461539
scnwiki,False,62.0,0.06349206349206349,0.75,0.6525911708253359,0.3504950495049505,0.11707317073170731
scnwiki,False,63.0,0.06486486486486487,0.75,0.6602687140115163,0.3425742574257426,0.11940298507462688
scnwiki,False,64.0,0.06779661016949153,0.75,0.6756238003838771,0.32673267326732675,0.12435233160621761
scnwiki,False,65.0,0.07017543859649122,0.75,0.6871401151631478,0.31485148514851485,0.1283422459893048
scnwiki,False,66.0,0.07272727272727272,0.75,0.6986564299424184,0.30297029702970296,0.13259668508287292
scnwiki,False,67.0,0.07692307692307693,0.75,0.7159309021113244,0.2851485148514851,0.13953488372093026
scnwiki,False,68.0,0.07947019867549669,0.75,0.72552783109405,0.27524752475247527,0.1437125748502994
scnwiki,False,69.0,0.0821917808219178,0.75,0.7351247600767754,0.26534653465346536,0.14814814814814814
scnwiki,False,70.0,0.08633093525179857,0.75,0.7485604606525912,0.2514851485148515,0.15483870967741936
scnwiki,False,71.0,0.08888888888888889,0.75,0.7562380038387716,0.24356435643564356,0.15894039735099338
scnwiki,False,72.0,0.08270676691729323,0.6875,0.7562380038387716,0.24158415841584158,0.1476510067114094
scnwiki,False,73.0,0.07086614173228346,0.5625,0.7600767754318618,0.23366336633663368,0.1258741258741259
scnwiki,False,74.0,0.075,0.5625,0.7735124760076776,0.2198019801980198,0.1323529411764706
scnwiki,False,75.0,0.07894736842105263,0.5625,0.7850287907869482,0.2079207920792079,0.13846153846153844
scnwiki,False,76.0,0.08490566037735849,0.5625,0.800383877159309,0.19207920792079208,0.14754098360655737
scnwiki,False,77.0,0.061224489795918366,0.375,0.8042226487523992,0.18217821782178217,0.10526315789473682
scnwiki,False,78.0,0.06593406593406594,0.375,0.817658349328215,0.16831683168316833,0.11214953271028039
scnwiki,False,79.0,0.060240963855421686,0.3125,0.8291746641074856,0.15445544554455445,0.10101010101010101
scnwiki,False,80.0,0.05333333333333334,0.25,0.8406909788867563,0.1405940594059406,0.08791208791208792
scnwiki,False,81.0,0.058823529411764705,0.25,0.8541266794625719,0.12673267326732673,0.09523809523809523
scnwiki,False,82.0,0.047619047619047616,0.1875,0.8598848368522073,0.1188118811881188,0.0759493670886076
scnwiki,False,83.0,0.05263157894736842,0.1875,0.8714011516314779,0.10693069306930693,0.0821917808219178
scnwiki,False,84.0,0.057692307692307696,0.1875,0.8809980806142035,0.09702970297029703,0.08823529411764705
scnwiki,False,85.0,0.0625,0.1875,0.8886756238003839,0.0891089108910891,0.09375
scnwiki,False,86.0,0.07317073170731707,0.1875,0.9021113243761996,0.07524752475247524,0.10526315789473682
scnwiki,False,87.0,0.058823529411764705,0.125,0.9117082533589251,0.06336633663366337,0.07999999999999999
scnwiki,False,88.0,0.06451612903225806,0.125,0.9174664107485605,0.05742574257425743,0.0851063829787234
scnwiki,False,89.0,0.038461538461538464,0.0625,0.9232245681381958,0.04950495049504951,0.04761904761904762
scnwiki,False,90.0,0.047619047619047616,0.0625,0.9328214971209213,0.039603960396039604,0.05405405405405405
scnwiki,False,91.0,0.0,0.0,0.944337811900192,0.02574257425742574,0.05405405405405405
scnwiki,False,92.0,0.0,0.0,0.9481765834932822,0.02178217821782178,0.05405405405405405
scnwiki,False,93.0,0.0,0.0,0.9539347408829175,0.015841584158415842,0.05405405405405405
scnwiki,False,94.0,0.0,0.0,0.9577735124760077,0.011881188118811881,0.05405405405405405
scnwiki,False,95.0,0.0,0.0,0.9596928982725528,0.009900990099009901,0.05405405405405405
scnwiki,False,96.0,0.0,0.0,0.9596928982725528,0.009900990099009901,0.05405405405405405
scnwiki,False,97.0,0.0,0.0,0.963531669865643,0.005940594059405941,0.05405405405405405
scnwiki,False,98.0,0.0,0.0,0.9654510556621881,0.0039603960396039604,0.05405405405405405
scnwiki,False,99.0,0.0,0.0,0.9692898272552783,0.0,0.05405405405405405
