wiki_db,user_is_anonymous,threshold,precision,recall,accuracy,fpr,F1
slwiki,True,0.0,0.3364156759136944,1.0,0.3364156759136944,1.0,0.5034596375617792
slwiki,True,1.0,0.3364156759136944,1.0,0.3364156759136944,1.0,0.5034596375617792
slwiki,True,2.0,0.3364156759136944,1.0,0.3364156759136944,1.0,0.5034596375617792
slwiki,True,3.0,0.3364156759136944,1.0,0.3364156759136944,1.0,0.5034596375617792
slwiki,True,4.0,0.3364156759136944,1.0,0.3364156759136944,1.0,0.5034596375617792
slwiki,True,5.0,0.3364156759136944,1.0,0.3364156759136944,1.0,0.5034596375617792
slwiki,True,6.0,0.3364156759136944,1.0,0.3364156759136944,1.0,0.5034596375617792
slwiki,True,7.0,0.3364156759136944,1.0,0.3364156759136944,1.0,0.5034596375617792
slwiki,True,8.0,0.3364156759136944,1.0,0.3364156759136944,1.0,0.5034596375617792
slwiki,True,9.0,0.3364156759136944,1.0,0.3364156759136944,1.0,0.5034596375617792
slwiki,True,10.0,0.3364156759136944,1.0,0.3364156759136944,1.0,0.5034596375617792
slwiki,True,11.0,0.3364156759136944,1.0,0.3364156759136944,1.0,0.5034596375617792
slwiki,True,12.0,0.3364156759136944,1.0,0.3364156759136944,1.0,0.5034596375617792
slwiki,True,13.0,0.3364403669724771,1.0,0.3364890650227506,0.999889404998894,0.5034872865066725
slwiki,True,14.0,0.3364897599647655,1.0,0.33663584324086304,0.9996682149966821,0.5035425935079915
slwiki,True,15.0,0.33651446189986783,1.0,0.3367092323499193,0.9995576199955762,0.5035702515654179
slwiki,True,16.0,0.3365638766519824,1.0,0.3368560105680317,0.9993364299933643,0.5036255767963085
slwiki,True,17.0,0.3366133059186371,1.0,0.33700278878614415,0.9991152399911524,0.5036809141852543
slwiki,True,18.0,0.33668747704737423,1.0,0.33722295611331277,0.9987834549878345,0.5037639430737952
slwiki,True,19.0,0.33681116825863333,1.0,0.33758990165859387,0.9982304799823049,0.5039023854017808
slwiki,True,20.0,0.3368854266186522,1.0,0.3378100689857625,0.997898694978987,0.5039854873288989
slwiki,True,21.0,0.336910186682346,1.0,0.33788345809481873,0.997788099977881,0.5040131940626718
slwiki,True,22.0,0.3369597177300794,1.0,0.33803023631293116,0.9975669099756691,0.5040686166703321
slwiki,True,23.0,0.3370836090889036,1.0,0.3383971818582122,0.9970139349701393,0.5042072265302756
slwiki,True,24.0,0.3370836090889036,1.0,0.3383971818582122,0.9970139349701393,0.5042072265302756
slwiki,True,25.0,0.33715798764342453,1.0,0.3386173491853809,0.9966821499668215,0.5042904290429043
slwiki,True,26.0,0.33723239902891194,1.0,0.33883751651254956,0.9963503649635036,0.5043736590196403
slwiki,True,27.0,0.33728202486939884,1.0,0.338984294730662,0.9961291749612917,0.5044291609353507
slwiki,True,28.0,0.3373316653175362,1.0,0.3391310729487744,0.9959079849590798,0.5044846750674077
slwiki,True,29.0,0.3374558303886926,1.0,0.3394980184940555,0.9953550099535501,0.5046235138705416
slwiki,True,30.0,0.3375552282768778,1.0,0.33979157493028034,0.9949126299491263,0.5047346399471482
slwiki,True,31.0,0.3377044349491675,1.0,0.34023190958461763,0.9942490599424906,0.5049014208613283
slwiki,True,32.0,0.3377790877606661,1.0,0.3404520769117863,0.9939172749391727,0.50498485265767
slwiki,True,33.0,0.3377790877606661,1.0,0.3404520769117863,0.9939172749391727,0.50498485265767
slwiki,True,34.0,0.337878676199602,1.0,0.34074563334801117,0.9934748949347489,0.5050961379538318
slwiki,True,35.0,0.3381029650390913,1.0,0.3414061353295171,0.9924795399247954,0.5053467092933525
slwiki,True,36.0,0.3383775005536281,1.0,0.3422134155291355,0.9912629949126299,0.5056533009762285
slwiki,True,37.0,0.3384774422210736,1.0,0.34250697196536034,0.9908206149082062,0.5057648811165665
slwiki,True,38.0,0.3386274654650218,1.0,0.34294730661969763,0.9901570449015704,0.5059323436896419
slwiki,True,39.0,0.33877762175744586,1.0,0.3433876412740349,0.9894934748949348,0.5060999171956941
slwiki,True,40.0,0.3389279112754159,1.0,0.3438279759283722,0.988829904888299,0.5062676017449886
slwiki,True,41.0,0.3391285048457498,1.0,0.34441508880082194,0.9879451448794514,0.506491354068836
slwiki,True,42.0,0.3392539964476021,1.0,0.34478203434610305,0.9873921698739216,0.5066312997347481
slwiki,True,43.0,0.33955555555555555,1.0,0.34566270365477764,0.9860650298606503,0.5069674850696748
slwiki,True,44.0,0.339758321595374,0.99978184991274,0.34632320563628355,0.9849590798495907,0.5071653848281967
slwiki,True,45.0,0.3398857651509532,0.9995636998254799,0.3467635402906209,0.9841849148418491,0.5072792693052866
slwiki,True,46.0,0.3400875825725525,0.9995636998254799,0.3473506531630706,0.9833001548330016,0.5075040150634103
slwiki,True,47.0,0.3402896398069068,0.9995636998254799,0.34793776603552035,0.982415394824154,0.5077289600531886
slwiki,True,48.0,0.34039075848748235,0.9995636998254799,0.3482313224717452,0.9819730148197301,0.5078415073427542
slwiki,True,49.0,0.34044451051810004,0.9991273996509599,0.34852487890797007,0.9813094448130945,0.5078449853079781
slwiki,True,50.0,0.3405743192977235,0.9986910994764397,0.34903860267136355,0.9803140898031409,0.5079329856873405
slwiki,True,51.0,0.3409547925821107,0.9986910994764397,0.3501394393072068,0.9786551647865517,0.5083560046638166
slwiki,True,52.0,0.3412343470483005,0.9986910994764397,0.3509467195068252,0.9774386197743862,0.5086666666666666
slwiki,True,53.0,0.3418458781362007,0.9986910994764397,0.3527080581241744,0.9747843397478434,0.5093457943925234
slwiki,True,54.0,0.34225478468899523,0.9986910994764397,0.35388228386907383,0.9730148197301483,0.5097995545657016
slwiki,True,55.0,0.34287212525282795,0.9984729493891797,0.35571701159547925,0.9701393497013935,0.5104555846762951
slwiki,True,56.0,0.3436444177490803,0.9984729493891797,0.3579186848671657,0.966821499668215,0.5113109534714853
slwiki,True,57.0,0.3446846982596248,0.9980366492146597,0.36100102744752677,0.9619553196195532,0.5124040992327938
slwiki,True,58.0,0.34560157194679564,0.9976003490401396,0.36371642448260677,0.9576421145764211,0.5133587786259542
slwiki,True,59.0,0.3462179778687282,0.9965095986038395,0.3657713195361808,0.9539924795399248,0.5138935763302959
slwiki,True,60.0,0.34706910970881166,0.9958551483420593,0.3683399383531484,0.9497898694978987,0.5147431921971022
slwiki,True,61.0,0.34793558727009083,0.9945462478184991,0.3711287244972846,0.9449236894492369,0.5155198733533104
slwiki,True,62.0,0.34939389289550404,0.993455497382199,0.37545868193160137,0.9378456093784561,0.5169712793733682
slwiki,True,63.0,0.3508338480543545,0.9912739965095986,0.38000880669308673,0.9298827692988277,0.5182481751824817
slwiki,True,64.0,0.35212799005902456,0.9890924956369983,0.38411859680023486,0.922583499225835,0.5193585337915235
slwiki,True,65.0,0.354752762322702,0.987565445026178,0.39153089681491265,0.9106392391063924,0.5219948111847795
slwiki,True,66.0,0.35873443818888273,0.9869109947643979,0.4020989285190078,0.8943817739438178,0.5261994765920326
slwiki,True,67.0,0.36251303859423895,0.9856020942408377,0.4120798473506532,0.8786772837867728,0.5300639408693611
slwiki,True,68.0,0.367032967032967,0.9836387434554974,0.4238221047996477,0.8599867285998672,0.5345900764716344
slwiki,True,69.0,0.3728266269249876,0.9823298429319371,0.4381329810656099,0.8377571333775713,0.5405113431760893
slwiki,True,70.0,0.37790501852475583,0.9790575916230366,0.450755907823279,0.8170758681707587,0.545321992709599
slwiki,True,71.0,0.38319198149575945,0.9757853403141361,0.4634522236900044,0.79628400796284,0.5502860306329581
slwiki,True,72.0,0.3890585463746619,0.9727312390924956,0.47695581975634815,0.774386197743862,0.5558117793705205
slwiki,True,73.0,0.39642697632871815,0.9681500872600349,0.49339498018494055,0.7472904224729042,0.5625198048038532
slwiki,True,74.0,0.4042436436802634,0.9642233856893543,0.5099075297225891,0.7204158372041584,0.5696610387936589
slwiki,True,75.0,0.41291474762665664,0.9583333333333334,0.5275943050051373,0.6907763769077637,0.5771529921828812
slwiki,True,76.0,0.42209549584380435,0.9526614310645725,0.5452810802876853,0.6612475116124751,0.5849966510381781
slwiki,True,77.0,0.43208769307424016,0.9458987783595113,0.5635549684426832,0.6302809113028092,0.5932006293180108
slwiki,True,78.0,0.4435592343507501,0.9352094240837696,0.5835168061059739,0.5947799159477991,0.6017264369429434
slwiki,True,79.0,0.4556512378902045,0.9234293193717278,0.6031116982239836,0.5592789205927892,0.610206140983134
slwiki,True,80.0,0.468690275435638,0.9094677137870855,0.6227065903419933,0.5226719752267197,0.6185918836708955
slwiki,True,81.0,0.48344762355166704,0.8920157068062827,0.6430353735505651,0.4831895598318956,0.6270510657874558
slwiki,True,82.0,0.49894344313238037,0.8756544502617801,0.6623367092323499,0.4458084494580845,0.6356797846226938
slwiki,True,83.0,0.515850144092219,0.8590750436300174,0.6813444884779098,0.40875912408759124,0.6446226878376166
slwiki,True,84.0,0.531502648452746,0.8318062827225131,0.6967562013797153,0.371709798717098,0.6485796904235414
slwiki,True,85.0,0.5466607036374478,0.799956369982548,0.7095259063554968,0.33631939836319397,0.6494863620262132
slwiki,True,86.0,0.5613139850103652,0.7678883071553229,0.7200205489505357,0.3042468480424685,0.6485490557346845
slwiki,True,87.0,0.573790047716428,0.7345113438045375,0.7271392925289887,0.276598097765981,0.6442786069651741
slwiki,True,88.0,0.5902331558656141,0.7013525305410122,0.735725818288566,0.2468480424684804,0.6410128601335859
slwiki,True,89.0,0.6101046698872786,0.6612129144851658,0.7438720093938059,0.21422251714222518,0.6346314907872697
slwiki,True,90.0,0.6310004486316734,0.6136561954624782,0.7493028034639659,0.18192877681928776,0.6222074762220747
slwiki,True,91.0,0.6602858601327207,0.5643542757417103,0.7557610450609129,0.14720194647201945,0.6085626911314984
slwiki,True,92.0,0.6891573364761343,0.5102530541012217,0.757815940114487,0.11667772616677727,0.5863624968663825
slwiki,True,93.0,0.7252671492588763,0.45898778359511344,0.7595038896227799,0.08814421588144215,0.562191048764195
slwiki,True,94.0,0.7642857142857142,0.3968150087260035,0.7559078232790254,0.06204379562043796,0.522400919012062
slwiki,True,95.0,0.8021108179419525,0.33158813263525305,0.747614853955673,0.041473125414731256,0.46920821114369504
slwiki,True,96.0,0.8451296426068675,0.2630890052356021,0.7358725965066784,0.024441495244414954,0.40126434869406086
slwiki,True,97.0,0.9063786008230452,0.19219022687609075,0.7215617202407163,0.010064145100641452,0.3171346292296617
slwiki,True,98.0,0.9538461538461539,0.12172774869109948,0.7025539409951563,0.0029860650298606504,0.21590249564712713
slwiki,True,99.0,0.979539641943734,0.08355148342059336,0.6911052399823866,0.0008847600088476001,0.15396984924623114
slwiki,False,0.0,0.019972498365681567,1.0,0.019972498365681567,1.0,0.039162817424359626
slwiki,False,1.0,0.019996388913965876,1.0,0.021167241495908568,0.9987809085681426,0.03920874452360933
slwiki,False,2.0,0.02034766823305031,0.9994356659142212,0.03894186334843669,0.9806325474410581,0.03988334515645937
slwiki,False,3.0,0.02062867221904239,0.9966139954853274,0.054924370505624306,0.9642668200115009,0.040420686419244456
slwiki,False,4.0,0.021125576479631054,0.9926636568848759,0.08119744820901242,0.9373778033352501,0.04137071358013077
slwiki,False,5.0,0.02165840041871246,0.9808126410835214,0.11474042514821578,0.9029097182288671,0.04238094076909947
slwiki,False,6.0,0.022269298336261237,0.9729119638826185,0.1463222199679899,0.8705232892466935,0.04354195080062636
slwiki,False,7.0,0.022939461223616276,0.9678329571106095,0.17603300196118213,0.8401035077630822,0.044816682781508875
slwiki,False,8.0,0.02363732091889046,0.9627539503386005,0.20499988728838395,0.8104427832087406,0.04614177913612637
slwiki,False,9.0,0.024441592524766038,0.9565462753950339,0.23659295326976398,0.7780793559516964,0.047665246551651407
slwiki,False,10.0,0.025452514303829953,0.9514672686230248,0.27142084263204164,0.7424381828637148,0.049578757002337784
slwiki,False,11.0,0.02661222414642284,0.9452595936794582,0.3083677103762314,0.7046118458884416,0.05176703289910837
slwiki,False,12.0,0.027795038879465262,0.9339729119638827,0.3462162710488943,0.6657619321449109,0.053983527684905816
slwiki,False,13.0,0.029187319473665443,0.9238148984198645,0.38477491490272986,0.6262104657849339,0.056586815997787684
slwiki,False,14.0,0.03070266987988387,0.9130925507900677,0.42252203512093955,0.58747556066705,0.059407758256687045
slwiki,False,15.0,0.03233966769878372,0.9018058690744921,0.45910822569374,0.5499137435307648,0.062440168017974015
slwiki,False,16.0,0.0339231133496922,0.8893905191873589,0.49191857712855885,0.5161817136285222,0.06535351441011818
slwiki,False,17.0,0.03562195428859045,0.878668171557562,0.5224746962421947,0.484784358826912,0.06846815153580615
slwiki,False,18.0,0.03726557773744706,0.8690744920993227,0.5489619260160952,0.45756181713628524,0.07146669141703597
slwiki,False,19.0,0.03903250575889429,0.8606094808126411,0.5740402605892563,0.43179988499137434,0.07467802752068949
slwiki,False,20.0,0.04085771456384187,0.8527088036117382,0.5972588534974415,0.4079470960322024,0.07797904732414718
slwiki,False,21.0,0.04233589136450518,0.837471783295711,0.6183922815085323,0.3860724554341576,0.08059742023082145
slwiki,False,22.0,0.043833468994000785,0.8205417607223476,0.6389283379545095,0.36477285796434733,0.08322124602924764
slwiki,False,23.0,0.045603747729373145,0.8075620767494357,0.6586077861184374,0.34442783208740657,0.08633223733824016
slwiki,False,24.0,0.047627078625156,0.7968397291196389,0.6777011338788576,0.32472685451408856,0.08988191858429613
slwiki,False,25.0,0.0496471683920192,0.7821670428893905,0.6966141430535832,0.3051293847038528,0.09336791404223786
slwiki,False,26.0,0.05156446510918861,0.7635440180586908,0.7147832555623183,0.28621046578493387,0.09660490521580807
slwiki,False,27.0,0.053480475382003394,0.7466139954853274,0.731024999436442,0.2692926969522714,0.09981139192757449
slwiki,False,28.0,0.05614443295415374,0.7353273137697517,0.7478190302292554,0.251926394479586,0.10432345876701363
slwiki,False,29.0,0.05830729645285793,0.7161399548532731,0.7633281485989946,0.23571017826336976,0.10783480625424882
slwiki,False,30.0,0.06082272282076396,0.7009029345372461,0.7778679470706251,0.22056354226566993,0.1119322278298486
slwiki,False,31.0,0.0633493623249007,0.6839729119638827,0.7917089335226889,0.20609545715928695,0.11595866819747418
slwiki,False,32.0,0.0660198505631761,0.6681715575620768,0.8045806000766439,0.1926394479585969,0.120166446767482
slwiki,False,33.0,0.06917490177402072,0.6557562076749436,0.8168887085503032,0.17982748706152962,0.12514808831448573
slwiki,False,34.0,0.072173470685489,0.6405191873589164,0.8283627510651248,0.1678090856814261,0.1297291118985027
slwiki,False,35.0,0.07497288503253796,0.6241534988713319,0.838687135096143,0.15694077055779185,0.1338658920358267
slwiki,False,36.0,0.07872247972190034,0.613431151241535,0.8488988075111021,0.1463024726854514,0.13953786906290114
slwiki,False,37.0,0.08201383551114527,0.6021444695259593,0.8574423480083857,0.13735480161012076,0.1443647679610337
slwiki,False,38.0,0.08555102040816326,0.5914221218961625,0.8655801266878564,0.12883266244968372,0.14947938953073742
slwiki,False,39.0,0.08915098430318273,0.5801354401805869,0.8732332454182729,0.12079355951696377,0.15455160490115014
slwiki,False,40.0,0.09241923641703377,0.5682844243792325,0.8799170442505805,0.11373202990224267,0.15898326491948217
slwiki,False,41.0,0.09642060335629062,0.5609480812641083,0.8862401659114988,0.10713053479010926,0.16455591424550947
slwiki,False,42.0,0.1,0.5496613995485328,0.8922026104010279,0.10081656124209315,0.16921473245309243
slwiki,False,43.0,0.10396255170912258,0.5389390519187359,0.8980185297896801,0.09466359976998275,0.17430187990509216
slwiki,False,44.0,0.10842262933517686,0.531038374717833,0.9034174161989135,0.08899367452558941,0.18007846139125444
slwiki,False,45.0,0.1125,0.5231376975169301,0.9080498636189446,0.08410580793559518,0.18517778665601278
slwiki,False,46.0,0.11623734461104704,0.5118510158013544,0.9125245147764929,0.07930994824611846,0.18945169712793733
slwiki,False,47.0,0.12042025862068965,0.5045146726862303,0.9165032348233809,0.07510063254744105,0.19443236189647672
slwiki,False,48.0,0.12439988703756001,0.4971783295711061,0.9200649218908501,0.07131684876365728,0.19900609893833296
slwiki,False,49.0,0.12950916617386163,0.49435665914221216,0.9235364396654719,0.06771707878090857,0.20524835988753515
slwiki,False,50.0,0.13436293436293437,0.4909706546275395,0.9266585514303104,0.06446233467510064,0.21098581302291744
slwiki,False,51.0,0.13936944219886824,0.48645598194130923,0.9297468497103312,0.061219091431857386,0.2166645720749026
slwiki,False,52.0,0.14360711261642675,0.4785553047404063,0.9325871824350217,0.058159861989649224,0.220919630063827
slwiki,False,53.0,0.14818744473916887,0.4729119638826185,0.9351795496043822,0.05539965497412306,0.2256631210448364
slwiki,False,54.0,0.15319148936170213,0.4672686230248307,0.9377719167737427,0.052639447958596895,0.23073707677302496
slwiki,False,55.0,0.15913480108149866,0.4650112866817156,0.9402403011654381,0.0500747556066705,0.23712230215827343
slwiki,False,56.0,0.1638714891897353,0.45767494356659144,0.9425283469714388,0.04759056929269695,0.24133313495015624
slwiki,False,57.0,0.16994708994708996,0.45316027088036115,0.9448727485854692,0.0451063829787234,0.24719101123595508
slwiki,False,58.0,0.1745751489737365,0.4463882618510158,0.9467888460584748,0.04301322599194939,0.25099159130572746
slwiki,False,59.0,0.18118628359592215,0.44130925507900676,0.94900926489484,0.040644048303622775,0.2568988173455979
slwiki,False,60.0,0.18754543251756725,0.4367945823927765,0.9509591758526634,0.03856239217941346,0.26241735887438555
slwiki,False,61.0,0.193173198482933,0.43115124153498874,0.9526723924167625,0.036699252443933295,0.2668063558582155
slwiki,False,62.0,0.19952556668423826,0.4272009029345372,0.954329253172832,0.03492811960897067,0.27200862378727986
slwiki,False,63.0,0.2060922063666301,0.4238148984198646,0.9558846734744483,0.033271995399654974,0.27732644017725255
slwiki,False,64.0,0.21189591078066913,0.41817155756207675,0.9573161109983995,0.03169637722829212,0.28126779275004743
slwiki,False,65.0,0.21897374701670644,0.4142212189616253,0.9587926331687744,0.030109258194364576,0.2864949258391882
slwiki,False,66.0,0.2237129485179407,0.404627539503386,0.9600662744302427,0.02861414606095457,0.2881253767329716
slwiki,False,67.0,0.23039375203384316,0.39954853273137697,0.9613511868533171,0.027199539965497413,0.29226006191950465
slwiki,False,68.0,0.2378027976799727,0.39334085778781036,0.962703726246027,0.025692926969522713,0.2964065490112694
slwiki,False,69.0,0.24803431022158684,0.39164785553047404,0.9641351637699781,0.02419781483611271,0.30371991247264774
slwiki,False,70.0,0.25624766878030586,0.3876975169300226,0.9652960934153874,0.02293271995399655,0.3085560296429373
slwiki,False,71.0,0.2637703646237393,0.3837471783295711,0.9662992267983138,0.021828637147786083,0.31264367816091954
slwiki,False,72.0,0.2704248366013072,0.37358916478555304,0.9673587159892698,0.02054054054054054,0.31374407582938385
slwiki,False,73.0,0.2792207792207792,0.3639954853273138,0.968530916796285,0.019148936170212766,0.3160215580597746
slwiki,False,74.0,0.2882594792142531,0.3560948081264108,0.9695791348256352,0.017918343875790683,0.3186064125220904
slwiki,False,75.0,0.29884504331087586,0.35045146726862303,0.9706048105317734,0.016756756756756756,0.3225974025974026
slwiki,False,76.0,0.3084349593495935,0.3425507900677201,0.9715290457834584,0.01565267395054629,0.3245989304812834
slwiki,False,77.0,0.3183783783783784,0.332392776523702,0.9724532810351435,0.014502587694077055,0.32523467697404745
slwiki,False,78.0,0.32602423542989034,0.31884875846501126,0.9732309911859516,0.013433007475560668,0.3223965763195435
slwiki,False,79.0,0.34009840098400984,0.31207674943566593,0.9741664975992426,0.012340425531914894,0.32548557975279574
slwiki,False,80.0,0.35071707953063885,0.3036117381489842,0.9748653096188094,0.011454859114433582,0.3254688445251059
slwiki,False,81.0,0.36022253129346316,0.29232505643340856,0.9754964946687406,0.010580793559516964,0.3227414330218068
slwiki,False,82.0,0.37209302325581395,0.2799097065462754,0.9761840355267014,0.009626221966647499,0.3194847020933977
slwiki,False,83.0,0.387987012987013,0.2697516930022573,0.9769166610310859,0.008671650373778034,0.3182423435419441
slwiki,False,84.0,0.39875111507582517,0.25225733634311515,0.9774689479497757,0.007751581368602645,0.3090217767023851
slwiki,False,85.0,0.41642228739002934,0.24040632054176073,0.978100132999707,0.006866014951121334,0.30483005366726296
slwiki,False,86.0,0.43816631130063965,0.231941309255079,0.9787200468880323,0.00606095457159287,0.3033210332103321
slwiki,False,87.0,0.4566744730679157,0.2200902934537246,0.9791934356754807,0.005336400230017252,0.297029702970297
slwiki,False,88.0,0.4782608695652174,0.20485327313769752,0.9796555533013233,0.004554341575618171,0.2868431450019755
slwiki,False,89.0,0.5021961932650073,0.1935665914221219,0.9800613151191362,0.0039102932719954,0.2794297352342159
slwiki,False,90.0,0.521594684385382,0.17720090293453725,0.9803205518360723,0.003312248418631397,0.2645324347093513
slwiki,False,91.0,0.5518518518518518,0.16817155756207675,0.9806586866842497,0.002783208740655549,0.25778546712802763
slwiki,False,92.0,0.5682819383259912,0.1455981941309255,0.9807263136538852,0.002254169062679701,0.23180592991913745
slwiki,False,93.0,0.5885416666666666,0.1275395033860045,0.9807939406235207,0.0018171362852213917,0.20964749536178104
slwiki,False,94.0,0.6492307692307693,0.1190744920993228,0.9811208043100922,0.001311098332374928,0.20123986647591802
slwiki,False,95.0,0.7298387096774194,0.10214446952595936,0.9813124140573928,0.0007705577918343876,0.1792079207920792
slwiki,False,96.0,0.8229166666666666,0.08916478555304741,0.9814251256734519,0.00039102932719953996,0.16089613034623218
slwiki,False,97.0,0.9202898550724637,0.0716704288939052,0.9813349563806046,0.00012650948821161587,0.13298429319371727
slwiki,False,98.0,0.9534883720930233,0.046275395033860044,0.9809066522395798,4.600345025876941e-05,0.0882669537136706
slwiki,False,99.0,0.9714285714285714,0.019187358916478554,0.9803994499673137,1.1500862564692352e-05,0.03763143331488655
