wiki_db,user_is_anonymous,threshold,precision,recall,accuracy,fpr,F1
sqwiki,True,0.0,0.2574981711777615,1.0,0.2574981711777615,1.0,0.4095404304828389
sqwiki,True,1.0,0.2574981711777615,1.0,0.2574981711777615,1.0,0.4095404304828389
sqwiki,True,2.0,0.2574981711777615,1.0,0.2574981711777615,1.0,0.4095404304828389
sqwiki,True,3.0,0.2574981711777615,1.0,0.2574981711777615,1.0,0.4095404304828389
sqwiki,True,4.0,0.2574981711777615,1.0,0.2574981711777615,1.0,0.4095404304828389
sqwiki,True,5.0,0.2574981711777615,1.0,0.2574981711777615,1.0,0.4095404304828389
sqwiki,True,6.0,0.2574981711777615,1.0,0.2574981711777615,1.0,0.4095404304828389
sqwiki,True,7.0,0.2574981711777615,1.0,0.2574981711777615,1.0,0.4095404304828389
sqwiki,True,8.0,0.2574981711777615,1.0,0.2574981711777615,1.0,0.4095404304828389
sqwiki,True,9.0,0.2574981711777615,1.0,0.2574981711777615,1.0,0.4095404304828389
sqwiki,True,10.0,0.2575452716297787,1.0,0.25768105340160935,0.9997536945812808,0.4096000000000001
sqwiki,True,11.0,0.25773384587223136,1.0,0.25841258229700076,0.9987684729064039,0.4098384514626692
sqwiki,True,12.0,0.2581118240146654,1.0,0.25987564008778347,0.9967980295566502,0.4103161882558648
sqwiki,True,13.0,0.25853837679030484,1.0,0.26152158010241405,0.9945812807881773,0.4108549751969653
sqwiki,True,14.0,0.2590616375344986,1.0,0.2635332845647403,0.991871921182266,0.41151541721467194
sqwiki,True,15.0,0.2596827738841756,1.0,0.26591075347476223,0.9886699507389163,0.41229868228404104
sqwiki,True,16.0,0.2600739371534196,0.9992897727272727,0.2677395757132407,0.9859605911330049,0.4127310061601643
sqwiki,True,17.0,0.26021823562049196,0.9992897727272727,0.2682882223847842,0.9852216748768473,0.41291269258987534
sqwiki,True,18.0,0.26065209336791406,0.9992897727272727,0.26993416239941476,0.9830049261083744,0.4134587129003821
sqwiki,True,19.0,0.26123282584478275,0.9992897727272727,0.2721287490855889,0.9800492610837438,0.41418899028554607
sqwiki,True,20.0,0.2615241635687732,0.9992897727272727,0.27322604242867593,0.9785714285714285,0.41455509723040657
sqwiki,True,21.0,0.2620111731843575,0.9992897727272727,0.27505486466715434,0.9761083743842365,0.4151667158453821
sqwiki,True,22.0,0.2627450980392157,0.9992897727272727,0.277798098024872,0.9724137931034482,0.4160875351175514
sqwiki,True,23.0,0.26333520494104434,0.9992897727272727,0.2799926847110461,0.9694581280788177,0.41682713672048577
sqwiki,True,24.0,0.26397748592870546,0.9992897727272727,0.28237015362106804,0.966256157635468,0.41763134461264473
sqwiki,True,25.0,0.26432462896862674,0.9992897727272727,0.2836503291880029,0.9645320197044335,0.4180656663200119
sqwiki,True,26.0,0.2649717514124294,0.9992897727272727,0.28602779809802487,0.9613300492610838,0.4188746650788925
sqwiki,True,27.0,0.26582278481012656,0.9992897727272727,0.28913679590343816,0.9571428571428572,0.4199373227876436
sqwiki,True,28.0,0.2662755488266465,0.9992897727272727,0.29078273591806875,0.9549261083743842,0.42050209205020933
sqwiki,True,29.0,0.26667930250189537,0.9992897727272727,0.2922457937088515,0.9529556650246306,0.4210053859964093
sqwiki,True,30.0,0.26728723404255317,0.9992897727272727,0.2944403803950256,0.95,0.4217625899280575
sqwiki,True,31.0,0.26779596497906355,0.9992897727272727,0.29626920263350404,0.9475369458128079,0.42239567697388164
sqwiki,True,32.0,0.2679626453211359,0.9985795454545454,0.2971836137527432,0.9460591133004926,0.4225394440270473
sqwiki,True,33.0,0.26838586437440304,0.9978693181818182,0.2990124359912216,0.9433497536945813,0.42300165587836813
sqwiki,True,34.0,0.2690540022979701,0.9978693181818182,0.3013899049012436,0.9401477832512315,0.42383107088989447
sqwiki,True,35.0,0.26977726574500765,0.9978693181818182,0.3039502560351134,0.9366995073891625,0.4247279322853688
sqwiki,True,36.0,0.2704003079291763,0.9978693181818182,0.3061448427212875,0.933743842364532,0.4254996971532405
sqwiki,True,37.0,0.27123552123552125,0.9978693181818182,0.30907095830285297,0.9298029556650246,0.42653309046751675
sqwiki,True,38.0,0.27186532507739936,0.9978693181818182,0.3112655449890271,0.9268472906403941,0.4273114355231143
sqwiki,True,39.0,0.2725684333139196,0.9971590909090909,0.3140087783467447,0.9229064039408867,0.4281140417746607
sqwiki,True,40.0,0.2736308711752095,0.9971590909090909,0.31766642282370156,0.9179802955665025,0.42942345924453285
sqwiki,True,41.0,0.27432590855803046,0.9971590909090909,0.3200438917337235,0.9147783251231527,0.4302788844621514
sqwiki,True,42.0,0.27524014899039406,0.9971590909090909,0.3231528895391368,0.9105911330049261,0.4314026732216931
sqwiki,True,43.0,0.27654126452629507,0.9971590909090909,0.327542062911485,0.9046798029556651,0.4329992289899769
sqwiki,True,44.0,0.27790973871733965,0.9971590909090909,0.3321141185076811,0.8985221674876848,0.4346749226006192
sqwiki,True,45.0,0.2790143084260731,0.9971590909090909,0.3357717629846379,0.8935960591133005,0.43602484472049685
sqwiki,True,46.0,0.2794498704405023,0.9957386363636364,0.33778346744696414,0.8903940886699507,0.43642023346303505
sqwiki,True,47.0,0.28056834100460276,0.9957386363636364,0.341441111923921,0.8854679802955665,0.4377829820452771
sqwiki,True,48.0,0.281721294992962,0.9950284090909091,0.34546452084857354,0.8798029556650246,0.4391161259990597
sqwiki,True,49.0,0.28277115734195113,0.9943181818181818,0.34912216532553036,0.8746305418719211,0.4403208051580437
sqwiki,True,50.0,0.28316791573830263,0.9928977272727273,0.3509509875640088,0.8716748768472906,0.440661938534279
sqwiki,True,51.0,0.2835093419983753,0.9914772727272727,0.35259692757863936,0.8689655172413793,0.44093493367024644
sqwiki,True,52.0,0.28420195439739415,0.9914772727272727,0.3547915142648135,0.8660098522167488,0.44177215189873414
sqwiki,True,53.0,0.28469387755102044,0.9907670454545454,0.3566203365032919,0.8633004926108374,0.4422954977805961
sqwiki,True,54.0,0.2852177468820282,0.9907670454545454,0.3582662765179225,0.8610837438423645,0.442927448801397
sqwiki,True,55.0,0.28606607839113485,0.9900568181818182,0.36119239209948795,0.8568965517241379,0.44387836331794295
sqwiki,True,56.0,0.2868312757201646,0.9900568181818182,0.3635698610095099,0.8536945812807881,0.44479897894065085
sqwiki,True,57.0,0.28763163328515384,0.9893465909090909,0.36631309436722753,0.8497536945812808,0.44568868980963056
sqwiki,True,58.0,0.28900414937759333,0.9893465909090909,0.3705193855157279,0.844088669950739,0.44733461785484907
sqwiki,True,59.0,0.2900270664168228,0.9893465909090909,0.3736283833211412,0.8399014778325123,0.44855900821123806
sqwiki,True,60.0,0.29026880600125027,0.9893465909090909,0.37435991221653253,0.8389162561576354,0.44884807475430966
sqwiki,True,61.0,0.29070010449320793,0.9879261363636364,0.376188734455011,0.8359605911330049,0.4492168577426126
sqwiki,True,62.0,0.2914309658495705,0.9879261363636364,0.37838332114118506,0.8330049261083744,0.45008898236531303
sqwiki,True,63.0,0.29199075047298717,0.9865056818181818,0.3805779078273592,0.8295566502463054,0.45060827250608276
sqwiki,True,64.0,0.29224610198061524,0.9850852272727273,0.38185808339429406,0.8273399014778325,0.4507637309067273
sqwiki,True,65.0,0.2930596699111299,0.9836647727272727,0.3847841989758595,0.8229064039408867,0.4515813498532768
sqwiki,True,66.0,0.2939052877468677,0.9829545454545454,0.38752743233357717,0.8189655172413793,0.45250940003269574
sqwiki,True,67.0,0.295071474290591,0.9822443181818182,0.391185076810534,0.8137931034482758,0.4538146021328958
sqwiki,True,68.0,0.29594681535492173,0.9801136363636364,0.39447695683979517,0.8086206896551724,0.4546203261406688
sqwiki,True,69.0,0.2969592408885055,0.9779829545454546,0.398134601316752,0.8029556650246306,0.45558312655086847
sqwiki,True,70.0,0.2983940972222222,0.9765625,0.40270665691294805,0.7963054187192118,0.45711436170212766
sqwiki,True,71.0,0.2993212174293847,0.9708806818181818,0.4072787125091441,0.7881773399014779,0.4575732217573221
sqwiki,True,72.0,0.3006189213085765,0.9659090909090909,0.4125822970007315,0.7793103448275862,0.45853000674308836
sqwiki,True,73.0,0.30247602052197187,0.9630681818181818,0.41861741038771033,0.7701970443349754,0.46036326599898136
sqwiki,True,74.0,0.3043869516310461,0.9609375,0.42446964155084127,0.761576354679803,0.46232701178882624
sqwiki,True,75.0,0.30652124517155194,0.9580965909090909,0.43105340160936356,0.7517241379310344,0.46445171285935616
sqwiki,True,76.0,0.3093475242943082,0.9495738636363636,0.44111192392099485,0.7352216748768473,0.46666666666666673
sqwiki,True,77.0,0.3128241395568128,0.9424715909090909,0.4520848573518654,0.7179802955665024,0.46973451327433624
sqwiki,True,78.0,0.315028901734104,0.9289772727272727,0.4615947329919532,0.7004926108374384,0.4705035971223022
sqwiki,True,79.0,0.3181818181818182,0.9197443181818182,0.4718361375274323,0.6834975369458128,0.4728002920774005
sqwiki,True,80.0,0.3215100076007094,0.9012784090909091,0.4848207754206291,0.6596059113300493,0.47394957983193275
sqwiki,True,81.0,0.3252477829942619,0.8856534090909091,0.49743964886613024,0.6371921182266009,0.4757726058756201
sqwiki,True,82.0,0.32810386800108193,0.8615056818181818,0.5100585223116313,0.6118226600985222,0.4752203721841331
sqwiki,True,83.0,0.3337116912599319,0.8352272727272727,0.5281638624725676,0.5783251231527093,0.4768856447688565
sqwiki,True,84.0,0.3373277411623727,0.7997159090909091,0.5438917337234821,0.5448275862068965,0.4745048461862621
sqwiki,True,85.0,0.34533290856960813,0.7698863636363636,0.5649231894659839,0.5061576354679803,0.47679788871783596
sqwiki,True,86.0,0.3505866114561767,0.7215909090909091,0.5841258229700074,0.4635467980295567,0.4718996748722712
sqwiki,True,87.0,0.35390946502057613,0.671875,0.5996708119970738,0.4253694581280788,0.46361185983827496
sqwiki,True,88.0,0.3566404633843608,0.6122159090909091,0.615764447695684,0.3830049261083744,0.450718954248366
sqwiki,True,89.0,0.3682745825602968,0.5639204545454546,0.6386247256766642,0.3354679802955665,0.4455667789001122
sqwiki,True,90.0,0.36923076923076925,0.4943181818181818,0.6523408924652524,0.29285714285714287,0.4227148496811418
sqwiki,True,91.0,0.3766314481044127,0.4303977272727273,0.6698975859546452,0.24704433497536946,0.4017235664567452
sqwiki,True,92.0,0.3940520446096654,0.37642045454545453,0.6903803950256036,0.20073891625615764,0.3850345078096622
sqwiki,True,93.0,0.4160516605166052,0.3203125,0.7092172640819312,0.15591133004926108,0.3619582664526485
sqwiki,True,94.0,0.4539800995024876,0.25923295454545453,0.7289685442574981,0.108128078817734,0.33001808318264014
sqwiki,True,95.0,0.47719298245614034,0.19318181818181818,0.7377468910021946,0.07339901477832513,0.2750252780586451
sqwiki,True,96.0,0.5277044854881267,0.14204545454545456,0.7463423555230432,0.044088669950738915,0.22383883603805263
sqwiki,True,97.0,0.5533980582524272,0.08096590909090909,0.7465252377468911,0.022660098522167486,0.14126394052044608
sqwiki,True,98.0,0.5619047619047619,0.04190340909090909,0.7448792977322605,0.011330049261083743,0.07799074686054197
sqwiki,True,99.0,0.6666666666666666,0.017045454545454544,0.7446964155084126,0.002955665024630542,0.03324099722991689
sqwiki,False,0.0,0.07676395755331693,1.0,0.07676395755331693,1.0,0.14258270257809197
sqwiki,False,1.0,0.07676395755331693,1.0,0.07676395755331693,1.0,0.14258270257809197
sqwiki,False,2.0,0.0768466173821209,1.0,0.07783960449289452,0.9988349166517297,0.1427252797969309
sqwiki,False,3.0,0.07723238468269511,0.9989221234168688,0.08373497714250254,0.9923597418892275,0.1433792956738672
sqwiki,False,4.0,0.07837669719654233,0.98464025869038,0.11002627060794738,0.9626949274063452,0.14519589922911866
sqwiki,False,5.0,0.07914294207770231,0.932632713554298,0.16182280785222267,0.9022674314393261,0.14590447282998184
sqwiki,False,6.0,0.07803582948737035,0.8474804634869307,0.21968020189065635,0.8325192686861445,0.1429123213595983
sqwiki,False,7.0,0.0762797012898846,0.7569388305039073,0.2777030800736404,0.7621437533608173,0.13859285573317545
sqwiki,False,8.0,0.0735411907799104,0.6680140123955807,0.3285067124506133,0.6997221724323356,0.1324959914484233
sqwiki,False,9.0,0.072168541105655,0.6138507140932363,0.36454088492646297,0.6561883850152357,0.12915296518879693
sqwiki,False,10.0,0.07207508099261882,0.5815144165992994,0.39316964193368226,0.6224905897114178,0.12825389278497562
sqwiki,False,11.0,0.07287562327835699,0.5631905146860684,0.4164615352791511,0.5957384835992113,0.12905217659771534
sqwiki,False,12.0,0.07471347744088205,0.5551064403125842,0.4381192726971847,0.571607815020613,0.13170092382444137
sqwiki,False,13.0,0.0765718167408861,0.5467528967933172,0.4590530169828103,0.5482389317081914,0.13433082856102485
sqwiki,False,14.0,0.07865476470127633,0.541363513877661,0.47800095153383115,0.5272674314393261,0.1373534338358459
sqwiki,False,15.0,0.08059264083360469,0.5335489086499596,0.496948886084852,0.5060942821294139,0.14003324021358604
sqwiki,False,16.0,0.08218656052843291,0.52303961196443,0.5150073433589144,0.48566051263667326,0.14205210772833726
sqwiki,False,17.0,0.08231573398928227,0.5049851791969819,0.5298388598142441,0.46809464061659795,0.14155682290289687
sqwiki,False,18.0,0.08403858403858404,0.49770951226084614,0.5450220300767433,0.45104409392364225,0.1437969558955195
sqwiki,False,19.0,0.0851583795469499,0.48827809215844786,0.5580539064600873,0.4361444703351855,0.14502381047660967
sqwiki,False,20.0,0.08687390372247125,0.4804634869307464,0.5724510270359722,0.4199005198064169,0.147142562409738
sqwiki,False,21.0,0.08761770481897377,0.4688763136620857,0.5844279419978073,0.4059643305251837,0.14764531183708102
sqwiki,False,22.0,0.08862675504984603,0.45755860953920774,0.5971702211281882,0.3912215450797634,0.14849147354613032
sqwiki,False,23.0,0.08604486935737954,0.42683912691996767,0.6079680615601017,0.3769716795124574,0.14321880650994573
sqwiki,False,24.0,0.08259436107321509,0.39153866882241983,0.6194485240882858,0.36160154149489154,0.1364127118246256
sqwiki,False,25.0,0.07924909404146617,0.35947184047426567,0.6302256790021306,0.3472620541315648,0.1298676012461059
sqwiki,False,26.0,0.07851188254323753,0.3400700619779035,0.6429472726144426,0.3318695106649937,0.1275713924690422
sqwiki,False,27.0,0.07679147200105284,0.3144704931285368,0.6571582235277083,0.31434844954292884,0.12343981383541358
sqwiki,False,28.0,0.07611184347464095,0.29560765292374025,0.6704796971640155,0.29835095895321745,0.12105495475612447
sqwiki,False,29.0,0.07533039647577093,0.2764753435731609,0.6839459694268043,0.2821742247714644,0.1184005539207201
sqwiki,False,30.0,0.07416899658278969,0.25734303422258153,0.696398651304222,0.26709535759096614,0.11515041900283356
sqwiki,False,31.0,0.07338696437366607,0.24090541632983023,0.7082307676395755,0.25291270837067575,0.11250235952935256
sqwiki,False,32.0,0.07319185794716328,0.22770142818647265,0.7193802618786588,0.2397383043556193,0.11077608809648665
sqwiki,False,33.0,0.07139596457591528,0.21072487200215576,0.7290197132987196,0.2278858218318695,0.10665575559192582
sqwiki,False,34.0,0.07187410037424431,0.2018323901913231,0.7386591647187803,0.2167055027782757,0.10600056609114067
sqwiki,False,35.0,0.06941212182535668,0.1848558340070062,0.747181598163126,0.2060629145008066,0.10092687950566427
sqwiki,False,36.0,0.06982730880617827,0.17542441390460792,0.757317502016838,0.1943000537730776,0.09989258861439312
sqwiki,False,37.0,0.07,0.1678792778226893,0.7649090871480876,0.18544990141602438,0.09880263262231385
sqwiki,False,38.0,0.07113267842348207,0.16195095661546752,0.7733280930020893,0.1758379637927944,0.09884868421052632
sqwiki,False,39.0,0.06895252449133384,0.14793856103476152,0.7812506464224397,0.16609159347553326,0.09406322282189668
sqwiki,False,40.0,0.06866499405783705,0.14012395580706008,0.7880975529032125,0.15802563183366194,0.09216589861751151
sqwiki,False,41.0,0.06969612489545582,0.13473457289140395,0.7955236538899116,0.14953396666069188,0.09186954524575104
sqwiki,False,42.0,0.07146014439369383,0.13069253570466183,0.8029083838404732,0.1411991396307582,0.09239855210516289
sqwiki,False,43.0,0.07353167874209958,0.12853678253839934,0.8087830709720125,0.13465674852124038,0.09354775446165912
sqwiki,False,44.0,0.07539554407491121,0.12584209108057126,0.8144302174047949,0.1283160064527693,0.09429581019687025
sqwiki,False,45.0,0.07706608078418117,0.12287793047696038,0.819705024512339,0.12235615701738663,0.09472372247611134
sqwiki,False,46.0,0.07887724284952922,0.1196443007275667,0.8251660012825022,0.11617225309195196,0.09507494646680943
sqwiki,False,47.0,0.08069003895381191,0.11721907841552143,0.8297168152576381,0.11104140526976161,0.0955833882663151
sqwiki,False,48.0,0.08096618357487922,0.1129075720829965,0.8335229505822973,0.106560315468722,0.09430564933603419
sqwiki,False,49.0,0.08257621643448415,0.11021288062516842,0.8377014252321949,0.10181036027962001,0.09441366574330563
sqwiki,False,50.0,0.08412197686645637,0.10778765831312315,0.841424818484579,0.09757573041763756,0.09449562957713206
sqwiki,False,51.0,0.08600967883853937,0.10536243600107788,0.8453757524357197,0.09309464061659796,0.0947075208913649
sqwiki,False,52.0,0.08759458839715661,0.10293721368903261,0.8488302339532093,0.0891512815916831,0.09464816650148662
sqwiki,False,53.0,0.090040601862909,0.10158986796011857,0.8522226589164925,0.08536476070980463,0.0954672068878197
sqwiki,False,54.0,0.09220389805097451,0.09943411479385611,0.8557185114701198,0.08139899623588456,0.09568261376896149
sqwiki,False,55.0,0.09423127120856173,0.09727836162759364,0.8589247667707838,0.07774690804803729,0.09573057544417926
sqwiki,False,56.0,0.09605442176870749,0.09512260846133118,0.8618207393004158,0.07443090159526797,0.09558624424587056
sqwiki,False,57.0,0.0974780391045622,0.09269738614928591,0.8644684856132222,0.07136135508155583,0.09502762430939227
sqwiki,False,58.0,0.10020630710285883,0.09161950956615468,0.8671162319260286,0.06840383581286968,0.09572072072072074
sqwiki,False,59.0,0.10174685871897027,0.08946375639989221,0.8694743809858718,0.06567037103423552,0.0952107829079438
sqwiki,False,60.0,0.10354654844838505,0.08811641067097817,0.8714395052024078,0.06342982613371571,0.09521036540981219
sqwiki,False,61.0,0.10620052770448549,0.08676906494206413,0.8738390252983886,0.060718766804086756,0.09550645113450985
sqwiki,False,62.0,0.10988251554941257,0.0856911883589329,0.8765281426473326,0.05771643663739021,0.09629068887206661
sqwiki,False,63.0,0.110431654676259,0.08272702775532202,0.8784312103096622,0.05540867538985481,0.09459251270990603
sqwiki,False,64.0,0.11260253542132737,0.08137968202640798,0.8802515358997166,0.05332496863237139,0.09447833567964961
sqwiki,False,65.0,0.11394360757049053,0.07949339800592832,0.8818856918271518,0.05139810001792436,0.09365079365079365
sqwiki,False,66.0,0.11618589743589744,0.07814605227701428,0.8836025898268622,0.04942642050546693,0.09344288706299339
sqwiki,False,67.0,0.11877875365955667,0.07652923740231743,0.8855263430072606,0.04720828105395232,0.09308423467715503
sqwiki,False,68.0,0.1212784588441331,0.07464295338183778,0.887450096187659,0.04496773615343252,0.09241034195162635
sqwiki,False,69.0,0.1228467815049864,0.07302613850714093,0.8888153403801998,0.04335454382505825,0.09160047321277674
sqwiki,False,70.0,0.12482402627874238,0.07167879277822689,0.8901598990546719,0.04178616239469439,0.09106470386853818
sqwiki,False,71.0,0.12721021611001965,0.06979250875774724,0.8918354260182446,0.03981448288223696,0.09013398294762485
sqwiki,False,72.0,0.12563580874872837,0.06655887900835354,0.8927869598494095,0.03851496683993547,0.08701779108684164
sqwiki,False,73.0,0.12825971261309208,0.06494206413365669,0.8943383737045695,0.036700125470514426,0.08622540250447228
sqwiki,False,74.0,0.12990602542841348,0.06332524925895985,0.8955381337525599,0.03526617673418175,0.08514492753623189
sqwiki,False,75.0,0.13344887348353554,0.06224737267582862,0.8969861200173759,0.033608173507797094,0.08489525909592063
sqwiki,False,76.0,0.1371016235718581,0.06143896523848019,0.8982686221376415,0.032151819322459224,0.0848529959062151
sqwiki,False,77.0,0.14041745730550284,0.05982215036378335,0.8997166084024575,0.03044900519806417,0.0839002267573696
sqwiki,False,78.0,0.14555256064690028,0.0582053354890865,0.9014748774383055,0.028410109338591144,0.08315688161693938
sqwiki,False,79.0,0.1442646023926812,0.055241174885475613,0.9023229836791262,0.027245025990320845,0.0798908807482463
sqwiki,False,80.0,0.1426459719142646,0.05200754513608192,0.9032331464741534,0.025990320846029754,0.07622432859399685
sqwiki,False,81.0,0.14611154752553024,0.050121261115602264,0.9045983906666942,0.024354723068650296,0.07463884430176564
sqwiki,False,82.0,0.14105793450881612,0.04527081649151172,0.9055499244978591,0.02292077433231762,0.06854345165238679
sqwiki,False,83.0,0.14556962025316456,0.043384532471032064,0.9070185962807439,0.02117314930991217,0.0668465850114179
sqwiki,False,84.0,0.1480392156862745,0.04068984101320399,0.9083838404732847,0.019470335185517117,0.06383428450644683
sqwiki,False,85.0,0.155005382131324,0.038803556992724336,0.9099766253645822,0.01758827746908048,0.06206896551724138
sqwiki,False,86.0,0.15764705882352942,0.036108865534896256,0.9111970709306415,0.016042301487721813,0.058759044069283055
sqwiki,False,87.0,0.16774193548387098,0.03503098895176502,0.9125830006412511,0.014451514608352752,0.057958091841284
sqwiki,False,88.0,0.16934306569343066,0.03125842091080571,0.9138655027615167,0.012748700483957699,0.05277525022747952
sqwiki,False,89.0,0.1783960720130933,0.029372136890326056,0.9151066338456446,0.011247535400609429,0.05043961129106895
sqwiki,False,90.0,0.18455743879472694,0.026407976286715172,0.9163063938936351,0.009701559419250761,0.04620462046204621
sqwiki,False,91.0,0.19205298013245034,0.023443815683104285,0.9174647829054878,0.008200394335902491,0.04178674351585015
sqwiki,False,92.0,0.19689119170984457,0.020479655079493397,0.9183956312185839,0.0069456891916114,0.03710031730534537
sqwiki,False,93.0,0.2129032258064516,0.01778496362166532,0.9195540202304366,0.0054669295572683275,0.03282765481223576
sqwiki,False,94.0,0.20434782608695654,0.01266504985179197,0.9204228119893263,0.004100197167951246,0.023851814260340016
sqwiki,False,95.0,0.21604938271604937,0.009431420102398275,0.9213329747843535,0.002845492023660154,0.018073844564936742
sqwiki,False,96.0,0.24074074074074073,0.007006197790353005,0.9220776534348303,0.0018372468184262413,0.013616129876931135
sqwiki,False,97.0,0.2463768115942029,0.004580975478307734,0.9225120493142751,0.0011650833482702992,0.008994708994708995
sqwiki,False,98.0,0.36363636363636365,0.0032336297493936943,0.9230498727840639,0.00047051442910915934,0.00641025641025641
sqwiki,False,99.0,0.5333333333333333,0.002155753166262463,0.9232567279647519,0.00015683814303638644,0.004294149221685453
