wiki_db,user_is_anonymous,threshold,precision,recall,accuracy,fpr,F1
srnwiki,True,0.0,0.5714285714285714,1.0,0.5714285714285714,1.0,0.7272727272727273
srnwiki,True,1.0,0.5714285714285714,1.0,0.5714285714285714,1.0,0.7272727272727273
srnwiki,True,2.0,0.5714285714285714,1.0,0.5714285714285714,1.0,0.7272727272727273
srnwiki,True,3.0,0.5714285714285714,1.0,0.5714285714285714,1.0,0.7272727272727273
srnwiki,True,4.0,0.5714285714285714,1.0,0.5714285714285714,1.0,0.7272727272727273
srnwiki,True,5.0,0.5714285714285714,1.0,0.5714285714285714,1.0,0.7272727272727273
srnwiki,True,6.0,0.5714285714285714,1.0,0.5714285714285714,1.0,0.7272727272727273
srnwiki,True,7.0,0.5714285714285714,1.0,0.5714285714285714,1.0,0.7272727272727273
srnwiki,True,8.0,0.5714285714285714,1.0,0.5714285714285714,1.0,0.7272727272727273
srnwiki,True,9.0,0.5714285714285714,1.0,0.5714285714285714,1.0,0.7272727272727273
srnwiki,True,10.0,0.5714285714285714,1.0,0.5714285714285714,1.0,0.7272727272727273
srnwiki,True,11.0,0.5714285714285714,1.0,0.5714285714285714,1.0,0.7272727272727273
srnwiki,True,12.0,0.5714285714285714,1.0,0.5714285714285714,1.0,0.7272727272727273
srnwiki,True,13.0,0.5714285714285714,1.0,0.5714285714285714,1.0,0.7272727272727273
srnwiki,True,14.0,0.5714285714285714,1.0,0.5714285714285714,1.0,0.7272727272727273
srnwiki,True,15.0,0.5714285714285714,1.0,0.5714285714285714,1.0,0.7272727272727273
srnwiki,True,16.0,0.5714285714285714,1.0,0.5714285714285714,1.0,0.7272727272727273
srnwiki,True,17.0,0.5714285714285714,1.0,0.5714285714285714,1.0,0.7272727272727273
srnwiki,True,18.0,0.5714285714285714,1.0,0.5714285714285714,1.0,0.7272727272727273
srnwiki,True,19.0,0.5714285714285714,1.0,0.5714285714285714,1.0,0.7272727272727273
srnwiki,True,20.0,0.5714285714285714,1.0,0.5714285714285714,1.0,0.7272727272727273
srnwiki,True,21.0,0.5714285714285714,1.0,0.5714285714285714,1.0,0.7272727272727273
srnwiki,True,22.0,0.5714285714285714,1.0,0.5714285714285714,1.0,0.7272727272727273
srnwiki,True,23.0,0.5714285714285714,1.0,0.5714285714285714,1.0,0.7272727272727273
srnwiki,True,24.0,0.5714285714285714,1.0,0.5714285714285714,1.0,0.7272727272727273
srnwiki,True,25.0,0.5714285714285714,1.0,0.5714285714285714,1.0,0.7272727272727273
srnwiki,True,26.0,0.5714285714285714,1.0,0.5714285714285714,1.0,0.7272727272727273
srnwiki,True,27.0,0.5714285714285714,1.0,0.5714285714285714,1.0,0.7272727272727273
srnwiki,True,28.0,0.5714285714285714,1.0,0.5714285714285714,1.0,0.7272727272727273
srnwiki,True,29.0,0.5714285714285714,1.0,0.5714285714285714,1.0,0.7272727272727273
srnwiki,True,30.0,0.5714285714285714,1.0,0.5714285714285714,1.0,0.7272727272727273
srnwiki,True,31.0,0.5714285714285714,1.0,0.5714285714285714,1.0,0.7272727272727273
srnwiki,True,32.0,0.5714285714285714,1.0,0.5714285714285714,1.0,0.7272727272727273
srnwiki,True,33.0,0.5714285714285714,1.0,0.5714285714285714,1.0,0.7272727272727273
srnwiki,True,34.0,0.5714285714285714,1.0,0.5714285714285714,1.0,0.7272727272727273
srnwiki,True,35.0,0.5714285714285714,1.0,0.5714285714285714,1.0,0.7272727272727273
srnwiki,True,36.0,0.5714285714285714,1.0,0.5714285714285714,1.0,0.7272727272727273
srnwiki,True,37.0,0.5714285714285714,1.0,0.5714285714285714,1.0,0.7272727272727273
srnwiki,True,38.0,0.5714285714285714,1.0,0.5714285714285714,1.0,0.7272727272727273
srnwiki,True,39.0,0.5714285714285714,1.0,0.5714285714285714,1.0,0.7272727272727273
srnwiki,True,40.0,0.5714285714285714,1.0,0.5714285714285714,1.0,0.7272727272727273
srnwiki,True,41.0,0.5714285714285714,1.0,0.5714285714285714,1.0,0.7272727272727273
srnwiki,True,42.0,0.5714285714285714,1.0,0.5714285714285714,1.0,0.7272727272727273
srnwiki,True,43.0,0.5714285714285714,1.0,0.5714285714285714,1.0,0.7272727272727273
srnwiki,True,44.0,0.5714285714285714,1.0,0.5714285714285714,1.0,0.7272727272727273
srnwiki,True,45.0,0.5714285714285714,1.0,0.5714285714285714,1.0,0.7272727272727273
srnwiki,True,46.0,0.5714285714285714,1.0,0.5714285714285714,1.0,0.7272727272727273
srnwiki,True,47.0,0.5714285714285714,1.0,0.5714285714285714,1.0,0.7272727272727273
srnwiki,True,48.0,0.5714285714285714,1.0,0.5714285714285714,1.0,0.7272727272727273
srnwiki,True,49.0,0.5714285714285714,1.0,0.5714285714285714,1.0,0.7272727272727273
srnwiki,True,50.0,0.5714285714285714,1.0,0.5714285714285714,1.0,0.7272727272727273
srnwiki,True,51.0,0.5714285714285714,1.0,0.5714285714285714,1.0,0.7272727272727273
srnwiki,True,52.0,0.5714285714285714,1.0,0.5714285714285714,1.0,0.7272727272727273
srnwiki,True,53.0,0.5714285714285714,1.0,0.5714285714285714,1.0,0.7272727272727273
srnwiki,True,54.0,0.5714285714285714,1.0,0.5714285714285714,1.0,0.7272727272727273
srnwiki,True,55.0,0.5714285714285714,1.0,0.5714285714285714,1.0,0.7272727272727273
srnwiki,True,56.0,0.5714285714285714,1.0,0.5714285714285714,1.0,0.7272727272727273
srnwiki,True,57.0,0.5714285714285714,1.0,0.5714285714285714,1.0,0.7272727272727273
srnwiki,True,58.0,0.5714285714285714,1.0,0.5714285714285714,1.0,0.7272727272727273
srnwiki,True,59.0,0.5714285714285714,1.0,0.5714285714285714,1.0,0.7272727272727273
srnwiki,True,60.0,0.5714285714285714,1.0,0.5714285714285714,1.0,0.7272727272727273
srnwiki,True,61.0,0.5714285714285714,1.0,0.5714285714285714,1.0,0.7272727272727273
srnwiki,True,62.0,0.5714285714285714,1.0,0.5714285714285714,1.0,0.7272727272727273
srnwiki,True,63.0,0.5714285714285714,1.0,0.5714285714285714,1.0,0.7272727272727273
srnwiki,True,64.0,0.5714285714285714,1.0,0.5714285714285714,1.0,0.7272727272727273
srnwiki,True,65.0,0.5714285714285714,1.0,0.5714285714285714,1.0,0.7272727272727273
srnwiki,True,66.0,0.5714285714285714,1.0,0.5714285714285714,1.0,0.7272727272727273
srnwiki,True,67.0,0.5714285714285714,1.0,0.5714285714285714,1.0,0.7272727272727273
srnwiki,True,68.0,0.5714285714285714,1.0,0.5714285714285714,1.0,0.7272727272727273
srnwiki,True,69.0,0.5714285714285714,1.0,0.5714285714285714,1.0,0.7272727272727273
srnwiki,True,70.0,0.5714285714285714,1.0,0.5714285714285714,1.0,0.7272727272727273
srnwiki,True,71.0,0.5714285714285714,1.0,0.5714285714285714,1.0,0.7272727272727273
srnwiki,True,72.0,0.5714285714285714,1.0,0.5714285714285714,1.0,0.7272727272727273
srnwiki,True,73.0,0.5714285714285714,1.0,0.5714285714285714,1.0,0.7272727272727273
srnwiki,True,74.0,0.5714285714285714,1.0,0.5714285714285714,1.0,0.7272727272727273
srnwiki,True,75.0,0.5714285714285714,1.0,0.5714285714285714,1.0,0.7272727272727273
srnwiki,True,76.0,0.5,0.75,0.42857142857142855,1.0,0.6
srnwiki,True,77.0,0.5,0.75,0.42857142857142855,1.0,0.6
srnwiki,True,78.0,0.4,0.5,0.2857142857142857,1.0,0.4444444444444445
srnwiki,True,79.0,0.4,0.5,0.2857142857142857,1.0,0.4444444444444445
srnwiki,True,80.0,0.4,0.5,0.2857142857142857,1.0,0.4444444444444445
srnwiki,True,81.0,0.4,0.5,0.2857142857142857,1.0,0.4444444444444445
srnwiki,True,82.0,0.4,0.5,0.2857142857142857,1.0,0.4444444444444445
srnwiki,True,83.0,0.5,0.5,0.42857142857142855,0.6666666666666666,0.5
srnwiki,True,84.0,0.5,0.5,0.42857142857142855,0.6666666666666666,0.5
srnwiki,True,85.0,0.3333333333333333,0.25,0.2857142857142857,0.6666666666666666,0.28571428571428575
srnwiki,True,86.0,0.5,0.25,0.42857142857142855,0.3333333333333333,0.3333333333333333
srnwiki,True,87.0,0.5,0.25,0.42857142857142855,0.3333333333333333,0.3333333333333333
srnwiki,True,88.0,0.5,0.25,0.42857142857142855,0.3333333333333333,0.3333333333333333
srnwiki,True,89.0,0.5,0.25,0.42857142857142855,0.3333333333333333,0.3333333333333333
srnwiki,True,90.0,0.5,0.25,0.42857142857142855,0.3333333333333333,0.3333333333333333
srnwiki,True,91.0,0.5,0.25,0.42857142857142855,0.3333333333333333,0.3333333333333333
srnwiki,True,92.0,1.0,0.25,0.5714285714285714,0.0,0.4
srnwiki,True,93.0,1.0,0.25,0.5714285714285714,0.0,0.4
srnwiki,True,94.0,1.0,0.25,0.5714285714285714,0.0,0.4
srnwiki,True,95.0,1.0,0.0,0.42857142857142855,0.0,0.0
srnwiki,True,96.0,1.0,0.0,0.42857142857142855,0.0,0.0
srnwiki,True,97.0,1.0,0.0,0.42857142857142855,0.0,0.0
srnwiki,True,98.0,1.0,0.0,0.42857142857142855,0.0,0.0
srnwiki,True,99.0,1.0,0.0,0.42857142857142855,0.0,0.0
srnwiki,False,0.0,0.006042296072507553,1.0,0.006042296072507553,1.0,0.012012012012012012
srnwiki,False,1.0,0.006042296072507553,1.0,0.006042296072507553,1.0,0.012012012012012012
srnwiki,False,2.0,0.006042296072507553,1.0,0.006042296072507553,1.0,0.012012012012012012
srnwiki,False,3.0,0.006042296072507553,1.0,0.006042296072507553,1.0,0.012012012012012012
srnwiki,False,4.0,0.006042296072507553,1.0,0.006042296072507553,1.0,0.012012012012012012
srnwiki,False,5.0,0.006042296072507553,1.0,0.006042296072507553,1.0,0.012012012012012012
srnwiki,False,6.0,0.006042296072507553,1.0,0.006042296072507553,1.0,0.012012012012012012
srnwiki,False,7.0,0.006060606060606061,1.0,0.00906344410876133,0.9969604863221885,0.012048192771084336
srnwiki,False,8.0,0.0060790273556231,1.0,0.012084592145015106,0.993920972644377,0.012084592145015106
srnwiki,False,9.0,0.0061162079510703364,1.0,0.01812688821752266,0.9878419452887538,0.0121580547112462
srnwiki,False,10.0,0.0061162079510703364,1.0,0.01812688821752266,0.9878419452887538,0.0121580547112462
srnwiki,False,11.0,0.0061162079510703364,1.0,0.01812688821752266,0.9878419452887538,0.0121580547112462
srnwiki,False,12.0,0.0061162079510703364,1.0,0.01812688821752266,0.9878419452887538,0.0121580547112462
srnwiki,False,13.0,0.0061162079510703364,1.0,0.01812688821752266,0.9878419452887538,0.0121580547112462
srnwiki,False,14.0,0.006134969325153374,1.0,0.021148036253776436,0.9848024316109423,0.012195121951219513
srnwiki,False,15.0,0.006172839506172839,1.0,0.027190332326283987,0.9787234042553191,0.012269938650306747
srnwiki,False,16.0,0.006230529595015576,1.0,0.03625377643504532,0.9696048632218845,0.012383900928792569
srnwiki,False,17.0,0.00625,1.0,0.03927492447129909,0.9665653495440729,0.012422360248447204
srnwiki,False,18.0,0.006289308176100629,1.0,0.045317220543806644,0.9604863221884499,0.0125
srnwiki,False,19.0,0.006349206349206349,1.0,0.054380664652567974,0.9513677811550152,0.012618296529968454
srnwiki,False,20.0,0.006369426751592357,1.0,0.05740181268882175,0.9483282674772037,0.012658227848101266
srnwiki,False,21.0,0.00641025641025641,1.0,0.0634441087613293,0.9422492401215805,0.012738853503184714
srnwiki,False,22.0,0.0064516129032258064,1.0,0.06948640483383686,0.9361702127659575,0.012820512820512822
srnwiki,False,23.0,0.003257328990228013,0.5,0.07250755287009064,0.9300911854103343,0.006472491909385114
srnwiki,False,24.0,0.003257328990228013,0.5,0.07250755287009064,0.9300911854103343,0.006472491909385114
srnwiki,False,25.0,0.0033003300330033004,0.5,0.08459214501510574,0.9179331306990881,0.006557377049180327
srnwiki,False,26.0,0.0033333333333333335,0.5,0.09365558912386707,0.9088145896656535,0.006622516556291392
srnwiki,False,27.0,0.003367003367003367,0.5,0.1027190332326284,0.8996960486322189,0.006688963210702341
srnwiki,False,28.0,0.0033783783783783786,0.5,0.10574018126888217,0.8966565349544073,0.006711409395973154
srnwiki,False,29.0,0.0034482758620689655,0.5,0.12386706948640483,0.878419452887538,0.00684931506849315
srnwiki,False,30.0,0.003472222222222222,0.5,0.1299093655589124,0.8723404255319149,0.006896551724137931
srnwiki,False,31.0,0.0035587188612099642,0.5,0.1510574018126888,0.851063829787234,0.007067137809187279
srnwiki,False,32.0,0.0036101083032490976,0.5,0.16314199395770393,0.8389057750759878,0.007168458781362006
srnwiki,False,33.0,0.003703703703703704,0.5,0.18429003021148035,0.817629179331307,0.007352941176470589
srnwiki,False,34.0,0.0038461538461538464,0.5,0.21450151057401812,0.7872340425531915,0.0076335877862595426
srnwiki,False,35.0,0.003937007874015748,0.5,0.2326283987915408,0.7689969604863222,0.0078125
srnwiki,False,36.0,0.00423728813559322,0.5,0.28700906344410876,0.7142857142857143,0.008403361344537815
srnwiki,False,37.0,0.004405286343612335,0.5,0.31419939577039274,0.6869300911854104,0.008733624454148471
srnwiki,False,38.0,0.004608294930875576,0.5,0.34441087613293053,0.6565349544072948,0.0091324200913242
srnwiki,False,39.0,0.004784688995215311,0.5,0.3685800604229607,0.6322188449848024,0.00947867298578199
srnwiki,False,40.0,0.0048543689320388345,0.5,0.3776435045317221,0.6231003039513677,0.009615384615384614
srnwiki,False,41.0,0.0049261083743842365,0.5,0.3867069486404834,0.6139817629179332,0.00975609756097561
srnwiki,False,42.0,0.005263157894736842,0.5,0.4259818731117825,0.574468085106383,0.010416666666666666
srnwiki,False,43.0,0.005376344086021506,0.5,0.4380664652567976,0.5623100303951368,0.010638297872340427
srnwiki,False,44.0,0.005555555555555556,0.5,0.4561933534743202,0.5440729483282675,0.01098901098901099
srnwiki,False,45.0,0.0058823529411764705,0.5,0.486404833836858,0.513677811550152,0.011627906976744186
srnwiki,False,46.0,0.006172839506172839,0.5,0.5105740181268882,0.48936170212765956,0.012195121951219511
srnwiki,False,47.0,0.006289308176100629,0.5,0.5196374622356495,0.48024316109422494,0.012422360248447206
srnwiki,False,48.0,0.006666666666666667,0.5,0.5468277945619335,0.45288753799392095,0.013157894736842105
srnwiki,False,49.0,0.006896551724137931,0.5,0.5619335347432024,0.4376899696048632,0.013605442176870748
srnwiki,False,50.0,0.0070921985815602835,0.5,0.5740181268882175,0.425531914893617,0.013986013986013986
srnwiki,False,51.0,0.0072992700729927005,0.5,0.5861027190332326,0.4133738601823708,0.014388489208633093
srnwiki,False,52.0,0.007352941176470588,0.5,0.5891238670694864,0.41033434650455924,0.014492753623188406
srnwiki,False,53.0,0.007518796992481203,0.5,0.5981873111782477,0.4012158054711246,0.014814814814814812
srnwiki,False,54.0,0.007633587786259542,0.5,0.6042296072507553,0.3951367781155015,0.015037593984962405
srnwiki,False,55.0,0.008064516129032258,0.5,0.6253776435045317,0.3738601823708207,0.015873015873015872
srnwiki,False,56.0,0.008264462809917356,0.5,0.6344410876132931,0.364741641337386,0.016260162601626018
srnwiki,False,57.0,0.008695652173913044,0.5,0.6525679758308157,0.3465045592705167,0.017094017094017096
srnwiki,False,58.0,0.009345794392523364,0.5,0.676737160120846,0.3221884498480243,0.018348623853211007
srnwiki,False,59.0,0.009708737864077669,0.5,0.6888217522658611,0.3100303951367781,0.019047619047619046
srnwiki,False,60.0,0.01,0.5,0.6978851963746223,0.3009118541033435,0.0196078431372549
srnwiki,False,61.0,0.01020408163265306,0.5,0.7039274924471299,0.2948328267477204,0.019999999999999997
srnwiki,False,62.0,0.010309278350515464,0.5,0.7069486404833837,0.2917933130699088,0.020202020202020204
srnwiki,False,63.0,0.010638297872340425,0.5,0.716012084592145,0.2826747720364742,0.020833333333333336
srnwiki,False,64.0,0.010869565217391304,0.5,0.7220543806646526,0.2765957446808511,0.021276595744680847
srnwiki,False,65.0,0.0,0.0,0.7220543806646526,0.2735562310030395,0.021276595744680847
srnwiki,False,66.0,0.0,0.0,0.7280966767371602,0.2674772036474164,0.021276595744680847
srnwiki,False,67.0,0.0,0.0,0.7462235649546828,0.24924012158054712,0.021276595744680847
srnwiki,False,68.0,0.0,0.0,0.7673716012084593,0.22796352583586627,0.021276595744680847
srnwiki,False,69.0,0.0,0.0,0.7764350453172205,0.2188449848024316,0.021276595744680847
srnwiki,False,70.0,0.0,0.0,0.7854984894259819,0.20972644376899696,0.021276595744680847
srnwiki,False,71.0,0.0,0.0,0.8126888217522659,0.182370820668693,0.021276595744680847
srnwiki,False,72.0,0.0,0.0,0.8187311178247734,0.1762917933130699,0.021276595744680847
srnwiki,False,73.0,0.0,0.0,0.8368580060422961,0.1580547112462006,0.021276595744680847
srnwiki,False,74.0,0.0,0.0,0.8459214501510574,0.14893617021276595,0.021276595744680847
srnwiki,False,75.0,0.0,0.0,0.8610271903323263,0.1337386018237082,0.021276595744680847
srnwiki,False,76.0,0.0,0.0,0.8640483383685801,0.13069908814589665,0.021276595744680847
srnwiki,False,77.0,0.0,0.0,0.8700906344410876,0.12462006079027356,0.021276595744680847
srnwiki,False,78.0,0.0,0.0,0.8821752265861027,0.11246200607902736,0.021276595744680847
srnwiki,False,79.0,0.0,0.0,0.8882175226586103,0.10638297872340426,0.021276595744680847
srnwiki,False,80.0,0.0,0.0,0.8972809667673716,0.0972644376899696,0.021276595744680847
srnwiki,False,81.0,0.0,0.0,0.9093655589123867,0.0851063829787234,0.021276595744680847
srnwiki,False,82.0,0.0,0.0,0.9244712990936556,0.06990881458966565,0.021276595744680847
srnwiki,False,83.0,0.0,0.0,0.9305135951661632,0.06382978723404255,0.021276595744680847
srnwiki,False,84.0,0.0,0.0,0.9365558912386707,0.057750759878419454,0.021276595744680847
srnwiki,False,85.0,0.0,0.0,0.9395770392749244,0.0547112462006079,0.021276595744680847
srnwiki,False,86.0,0.0,0.0,0.9395770392749244,0.0547112462006079,0.021276595744680847
srnwiki,False,87.0,0.0,0.0,0.945619335347432,0.0486322188449848,0.021276595744680847
srnwiki,False,88.0,0.0,0.0,0.9516616314199395,0.0425531914893617,0.021276595744680847
srnwiki,False,89.0,0.0,0.0,0.9516616314199395,0.0425531914893617,0.021276595744680847
srnwiki,False,90.0,0.0,0.0,0.9607250755287009,0.03343465045592705,0.021276595744680847
srnwiki,False,91.0,0.0,0.0,0.9637462235649547,0.030395136778115502,0.021276595744680847
srnwiki,False,92.0,0.0,0.0,0.9637462235649547,0.030395136778115502,0.021276595744680847
srnwiki,False,93.0,0.0,0.0,0.9758308157099698,0.0182370820668693,0.021276595744680847
srnwiki,False,94.0,0.0,0.0,0.9879154078549849,0.0060790273556231,0.021276595744680847
srnwiki,False,95.0,0.0,0.0,0.9909365558912386,0.00303951367781155,0.021276595744680847
srnwiki,False,96.0,0.0,0.0,0.9909365558912386,0.00303951367781155,0.021276595744680847
srnwiki,False,97.0,0.0,0.0,0.9939577039274925,0.0,0.021276595744680847
srnwiki,False,98.0,0.0,0.0,0.9939577039274925,0.0,0.021276595744680847
srnwiki,False,99.0,0.0,0.0,0.9939577039274925,0.0,0.021276595744680847
