wiki_db,user_is_anonymous,threshold,precision,recall,accuracy,fpr,F1
tgwiki,True,0.0,0.1800518134715026,1.0,0.1800518134715026,1.0,0.305159165751921
tgwiki,True,1.0,0.1800518134715026,1.0,0.1800518134715026,1.0,0.305159165751921
tgwiki,True,2.0,0.1800518134715026,1.0,0.1800518134715026,1.0,0.305159165751921
tgwiki,True,3.0,0.1800518134715026,1.0,0.1800518134715026,1.0,0.305159165751921
tgwiki,True,4.0,0.1800518134715026,1.0,0.1800518134715026,1.0,0.305159165751921
tgwiki,True,5.0,0.1800518134715026,1.0,0.1800518134715026,1.0,0.305159165751921
tgwiki,True,6.0,0.1800518134715026,1.0,0.1800518134715026,1.0,0.305159165751921
tgwiki,True,7.0,0.1800518134715026,1.0,0.1800518134715026,1.0,0.305159165751921
tgwiki,True,8.0,0.1800518134715026,1.0,0.1800518134715026,1.0,0.305159165751921
tgwiki,True,9.0,0.1800518134715026,1.0,0.1800518134715026,1.0,0.305159165751921
tgwiki,True,10.0,0.18028534370946822,1.0,0.18134715025906736,0.9984202211690363,0.30549450549450546
tgwiki,True,11.0,0.18028534370946822,1.0,0.18134715025906736,0.9984202211690363,0.30549450549450546
tgwiki,True,12.0,0.18075422626788037,1.0,0.18393782383419688,0.995260663507109,0.3061674008810573
tgwiki,True,13.0,0.18075422626788037,1.0,0.18393782383419688,0.995260663507109,0.3061674008810573
tgwiki,True,14.0,0.18075422626788037,1.0,0.18393782383419688,0.995260663507109,0.3061674008810573
tgwiki,True,15.0,0.18075422626788037,1.0,0.18393782383419688,0.995260663507109,0.3061674008810573
tgwiki,True,16.0,0.18075422626788037,1.0,0.18393782383419688,0.995260663507109,0.3061674008810573
tgwiki,True,17.0,0.18075422626788037,1.0,0.18393782383419688,0.995260663507109,0.3061674008810573
tgwiki,True,18.0,0.1814621409921671,1.0,0.1878238341968912,0.990521327014218,0.30718232044198895
tgwiki,True,19.0,0.18169934640522875,1.0,0.18911917098445596,0.9889415481832543,0.3075221238938053
tgwiki,True,20.0,0.182175622542595,1.0,0.19170984455958548,0.985781990521327,0.30820399113082037
tgwiki,True,21.0,0.18265440210249673,1.0,0.19430051813471502,0.9826224328593997,0.3088888888888889
tgwiki,True,22.0,0.18265440210249673,1.0,0.19430051813471502,0.9826224328593997,0.3088888888888889
tgwiki,True,23.0,0.1843501326259947,1.0,0.2033678756476684,0.9715639810426541,0.3113101903695409
tgwiki,True,24.0,0.1848404255319149,1.0,0.20595854922279794,0.9684044233807267,0.31200897867564537
tgwiki,True,25.0,0.18533333333333332,1.0,0.20854922279792745,0.9652448657187994,0.31271091113610794
tgwiki,True,26.0,0.1858288770053476,1.0,0.211139896373057,0.9620853080568721,0.3134160090191657
tgwiki,True,27.0,0.18607764390896922,1.0,0.21243523316062177,0.9605055292259084,0.31376975169300225
tgwiki,True,28.0,0.18733153638814015,1.0,0.2189119170984456,0.95260663507109,0.3155505107832009
tgwiki,True,29.0,0.18860244233378562,1.0,0.22538860103626943,0.9447077409162717,0.317351598173516
tgwiki,True,30.0,0.1893732970027248,1.0,0.22927461139896374,0.9399684044233807,0.31844215349369986
tgwiki,True,31.0,0.19093406593406592,1.0,0.23704663212435234,0.9304897314375987,0.3206459054209919
tgwiki,True,32.0,0.1917241379310345,1.0,0.24093264248704663,0.9257503949447078,0.3217592592592593
tgwiki,True,33.0,0.19305555555555556,1.0,0.24740932642487046,0.9178515007898894,0.32363213038416766
tgwiki,True,34.0,0.1935933147632312,1.0,0.25,0.9146919431279621,0.32438739789964993
tgwiki,True,35.0,0.1949509116409537,1.0,0.25647668393782386,0.9067930489731437,0.32629107981220656
tgwiki,True,36.0,0.19549929676511954,1.0,0.25906735751295334,0.9036334913112164,0.3270588235294118
tgwiki,True,37.0,0.198005698005698,1.0,0.2707253886010363,0.8894154818325435,0.3305588585017836
tgwiki,True,38.0,0.1991404011461318,1.0,0.2759067357512953,0.8830963665086888,0.3321385902031063
tgwiki,True,39.0,0.1991404011461318,1.0,0.2759067357512953,0.8830963665086888,0.3321385902031063
tgwiki,True,40.0,0.20028818443804033,1.0,0.2810880829015544,0.8767772511848341,0.3337334933973589
tgwiki,True,41.0,0.20321637426900585,1.0,0.29404145077720206,0.8609794628751974,0.3377885783718105
tgwiki,True,42.0,0.20411160058737152,1.0,0.2979274611398964,0.8562401263823065,0.33902439024390246
tgwiki,True,43.0,0.20501474926253688,1.0,0.3018134715025907,0.8515007898894155,0.3402692778457772
tgwiki,True,44.0,0.20531757754800592,1.0,0.30310880829015546,0.8499210110584519,0.340686274509804
tgwiki,True,45.0,0.2062314540059347,1.0,0.3069948186528497,0.8451816745655608,0.3419434194341943
tgwiki,True,46.0,0.20684523809523808,1.0,0.30958549222797926,0.8420221169036335,0.34278668310727495
tgwiki,True,47.0,0.2096530920060332,1.0,0.32124352331606215,0.8278041074249605,0.34663341645885287
tgwiki,True,48.0,0.20972644376899696,0.9928057553956835,0.32512953367875647,0.8214849921011058,0.3462986198243413
tgwiki,True,49.0,0.21100917431192662,0.9928057553956835,0.33031088082901555,0.8151658767772512,0.34804539722572514
tgwiki,True,50.0,0.2123076923076923,0.9928057553956835,0.33549222797927464,0.8088467614533965,0.34980988593155893
tgwiki,True,51.0,0.21395348837209302,0.9928057553956835,0.34196891191709844,0.8009478672985783,0.3520408163265306
tgwiki,True,52.0,0.21528861154446177,0.9928057553956835,0.3471502590673575,0.7946287519747235,0.3538461538461538
tgwiki,True,53.0,0.21766561514195584,0.9928057553956835,0.35621761658031087,0.7835703001579779,0.3570504527813713
tgwiki,True,54.0,0.21870047543581617,0.9928057553956835,0.3601036269430052,0.7788309636650869,0.35844155844155845
tgwiki,True,55.0,0.21904761904761905,0.9928057553956835,0.36139896373056996,0.7772511848341233,0.35890767230169046
tgwiki,True,56.0,0.22044728434504793,0.9928057553956835,0.36658031088082904,0.7709320695102686,0.3607843137254902
tgwiki,True,57.0,0.22186495176848875,0.9928057553956835,0.37176165803108807,0.764612954186414,0.36268068331143233
tgwiki,True,58.0,0.22366288492706646,0.9928057553956835,0.37823834196891193,0.7567140600315956,0.36507936507936506
tgwiki,True,59.0,0.2262295081967213,0.9928057553956835,0.3873056994818653,0.7456556082148499,0.3684913217623498
tgwiki,True,60.0,0.2273476112026359,0.9928057553956835,0.3911917098445596,0.740916271721959,0.36997319034852544
tgwiki,True,61.0,0.2292358803986711,0.9928057553956835,0.39766839378238344,0.7330173775671406,0.3724696356275304
tgwiki,True,62.0,0.23076923076923078,0.9928057553956835,0.4028497409326425,0.7266982622432859,0.3744911804613297
tgwiki,True,63.0,0.23232323232323232,0.9928057553956835,0.40803108808290156,0.7203791469194313,0.3765347885402456
tgwiki,True,64.0,0.23389830508474577,0.9928057553956835,0.41321243523316065,0.7140600315955766,0.3786008230452675
tgwiki,True,65.0,0.2341880341880342,0.9856115107913669,0.4170984455958549,0.707740916271722,0.3784530386740332
tgwiki,True,66.0,0.23661485319516407,0.9856115107913669,0.42487046632124353,0.69826224328594,0.3816155988857938
tgwiki,True,67.0,0.23867595818815332,0.9856115107913669,0.43134715025906734,0.6903633491311216,0.38429172510518933
tgwiki,True,68.0,0.2424778761061947,0.9856115107913669,0.4430051813471503,0.6761453396524486,0.38920454545454547
tgwiki,True,69.0,0.24285714285714285,0.9784172661870504,0.44689119170984454,0.669826224328594,0.38912732474964234
tgwiki,True,70.0,0.2423146473779385,0.9640287769784173,0.45077720207253885,0.6619273301737757,0.3872832369942197
tgwiki,True,71.0,0.2449725776965265,0.9640287769784173,0.4585492227979275,0.6524486571879937,0.39067055393586003
tgwiki,True,72.0,0.25,0.9568345323741008,0.47538860103626945,0.6303317535545023,0.39642324888226527
tgwiki,True,73.0,0.25285171102661597,0.9568345323741008,0.483160621761658,0.6208530805687204,0.4
tgwiki,True,74.0,0.2519230769230769,0.9424460431654677,0.48575129533678757,0.6145339652448657,0.39757207890743557
tgwiki,True,75.0,0.25390625,0.935251798561151,0.49352331606217614,0.6034755134281201,0.39938556067588327
tgwiki,True,76.0,0.2570281124497992,0.920863309352518,0.5064766839378239,0.584518167456556,0.401883830455259
tgwiki,True,77.0,0.2571428571428571,0.9064748201438849,0.5116580310880829,0.5750394944707741,0.4006359300476947
tgwiki,True,78.0,0.2609603340292276,0.8992805755395683,0.5233160621761658,0.5592417061611374,0.40453074433656966
tgwiki,True,79.0,0.2633832976445396,0.8848920863309353,0.533678756476684,0.5434439178515008,0.4059405940594059
tgwiki,True,80.0,0.2618510158013544,0.8345323741007195,0.5466321243523317,0.5165876777251185,0.3986254295532646
tgwiki,True,81.0,0.26066350710900477,0.7913669064748201,0.5582901554404145,0.4928909952606635,0.3921568627450981
tgwiki,True,82.0,0.26097560975609757,0.7697841726618705,0.5660621761658031,0.4786729857819905,0.38979963570127507
tgwiki,True,83.0,0.26854219948849106,0.7553956834532374,0.5854922279792746,0.4518167456556082,0.3962264150943396
tgwiki,True,84.0,0.2724795640326976,0.7194244604316546,0.6036269430051814,0.4218009478672986,0.3952569169960474
tgwiki,True,85.0,0.27586206896551724,0.6906474820143885,0.6178756476683938,0.3981042654028436,0.39425051334702255
tgwiki,True,86.0,0.27794561933534745,0.6618705035971223,0.6295336787564767,0.37756714060031593,0.39148936170212767
tgwiki,True,87.0,0.2809364548494983,0.60431654676259,0.6502590673575129,0.33965244865718797,0.38356164383561636
tgwiki,True,88.0,0.2819548872180451,0.539568345323741,0.6696891191709845,0.30173775671406006,0.3703703703703704
tgwiki,True,89.0,0.3070539419087137,0.5323741007194245,0.6994818652849741,0.2638230647709321,0.3894736842105263
tgwiki,True,90.0,0.3383084577114428,0.4892086330935252,0.7357512953367875,0.21011058451816747,0.39999999999999997
tgwiki,True,91.0,0.3389830508474576,0.4316546762589928,0.7461139896373057,0.1848341232227488,0.379746835443038
tgwiki,True,92.0,0.3288590604026846,0.35251798561151076,0.7538860103626943,0.1579778830963665,0.3402777777777778
tgwiki,True,93.0,0.30833333333333335,0.26618705035971224,0.7603626943005182,0.13112164296998421,0.28571428571428575
tgwiki,True,94.0,0.29213483146067415,0.18705035971223022,0.772020725388601,0.0995260663507109,0.2280701754385965
tgwiki,True,95.0,0.29850746268656714,0.14388489208633093,0.7849740932642487,0.07424960505529225,0.1941747572815534
tgwiki,True,96.0,0.30434782608695654,0.10071942446043165,0.7966321243523317,0.05055292259083728,0.15135135135135136
tgwiki,True,97.0,0.25806451612903225,0.05755395683453238,0.8005181347150259,0.036334913112164295,0.09411764705882354
tgwiki,True,98.0,0.3157894736842105,0.04316546762589928,0.810880829015544,0.020537124802527645,0.0759493670886076
tgwiki,True,99.0,0.3,0.02158273381294964,0.8147668393782384,0.011058451816745656,0.04026845637583893
tgwiki,False,0.0,0.008430410790925812,1.0,0.008430410790925812,1.0,0.01671986624107007
tgwiki,False,1.0,0.008434935971167856,1.0,0.008966891477621091,0.9994589581078992,0.016728765873317616
tgwiki,False,2.0,0.008591736311801922,1.0,0.027207234825260575,0.9810635337764724,0.01703709440099125
tgwiki,False,3.0,0.00877404813652097,0.990909090909091,0.05617719190680564,0.9517699799041583,0.017394079629777386
tgwiki,False,4.0,0.008851063829787235,0.9454545454545454,0.10698957694665849,0.9001391250579688,0.017537942664418212
tgwiki,False,5.0,0.009243471237548236,0.9363636363636364,0.15335683629675045,0.8533003555418148,0.018306229449924463
tgwiki,False,6.0,0.009404388714733543,0.9,0.1999540159411404,0.8059978358324316,0.01861427094105481
tgwiki,False,7.0,0.009234166415738232,0.8363636363636363,0.24210606989576947,0.7629463595609831,0.018266653429961283
tgwiki,False,8.0,0.009725158562367865,0.8363636363636363,0.2806560392397302,0.724068635028598,0.01922675026123302
tgwiki,False,9.0,0.009648441832094932,0.7909090909090909,0.3138412017167382,0.6902148709228629,0.019064314670757095
tgwiki,False,10.0,0.010109226121310714,0.7909090909090909,0.345340282035561,0.6584479826866595,0.019963285910968336
tgwiki,False,11.0,0.01053921568627451,0.7818181818181819,0.37936848559166153,0.6240531766888237,0.020798065296251517
tgwiki,False,12.0,0.011083902564763501,0.7818181818181819,0.4101011649294911,0.5930592054413356,0.02185792349726776
tgwiki,False,13.0,0.011642073913632056,0.7818181818181819,0.4386112814224402,0.5643066934611223,0.02294251033746832
tgwiki,False,14.0,0.01222459132906894,0.7818181818181819,0.4655885959534028,0.5371000154583397,0.024072778166550034
tgwiki,False,15.0,0.012589928057553957,0.7636363636363637,0.4931023911710607,0.5091977121657134,0.024771453848422297
tgwiki,False,16.0,0.013114236056249012,0.7545454545454545,0.5192366646229307,0.48276395115164633,0.025780400683335918
tgwiki,False,17.0,0.013603185136031851,0.7454545454545455,0.5421520539546291,0.45957644149018395,0.026718800912349298
tgwiki,False,18.0,0.014258389845244305,0.7454545454545455,0.5633813611281423,0.438166640902767,0.02798157311039072
tgwiki,False,19.0,0.014433752775721688,0.7090909090909091,0.5893623543838136,0.4116555881898284,0.028291621327529926
tgwiki,False,20.0,0.01481770325599532,0.6909090909090909,0.6101318209687309,0.39055495439789767,0.02901317045237641
tgwiki,False,21.0,0.01568951279933939,0.6909090909090909,0.6319742489270386,0.36852682021950844,0.03068227694792087
tgwiki,False,22.0,0.016311439756415833,0.6818181818181818,0.6506744328632741,0.3495903539959808,0.0318606627017842
tgwiki,False,23.0,0.016689529035208046,0.6636363636363637,0.6675352544451257,0.3324315968464987,0.03256021409455843
tgwiki,False,24.0,0.016830968982928587,0.6363636363636364,0.6835530349478848,0.3160457566857319,0.03279456547200749
tgwiki,False,25.0,0.01664564943253468,0.6,0.6978080931943593,0.3013603339001391,0.03239263803680982
tgwiki,False,26.0,0.017525225703664365,0.6,0.7130594727161251,0.28597928582470244,0.034055727554179564
tgwiki,False,27.0,0.01770657672849916,0.5727272727272728,0.7285407725321889,0.2701344875560365,0.03435114503816794
tgwiki,False,28.0,0.017804154302670624,0.5454545454545454,0.7424892703862661,0.25583552326480136,0.034482758620689655
tgwiki,False,29.0,0.017654476670870115,0.509090909090909,0.757050889025138,0.24084093368372236,0.03412553321145643
tgwiki,False,30.0,0.01763140385894877,0.4818181818181818,0.76931330472103,0.22824238676766115,0.03401797175866495
tgwiki,False,31.0,0.01869488536155203,0.4818181818181818,0.7824187614960147,0.2150255062606276,0.03599320882852292
tgwiki,False,32.0,0.01932367149758454,0.4727272727272727,0.793301655426119,0.20397279332199722,0.03712959657265263
tgwiki,False,33.0,0.02050473186119874,0.4727272727272727,0.8051808706315144,0.19199257999690833,0.039304610733182165
tgwiki,False,34.0,0.020850708924103418,0.45454545454545453,0.8154506437768241,0.18148090895037872,0.03987240829346092
tgwiki,False,35.0,0.02150065818341378,0.44545454545454544,0.8244175352544452,0.17236048848353686,0.041021347844286314
tgwiki,False,36.0,0.02264325323475046,0.44545454545454544,0.8332311465358676,0.16347194311330962,0.04309586631486367
tgwiki,False,37.0,0.023289665211062592,0.43636363636363634,0.8409717964438994,0.15558818982841244,0.044219253800092125
tgwiki,False,38.0,0.02420185375901133,0.42727272727272725,0.8499386879215205,0.14646776936157058,0.045808966861598445
tgwiki,False,39.0,0.024691358024691357,0.41818181818181815,0.8558399754751687,0.14043901684959034,0.0466294982260517
tgwiki,False,40.0,0.025252525252525252,0.4090909090909091,0.8618945432250154,0.13425568093986706,0.04756871035940803
tgwiki,False,41.0,0.025897586815773983,0.4,0.8681023911710607,0.12791776163240068,0.048645660585959094
tgwiki,False,42.0,0.0260707635009311,0.38181818181818183,0.8745401594114041,0.12127067552944813,0.04880883207437537
tgwiki,False,43.0,0.0273972602739726,0.38181818181818183,0.8805180870631515,0.11524192301746793,0.051125989044430914
tgwiki,False,44.0,0.029085872576177285,0.38181818181818183,0.8873390557939914,0.10836296181790075,0.05405405405405406
tgwiki,False,45.0,0.029753265602322207,0.37272727272727274,0.8922440220723482,0.10333900139125057,0.05510752688172043
tgwiki,False,46.0,0.030303030303030304,0.36363636363636365,0.8965358675659105,0.09893337455557273,0.05594405594405595
tgwiki,False,47.0,0.030612244897959183,0.35454545454545455,0.8999080318822809,0.09545524810635338,0.05635838150289017
tgwiki,False,48.0,0.03231151615575808,0.35454545454545455,0.9050429184549357,0.09027670428196012,0.059225512528473814
tgwiki,False,49.0,0.033766233766233764,0.35454545454545455,0.9090282035561006,0.08625753594063998,0.06166007905138339
tgwiki,False,50.0,0.03463992707383774,0.34545454545454546,0.9133200490496628,0.08185190910496212,0.06296603148301574
tgwiki,False,51.0,0.035440613026819924,0.33636363636363636,0.9172286940527283,0.07783274076364198,0.06412478336221837
tgwiki,False,52.0,0.036036036036036036,0.32727272727272727,0.9205242182709994,0.07443190601329418,0.06492335437330929
tgwiki,False,53.0,0.035306334371754934,0.3090909090909091,0.9229767014101778,0.07180398825166177,0.06337371854613234
tgwiki,False,54.0,0.037444933920704845,0.3090909090909091,0.9271919068056407,0.067552944813727,0.06679764243614932
tgwiki,False,55.0,0.038857142857142854,0.3090909090909091,0.9297210300429185,0.06500231875096614,0.06903553299492385
tgwiki,False,56.0,0.03990610328638498,0.3090909090909091,0.931483752299203,0.0632246096769207,0.07068607068607068
tgwiki,False,57.0,0.041353383458646614,0.3,0.9354690374003679,0.059128149636729015,0.07268722466960352
tgwiki,False,58.0,0.044,0.3,0.9391477621091355,0.055418148090895035,0.07674418604651162
tgwiki,False,59.0,0.04481792717086835,0.2909090909090909,0.9417535254445125,0.052712938630391094,0.07766990291262137
tgwiki,False,60.0,0.04698972099853157,0.2909090909090909,0.9442826486817903,0.050162312567630235,0.08091024020227561
tgwiki,False,61.0,0.04552352048558422,0.2727272727272727,0.9456621704475782,0.048616478590199415,0.07802340702210663
tgwiki,False,62.0,0.047619047619047616,0.2727272727272727,0.9478847332924586,0.04637501932292472,0.08108108108108109
tgwiki,False,63.0,0.04923599320882852,0.2636363636363636,0.9508736971183324,0.04328335136806307,0.08297567954220314
tgwiki,False,64.0,0.047872340425531915,0.24545454545454545,0.9524831391784182,0.041505642294017625,0.0801186943620178
tgwiki,False,65.0,0.04779411764705882,0.23636363636363636,0.953862660944206,0.04003710001545834,0.07951070336391436
tgwiki,False,66.0,0.05048543689320388,0.23636363636363636,0.9560852237890864,0.037795640748183645,0.0832
tgwiki,False,67.0,0.05394190871369295,0.23636363636363636,0.9586143470263642,0.035245014685422786,0.08783783783783784
tgwiki,False,68.0,0.05689277899343545,0.23636363636363636,0.9605303494788473,0.03331272221363426,0.09171075837742505
tgwiki,False,69.0,0.06060606060606061,0.23636363636363636,0.9626762722256285,0.031148554645231103,0.09647495361781075
tgwiki,False,70.0,0.06172839506172839,0.22727272727272727,0.9643623543838136,0.029370845571185654,0.0970873786407767
tgwiki,False,71.0,0.06631299734748011,0.22727272727272727,0.9665082771305947,0.0272066780027825,0.10266940451745381
tgwiki,False,72.0,0.07102272727272728,0.22727272727272727,0.9684242795830779,0.02527438553099397,0.10822510822510824
tgwiki,False,73.0,0.07462686567164178,0.22727272727272727,0.9697271612507664,0.02396042665017777,0.11235955056179774
tgwiki,False,74.0,0.07741935483870968,0.21818181818181817,0.9714898835070509,0.022105425877260783,0.11428571428571428
tgwiki,False,75.0,0.08247422680412371,0.21818181818181817,0.9729460453709381,0.0206368835987015,0.11970074812967581
tgwiki,False,76.0,0.08955223880597014,0.21818181818181817,0.9747087676272226,0.01885917452465605,0.12698412698412695
tgwiki,False,77.0,0.0933852140077821,0.21818181818181817,0.9755518087063152,0.0180089658370691,0.1307901907356948
tgwiki,False,78.0,0.09166666666666666,0.2,0.9765481299816063,0.01684959035399598,0.1257142857142857
tgwiki,False,79.0,0.09049773755656108,0.18181818181818182,0.9776977314530962,0.015535631473179781,0.12084592145015105
tgwiki,False,80.0,0.0966183574879227,0.18181818181818182,0.9787706928264868,0.014453547688978203,0.12618296529968456
tgwiki,False,81.0,0.0979381443298969,0.17272727272727273,0.9796137339055794,0.01352604730251971,0.125
tgwiki,False,82.0,0.10497237569060773,0.17272727272727273,0.9806100551808706,0.012521255217189674,0.13058419243986255
tgwiki,False,83.0,0.11180124223602485,0.16363636363636364,0.9819895769466584,0.011052712938630391,0.13284132841328414
tgwiki,False,84.0,0.12318840579710146,0.15454545454545454,0.9835990190067443,0.009352295563456485,0.1370967741935484
tgwiki,False,85.0,0.12903225806451613,0.14545454545454545,0.9845187001839363,0.008347503478126449,0.13675213675213677
tgwiki,False,86.0,0.14678899082568808,0.14545454545454545,0.9856683016554261,0.007188127995053331,0.1461187214611872
tgwiki,False,87.0,0.16161616161616163,0.14545454545454545,0.9864347026364194,0.006415211006337919,0.15311004784688997
tgwiki,False,88.0,0.17721518987341772,0.12727272727272726,0.9876609442060086,0.005023960426650178,0.14814814814814814
tgwiki,False,89.0,0.1694915254237288,0.09090909090909091,0.9885806253832005,0.0037872932447055186,0.11834319526627218
tgwiki,False,90.0,0.16981132075471697,0.08181818181818182,0.9888871857755978,0.0034008347503478127,0.11042944785276074
tgwiki,False,91.0,0.21052631578947367,0.07272727272727272,0.989883507050889,0.002318750966146236,0.1081081081081081
tgwiki,False,92.0,0.25,0.07272727272727272,0.990343347639485,0.0018550007729169888,0.11267605633802816
tgwiki,False,93.0,0.32,0.07272727272727272,0.9908798283261803,0.0013139588808162004,0.11851851851851852
tgwiki,False,94.0,0.29411764705882354,0.045454545454545456,0.9910331085223789,0.0009275003864584944,0.07874015748031496
tgwiki,False,95.0,0.3333333333333333,0.02727272727272727,0.9913396689147762,0.0004637501932292472,0.05042016806722689
tgwiki,False,96.0,0.3333333333333333,0.01818181818181818,0.9914163090128756,0.0003091667954861648,0.034482758620689655
tgwiki,False,97.0,0.6666666666666666,0.01818181818181818,0.9916462293071735,7.72916988715412e-05,0.035398230088495575
tgwiki,False,98.0,1.0,0.01818181818181818,0.9917228694052729,0.0,0.03571428571428572
tgwiki,False,99.0,1.0,0.01818181818181818,0.9917228694052729,0.0,0.03571428571428572
