wiki_db,user_is_anonymous,threshold,precision,recall,accuracy,fpr,F1
tnwiki,True,0.0,0.6285714285714286,1.0,0.6285714285714286,1.0,0.7719298245614035
tnwiki,True,1.0,0.6285714285714286,1.0,0.6285714285714286,1.0,0.7719298245614035
tnwiki,True,2.0,0.6285714285714286,1.0,0.6285714285714286,1.0,0.7719298245614035
tnwiki,True,3.0,0.6285714285714286,1.0,0.6285714285714286,1.0,0.7719298245614035
tnwiki,True,4.0,0.6285714285714286,1.0,0.6285714285714286,1.0,0.7719298245614035
tnwiki,True,5.0,0.6285714285714286,1.0,0.6285714285714286,1.0,0.7719298245614035
tnwiki,True,6.0,0.6285714285714286,1.0,0.6285714285714286,1.0,0.7719298245614035
tnwiki,True,7.0,0.6285714285714286,1.0,0.6285714285714286,1.0,0.7719298245614035
tnwiki,True,8.0,0.6285714285714286,1.0,0.6285714285714286,1.0,0.7719298245614035
tnwiki,True,9.0,0.6285714285714286,1.0,0.6285714285714286,1.0,0.7719298245614035
tnwiki,True,10.0,0.6285714285714286,1.0,0.6285714285714286,1.0,0.7719298245614035
tnwiki,True,11.0,0.6285714285714286,1.0,0.6285714285714286,1.0,0.7719298245614035
tnwiki,True,12.0,0.6285714285714286,1.0,0.6285714285714286,1.0,0.7719298245614035
tnwiki,True,13.0,0.6285714285714286,1.0,0.6285714285714286,1.0,0.7719298245614035
tnwiki,True,14.0,0.6285714285714286,1.0,0.6285714285714286,1.0,0.7719298245614035
tnwiki,True,15.0,0.6285714285714286,1.0,0.6285714285714286,1.0,0.7719298245614035
tnwiki,True,16.0,0.6285714285714286,1.0,0.6285714285714286,1.0,0.7719298245614035
tnwiki,True,17.0,0.6285714285714286,1.0,0.6285714285714286,1.0,0.7719298245614035
tnwiki,True,18.0,0.6285714285714286,1.0,0.6285714285714286,1.0,0.7719298245614035
tnwiki,True,19.0,0.6285714285714286,1.0,0.6285714285714286,1.0,0.7719298245614035
tnwiki,True,20.0,0.6285714285714286,1.0,0.6285714285714286,1.0,0.7719298245614035
tnwiki,True,21.0,0.6285714285714286,1.0,0.6285714285714286,1.0,0.7719298245614035
tnwiki,True,22.0,0.6285714285714286,1.0,0.6285714285714286,1.0,0.7719298245614035
tnwiki,True,23.0,0.6285714285714286,1.0,0.6285714285714286,1.0,0.7719298245614035
tnwiki,True,24.0,0.6285714285714286,1.0,0.6285714285714286,1.0,0.7719298245614035
tnwiki,True,25.0,0.6285714285714286,1.0,0.6285714285714286,1.0,0.7719298245614035
tnwiki,True,26.0,0.6285714285714286,1.0,0.6285714285714286,1.0,0.7719298245614035
tnwiki,True,27.0,0.6285714285714286,1.0,0.6285714285714286,1.0,0.7719298245614035
tnwiki,True,28.0,0.6285714285714286,1.0,0.6285714285714286,1.0,0.7719298245614035
tnwiki,True,29.0,0.6285714285714286,1.0,0.6285714285714286,1.0,0.7719298245614035
tnwiki,True,30.0,0.6285714285714286,1.0,0.6285714285714286,1.0,0.7719298245614035
tnwiki,True,31.0,0.6285714285714286,1.0,0.6285714285714286,1.0,0.7719298245614035
tnwiki,True,32.0,0.6285714285714286,1.0,0.6285714285714286,1.0,0.7719298245614035
tnwiki,True,33.0,0.6285714285714286,1.0,0.6285714285714286,1.0,0.7719298245614035
tnwiki,True,34.0,0.6285714285714286,1.0,0.6285714285714286,1.0,0.7719298245614035
tnwiki,True,35.0,0.6285714285714286,1.0,0.6285714285714286,1.0,0.7719298245614035
tnwiki,True,36.0,0.6285714285714286,1.0,0.6285714285714286,1.0,0.7719298245614035
tnwiki,True,37.0,0.6285714285714286,1.0,0.6285714285714286,1.0,0.7719298245614035
tnwiki,True,38.0,0.6285714285714286,1.0,0.6285714285714286,1.0,0.7719298245614035
tnwiki,True,39.0,0.6285714285714286,1.0,0.6285714285714286,1.0,0.7719298245614035
tnwiki,True,40.0,0.6285714285714286,1.0,0.6285714285714286,1.0,0.7719298245614035
tnwiki,True,41.0,0.6285714285714286,1.0,0.6285714285714286,1.0,0.7719298245614035
tnwiki,True,42.0,0.6285714285714286,1.0,0.6285714285714286,1.0,0.7719298245614035
tnwiki,True,43.0,0.6285714285714286,1.0,0.6285714285714286,1.0,0.7719298245614035
tnwiki,True,44.0,0.6285714285714286,1.0,0.6285714285714286,1.0,0.7719298245614035
tnwiki,True,45.0,0.6285714285714286,1.0,0.6285714285714286,1.0,0.7719298245614035
tnwiki,True,46.0,0.6285714285714286,1.0,0.6285714285714286,1.0,0.7719298245614035
tnwiki,True,47.0,0.6285714285714286,1.0,0.6285714285714286,1.0,0.7719298245614035
tnwiki,True,48.0,0.6285714285714286,1.0,0.6285714285714286,1.0,0.7719298245614035
tnwiki,True,49.0,0.6285714285714286,1.0,0.6285714285714286,1.0,0.7719298245614035
tnwiki,True,50.0,0.6285714285714286,1.0,0.6285714285714286,1.0,0.7719298245614035
tnwiki,True,51.0,0.6285714285714286,1.0,0.6285714285714286,1.0,0.7719298245614035
tnwiki,True,52.0,0.6285714285714286,1.0,0.6285714285714286,1.0,0.7719298245614035
tnwiki,True,53.0,0.6285714285714286,1.0,0.6285714285714286,1.0,0.7719298245614035
tnwiki,True,54.0,0.6285714285714286,1.0,0.6285714285714286,1.0,0.7719298245614035
tnwiki,True,55.0,0.6285714285714286,1.0,0.6285714285714286,1.0,0.7719298245614035
tnwiki,True,56.0,0.6285714285714286,1.0,0.6285714285714286,1.0,0.7719298245614035
tnwiki,True,57.0,0.6285714285714286,1.0,0.6285714285714286,1.0,0.7719298245614035
tnwiki,True,58.0,0.6470588235294118,1.0,0.6571428571428571,0.9230769230769231,0.7857142857142858
tnwiki,True,59.0,0.6470588235294118,1.0,0.6571428571428571,0.9230769230769231,0.7857142857142858
tnwiki,True,60.0,0.6470588235294118,1.0,0.6571428571428571,0.9230769230769231,0.7857142857142858
tnwiki,True,61.0,0.6470588235294118,1.0,0.6571428571428571,0.9230769230769231,0.7857142857142858
tnwiki,True,62.0,0.6470588235294118,1.0,0.6571428571428571,0.9230769230769231,0.7857142857142858
tnwiki,True,63.0,0.6470588235294118,1.0,0.6571428571428571,0.9230769230769231,0.7857142857142858
tnwiki,True,64.0,0.6470588235294118,1.0,0.6571428571428571,0.9230769230769231,0.7857142857142858
tnwiki,True,65.0,0.6470588235294118,1.0,0.6571428571428571,0.9230769230769231,0.7857142857142858
tnwiki,True,66.0,0.6470588235294118,1.0,0.6571428571428571,0.9230769230769231,0.7857142857142858
tnwiki,True,67.0,0.6470588235294118,1.0,0.6571428571428571,0.9230769230769231,0.7857142857142858
tnwiki,True,68.0,0.6470588235294118,1.0,0.6571428571428571,0.9230769230769231,0.7857142857142858
tnwiki,True,69.0,0.6470588235294118,1.0,0.6571428571428571,0.9230769230769231,0.7857142857142858
tnwiki,True,70.0,0.625,0.9090909090909091,0.6,0.9230769230769231,0.7407407407407406
tnwiki,True,71.0,0.625,0.9090909090909091,0.6,0.9230769230769231,0.7407407407407406
tnwiki,True,72.0,0.6129032258064516,0.8636363636363636,0.5714285714285714,0.9230769230769231,0.7169811320754716
tnwiki,True,73.0,0.6333333333333333,0.8636363636363636,0.6,0.8461538461538461,0.7307692307692307
tnwiki,True,74.0,0.6333333333333333,0.8636363636363636,0.6,0.8461538461538461,0.7307692307692307
tnwiki,True,75.0,0.6333333333333333,0.8636363636363636,0.6,0.8461538461538461,0.7307692307692307
tnwiki,True,76.0,0.6551724137931034,0.8636363636363636,0.6285714285714286,0.7692307692307693,0.7450980392156864
tnwiki,True,77.0,0.6551724137931034,0.8636363636363636,0.6285714285714286,0.7692307692307693,0.7450980392156864
tnwiki,True,78.0,0.6551724137931034,0.8636363636363636,0.6285714285714286,0.7692307692307693,0.7450980392156864
tnwiki,True,79.0,0.6551724137931034,0.8636363636363636,0.6285714285714286,0.7692307692307693,0.7450980392156864
tnwiki,True,80.0,0.6428571428571429,0.8181818181818182,0.6,0.7692307692307693,0.7200000000000001
tnwiki,True,81.0,0.6428571428571429,0.8181818181818182,0.6,0.7692307692307693,0.7200000000000001
tnwiki,True,82.0,0.6428571428571429,0.8181818181818182,0.6,0.7692307692307693,0.7200000000000001
tnwiki,True,83.0,0.6428571428571429,0.8181818181818182,0.6,0.7692307692307693,0.7200000000000001
tnwiki,True,84.0,0.6153846153846154,0.7272727272727273,0.5428571428571428,0.7692307692307693,0.6666666666666667
tnwiki,True,85.0,0.64,0.7272727272727273,0.5714285714285714,0.6923076923076923,0.6808510638297872
tnwiki,True,86.0,0.64,0.7272727272727273,0.5714285714285714,0.6923076923076923,0.6808510638297872
tnwiki,True,87.0,0.625,0.6818181818181818,0.5428571428571428,0.6923076923076923,0.6521739130434783
tnwiki,True,88.0,0.625,0.6818181818181818,0.5428571428571428,0.6923076923076923,0.6521739130434783
tnwiki,True,89.0,0.6521739130434783,0.6818181818181818,0.5714285714285714,0.6153846153846154,0.6666666666666666
tnwiki,True,90.0,0.6818181818181818,0.6818181818181818,0.6,0.5384615384615384,0.6818181818181818
tnwiki,True,91.0,0.7368421052631579,0.6363636363636364,0.6285714285714286,0.38461538461538464,0.6829268292682926
tnwiki,True,92.0,0.7368421052631579,0.6363636363636364,0.6285714285714286,0.38461538461538464,0.6829268292682926
tnwiki,True,93.0,0.7058823529411765,0.5454545454545454,0.5714285714285714,0.38461538461538464,0.6153846153846153
tnwiki,True,94.0,0.7333333333333333,0.5,0.5714285714285714,0.3076923076923077,0.5945945945945945
tnwiki,True,95.0,0.6923076923076923,0.4090909090909091,0.5142857142857142,0.3076923076923077,0.5142857142857142
tnwiki,True,96.0,0.7,0.3181818181818182,0.4857142857142857,0.23076923076923078,0.4375
tnwiki,True,97.0,0.7,0.3181818181818182,0.4857142857142857,0.23076923076923078,0.4375
tnwiki,True,98.0,0.8571428571428571,0.2727272727272727,0.5142857142857142,0.07692307692307693,0.41379310344827586
tnwiki,True,99.0,0.0,0.0,0.34285714285714286,0.07692307692307693,0.41379310344827586
tnwiki,False,0.0,0.024699599465954607,1.0,0.024699599465954607,1.0,0.04820846905537459
tnwiki,False,1.0,0.024699599465954607,1.0,0.024699599465954607,1.0,0.04820846905537459
tnwiki,False,2.0,0.024699599465954607,1.0,0.024699599465954607,1.0,0.04820846905537459
tnwiki,False,3.0,0.02486559139784946,1.0,0.03137516688918558,0.9931553730321697,0.04852459016393442
tnwiki,False,4.0,0.025342465753424658,1.0,0.050066755674232306,0.973990417522245,0.049432197728790914
tnwiki,False,5.0,0.025623268698060944,1.0,0.06074766355140187,0.9630390143737166,0.049966239027684003
tnwiki,False,6.0,0.02600140548137737,1.0,0.07476635514018691,0.9486652977412731,0.050684931506849315
tnwiki,False,7.0,0.02698760029175784,1.0,0.10947930574098798,0.9130732375085557,0.052556818181818184
tnwiki,False,8.0,0.027550260610573342,1.0,0.12817089452603472,0.893908281998631,0.0536231884057971
tnwiki,False,9.0,0.027924528301886794,1.0,0.14018691588785046,0.8815879534565366,0.054331864904552135
tnwiki,False,10.0,0.02843966179861645,1.0,0.15620827770360482,0.865160848733744,0.05530642750373692
tnwiki,False,11.0,0.028974158183241974,1.0,0.17222963951935916,0.8487337440109514,0.05631659056316591
tnwiki,False,12.0,0.029318541996830427,1.0,0.1822429906542056,0.838466803559206,0.05696689761354888
tnwiki,False,13.0,0.030032467532467532,1.0,0.20226969292389854,0.8179329226557153,0.05831363278171789
tnwiki,False,14.0,0.030303030303030304,1.0,0.2096128170894526,0.810403832991102,0.05882352941176471
tnwiki,False,15.0,0.030910609857978277,1.0,0.22563417890520696,0.7939767282683093,0.059967585089141
tnwiki,False,16.0,0.031462585034013606,1.0,0.23965287049399198,0.7796030116358659,0.06100577081615829
tnwiki,False,17.0,0.030954428202923472,0.972972972972973,0.24699599465954605,0.7713894592744696,0.06
tnwiki,False,18.0,0.03146853146853147,0.972972972972973,0.2596795727636849,0.758384668035592,0.06096528365791703
tnwiki,False,19.0,0.03208556149732621,0.972972972972973,0.27436582109479307,0.7433264887063655,0.06212251941328733
tnwiki,False,20.0,0.032490974729241874,0.972972972972973,0.28371161548731644,0.7337440109514032,0.06288209606986898
tnwiki,False,21.0,0.03211009174311927,0.9459459459459459,0.29439252336448596,0.7221081451060917,0.062111801242236024
tnwiki,False,22.0,0.033050047214353166,0.9459459459459459,0.315086782376502,0.7008898015058179,0.06386861313868614
tnwiki,False,23.0,0.033460803059273424,0.9459459459459459,0.32376502002670227,0.6919917864476386,0.06463527239150507
tnwiki,False,24.0,0.033751205400192864,0.9459459459459459,0.32977303070761016,0.6858316221765913,0.06517690875232775
tnwiki,False,25.0,0.03434739941118744,0.9459459459459459,0.3417890520694259,0.6735112936344969,0.06628787878787878
tnwiki,False,26.0,0.033932135728542916,0.918918918918919,0.35180240320427236,0.6625598904859685,0.06544754571703562
tnwiki,False,27.0,0.034623217922606926,0.918918918918919,0.3651535380507343,0.648870636550308,0.06673209028459273
tnwiki,False,28.0,0.03537981269510926,0.918918918918919,0.37917222963951935,0.6344969199178645,0.06813627254509018
tnwiki,False,29.0,0.036170212765957444,0.918918918918919,0.3931909212283044,0.6201232032854209,0.06960081883316273
tnwiki,False,30.0,0.036756756756756756,0.918918918918919,0.4032042723631509,0.6098562628336756,0.07068607068607069
tnwiki,False,31.0,0.03736263736263736,0.918918918918919,0.41321762349799734,0.5995893223819302,0.07180570221752904
tnwiki,False,32.0,0.03803131991051454,0.918918918918919,0.42389853137516686,0.5886379192334018,0.07303974221267454
tnwiki,False,33.0,0.038901601830663615,0.918918918918919,0.43724966622162886,0.5749486652977412,0.07464324917672886
tnwiki,False,34.0,0.038686987104337635,0.8918918918918919,0.4499332443257677,0.5612594113620808,0.07415730337078653
tnwiki,False,35.0,0.03952095808383234,0.8918918918918919,0.46194926568758343,0.5489390828199863,0.0756880733944954
tnwiki,False,36.0,0.04039167686658507,0.8918918918918919,0.4739652870493992,0.5366187542778919,0.0772833723653396
tnwiki,False,37.0,0.04040404040404041,0.8648648648648649,0.4893190921228304,0.5201916495550992,0.07720144752714113
tnwiki,False,38.0,0.041237113402061855,0.8648648648648649,0.5,0.5092402464065708,0.07872078720787208
tnwiki,False,39.0,0.04133333333333333,0.8378378378378378,0.5160213618157543,0.4921286789869952,0.07878017789072427
tnwiki,False,40.0,0.042582417582417584,0.8378378378378378,0.5307076101468625,0.47707049965776865,0.08104575163398695
tnwiki,False,41.0,0.04113475177304964,0.7837837837837838,0.5433911882510013,0.46269678302532513,0.07816711590296496
tnwiki,False,42.0,0.043674698795180725,0.7837837837837838,0.5707610146862483,0.4346338124572211,0.0827389443651926
tnwiki,False,43.0,0.042993630573248405,0.7297297297297297,0.5921228304405874,0.4113620807665982,0.08120300751879699
tnwiki,False,44.0,0.04477611940298507,0.7297297297297297,0.6088117489986649,0.3942505133470226,0.08437499999999999
tnwiki,False,45.0,0.046232876712328765,0.7297297297297297,0.6214953271028038,0.3812457221081451,0.08695652173913042
tnwiki,False,46.0,0.04847396768402154,0.7297297297297297,0.6395193591455274,0.36276522929500343,0.0909090909090909
tnwiki,False,47.0,0.05046728971962617,0.7297297297297297,0.6542056074766355,0.34770704996577684,0.0944055944055944
tnwiki,False,48.0,0.049019607843137254,0.6756756756756757,0.6682242990654206,0.3319644079397673,0.09140767824497258
tnwiki,False,49.0,0.05230125523012552,0.6756756756756757,0.6895861148197597,0.31006160164271046,0.0970873786407767
tnwiki,False,50.0,0.05506607929515418,0.6756756756756757,0.705607476635514,0.2936344969199179,0.10183299389002036
tnwiki,False,51.0,0.058004640371229696,0.6756756756756757,0.7209612817089452,0.2778918548939083,0.10683760683760685
tnwiki,False,52.0,0.06082725060827251,0.6756756756756757,0.7343124165554072,0.26420260095824777,0.11160714285714285
tnwiki,False,53.0,0.06476683937823834,0.6756756756756757,0.7510013351134847,0.24709103353867215,0.11820330969267137
tnwiki,False,54.0,0.0673854447439353,0.6756756756756757,0.7610146862483311,0.23682409308692676,0.12254901960784313
tnwiki,False,55.0,0.06837606837606838,0.6486486486486487,0.7730307076101469,0.22381930184804927,0.12371134020618559
tnwiki,False,56.0,0.0718562874251497,0.6486486486486487,0.7843791722296395,0.21218343600273784,0.12938005390835577
tnwiki,False,57.0,0.07165109034267912,0.6216216216216216,0.7917222963951935,0.20396988364134155,0.12849162011173185
tnwiki,False,58.0,0.0744336569579288,0.6216216216216216,0.7997329773030708,0.19575633127994524,0.1329479768786127
tnwiki,False,59.0,0.07666666666666666,0.6216216216216216,0.8057409879839786,0.189596167008898,0.13649851632047477
tnwiki,False,60.0,0.0798611111111111,0.6216216216216216,0.8137516688918558,0.18138261464750172,0.14153846153846153
tnwiki,False,61.0,0.07801418439716312,0.5945945945945946,0.8164218958611482,0.17796030116358658,0.13793103448275862
tnwiki,False,62.0,0.08178438661710037,0.5945945945945946,0.8251001335113485,0.16906228610540724,0.1437908496732026
tnwiki,False,63.0,0.08235294117647059,0.5675675675675675,0.8331108144192256,0.1601642710472279,0.14383561643835616
tnwiki,False,64.0,0.08163265306122448,0.5405405405405406,0.8384512683578104,0.1540041067761807,0.14184397163120568
tnwiki,False,65.0,0.0851063829787234,0.5405405405405406,0.8451268357810414,0.14715947980835045,0.14705882352941177
tnwiki,False,66.0,0.08444444444444445,0.5135135135135135,0.8504672897196262,0.14099931553730322,0.1450381679389313
tnwiki,False,67.0,0.08333333333333333,0.4864864864864865,0.8551401869158879,0.13552361396303902,0.14229249011857706
tnwiki,False,68.0,0.08450704225352113,0.4864864864864865,0.8571428571428571,0.13347022587268995,0.14400000000000002
tnwiki,False,69.0,0.0784313725490196,0.43243243243243246,0.8604806408544726,0.12867898699520877,0.1327800829875519
tnwiki,False,70.0,0.07731958762886598,0.40540540540540543,0.8658210947930574,0.12251882272416154,0.12987012987012989
tnwiki,False,71.0,0.08152173913043478,0.40540540540540543,0.8724966622162884,0.11567419575633128,0.13574660633484165
tnwiki,False,72.0,0.08379888268156424,0.40540540540540543,0.8758344459279038,0.11225188227241616,0.13888888888888887
tnwiki,False,73.0,0.08771929824561403,0.40540540540540543,0.8811748998664887,0.10677618069815195,0.14423076923076925
tnwiki,False,74.0,0.08641975308641975,0.3783783783783784,0.8858477970627503,0.10130047912388775,0.1407035175879397
tnwiki,False,75.0,0.08666666666666667,0.35135135135135137,0.8925233644859814,0.09377138945927448,0.13903743315508021
tnwiki,False,76.0,0.09420289855072464,0.35135135135135137,0.9005340453938585,0.08555783709787816,0.14857142857142858
tnwiki,False,77.0,0.10077519379844961,0.35135135135135137,0.9065420560747663,0.07939767282683094,0.1566265060240964
tnwiki,False,78.0,0.10743801652892562,0.35135135135135137,0.9118825100133512,0.07392197125256673,0.16455696202531644
tnwiki,False,79.0,0.10810810810810811,0.32432432432432434,0.9172229639519359,0.06776180698151951,0.16216216216216217
tnwiki,False,80.0,0.10784313725490197,0.2972972972972973,0.9218958611481975,0.06228610540725531,0.15827338129496404
tnwiki,False,81.0,0.11956521739130435,0.2972972972972973,0.9285714285714286,0.055441478439425054,0.17054263565891473
tnwiki,False,82.0,0.0875,0.1891891891891892,0.9312416555407209,0.04996577686516085,0.11965811965811968
tnwiki,False,83.0,0.0945945945945946,0.1891891891891892,0.9352469959946595,0.0458590006844627,0.12612612612612614
tnwiki,False,84.0,0.10606060606060606,0.1891891891891892,0.9405874499332443,0.040383299110198494,0.13592233009708737
tnwiki,False,85.0,0.109375,0.1891891891891892,0.9419225634178905,0.039014373716632446,0.1386138613861386
tnwiki,False,86.0,0.1016949152542373,0.16216216216216217,0.9439252336448598,0.03627652292950034,0.125
tnwiki,False,87.0,0.1,0.13513513513513514,0.9485981308411215,0.030800821355236138,0.11494252873563218
tnwiki,False,88.0,0.11904761904761904,0.13513513513513514,0.9539385847797063,0.025325119780971937,0.12658227848101267
tnwiki,False,89.0,0.15151515151515152,0.13513513513513514,0.9599465954606141,0.019164955509924708,0.14285714285714285
tnwiki,False,90.0,0.16666666666666666,0.10810810810810811,0.9646194926568759,0.013689253935660506,0.13114754098360656
tnwiki,False,91.0,0.18181818181818182,0.10810810810810811,0.9659546061415221,0.012320328542094456,0.13559322033898308
tnwiki,False,92.0,0.14285714285714285,0.05405405405405406,0.9686248331108144,0.008213552361396304,0.0784313725490196
tnwiki,False,93.0,0.09090909090909091,0.02702702702702703,0.9692923898531375,0.006844626967830253,0.04166666666666667
tnwiki,False,94.0,0.1,0.02702702702702703,0.9699599465954606,0.006160164271047228,0.0425531914893617
tnwiki,False,95.0,0.125,0.02702702702702703,0.9712950600801068,0.004791238877481177,0.044444444444444446
tnwiki,False,96.0,0.2,0.02702702702702703,0.9732977303070761,0.0027378507871321013,0.047619047619047616
tnwiki,False,97.0,0.0,0.0,0.9732977303070761,0.002053388090349076,0.047619047619047616
tnwiki,False,98.0,0.0,0.0,0.9739652870493992,0.0013689253935660506,0.047619047619047616
tnwiki,False,99.0,0.0,0.0,0.9753004005340454,0.0,0.047619047619047616
