wiki_db,user_is_anonymous,threshold,precision,recall,accuracy,fpr,F1
tumwiki,True,0.0,0.5,1.0,0.5,1.0,0.6666666666666666
tumwiki,True,1.0,0.5,1.0,0.5,1.0,0.6666666666666666
tumwiki,True,2.0,0.5,1.0,0.5,1.0,0.6666666666666666
tumwiki,True,3.0,0.5,1.0,0.5,1.0,0.6666666666666666
tumwiki,True,4.0,0.5,1.0,0.5,1.0,0.6666666666666666
tumwiki,True,5.0,0.5,1.0,0.5,1.0,0.6666666666666666
tumwiki,True,6.0,0.5,1.0,0.5,1.0,0.6666666666666666
tumwiki,True,7.0,0.5,1.0,0.5,1.0,0.6666666666666666
tumwiki,True,8.0,0.5,1.0,0.5,1.0,0.6666666666666666
tumwiki,True,9.0,0.5,1.0,0.5,1.0,0.6666666666666666
tumwiki,True,10.0,0.5,1.0,0.5,1.0,0.6666666666666666
tumwiki,True,11.0,0.5,1.0,0.5,1.0,0.6666666666666666
tumwiki,True,12.0,0.5,1.0,0.5,1.0,0.6666666666666666
tumwiki,True,13.0,0.5,1.0,0.5,1.0,0.6666666666666666
tumwiki,True,14.0,0.5,1.0,0.5,1.0,0.6666666666666666
tumwiki,True,15.0,0.5,1.0,0.5,1.0,0.6666666666666666
tumwiki,True,16.0,0.5,1.0,0.5,1.0,0.6666666666666666
tumwiki,True,17.0,0.5,1.0,0.5,1.0,0.6666666666666666
tumwiki,True,18.0,0.5,1.0,0.5,1.0,0.6666666666666666
tumwiki,True,19.0,0.5,1.0,0.5,1.0,0.6666666666666666
tumwiki,True,20.0,0.5,1.0,0.5,1.0,0.6666666666666666
tumwiki,True,21.0,0.5,1.0,0.5,1.0,0.6666666666666666
tumwiki,True,22.0,0.5,1.0,0.5,1.0,0.6666666666666666
tumwiki,True,23.0,0.5,1.0,0.5,1.0,0.6666666666666666
tumwiki,True,24.0,0.5,1.0,0.5,1.0,0.6666666666666666
tumwiki,True,25.0,0.5,1.0,0.5,1.0,0.6666666666666666
tumwiki,True,26.0,0.5,1.0,0.5,1.0,0.6666666666666666
tumwiki,True,27.0,0.5,1.0,0.5,1.0,0.6666666666666666
tumwiki,True,28.0,0.5,1.0,0.5,1.0,0.6666666666666666
tumwiki,True,29.0,0.5,1.0,0.5,1.0,0.6666666666666666
tumwiki,True,30.0,0.5,1.0,0.5,1.0,0.6666666666666666
tumwiki,True,31.0,0.5,1.0,0.5,1.0,0.6666666666666666
tumwiki,True,32.0,0.5,1.0,0.5,1.0,0.6666666666666666
tumwiki,True,33.0,0.5,1.0,0.5,1.0,0.6666666666666666
tumwiki,True,34.0,0.5,1.0,0.5,1.0,0.6666666666666666
tumwiki,True,35.0,0.5185185185185185,1.0,0.5357142857142857,0.9285714285714286,0.6829268292682926
tumwiki,True,36.0,0.5185185185185185,1.0,0.5357142857142857,0.9285714285714286,0.6829268292682926
tumwiki,True,37.0,0.5185185185185185,1.0,0.5357142857142857,0.9285714285714286,0.6829268292682926
tumwiki,True,38.0,0.5185185185185185,1.0,0.5357142857142857,0.9285714285714286,0.6829268292682926
tumwiki,True,39.0,0.5185185185185185,1.0,0.5357142857142857,0.9285714285714286,0.6829268292682926
tumwiki,True,40.0,0.5185185185185185,1.0,0.5357142857142857,0.9285714285714286,0.6829268292682926
tumwiki,True,41.0,0.5185185185185185,1.0,0.5357142857142857,0.9285714285714286,0.6829268292682926
tumwiki,True,42.0,0.5185185185185185,1.0,0.5357142857142857,0.9285714285714286,0.6829268292682926
tumwiki,True,43.0,0.5185185185185185,1.0,0.5357142857142857,0.9285714285714286,0.6829268292682926
tumwiki,True,44.0,0.5185185185185185,1.0,0.5357142857142857,0.9285714285714286,0.6829268292682926
tumwiki,True,45.0,0.5185185185185185,1.0,0.5357142857142857,0.9285714285714286,0.6829268292682926
tumwiki,True,46.0,0.5185185185185185,1.0,0.5357142857142857,0.9285714285714286,0.6829268292682926
tumwiki,True,47.0,0.5185185185185185,1.0,0.5357142857142857,0.9285714285714286,0.6829268292682926
tumwiki,True,48.0,0.5185185185185185,1.0,0.5357142857142857,0.9285714285714286,0.6829268292682926
tumwiki,True,49.0,0.5185185185185185,1.0,0.5357142857142857,0.9285714285714286,0.6829268292682926
tumwiki,True,50.0,0.5185185185185185,1.0,0.5357142857142857,0.9285714285714286,0.6829268292682926
tumwiki,True,51.0,0.5,0.9285714285714286,0.5,0.9285714285714286,0.65
tumwiki,True,52.0,0.52,0.9285714285714286,0.5357142857142857,0.8571428571428571,0.6666666666666666
tumwiki,True,53.0,0.52,0.9285714285714286,0.5357142857142857,0.8571428571428571,0.6666666666666666
tumwiki,True,54.0,0.5416666666666666,0.9285714285714286,0.5714285714285714,0.7857142857142857,0.6842105263157894
tumwiki,True,55.0,0.5416666666666666,0.9285714285714286,0.5714285714285714,0.7857142857142857,0.6842105263157894
tumwiki,True,56.0,0.5416666666666666,0.9285714285714286,0.5714285714285714,0.7857142857142857,0.6842105263157894
tumwiki,True,57.0,0.5416666666666666,0.9285714285714286,0.5714285714285714,0.7857142857142857,0.6842105263157894
tumwiki,True,58.0,0.5416666666666666,0.9285714285714286,0.5714285714285714,0.7857142857142857,0.6842105263157894
tumwiki,True,59.0,0.5416666666666666,0.9285714285714286,0.5714285714285714,0.7857142857142857,0.6842105263157894
tumwiki,True,60.0,0.5416666666666666,0.9285714285714286,0.5714285714285714,0.7857142857142857,0.6842105263157894
tumwiki,True,61.0,0.5217391304347826,0.8571428571428571,0.5357142857142857,0.7857142857142857,0.6486486486486486
tumwiki,True,62.0,0.5217391304347826,0.8571428571428571,0.5357142857142857,0.7857142857142857,0.6486486486486486
tumwiki,True,63.0,0.5217391304347826,0.8571428571428571,0.5357142857142857,0.7857142857142857,0.6486486486486486
tumwiki,True,64.0,0.5217391304347826,0.8571428571428571,0.5357142857142857,0.7857142857142857,0.6486486486486486
tumwiki,True,65.0,0.5217391304347826,0.8571428571428571,0.5357142857142857,0.7857142857142857,0.6486486486486486
tumwiki,True,66.0,0.5217391304347826,0.8571428571428571,0.5357142857142857,0.7857142857142857,0.6486486486486486
tumwiki,True,67.0,0.5217391304347826,0.8571428571428571,0.5357142857142857,0.7857142857142857,0.6486486486486486
tumwiki,True,68.0,0.5217391304347826,0.8571428571428571,0.5357142857142857,0.7857142857142857,0.6486486486486486
tumwiki,True,69.0,0.5217391304347826,0.8571428571428571,0.5357142857142857,0.7857142857142857,0.6486486486486486
tumwiki,True,70.0,0.5217391304347826,0.8571428571428571,0.5357142857142857,0.7857142857142857,0.6486486486486486
tumwiki,True,71.0,0.5217391304347826,0.8571428571428571,0.5357142857142857,0.7857142857142857,0.6486486486486486
tumwiki,True,72.0,0.5,0.7857142857142857,0.5,0.7857142857142857,0.6111111111111112
tumwiki,True,73.0,0.55,0.7857142857142857,0.5714285714285714,0.6428571428571429,0.6470588235294117
tumwiki,True,74.0,0.55,0.7857142857142857,0.5714285714285714,0.6428571428571429,0.6470588235294117
tumwiki,True,75.0,0.5263157894736842,0.7142857142857143,0.5357142857142857,0.6428571428571429,0.6060606060606061
tumwiki,True,76.0,0.5555555555555556,0.7142857142857143,0.5714285714285714,0.5714285714285714,0.6250000000000001
tumwiki,True,77.0,0.5625,0.6428571428571429,0.5714285714285714,0.5,0.6000000000000001
tumwiki,True,78.0,0.6,0.6428571428571429,0.6071428571428571,0.42857142857142855,0.6206896551724138
tumwiki,True,79.0,0.5714285714285714,0.5714285714285714,0.5714285714285714,0.42857142857142855,0.5714285714285714
tumwiki,True,80.0,0.5714285714285714,0.5714285714285714,0.5714285714285714,0.42857142857142855,0.5714285714285714
tumwiki,True,81.0,0.6153846153846154,0.5714285714285714,0.6071428571428571,0.35714285714285715,0.5925925925925927
tumwiki,True,82.0,0.5833333333333334,0.5,0.5714285714285714,0.35714285714285715,0.5384615384615384
tumwiki,True,83.0,0.5454545454545454,0.42857142857142855,0.5357142857142857,0.35714285714285715,0.4799999999999999
tumwiki,True,84.0,0.5454545454545454,0.42857142857142855,0.5357142857142857,0.35714285714285715,0.4799999999999999
tumwiki,True,85.0,0.4444444444444444,0.2857142857142857,0.4642857142857143,0.35714285714285715,0.34782608695652173
tumwiki,True,86.0,0.4444444444444444,0.2857142857142857,0.4642857142857143,0.35714285714285715,0.34782608695652173
tumwiki,True,87.0,0.3333333333333333,0.14285714285714285,0.42857142857142855,0.2857142857142857,0.2
tumwiki,True,88.0,0.3333333333333333,0.14285714285714285,0.42857142857142855,0.2857142857142857,0.2
tumwiki,True,89.0,0.5,0.07142857142857142,0.5,0.07142857142857142,0.125
tumwiki,True,90.0,0.5,0.07142857142857142,0.5,0.07142857142857142,0.125
tumwiki,True,91.0,1.0,0.07142857142857142,0.5357142857142857,0.0,0.13333333333333333
tumwiki,True,92.0,1.0,0.07142857142857142,0.5357142857142857,0.0,0.13333333333333333
tumwiki,True,93.0,1.0,0.07142857142857142,0.5357142857142857,0.0,0.13333333333333333
tumwiki,True,94.0,1.0,0.07142857142857142,0.5357142857142857,0.0,0.13333333333333333
tumwiki,True,95.0,1.0,0.07142857142857142,0.5357142857142857,0.0,0.13333333333333333
tumwiki,True,96.0,1.0,0.07142857142857142,0.5357142857142857,0.0,0.13333333333333333
tumwiki,True,97.0,1.0,0.0,0.5,0.0,0.0
tumwiki,True,98.0,1.0,0.0,0.5,0.0,0.0
tumwiki,True,99.0,1.0,0.0,0.5,0.0,0.0
tumwiki,False,0.0,0.013564431047475508,1.0,0.013564431047475508,1.0,0.026765799256505577
tumwiki,False,1.0,0.013564431047475508,1.0,0.013564431047475508,1.0,0.026765799256505577
tumwiki,False,2.0,0.013564431047475508,1.0,0.013564431047475508,1.0,0.026765799256505577
tumwiki,False,3.0,0.013567839195979899,1.0,0.013815624215021352,0.9997453526865292,0.02677243430837878
tumwiki,False,4.0,0.013588324106693507,1.0,0.015322783220296407,0.9982174688057041,0.026812313803376366
tumwiki,False,5.0,0.01363292097955062,1.0,0.018588294398392362,0.9949070537305832,0.026899128268991282
tumwiki,False,6.0,0.013670886075949367,1.0,0.021351419241396635,0.9921059332824038,0.026973026973026972
tumwiki,False,7.0,0.013757961783439491,1.0,0.027631248430042703,0.9857397504456328,0.027142498115104295
tumwiki,False,8.0,0.01386392811296534,1.0,0.03516704345641799,0.9781003310415075,0.027348695872372753
tumwiki,False,9.0,0.014073494917904612,1.0,0.04973624717407687,0.9633307868601986,0.027756360832690823
tumwiki,False,10.0,0.014289494575284467,1.0,0.06430545089173574,0.9485612426788897,0.02817636316201409
tumwiki,False,11.0,0.014481094127111826,1.0,0.07686510926902788,0.9358288770053476,0.028548770816812053
tumwiki,False,12.0,0.014673913043478261,1.0,0.08917357447877418,0.9233511586452763,0.0289234065345474
tumwiki,False,13.0,0.014925373134328358,1.0,0.10474755086661643,0.907563025210084,0.029411764705882353
tumwiki,False,14.0,0.015345268542199489,1.0,0.12961567445365485,0.8823529411764706,0.030226700251889168
tumwiki,False,15.0,0.01564806613522291,0.9814814814814815,0.1622707862346144,0.8489941431117902,0.03080499854693403
tumwiki,False,16.0,0.016521197007481298,0.9814814814814815,0.20723436322532027,0.8034122740005093,0.03249540159411404
tumwiki,False,17.0,0.017379679144385027,0.9629629629629629,0.26098970108013064,0.7486631016042781,0.034143138542350626
tumwiki,False,18.0,0.018220042046250877,0.9629629629629629,0.2956543582014569,0.7135217723453018,0.03576341127922972
tumwiki,False,19.0,0.019736842105263157,0.9444444444444444,0.36297412710374277,0.645021645021645,0.03866565579984837
tumwiki,False,20.0,0.02145561632309634,0.9444444444444444,0.41497111278573223,0.5923096511331806,0.04195804195804196
tumwiki,False,21.0,0.023444976076555026,0.9074074074074074,0.4860587792012057,0.5197351667939903,0.0457089552238806
tumwiki,False,22.0,0.02418558736426456,0.9074074074074074,0.5021351419241397,0.5034377387318564,0.047115384615384615
tumwiki,False,23.0,0.02553413236060448,0.9074074074074074,0.5290128108515448,0.47619047619047616,0.049670552458185496
tumwiki,False,24.0,0.026386645126548196,0.9074074074074074,0.5445867872393871,0.4604023427552839,0.05128205128205128
tumwiki,False,25.0,0.02731929425156517,0.8888888888888888,0.5692037176588797,0.4351922587216705,0.0530093870789619
tumwiki,False,26.0,0.02831858407079646,0.8888888888888888,0.584777694046722,0.41940412528647825,0.0548885077186964
tumwiki,False,27.0,0.02902055622732769,0.8888888888888888,0.5950766139161014,0.40896358543417366,0.05620608899297424
tumwiki,False,28.0,0.02994385527136619,0.8888888888888888,0.6078874654609394,0.39597657244716067,0.05793602896801448
tumwiki,False,29.0,0.030147530468248876,0.8703703703703703,0.6184375784978648,0.3850267379679144,0.058276503409795406
tumwiki,False,30.0,0.030646235842771485,0.8518518518518519,0.6325043958804321,0.3705118411000764,0.05916398713826366
tumwiki,False,31.0,0.029952348536419333,0.8148148148148148,0.6395378045717156,0.36287242169595113,0.05778069599474721
tumwiki,False,32.0,0.030726256983240222,0.8148148148148148,0.6488319517709118,0.3534504710975299,0.059219380888290714
tumwiki,False,33.0,0.031609195402298854,0.8148148148148148,0.6588796784727455,0.3432645785586962,0.06085753803596128
tumwiki,False,34.0,0.03232916972814107,0.8148148148148148,0.6666666666666666,0.33537051184110006,0.06219081272084806
tumwiki,False,35.0,0.03363914373088685,0.8148148148148148,0.6799799045465963,0.3218742042271454,0.06461086637298091
tumwiki,False,36.0,0.03434816549570648,0.8148148148148148,0.6867621200703341,0.31499872676343266,0.06591760299625468
tumwiki,False,37.0,0.03531300160513644,0.8148148148148148,0.6955538809344386,0.30608607079195316,0.06769230769230769
tumwiki,False,38.0,0.03642384105960265,0.8148148148148148,0.7050992213011806,0.29640947288006114,0.06973058637083994
tumwiki,False,39.0,0.036585365853658534,0.7777777777777778,0.7191660386837478,0.2816399286987522,0.06988352745424292
tumwiki,False,40.0,0.035842293906810034,0.7407407407407407,0.7261994473750314,0.27400050929462694,0.06837606837606837
tumwiki,False,41.0,0.03683241252302026,0.7407407407407407,0.7337352424014066,0.26636108989050167,0.07017543859649124
tumwiki,False,42.0,0.03838771593090211,0.7407407407407407,0.7447877417734238,0.25515660809778457,0.072992700729927
tumwiki,False,43.0,0.04028197381671702,0.7407407407407407,0.75709620698317,0.24267888973771326,0.07640878701050621
tumwiki,False,44.0,0.04179728317659352,0.7407407407407407,0.7661391610148204,0.23351158645276293,0.07912957467853611
tumwiki,False,45.0,0.043907793633369926,0.7407407407407407,0.7776940467219292,0.22179781003310414,0.0829015544041451
tumwiki,False,46.0,0.044543429844097995,0.7407407407407407,0.7809595579000251,0.2184873949579832,0.08403361344537816
tumwiki,False,47.0,0.044167610419026046,0.7222222222222222,0.7842250690781211,0.2149223325693914,0.08324439701173958
tumwiki,False,48.0,0.04540162980209546,0.7222222222222222,0.7902537050992213,0.20881079704609115,0.0854326396495071
tumwiki,False,49.0,0.0468187274909964,0.7222222222222222,0.7967847274554132,0.20218996689584925,0.08793686583990981
tumwiki,False,50.0,0.047619047619047616,0.7037037037037037,0.805074101984426,0.19353195823784058,0.08920187793427228
tumwiki,False,51.0,0.04736842105263158,0.6666666666666666,0.8136146696809847,0.18436465495289026,0.08845208845208845
tumwiki,False,52.0,0.05232558139534884,0.6666666666666666,0.8317005777442854,0.16603004838298957,0.09703504043126686
tumwiki,False,53.0,0.0547112462006079,0.6666666666666666,0.8392363727706607,0.15839062897886427,0.10112359550561799
tumwiki,False,54.0,0.056162246489859596,0.6666666666666666,0.84350665661894,0.15406162464985995,0.10359712230215828
tumwiki,False,55.0,0.059800664451827246,0.6666666666666666,0.8533031901532279,0.14413037942449708,0.1097560975609756
tumwiki,False,56.0,0.06164383561643835,0.6666666666666666,0.857824667169053,0.1395467277820219,0.1128526645768025
tumwiki,False,57.0,0.06498194945848375,0.6666666666666666,0.8653604621954283,0.1319073083778966,0.11842105263157893
tumwiki,False,58.0,0.06809338521400778,0.6481481481481481,0.8749058025621703,0.12197606315253375,0.12323943661971831
tumwiki,False,59.0,0.06748466257668712,0.6111111111111112,0.880180859080633,0.11611917494270435,0.12154696132596685
tumwiki,False,60.0,0.06666666666666667,0.5740740740740741,0.8852047224315499,0.11051693404634581,0.11946050096339114
tumwiki,False,61.0,0.06682027649769585,0.5370370370370371,0.8919869379552876,0.10313216195569137,0.11885245901639345
tumwiki,False,62.0,0.06388206388206388,0.48148148148148145,0.8972619944737503,0.09702062643239114,0.11279826464208242
tumwiki,False,63.0,0.0673854447439353,0.46296296296296297,0.905802562170309,0.08810797046091164,0.1176470588235294
tumwiki,False,64.0,0.06857142857142857,0.4444444444444444,0.91057523235368,0.08301502419149479,0.1188118811881188
tumwiki,False,65.0,0.0688622754491018,0.42592592592592593,0.9140919366993218,0.07919531448943214,0.11855670103092784
tumwiki,False,66.0,0.07333333333333333,0.4074074074074074,0.9221301180607887,0.07079195314489432,0.12429378531073447
tumwiki,False,67.0,0.075,0.3888888888888889,0.9266515950766139,0.0659536541889483,0.12574850299401197
tumwiki,False,68.0,0.07480314960629922,0.35185185185185186,0.9321778447626224,0.05984211866564808,0.12337662337662339
tumwiki,False,69.0,0.07860262008733625,0.3333333333333333,0.9379552876161769,0.05373058314234785,0.127208480565371
tumwiki,False,70.0,0.08530805687203792,0.3333333333333333,0.942476764632002,0.049146931499872676,0.1358490566037736
tumwiki,False,71.0,0.09183673469387756,0.3333333333333333,0.9462446621451897,0.045327221797810034,0.14400000000000002
tumwiki,False,72.0,0.09289617486338798,0.3148148148148148,0.9490077869881939,0.042271454036159915,0.14345991561181437
tumwiki,False,73.0,0.09467455621301775,0.2962962962962963,0.9520221049987441,0.03896103896103896,0.14349775784753363
tumwiki,False,74.0,0.09740259740259741,0.2777777777777778,0.95528761617684,0.03539597657244716,0.14423076923076925
tumwiki,False,75.0,0.10344827586206896,0.2777777777777778,0.9575483546847525,0.03310415075120957,0.1507537688442211
tumwiki,False,76.0,0.09701492537313433,0.24074074074074073,0.9593067068575735,0.03081232492997199,0.1382978723404255
tumwiki,False,77.0,0.10317460317460317,0.24074074074074073,0.9613162521979403,0.028775146422205244,0.14444444444444443
tumwiki,False,78.0,0.10743801652892562,0.24074074074074073,0.9625722180356694,0.02750190985485103,0.14857142857142858
tumwiki,False,79.0,0.09090909090909091,0.18518518518518517,0.9638281838733986,0.02546473134708429,0.12195121951219513
tumwiki,False,80.0,0.10101010101010101,0.18518518518518517,0.9665913087164029,0.022663610898905017,0.13071895424836602
tumwiki,False,81.0,0.1,0.16666666666666666,0.9683496608892238,0.020626432391138275,0.125
tumwiki,False,82.0,0.0875,0.12962962962962962,0.9698568198944989,0.01858925388337153,0.1044776119402985
tumwiki,False,83.0,0.09090909090909091,0.12962962962962962,0.9706103993971364,0.017825311942959002,0.10687022900763359
tumwiki,False,84.0,0.09859154929577464,0.12962962962962962,0.9721175584024114,0.016297428062133943,0.11199999999999999
tumwiki,False,85.0,0.11864406779661017,0.12962962962962962,0.9751318764129616,0.01324166030048383,0.12389380530973451
tumwiki,False,86.0,0.12727272727272726,0.12962962962962962,0.9761366490831449,0.012223071046600458,0.12844036697247707
tumwiki,False,87.0,0.09803921568627451,0.09259259259259259,0.9761366490831449,0.011713776419658773,0.09523809523809522
tumwiki,False,88.0,0.1111111111111111,0.09259259259259259,0.97764380808842,0.010185892538833716,0.101010101010101
tumwiki,False,89.0,0.125,0.09259259259259259,0.9788997739261492,0.008912655971479501,0.10638297872340426
tumwiki,False,90.0,0.13333333333333333,0.07407407407407407,0.9809093192665159,0.006620830150241915,0.09523809523809523
tumwiki,False,91.0,0.21052631578947367,0.07407407407407407,0.9836724441095203,0.0038197097020626434,0.1095890410958904
tumwiki,False,92.0,0.25,0.07407407407407407,0.9844260236121577,0.0030557677616501145,0.11428571428571428
tumwiki,False,93.0,0.2857142857142857,0.07407407407407407,0.9849284099472494,0.002546473134708429,0.11764705882352941
tumwiki,False,94.0,0.25,0.037037037037037035,0.9854307962823411,0.0015278838808250573,0.06451612903225806
tumwiki,False,95.0,0.3333333333333333,0.037037037037037035,0.9859331826174328,0.0010185892538833714,0.06666666666666667
tumwiki,False,96.0,0.4,0.037037037037037035,0.9861843757849786,0.0007639419404125286,0.06779661016949153
tumwiki,False,97.0,0.3333333333333333,0.018518518518518517,0.9861843757849786,0.0005092946269416857,0.03508771929824561
tumwiki,False,98.0,0.5,0.018518518518518517,0.9864355689525245,0.00025464731347084286,0.03571428571428571
tumwiki,False,99.0,0.5,0.0,0.9864355689525245,0.0,0.0
