wiki_db,user_is_anonymous,threshold,precision,recall,accuracy,fpr,F1
uzwiki,True,0.0,0.23601183140251417,1.0,0.23601183140251417,1.0,0.3818925117160235
uzwiki,True,1.0,0.23601183140251417,1.0,0.23601183140251417,1.0,0.3818925117160235
uzwiki,True,2.0,0.23601183140251417,1.0,0.23601183140251417,1.0,0.3818925117160235
uzwiki,True,3.0,0.23601183140251417,1.0,0.23601183140251417,1.0,0.3818925117160235
uzwiki,True,4.0,0.23601183140251417,1.0,0.23601183140251417,1.0,0.3818925117160235
uzwiki,True,5.0,0.23601183140251417,1.0,0.23601183140251417,1.0,0.3818925117160235
uzwiki,True,6.0,0.23601183140251417,1.0,0.23601183140251417,1.0,0.3818925117160235
uzwiki,True,7.0,0.23601183140251417,1.0,0.23601183140251417,1.0,0.3818925117160235
uzwiki,True,8.0,0.23601183140251417,1.0,0.23601183140251417,1.0,0.3818925117160235
uzwiki,True,9.0,0.23604092197707383,1.0,0.23613507517870347,0.9998386836586546,0.3819305943358596
uzwiki,True,10.0,0.23604092197707383,1.0,0.23613507517870347,0.9998386836586546,0.3819305943358596
uzwiki,True,11.0,0.23609912464554308,1.0,0.23638156273108207,0.9995160509759639,0.3820067823658488
uzwiki,True,12.0,0.23609912464554308,1.0,0.23638156273108207,0.9995160509759639,0.3820067823658488
uzwiki,True,13.0,0.23615735602417068,1.0,0.23662805028346068,0.9991934182932731,0.38208300079808455
uzwiki,True,14.0,0.23627390499691547,1.0,0.2371210253882179,0.9985481529278916,0.38223552894211577
uzwiki,True,15.0,0.2363030602171767,1.0,0.2372442691644072,0.9983868365865463,0.38227368000798484
uzwiki,True,16.0,0.23639056906554745,1.0,0.2376140004929751,0.9979028875625101,0.382388178913738
uzwiki,True,17.0,0.23639056906554745,1.0,0.2376140004929751,0.9979028875625101,0.382388178913738
uzwiki,True,18.0,0.23650734840064222,1.0,0.2381069755977323,0.9972576221971285,0.3825409508589693
uzwiki,True,19.0,0.23662424317311256,1.0,0.23859995070248952,0.9966123568317471,0.3826938449240608
uzwiki,True,20.0,0.2367412535542094,1.0,0.23909292580724673,0.9959670914663655,0.3828468612554978
uzwiki,True,21.0,0.23688767936665017,1.0,0.23970914468819324,0.9951605097596387,0.38303830383038306
uzwiki,True,22.0,0.2370049504950495,1.0,0.24020211979295045,0.9945152443942571,0.3831915957978989
uzwiki,True,23.0,0.2370929800668565,1.0,0.24057185112151835,0.9940312953702211,0.383306645316253
uzwiki,True,24.0,0.2372398414271556,1.0,0.24118807000246487,0.9932247136634941,0.38349854811254624
uzwiki,True,25.0,0.2374751984126984,1.0,0.24217402021197929,0.9919341829327311,0.38380599258442727
uzwiki,True,26.0,0.23759305210918114,1.0,0.2426669953167365,0.9912889175673496,0.38395989974937345
uzwiki,True,27.0,0.23777005214800098,1.0,0.2434064579738723,0.9903210195192773,0.3841909920754338
uzwiki,True,28.0,0.2380656389855793,1.0,0.24463889573576533,0.9887078561058236,0.3845767647354152
uzwiki,True,29.0,0.2383026381284221,1.0,0.24562484594527975,0.9874173253750604,0.3848859411114461
uzwiki,True,30.0,0.23859955145776227,1.0,0.24685728370717278,0.9858041619616067,0.3852731113570063
uzwiki,True,31.0,0.23904631132193235,1.0,0.2487059403500123,0.9833844168414261,0.38585532943784
uzwiki,True,32.0,0.239165729986262,1.0,0.24919891545476952,0.9827391514760445,0.38601088490223745
uzwiki,True,33.0,0.2396446001751971,1.0,0.25117081587379836,0.9801580900145185,0.3866343630123158
uzwiki,True,34.0,0.24024099410066524,0.9994778067885117,0.253882178949963,0.9764478141635747,0.38737097753491195
uzwiki,True,35.0,0.24075006292474202,0.9989556135770234,0.2562238106975598,0.9732214873366672,0.3879931041476523
uzwiki,True,36.0,0.24144894610627288,0.9989556135770234,0.2590584175499137,0.9695112114857235,0.38890018296401707
uzwiki,True,37.0,0.2421825547537663,0.9989556135770234,0.26201626817845697,0.9656396192934344,0.3898512329325453
uzwiki,True,38.0,0.24236278362276586,0.9984334203655353,0.2630022183879714,0.964187772221326,0.39004487964096285
uzwiki,True,39.0,0.24294790343074968,0.9984334203655353,0.26534385013556816,0.9611227617357638,0.39080224833929483
uzwiki,True,40.0,0.24338085539714868,0.9984334203655353,0.2670692630022184,0.9588643329569285,0.3913621942482857
uzwiki,True,41.0,0.24415783424849954,0.9984334203655353,0.2701503574069509,0.954831424423294,0.39236609891237434
uzwiki,True,42.0,0.24440179142674345,0.9973890339425587,0.27162928272122255,0.9525729956444587,0.39260020554984587
uzwiki,True,43.0,0.2449345986150295,0.9973890339425587,0.2737244269164407,0.9498306178415874,0.39328734685473077
uzwiki,True,44.0,0.2455305466237942,0.9968668407310705,0.27631254621641604,0.9462816583319891,0.3940144478844169
uzwiki,True,45.0,0.24625902992776058,0.9968668407310705,0.27914715306877,0.9425713824810453,0.3949518982104065
uzwiki,True,46.0,0.2470877556303391,0.9968668407310705,0.2823514912496919,0.9383771576060655,0.396017010683539
uzwiki,True,47.0,0.24759802648662685,0.995822454308094,0.28481636677347794,0.9348281980964672,0.3965893729853385
uzwiki,True,48.0,0.24840432460596587,0.995822454308094,0.2878974611782105,0.9307952895628328,0.3976230191826522
uzwiki,True,49.0,0.24902063201880387,0.995822454308094,0.29023909292580724,0.9277302790772706,0.3984122009819283
uzwiki,True,50.0,0.24980351061042705,0.995822454308094,0.2931969435543505,0.9238586868849814,0.39941355115718924
uzwiki,True,51.0,0.25055840231244253,0.995822454308094,0.2960315504067045,0.9201484110340378,0.4003779130799916
uzwiki,True,52.0,0.25115359261700726,0.9947780678851175,0.29874291348286913,0.9162768188417487,0.4010526315789474
uzwiki,True,53.0,0.25182046868793856,0.9932114882506528,0.301947251663791,0.9115986449427327,0.40177439797211656
uzwiki,True,54.0,0.25249301954527326,0.991644908616188,0.30515158984471286,0.9069204710437168,0.4025010597710894
uzwiki,True,55.0,0.2532017075773746,0.9911227154046998,0.3079861966970668,0.9030488788514276,0.40335777281904145
uzwiki,True,56.0,0.2540829986613119,0.9911227154046998,0.31119053487798864,0.8988546539764478,0.40447522642514655
uzwiki,True,57.0,0.2552132382618055,0.9906005221932115,0.31550406704461426,0.8930472656880142,0.405862216516902
uzwiki,True,58.0,0.25614698730072955,0.9900783289817232,0.319078136554104,0.8882077754476528,0.406997960716969
uzwiki,True,59.0,0.2566119625661196,0.9879895561357702,0.3216662558540794,0.8841748669140184,0.40740740740740744
uzwiki,True,60.0,0.25728287503403213,0.9869451697127938,0.3245008627064333,0.8801419583803839,0.4081632653061225
uzwiki,True,61.0,0.2581793292265572,0.9848563968668407,0.3285679073206803,0.874173253750605,0.40911062906724516
uzwiki,True,62.0,0.25894823788546256,0.9822454308093995,0.33238846438254865,0.8683658654621713,0.40984856738206776
uzwiki,True,63.0,0.26006920415224916,0.981201044386423,0.33670199654917427,0.8623971608323924,0.4111597374179431
uzwiki,True,64.0,0.26089377697340943,0.9785900783289817,0.34064579738723194,0.8564284562026133,0.41195867223565624
uzwiki,True,65.0,0.2616547669046619,0.9759791122715404,0.344343110672911,0.8507823842555251,0.41267387944358574
uzwiki,True,66.0,0.2628241262683202,0.9738903394255874,0.34914961794429383,0.8438457815776739,0.4139385195871713
uzwiki,True,67.0,0.26382194499574707,0.9718015665796345,0.3533399063347301,0.8377157606065494,0.4149849481547552
uzwiki,True,68.0,0.2651807401057294,0.9691906005221932,0.3588858762632487,0.8296499435392806,0.41642360332061923
uzwiki,True,69.0,0.26620470622202974,0.9629242819843342,0.3648015775203352,0.8199709630585579,0.41710020357385197
uzwiki,True,70.0,0.26672484002326935,0.9577023498694517,0.3686221345822036,0.8133569930633974,0.4172449095666022
uzwiki,True,71.0,0.26855123674911663,0.9524804177545692,0.37650973625831896,0.8014195838038394,0.4189732399219019
uzwiki,True,72.0,0.26958078472325825,0.9436031331592689,0.38328814394873056,0.7898048072269721,0.4193548387096774
uzwiki,True,73.0,0.27191656590084645,0.9394255874673629,0.39203845205817106,0.7770608162606872,0.4217559488922753
uzwiki,True,74.0,0.2735632183908046,0.9321148825065274,0.39980280995809714,0.7646394579770931,0.4229857819905213
uzwiki,True,75.0,0.2756849315068493,0.9248041775456919,0.4087996056199162,0.7506049362800452,0.4247511692049406
uzwiki,True,76.0,0.27856348323534086,0.9154046997389034,0.42050776435789994,0.7323761897080174,0.4271442495126706
uzwiki,True,77.0,0.28126520681265205,0.9054830287206266,0.43159970421493715,0.7147927085013712,0.4292079207920792
uzwiki,True,78.0,0.28258706467661693,0.8898172323759791,0.4408429874291348,0.6978544926601065,0.4289490245437382
uzwiki,True,79.0,0.28671090692530204,0.8798955613577023,0.4550160216909046,0.6762381029198258,0.43249486652977415
uzwiki,True,80.0,0.2893401015228426,0.8631853785900784,0.46734039930983484,0.6549443458622358,0.4334032511798636
uzwiki,True,81.0,0.2917883211678832,0.8349869451697128,0.48274587133349767,0.6260687207614132,0.43245436105476676
uzwiki,True,82.0,0.29590665646518743,0.8078328981723237,0.5009859502095144,0.5938054524923375,0.4331513369732606
uzwiki,True,83.0,0.2989587505006007,0.7796344647519582,0.5165146660093666,0.5647685110501693,0.4321898972354899
uzwiki,True,84.0,0.30361702127659573,0.7451697127937337,0.5364801577520335,0.5279883852234232,0.4314436885865457
uzwiki,True,85.0,0.30483356133150935,0.6981723237597911,0.5529948237614001,0.4918535247620584,0.424377083002698
uzwiki,True,86.0,0.3086296941059438,0.6480417754569191,0.5743159970421494,0.4484594289401516,0.41812668463611863
uzwiki,True,87.0,0.3160326086956522,0.6073107049608355,0.5971160956371703,0.4060332311663171,0.4157283288650581
uzwiki,True,88.0,0.32322018624211474,0.5618798955613578,0.6189302440226768,0.36344571705113726,0.41037376048817703
uzwiki,True,89.0,0.3310810810810811,0.5117493472584856,0.6407443924081834,0.319406355863849,0.4020512820512821
uzwiki,True,90.0,0.33782742681047767,0.4579634464751958,0.6602169090460932,0.27730279077270525,0.3888273110175127
uzwiki,True,91.0,0.34542157751586583,0.397911227154047,0.6799359132363816,0.23294079690272623,0.369813152147537
uzwiki,True,92.0,0.3602001111728738,0.3383812010443864,0.7019965491742667,0.18567510888853042,0.34894991922455576
uzwiki,True,93.0,0.3793843951324266,0.27676240208877284,0.7224550160216909,0.13986126794644296,0.32004830917874394
uzwiki,True,94.0,0.40860215053763443,0.21827676240208876,0.7409415824500862,0.09759638651395386,0.2845473110959837
uzwiki,True,95.0,0.43036211699164345,0.16135770234986946,0.7516637909785556,0.06597838361025972,0.2347132548423851
uzwiki,True,96.0,0.4810924369747899,0.1195822454308094,0.7617697806260784,0.03984513631230844,0.19155165202844002
uzwiki,True,97.0,0.5311355311355311,0.07571801566579635,0.7660833127927039,0.02064849169220842,0.13254113345521024
uzwiki,True,98.0,0.564935064935065,0.04543080939947781,0.7664530441212719,0.010808194870140345,0.08409859835669405
uzwiki,True,99.0,0.6027397260273972,0.022976501305483028,0.7658368252403254,0.00467817389901597,0.04426559356136821
uzwiki,False,0.0,0.00857161990222996,1.0,0.00857161990222996,1.0,0.01699754332381648
uzwiki,False,1.0,0.008571650113137323,1.0,0.00857514441699239,0.9999964450132424,0.016997602722971225
uzwiki,False,2.0,0.008580918663056868,0.9995888157894737,0.010058965131975454,0.9984962406015038,0.017015766356939122
uzwiki,False,3.0,0.008707363447799031,0.9942434210526315,0.029729282021097744,0.9786096446790735,0.017263536668951335
uzwiki,False,4.0,0.00910108310096929,0.9864309210526315,0.079294533125152,0.9285483211575037,0.018035763287185133
uzwiki,False,5.0,0.009603435560825154,0.9691611842105263,0.14301071100036303,0.8641319611084449,0.01901841728360196
uzwiki,False,6.0,0.010229524402137697,0.953125,0.20911650988450164,0.7973159849979559,0.02024180132820448
uzwiki,False,7.0,0.01110393991844398,0.9337993421052632,0.2865959179070022,0.7189996267263904,0.0219469060757463
uzwiki,False,8.0,0.01169973842048247,0.9103618421052632,0.3400733803973538,0.6648571784070104,0.023102568517272146
uzwiki,False,9.0,0.012315594986814934,0.8852796052631579,0.3904527944115294,0.6138253435005955,0.024293233888666357
uzwiki,False,10.0,0.012995815223136281,0.859375,0.4393448631959595,0.5642866030324037,0.025604429933906266
uzwiki,False,11.0,0.013712672002389535,0.8305921052631579,0.48647467459917454,0.5165004710357454,0.02697991865955216
uzwiki,False,12.0,0.014564799631984687,0.8071546052631579,0.5302420989190313,0.47215201123375816,0.028613283385200684
uzwiki,False,13.0,0.015381496797210735,0.780016447368421,0.5701219834559277,0.4316927069446666,0.03016809529110542
uzwiki,False,14.0,0.016187480618437958,0.751233552631579,0.6065125983780183,0.394738619598642,0.031692064841236114
uzwiki,False,15.0,0.016941617620055475,0.7208059210526315,0.639093212841922,0.3616132529906326,0.0331051414003116
uzwiki,False,16.0,0.017803373270724978,0.6953125,0.6685828278591744,0.3316482696101957,0.034717802369269295
uzwiki,False,17.0,0.01879268460374937,0.6743421052631579,0.6954114342307923,0.30440640608613734,0.03656633221850613
uzwiki,False,18.0,0.019856604992730842,0.6570723684210527,0.7190503547424109,0.28041380045859327,0.038548287881894606
uzwiki,False,19.0,0.020892789833611546,0.6381578947368421,0.7405534193079968,0.2585612968591692,0.04046092079879035
uzwiki,False,20.0,0.021955303195748708,0.6200657894736842,0.7599770201637489,0.23881334542028831,0.04240898800568078
uzwiki,False,21.0,0.023106405705130218,0.6048519736842105,0.7774198437230154,0.22108818144652412,0.04451236118255817
uzwiki,False,22.0,0.024202810431022834,0.5892269736842105,0.7928501693529343,0.20538935992463428,0.046495781959766384
uzwiki,False,23.0,0.025405748481276635,0.5760690789473685,0.8069447038878922,0.19105920830444906,0.04866526564426768
uzwiki,False,24.0,0.026553145167560844,0.5616776315789473,0.8197422169902758,0.17802662685081497,0.05070903556314501
uzwiki,False,25.0,0.0278094606084486,0.5513980263157895,0.8309255023314666,0.16665777919977248,0.052948492685527024
uzwiki,False,26.0,0.02891454146633284,0.5365953947368421,0.8415554388549557,0.15580795961535043,0.05487228003784295
uzwiki,False,27.0,0.030228181604328393,0.5283717105263158,0.8506592604863126,0.14655432908512417,0.05718481598504739
uzwiki,False,28.0,0.03148365800595164,0.5176809210526315,0.8593612874347524,0.1376846371247267,0.0593573937436647
uzwiki,False,29.0,0.03268181577414058,0.5074013157894737,0.8670482541316125,0.12984233633729714,0.061408310525006234
uzwiki,False,30.0,0.033914457088401816,0.4975328947368421,0.8742100681288704,0.12253328356351872,0.06350039359748097
uzwiki,False,31.0,0.03514178197872529,0.4876644736842105,0.8808396803970013,0.11576103379014913,0.06555927144081146
uzwiki,False,32.0,0.03636989085905495,0.47820723684210525,0.8869229928769556,0.10954336195097673,0.06759859339126392
uzwiki,False,33.0,0.03800019826190398,0.47286184210526316,0.8928723737959376,0.1034963294761727,0.07034714788193915
uzwiki,False,34.0,0.03954094940010433,0.4675164473684211,0.898095704673859,0.09818162427344958,0.07291499663321255
uzwiki,False,35.0,0.04132292010413229,0.4634046052631579,0.9032485452565318,0.09294868376615296,0.07587948156875948
uzwiki,False,36.0,0.04254744638173121,0.4535361842105263,0.9078339389624533,0.08823832631223448,0.07779658626040345
uzwiki,False,37.0,0.044018789989471126,0.44695723684210525,0.9120563076478446,0.08392257238841785,0.0801445108014451
uzwiki,False,38.0,0.04562431033019268,0.4420230263157895,0.9159614700046171,0.07994098721982261,0.08271139493729322
uzwiki,False,39.0,0.0472290229245493,0.4362664473684211,0.9197291762856549,0.07609093656126131,0.08523115234767242
uzwiki,False,40.0,0.04869508380409916,0.42886513157894735,0.9232889361957093,0.0724364101743721,0.08745964529789108
uzwiki,False,41.0,0.05031847133757962,0.4222861842105263,0.9267323871186034,0.06890630832400149,0.08992207337361002
uzwiki,False,42.0,0.052050149008323915,0.4165296052631579,0.9299749407000392,0.06558595069233367,0.09253676806430987
uzwiki,False,43.0,0.05397696695727048,0.41241776315789475,0.933006023395729,0.06249311221315701,0.09546016941086895
uzwiki,False,44.0,0.0560058538781943,0.40912828947368424,0.9358256352056731,0.05962068291295615,0.09852460639667293
uzwiki,False,45.0,0.057683242988451566,0.40254934210526316,0.9385113154546448,0.056854903215485524,0.10090702947845805
uzwiki,False,46.0,0.05958549222797927,0.3972039473684211,0.9410983092902685,0.054199328107502796,0.10362583136665952
uzwiki,False,47.0,0.061690195320054146,0.39350328947368424,0.9434985038434833,0.051746387244707516,0.10665923655614376
uzwiki,False,48.0,0.06328857701909453,0.38569078947368424,0.9458035364981127,0.04935388115679269,0.1087347128035704
uzwiki,False,49.0,0.0650887573964497,0.37993421052631576,0.9479076718112834,0.04718178424785368,0.11113783978830886
uzwiki,False,50.0,0.06731829205555964,0.37664473684210525,0.9499272187701558,0.045116336941644894,0.11422158488683833
uzwiki,False,51.0,0.0690766751093714,0.37006578947368424,0.9518516038304426,0.04311843438383192,0.1164219649440528
uzwiki,False,52.0,0.07185197052226851,0.36883223684210525,0.9537513172873925,0.041191631561172434,0.12027353177795656
uzwiki,False,53.0,0.07430572929697273,0.36636513157894735,0.9554466088881213,0.03946035301018504,0.12355265894751438
uzwiki,False,54.0,0.07660203460568646,0.36225328947368424,0.9571031308264635,0.03775395936650136,0.12646235555874544
uzwiki,False,55.0,0.07880704925440578,0.35855263157894735,0.9585763779971592,0.036235980020974425,0.12921389938504851
uzwiki,False,56.0,0.08144242538367386,0.35567434210526316,0.9600919193450042,0.03468245080787074,0.13253658162874435
uzwiki,False,57.0,0.08423220239262601,0.35320723684210525,0.9615404949123629,0.033200021329920545,0.1360253365003959
uzwiki,False,58.0,0.08683215854530596,0.3495065789473684,0.9629185801844731,0.031778026626850815,0.13910481957286638
uzwiki,False,59.0,0.08969709897610921,0.3458059210526316,0.9643107635156329,0.030341811976750385,0.14244579945799457
uzwiki,False,60.0,0.09197194076383476,0.33963815789473684,0.96559721140392,0.028990917008834143,0.14474721808464033
uzwiki,False,61.0,0.09465878808944503,0.3359375,0.9667673503050468,0.027778666524467196,0.14769953900388683
uzwiki,False,62.0,0.09708972346334983,0.3305921052631579,0.967909293088074,0.026580635987130948,0.15009801176141135
uzwiki,False,63.0,0.09974811083123426,0.3256578947368421,0.9690265642677645,0.025411045343856093,0.15271885846509836
uzwiki,False,64.0,0.10178384050367262,0.3190789473684211,0.9700275264602946,0.024344549316553797,0.15433571996817821
uzwiki,False,65.0,0.10464956796049925,0.3137335526315789,0.9711095524923606,0.02320695355409801,0.15694744420446366
uzwiki,False,66.0,0.10692274616597391,0.3067434210526316,0.972096416625841,0.022151122487068735,0.15857158040174302
uzwiki,False,67.0,0.11072716346153846,0.30304276315789475,0.9731643445988574,0.021041966618674347,0.1621919014084507
uzwiki,False,68.0,0.11491712707182321,0.2993421052631579,0.9742322725718736,0.019932810750279955,0.16607733546252995
uzwiki,False,69.0,0.11934361014420686,0.29605263157894735,0.9752402837939287,0.0188876446435237,0.17011222681630242
uzwiki,False,70.0,0.12280701754385964,0.29070723684210525,0.9761214124845362,0.017952683126255354,0.17267065575772375
uzwiki,False,71.0,0.1270799049186323,0.2857730263157895,0.9770518843818178,0.01697150678113724,0.175927097835717
uzwiki,False,72.0,0.12961174425342864,0.2759046052631579,0.9779118659838507,0.01601877033008052,0.17637008805362075
uzwiki,False,73.0,0.1336734693877551,0.26932565789473684,0.978775372100646,0.01509091878632752,0.17866884888161483
uzwiki,False,74.0,0.13799826689774697,0.26192434210526316,0.9796494517617287,0.01414529230878615,0.1807604994324631
uzwiki,False,75.0,0.143087929840757,0.25493421052631576,0.9805270559375738,0.013199665831244779,0.18329637841832966
uzwiki,False,76.0,0.147705078125,0.24876644736842105,0.9812566304933968,0.012410458771041077,0.18535539215686275
uzwiki,False,77.0,0.1522633744855967,0.24342105263157895,0.9818980921801591,0.011717236353294583,0.18734177215189873
uzwiki,False,78.0,0.1563526834611172,0.23478618421052633,0.9825818480440706,0.010952914200394603,0.18770545693622614
uzwiki,False,79.0,0.16201117318435754,0.2265625,0.9833255206589433,0.010131712259371834,0.18892508143322476
uzwiki,False,80.0,0.16878980891719744,0.21792763157894737,0.9840973893919155,0.009278515437529996,0.19023689877961233
uzwiki,False,81.0,0.17455928102315935,0.20764802631578946,0.9847917188001142,0.008489308377326294,0.1896713615023474
uzwiki,False,82.0,0.1797287113790505,0.19613486842105263,0.9854367050016389,0.007739206171457011,0.1875737318128195
uzwiki,False,83.0,0.18602728400165358,0.18503289473684212,0.9860746421736387,0.006999768925860751,0.18552875695732837
uzwiki,False,84.0,0.19101123595505617,0.1747532894736842,0.9865821722994287,0.00639897616381379,0.18252093622503757
uzwiki,False,85.0,0.1969015492253873,0.16200657894736842,0.9871531436909423,0.005712863719582645,0.17775772614482288
uzwiki,False,86.0,0.20787139689578715,0.15419407894736842,0.9877135415381687,0.005080076076716614,0.17705382436260625
uzwiki,False,87.0,0.21253071253071254,0.14226973684210525,0.9881294342801354,0.004557493023338488,0.17044334975369457
uzwiki,False,88.0,0.21675900277008311,0.12870065789473684,0.9885453270221022,0.004020690022929665,0.16150670794633645
uzwiki,False,89.0,0.22588424437299034,0.11554276315789473,0.9890246610297927,0.0034234522476403774,0.1528835690968444
uzwiki,False,90.0,0.236569274269557,0.10320723684210527,0.9894581763455716,0.0028795392737162055,0.14371600343544233
uzwiki,False,91.0,0.255079006772009,0.09292763157894737,0.9898987406908754,0.002346291260065056,0.13622664255575648
uzwiki,False,92.0,0.2759103641456583,0.08100328947368421,0.9903005353737924,0.0018379281537176273,0.12523839796567068
uzwiki,False,93.0,0.29475587703435807,0.06702302631578948,0.9906283152466984,0.0013864448354929879,0.10921273031825796
uzwiki,False,94.0,0.3316831683168317,0.055098684210526314,0.9909490460900795,0.0009598464245720685,0.09449929478138222
uzwiki,False,95.0,0.36619718309859156,0.04276315789473684,0.9911605169758253,0.0006398976163813789,0.07658321060382917
uzwiki,False,96.0,0.41624365482233505,0.033717105263157895,0.9913120711106098,0.00040882347713254766,0.062381133510840625
uzwiki,False,97.0,0.4628099173553719,0.023026315789473683,0.9913966594649082,0.0002310741392488313,0.043869956913435176
uzwiki,False,98.0,0.5428571428571428,0.015625,0.9914495271863446,0.00011375957624557848,0.030375699440447643
uzwiki,False,99.0,0.5277777777777778,0.0078125,0.9914354291272949,6.043477488046357e-05,0.01539708265802269
