wiki_db,user_is_anonymous,threshold,precision,recall,accuracy,fpr,F1
wawiki,True,0.0,0.12727272727272726,1.0,0.12727272727272726,1.0,0.22580645161290322
wawiki,True,1.0,0.12727272727272726,1.0,0.12727272727272726,1.0,0.22580645161290322
wawiki,True,2.0,0.12727272727272726,1.0,0.12727272727272726,1.0,0.22580645161290322
wawiki,True,3.0,0.12727272727272726,1.0,0.12727272727272726,1.0,0.22580645161290322
wawiki,True,4.0,0.12727272727272726,1.0,0.12727272727272726,1.0,0.22580645161290322
wawiki,True,5.0,0.12727272727272726,1.0,0.12727272727272726,1.0,0.22580645161290322
wawiki,True,6.0,0.12727272727272726,1.0,0.12727272727272726,1.0,0.22580645161290322
wawiki,True,7.0,0.12727272727272726,1.0,0.12727272727272726,1.0,0.22580645161290322
wawiki,True,8.0,0.12727272727272726,1.0,0.12727272727272726,1.0,0.22580645161290322
wawiki,True,9.0,0.12727272727272726,1.0,0.12727272727272726,1.0,0.22580645161290322
wawiki,True,10.0,0.1278538812785388,1.0,0.1318181818181818,0.9947916666666666,0.22672064777327935
wawiki,True,11.0,0.1278538812785388,1.0,0.1318181818181818,0.9947916666666666,0.22672064777327935
wawiki,True,12.0,0.12903225806451613,1.0,0.1409090909090909,0.984375,0.2285714285714286
wawiki,True,13.0,0.12903225806451613,1.0,0.1409090909090909,0.984375,0.2285714285714286
wawiki,True,14.0,0.12962962962962962,1.0,0.14545454545454545,0.9791666666666666,0.22950819672131148
wawiki,True,15.0,0.13145539906103287,1.0,0.1590909090909091,0.9635416666666666,0.23236514522821575
wawiki,True,16.0,0.12735849056603774,0.9642857142857143,0.15454545454545454,0.9635416666666666,0.22499999999999998
wawiki,True,17.0,0.12857142857142856,0.9642857142857143,0.16363636363636364,0.953125,0.22689075630252095
wawiki,True,18.0,0.1291866028708134,0.9642857142857143,0.16818181818181818,0.9479166666666666,0.22784810126582278
wawiki,True,19.0,0.12980769230769232,0.9642857142857143,0.17272727272727273,0.9427083333333334,0.22881355932203387
wawiki,True,20.0,0.13043478260869565,0.9642857142857143,0.17727272727272728,0.9375,0.22978723404255316
wawiki,True,21.0,0.1262135922330097,0.9285714285714286,0.17272727272727273,0.9375,0.22222222222222224
wawiki,True,22.0,0.12745098039215685,0.9285714285714286,0.18181818181818182,0.9270833333333334,0.22413793103448273
wawiki,True,23.0,0.12935323383084577,0.9285714285714286,0.19545454545454546,0.9114583333333334,0.22707423580786024
wawiki,True,24.0,0.1306532663316583,0.9285714285714286,0.20454545454545456,0.9010416666666666,0.2290748898678414
wawiki,True,25.0,0.1319796954314721,0.9285714285714286,0.21363636363636362,0.890625,0.23111111111111113
wawiki,True,26.0,0.13333333333333333,0.9285714285714286,0.22272727272727272,0.8802083333333334,0.23318385650224216
wawiki,True,27.0,0.13333333333333333,0.9285714285714286,0.22272727272727272,0.8802083333333334,0.23318385650224216
wawiki,True,28.0,0.13402061855670103,0.9285714285714286,0.22727272727272727,0.875,0.23423423423423423
wawiki,True,29.0,0.13402061855670103,0.9285714285714286,0.22727272727272727,0.875,0.23423423423423423
wawiki,True,30.0,0.13471502590673576,0.9285714285714286,0.2318181818181818,0.8697916666666666,0.23529411764705885
wawiki,True,31.0,0.13471502590673576,0.9285714285714286,0.2318181818181818,0.8697916666666666,0.23529411764705885
wawiki,True,32.0,0.13471502590673576,0.9285714285714286,0.2318181818181818,0.8697916666666666,0.23529411764705885
wawiki,True,33.0,0.13541666666666666,0.9285714285714286,0.23636363636363636,0.8645833333333334,0.23636363636363633
wawiki,True,34.0,0.13541666666666666,0.9285714285714286,0.23636363636363636,0.8645833333333334,0.23636363636363633
wawiki,True,35.0,0.13612565445026178,0.9285714285714286,0.2409090909090909,0.859375,0.2374429223744292
wawiki,True,36.0,0.1368421052631579,0.9285714285714286,0.24545454545454545,0.8541666666666666,0.23853211009174316
wawiki,True,37.0,0.13829787234042554,0.9285714285714286,0.2545454545454545,0.84375,0.24074074074074076
wawiki,True,38.0,0.13440860215053763,0.8928571428571429,0.2545454545454545,0.8385416666666666,0.2336448598130841
wawiki,True,39.0,0.13736263736263737,0.8928571428571429,0.2727272727272727,0.8177083333333334,0.23809523809523808
wawiki,True,40.0,0.13966480446927373,0.8928571428571429,0.2863636363636364,0.8020833333333334,0.24154589371980675
wawiki,True,41.0,0.14285714285714285,0.8928571428571429,0.30454545454545456,0.78125,0.2463054187192118
wawiki,True,42.0,0.14534883720930233,0.8928571428571429,0.3181818181818182,0.765625,0.25000000000000006
wawiki,True,43.0,0.14619883040935672,0.8928571428571429,0.32272727272727275,0.7604166666666666,0.25125628140703515
wawiki,True,44.0,0.14705882352941177,0.8928571428571429,0.32727272727272727,0.7552083333333334,0.25252525252525254
wawiki,True,45.0,0.14792899408284024,0.8928571428571429,0.33181818181818185,0.75,0.25380710659898476
wawiki,True,46.0,0.1524390243902439,0.8928571428571429,0.35454545454545455,0.7239583333333334,0.2604166666666667
wawiki,True,47.0,0.1524390243902439,0.8928571428571429,0.35454545454545455,0.7239583333333334,0.2604166666666667
wawiki,True,48.0,0.15337423312883436,0.8928571428571429,0.35909090909090907,0.71875,0.26178010471204194
wawiki,True,49.0,0.15432098765432098,0.8928571428571429,0.36363636363636365,0.7135416666666666,0.26315789473684215
wawiki,True,50.0,0.15527950310559005,0.8928571428571429,0.36818181818181817,0.7083333333333334,0.26455026455026454
wawiki,True,51.0,0.15625,0.8928571428571429,0.37272727272727274,0.703125,0.2659574468085107
wawiki,True,52.0,0.15723270440251572,0.8928571428571429,0.37727272727272726,0.6979166666666666,0.267379679144385
wawiki,True,53.0,0.15723270440251572,0.8928571428571429,0.37727272727272726,0.6979166666666666,0.267379679144385
wawiki,True,54.0,0.15822784810126583,0.8928571428571429,0.38181818181818183,0.6927083333333334,0.26881720430107525
wawiki,True,55.0,0.1592356687898089,0.8928571428571429,0.38636363636363635,0.6875,0.27027027027027023
wawiki,True,56.0,0.1592356687898089,0.8928571428571429,0.38636363636363635,0.6875,0.27027027027027023
wawiki,True,57.0,0.1592356687898089,0.8928571428571429,0.38636363636363635,0.6875,0.27027027027027023
wawiki,True,58.0,0.1592356687898089,0.8928571428571429,0.38636363636363635,0.6875,0.27027027027027023
wawiki,True,59.0,0.16447368421052633,0.8928571428571429,0.4090909090909091,0.6614583333333334,0.27777777777777773
wawiki,True,60.0,0.15894039735099338,0.8571428571428571,0.40454545454545454,0.6614583333333334,0.2681564245810056
wawiki,True,61.0,0.16,0.8571428571428571,0.4090909090909091,0.65625,0.2696629213483146
wawiki,True,62.0,0.16,0.8571428571428571,0.4090909090909091,0.65625,0.2696629213483146
wawiki,True,63.0,0.16,0.8571428571428571,0.4090909090909091,0.65625,0.2696629213483146
wawiki,True,64.0,0.1610738255033557,0.8571428571428571,0.41363636363636364,0.6510416666666666,0.2711864406779661
wawiki,True,65.0,0.1564625850340136,0.8214285714285714,0.41363636363636364,0.6458333333333334,0.2628571428571429
wawiki,True,66.0,0.15862068965517243,0.8214285714285714,0.42272727272727273,0.6354166666666666,0.2658959537572254
wawiki,True,67.0,0.15862068965517243,0.8214285714285714,0.42272727272727273,0.6354166666666666,0.2658959537572254
wawiki,True,68.0,0.1597222222222222,0.8214285714285714,0.42727272727272725,0.6302083333333334,0.26744186046511625
wawiki,True,69.0,0.1597222222222222,0.8214285714285714,0.42727272727272725,0.6302083333333334,0.26744186046511625
wawiki,True,70.0,0.1597222222222222,0.8214285714285714,0.42727272727272725,0.6302083333333334,0.26744186046511625
wawiki,True,71.0,0.15384615384615385,0.7857142857142857,0.42272727272727273,0.6302083333333334,0.2573099415204678
wawiki,True,72.0,0.15492957746478872,0.7857142857142857,0.42727272727272725,0.625,0.2588235294117647
wawiki,True,73.0,0.15,0.75,0.42727272727272725,0.6197916666666666,0.24999999999999997
wawiki,True,74.0,0.15,0.75,0.42727272727272725,0.6197916666666666,0.24999999999999997
wawiki,True,75.0,0.14492753623188406,0.7142857142857143,0.42727272727272725,0.6145833333333334,0.24096385542168677
wawiki,True,76.0,0.14814814814814814,0.7142857142857143,0.4409090909090909,0.5989583333333334,0.24539877300613494
wawiki,True,77.0,0.13636363636363635,0.6428571428571429,0.43636363636363634,0.59375,0.225
wawiki,True,78.0,0.13846153846153847,0.6428571428571429,0.44545454545454544,0.5833333333333334,0.2278481012658228
wawiki,True,79.0,0.13953488372093023,0.6428571428571429,0.45,0.578125,0.22929936305732482
wawiki,True,80.0,0.14516129032258066,0.6428571428571429,0.4727272727272727,0.5520833333333334,0.2368421052631579
wawiki,True,81.0,0.14634146341463414,0.6428571428571429,0.4772727272727273,0.546875,0.23841059602649006
wawiki,True,82.0,0.1452991452991453,0.6071428571428571,0.4954545454545455,0.5208333333333334,0.23448275862068968
wawiki,True,83.0,0.14912280701754385,0.6071428571428571,0.509090909090909,0.5052083333333334,0.23943661971830985
wawiki,True,84.0,0.15384615384615385,0.5714285714285714,0.5454545454545454,0.4583333333333333,0.24242424242424246
wawiki,True,85.0,0.16326530612244897,0.5714285714285714,0.5727272727272728,0.4270833333333333,0.25396825396825395
wawiki,True,86.0,0.16304347826086957,0.5357142857142857,0.5909090909090909,0.4010416666666667,0.25000000000000006
wawiki,True,87.0,0.18072289156626506,0.5357142857142857,0.6318181818181818,0.3541666666666667,0.2702702702702703
wawiki,True,88.0,0.17567567567567569,0.4642857142857143,0.6545454545454545,0.3177083333333333,0.25490196078431376
wawiki,True,89.0,0.20634920634920634,0.4642857142857143,0.7045454545454546,0.2604166666666667,0.2857142857142857
wawiki,True,90.0,0.2222222222222222,0.42857142857142855,0.7363636363636363,0.21875,0.29268292682926833
wawiki,True,91.0,0.2926829268292683,0.42857142857142855,0.7954545454545454,0.15104166666666666,0.34782608695652173
wawiki,True,92.0,0.3793103448275862,0.39285714285714285,0.8409090909090909,0.09375,0.3859649122807017
wawiki,True,93.0,0.42105263157894735,0.2857142857142857,0.8590909090909091,0.057291666666666664,0.3404255319148936
wawiki,True,94.0,0.6666666666666666,0.21428571428571427,0.8863636363636364,0.015625,0.3243243243243243
wawiki,True,95.0,0.75,0.10714285714285714,0.8818181818181818,0.005208333333333333,0.1875
wawiki,True,96.0,0.5,0.03571428571428571,0.8727272727272727,0.005208333333333333,0.06666666666666667
wawiki,True,97.0,0.0,0.0,0.8681818181818182,0.005208333333333333,0.06666666666666667
wawiki,True,98.0,0.0,0.0,0.8727272727272727,0.0,0.06666666666666667
wawiki,True,99.0,0.0,0.0,0.8727272727272727,0.0,0.06666666666666667
wawiki,False,0.0,0.005206906001644286,1.0,0.005206906001644286,1.0,0.010359869138495093
wawiki,False,1.0,0.005208333333333333,1.0,0.005480953685941353,0.9997245179063361,0.010362694300518135
wawiki,False,2.0,0.005239933811362383,1.0,0.011510002740476843,0.99366391184573,0.010425240054869684
wawiki,False,3.0,0.005355129650507328,1.0,0.03288572211564812,0.9721763085399449,0.010653209980375666
wawiki,False,4.0,0.005573481959518921,1.0,0.07097835023294054,0.9338842975206612,0.011085180863477246
wawiki,False,5.0,0.005837173579109063,1.0,0.11318169361468895,0.8914600550964187,0.011606597434331095
wawiki,False,6.0,0.006217277486910994,1.0,0.16771718278980544,0.8366391184573003,0.012357723577235772
wawiki,False,7.0,0.006219765031098825,0.9473684210526315,0.21156481227733626,0.7922865013774105,0.012358393408856848
wawiki,False,8.0,0.0066200809121000365,0.9473684210526315,0.2595231570293231,0.7440771349862259,0.013148283418553688
wawiki,False,9.0,0.0065764023210831725,0.8947368421052632,0.295697451356536,0.7074380165289256,0.0130568356374808
wawiki,False,10.0,0.006102522375915379,0.7894736842105263,0.3294053165250754,0.6730027548209366,0.012111425111021397
wawiki,False,11.0,0.005988023952095809,0.7368421052631579,0.36174294327212936,0.6402203856749311,0.011879507848960543
wawiki,False,12.0,0.006346328195829556,0.7368421052631579,0.3979172375993423,0.6038567493112947,0.012584269662921347
wawiki,False,13.0,0.006653992395437262,0.7368421052631579,0.4258701013976432,0.5757575757575758,0.0131888836552049
wawiki,False,14.0,0.0070140280561122245,0.7368421052631579,0.4554672513017265,0.5460055096418733,0.013895781637717123
wawiki,False,15.0,0.006292606187729418,0.631578947368421,0.47876130446697723,0.522038567493113,0.012461059190031152
wawiki,False,16.0,0.006688963210702341,0.631578947368421,0.509728692792546,0.4909090909090909,0.013237727523441808
wawiki,False,17.0,0.006993006993006993,0.631578947368421,0.5311044121677172,0.46942148760330576,0.0138328530259366
wawiki,False,18.0,0.007361963190184049,0.631578947368421,0.5546725130172651,0.44573002754820934,0.014554275318374775
wawiki,False,19.0,0.0070242656449553,0.5789473684210527,0.5716634694436832,0.4283746556473829,0.013880126182965299
wawiki,False,20.0,0.007313829787234043,0.5789473684210527,0.5886544258701014,0.4112947658402204,0.0144451739986868
wawiki,False,21.0,0.006258692628650904,0.47368421052631576,0.6056453822965195,0.39366391184573,0.012354152367879203
wawiki,False,22.0,0.006531204644412192,0.47368421052631576,0.6220882433543437,0.3771349862258953,0.012884753042233358
wawiki,False,23.0,0.006928406466512702,0.47368421052631576,0.643738010413812,0.35537190082644626,0.013657056145675264
wawiki,False,24.0,0.006509357200976403,0.42105263157894735,0.6623732529460126,0.33636363636363636,0.012820512820512822
wawiki,False,25.0,0.0068143100511073255,0.42105263157894735,0.6774458755823514,0.3212121212121212,0.013411567476948869
wawiki,False,26.0,0.007207207207207207,0.42105263157894735,0.6949849273773636,0.30358126721763085,0.0141718334809566
wawiki,False,27.0,0.0075046904315197,0.42105263157894735,0.7070430254864346,0.29146005509641876,0.014746543778801843
wawiki,False,28.0,0.00784313725490196,0.42105263157894735,0.7196492189640997,0.2787878787878788,0.015399422521655439
wawiki,False,29.0,0.008290155440414507,0.42105263157894735,0.7347218416004385,0.2636363636363636,0.016260162601626015
wawiki,False,30.0,0.008849557522123894,0.42105263157894735,0.7514387503425596,0.24683195592286503,0.01733477789815818
wawiki,False,31.0,0.008187134502923977,0.3684210526315789,0.7643189915045218,0.23360881542699724,0.01601830663615561
wawiki,False,32.0,0.00875,0.3684210526315789,0.7793916141408606,0.2184573002754821,0.0170940170940171
wawiki,False,33.0,0.009308510638297872,0.3684210526315789,0.7925459029871198,0.20523415977961432,0.018158236057068743
wawiki,False,34.0,0.010144927536231883,0.3684210526315789,0.8095368594135379,0.1881542699724518,0.019746121297602257
wawiki,False,35.0,0.009259259259259259,0.3157894736842105,0.8204987667854207,0.1768595041322314,0.017991004497751126
wawiki,False,36.0,0.008488964346349746,0.2631578947368421,0.8361194847903535,0.16088154269972452,0.01644736842105263
wawiki,False,37.0,0.009242144177449169,0.2631578947368421,0.8492737736366127,0.14765840220385676,0.017857142857142856
wawiki,False,38.0,0.010040160642570281,0.2631578947368421,0.8610578240613866,0.13581267217630855,0.019342359767891684
wawiki,False,39.0,0.010940919037199124,0.2631578947368421,0.8722937791175664,0.12451790633608815,0.02100840336134454
wawiki,False,40.0,0.007211538461538462,0.15789473684210525,0.882433543436558,0.1137741046831956,0.013793103448275862
wawiki,False,41.0,0.0075,0.15789473684210525,0.886818306385311,0.109366391184573,0.01431980906921241
wawiki,False,42.0,0.008130081300813009,0.15789473684210525,0.8953137845985202,0.10082644628099173,0.0154639175257732
wawiki,False,43.0,0.008823529411764706,0.15789473684210525,0.9032611674431351,0.09283746556473829,0.016713091922005572
wawiki,False,44.0,0.009554140127388535,0.15789473684210525,0.9103864072348589,0.08567493112947658,0.018018018018018018
wawiki,False,45.0,0.006993006993006993,0.10526315789473684,0.9175116470265826,0.07823691460055096,0.013114754098360656
wawiki,False,46.0,0.007326007326007326,0.10526315789473684,0.9210742669224445,0.0746556473829201,0.013698630136986302
wawiki,False,47.0,0.007782101167315175,0.10526315789473684,0.9254590298711975,0.07024793388429752,0.014492753623188406
wawiki,False,48.0,0.008333333333333333,0.10526315789473684,0.9301178405042477,0.06556473829201102,0.015444015444015443
wawiki,False,49.0,0.00881057268722467,0.10526315789473684,0.9336804604001097,0.06198347107438017,0.016260162601626018
wawiki,False,50.0,0.009174311926605505,0.10526315789473684,0.9361468895587832,0.05950413223140496,0.016877637130801686
wawiki,False,51.0,0.01,0.10526315789473684,0.9410797478761305,0.05454545454545454,0.018264840182648404
wawiki,False,52.0,0.010471204188481676,0.10526315789473684,0.943546177034804,0.05206611570247934,0.01904761904761905
wawiki,False,53.0,0.011428571428571429,0.10526315789473684,0.9479309399835572,0.047658402203856746,0.020618556701030927
wawiki,False,54.0,0.011695906432748537,0.10526315789473684,0.9490271307207454,0.046556473829201105,0.021052631578947368
wawiki,False,55.0,0.012422360248447204,0.10526315789473684,0.951767607563716,0.043801652892561986,0.02222222222222222
wawiki,False,56.0,0.012987012987012988,0.10526315789473684,0.9536859413537956,0.0418732782369146,0.023121387283236997
wawiki,False,57.0,0.014084507042253521,0.10526315789473684,0.9569745135653603,0.03856749311294766,0.02484472049689441
wawiki,False,58.0,0.014925373134328358,0.10526315789473684,0.959166895039737,0.03636363636363636,0.026143790849673203
wawiki,False,59.0,0.015748031496062992,0.10526315789473684,0.9610852288298164,0.03443526170798898,0.0273972602739726
wawiki,False,60.0,0.017094017094017096,0.10526315789473684,0.963825705672787,0.03168044077134986,0.029411764705882356
wawiki,False,61.0,0.018518518518518517,0.10526315789473684,0.9662921348314607,0.029201101928374655,0.031496062992125984
wawiki,False,62.0,0.0196078431372549,0.10526315789473684,0.9679364209372431,0.027548209366391185,0.03305785123966942
wawiki,False,63.0,0.021739130434782608,0.10526315789473684,0.9706768977802137,0.024793388429752067,0.03603603603603604
wawiki,False,64.0,0.022727272727272728,0.10526315789473684,0.9717730885174021,0.023691460055096418,0.037383177570093455
wawiki,False,65.0,0.023809523809523808,0.10526315789473684,0.9728692792545903,0.022589531680440773,0.038834951456310676
wawiki,False,66.0,0.013513513513513514,0.05263157894736842,0.9750616607289668,0.020110192837465565,0.021505376344086023
wawiki,False,67.0,0.014705882352941176,0.05263157894736842,0.9767059468347492,0.018457300275482095,0.022988505747126436
wawiki,False,68.0,0.015873015873015872,0.05263157894736842,0.9780761852562346,0.017079889807162536,0.024390243902439025
wawiki,False,69.0,0.01694915254237288,0.05263157894736842,0.9791723759934229,0.015977961432506887,0.02564102564102564
wawiki,False,70.0,0.017543859649122806,0.05263157894736842,0.979720471362017,0.015426997245179064,0.02631578947368421
wawiki,False,71.0,0.018867924528301886,0.05263157894736842,0.9808166620992053,0.014325068870523415,0.02777777777777778
wawiki,False,72.0,0.02,0.05263157894736842,0.9816388051520964,0.01349862258953168,0.028985507246376812
wawiki,False,73.0,0.020833333333333332,0.05263157894736842,0.9821869005206906,0.012947658402203856,0.02985074626865672
wawiki,False,74.0,0.022727272727272728,0.05263157894736842,0.9832830912578788,0.011845730027548209,0.031746031746031744
wawiki,False,75.0,0.024390243902439025,0.05263157894736842,0.9841052343107701,0.011019283746556474,0.03333333333333333
wawiki,False,76.0,0.02564102564102564,0.05263157894736842,0.9846533296793643,0.01046831955922865,0.03448275862068966
wawiki,False,77.0,0.02702702702702703,0.05263157894736842,0.9852014250479584,0.009917355371900827,0.03571428571428572
wawiki,False,78.0,0.027777777777777776,0.05263157894736842,0.9854754727322554,0.009641873278236915,0.03636363636363636
wawiki,False,79.0,0.030303030303030304,0.05263157894736842,0.9862976157851466,0.008815426997245178,0.038461538461538464
wawiki,False,80.0,0.03571428571428571,0.05263157894736842,0.987667854206632,0.00743801652892562,0.0425531914893617
wawiki,False,81.0,0.041666666666666664,0.05263157894736842,0.9887640449438202,0.006336088154269973,0.04651162790697675
wawiki,False,82.0,0.05555555555555555,0.05263157894736842,0.9904083310496027,0.004683195592286501,0.05405405405405406
wawiki,False,83.0,0.0625,0.05263157894736842,0.9909564264181968,0.004132231404958678,0.05714285714285714
wawiki,False,84.0,0.08333333333333333,0.05263157894736842,0.9920526171553851,0.0030303030303030303,0.06451612903225808
wawiki,False,85.0,0.09090909090909091,0.05263157894736842,0.9923266648396821,0.0027548209366391185,0.06666666666666667
wawiki,False,86.0,0.1,0.05263157894736842,0.9926007125239792,0.0024793388429752068,0.06896551724137931
wawiki,False,87.0,0.14285714285714285,0.05263157894736842,0.9934228555768704,0.001652892561983471,0.07692307692307693
wawiki,False,88.0,0.2,0.05263157894736842,0.9939709509454645,0.0011019283746556473,0.08333333333333333
wawiki,False,89.0,0.3333333333333333,0.05263157894736842,0.9945190463140586,0.0005509641873278236,0.09090909090909091
wawiki,False,90.0,0.3333333333333333,0.05263157894736842,0.9945190463140586,0.0005509641873278236,0.09090909090909091
wawiki,False,91.0,0.3333333333333333,0.05263157894736842,0.9945190463140586,0.0005509641873278236,0.09090909090909091
wawiki,False,92.0,0.5,0.05263157894736842,0.9947930939983557,0.0002754820936639118,0.09523809523809525
wawiki,False,93.0,0.5,0.05263157894736842,0.9947930939983557,0.0002754820936639118,0.09523809523809525
wawiki,False,94.0,0.5,0.05263157894736842,0.9947930939983557,0.0002754820936639118,0.09523809523809525
wawiki,False,95.0,1.0,0.05263157894736842,0.9950671416826528,0.0,0.1
wawiki,False,96.0,1.0,0.0,0.9947930939983557,0.0,0.0
wawiki,False,97.0,1.0,0.0,0.9947930939983557,0.0,0.0
wawiki,False,98.0,1.0,0.0,0.9947930939983557,0.0,0.0
wawiki,False,99.0,1.0,0.0,0.9947930939983557,0.0,0.0
