wiki_db,user_is_anonymous,threshold,precision,recall,accuracy,fpr,F1
wuuwiki,True,0.0,0.36879432624113473,1.0,0.36879432624113473,1.0,0.5388601036269429
wuuwiki,True,1.0,0.36879432624113473,1.0,0.36879432624113473,1.0,0.5388601036269429
wuuwiki,True,2.0,0.36879432624113473,1.0,0.36879432624113473,1.0,0.5388601036269429
wuuwiki,True,3.0,0.36879432624113473,1.0,0.36879432624113473,1.0,0.5388601036269429
wuuwiki,True,4.0,0.36879432624113473,1.0,0.36879432624113473,1.0,0.5388601036269429
wuuwiki,True,5.0,0.36879432624113473,1.0,0.36879432624113473,1.0,0.5388601036269429
wuuwiki,True,6.0,0.36879432624113473,1.0,0.36879432624113473,1.0,0.5388601036269429
wuuwiki,True,7.0,0.36879432624113473,1.0,0.36879432624113473,1.0,0.5388601036269429
wuuwiki,True,8.0,0.36879432624113473,1.0,0.36879432624113473,1.0,0.5388601036269429
wuuwiki,True,9.0,0.36879432624113473,1.0,0.36879432624113473,1.0,0.5388601036269429
wuuwiki,True,10.0,0.36879432624113473,1.0,0.36879432624113473,1.0,0.5388601036269429
wuuwiki,True,11.0,0.36879432624113473,1.0,0.36879432624113473,1.0,0.5388601036269429
wuuwiki,True,12.0,0.36879432624113473,1.0,0.36879432624113473,1.0,0.5388601036269429
wuuwiki,True,13.0,0.36879432624113473,1.0,0.36879432624113473,1.0,0.5388601036269429
wuuwiki,True,14.0,0.36879432624113473,1.0,0.36879432624113473,1.0,0.5388601036269429
wuuwiki,True,15.0,0.36879432624113473,1.0,0.36879432624113473,1.0,0.5388601036269429
wuuwiki,True,16.0,0.36879432624113473,1.0,0.36879432624113473,1.0,0.5388601036269429
wuuwiki,True,17.0,0.36879432624113473,1.0,0.36879432624113473,1.0,0.5388601036269429
wuuwiki,True,18.0,0.36879432624113473,1.0,0.36879432624113473,1.0,0.5388601036269429
wuuwiki,True,19.0,0.36879432624113473,1.0,0.36879432624113473,1.0,0.5388601036269429
wuuwiki,True,20.0,0.36879432624113473,1.0,0.36879432624113473,1.0,0.5388601036269429
wuuwiki,True,21.0,0.36879432624113473,1.0,0.36879432624113473,1.0,0.5388601036269429
wuuwiki,True,22.0,0.36879432624113473,1.0,0.36879432624113473,1.0,0.5388601036269429
wuuwiki,True,23.0,0.36879432624113473,1.0,0.36879432624113473,1.0,0.5388601036269429
wuuwiki,True,24.0,0.36879432624113473,1.0,0.36879432624113473,1.0,0.5388601036269429
wuuwiki,True,25.0,0.36879432624113473,1.0,0.36879432624113473,1.0,0.5388601036269429
wuuwiki,True,26.0,0.36879432624113473,1.0,0.36879432624113473,1.0,0.5388601036269429
wuuwiki,True,27.0,0.36879432624113473,1.0,0.36879432624113473,1.0,0.5388601036269429
wuuwiki,True,28.0,0.36879432624113473,1.0,0.36879432624113473,1.0,0.5388601036269429
wuuwiki,True,29.0,0.36879432624113473,1.0,0.36879432624113473,1.0,0.5388601036269429
wuuwiki,True,30.0,0.36879432624113473,1.0,0.36879432624113473,1.0,0.5388601036269429
wuuwiki,True,31.0,0.36879432624113473,1.0,0.36879432624113473,1.0,0.5388601036269429
wuuwiki,True,32.0,0.37142857142857144,1.0,0.375886524822695,0.9887640449438202,0.5416666666666666
wuuwiki,True,33.0,0.37142857142857144,1.0,0.375886524822695,0.9887640449438202,0.5416666666666666
wuuwiki,True,34.0,0.37142857142857144,1.0,0.375886524822695,0.9887640449438202,0.5416666666666666
wuuwiki,True,35.0,0.37142857142857144,1.0,0.375886524822695,0.9887640449438202,0.5416666666666666
wuuwiki,True,36.0,0.37142857142857144,1.0,0.375886524822695,0.9887640449438202,0.5416666666666666
wuuwiki,True,37.0,0.37142857142857144,1.0,0.375886524822695,0.9887640449438202,0.5416666666666666
wuuwiki,True,38.0,0.37142857142857144,1.0,0.375886524822695,0.9887640449438202,0.5416666666666666
wuuwiki,True,39.0,0.37142857142857144,1.0,0.375886524822695,0.9887640449438202,0.5416666666666666
wuuwiki,True,40.0,0.37142857142857144,1.0,0.375886524822695,0.9887640449438202,0.5416666666666666
wuuwiki,True,41.0,0.37142857142857144,1.0,0.375886524822695,0.9887640449438202,0.5416666666666666
wuuwiki,True,42.0,0.37142857142857144,1.0,0.375886524822695,0.9887640449438202,0.5416666666666666
wuuwiki,True,43.0,0.37142857142857144,1.0,0.375886524822695,0.9887640449438202,0.5416666666666666
wuuwiki,True,44.0,0.37142857142857144,1.0,0.375886524822695,0.9887640449438202,0.5416666666666666
wuuwiki,True,45.0,0.37142857142857144,1.0,0.375886524822695,0.9887640449438202,0.5416666666666666
wuuwiki,True,46.0,0.37410071942446044,1.0,0.3829787234042553,0.9775280898876404,0.5445026178010471
wuuwiki,True,47.0,0.37410071942446044,1.0,0.3829787234042553,0.9775280898876404,0.5445026178010471
wuuwiki,True,48.0,0.37410071942446044,1.0,0.3829787234042553,0.9775280898876404,0.5445026178010471
wuuwiki,True,49.0,0.37410071942446044,1.0,0.3829787234042553,0.9775280898876404,0.5445026178010471
wuuwiki,True,50.0,0.37681159420289856,1.0,0.3900709219858156,0.9662921348314607,0.5473684210526316
wuuwiki,True,51.0,0.38235294117647056,1.0,0.40425531914893614,0.9438202247191011,0.5531914893617021
wuuwiki,True,52.0,0.38235294117647056,1.0,0.40425531914893614,0.9438202247191011,0.5531914893617021
wuuwiki,True,53.0,0.3851851851851852,1.0,0.41134751773049644,0.9325842696629213,0.5561497326203209
wuuwiki,True,54.0,0.3851851851851852,1.0,0.41134751773049644,0.9325842696629213,0.5561497326203209
wuuwiki,True,55.0,0.3851851851851852,1.0,0.41134751773049644,0.9325842696629213,0.5561497326203209
wuuwiki,True,56.0,0.3851851851851852,1.0,0.41134751773049644,0.9325842696629213,0.5561497326203209
wuuwiki,True,57.0,0.3880597014925373,1.0,0.41843971631205673,0.9213483146067416,0.5591397849462366
wuuwiki,True,58.0,0.3880597014925373,1.0,0.41843971631205673,0.9213483146067416,0.5591397849462366
wuuwiki,True,59.0,0.3880597014925373,1.0,0.41843971631205673,0.9213483146067416,0.5591397849462366
wuuwiki,True,60.0,0.3880597014925373,1.0,0.41843971631205673,0.9213483146067416,0.5591397849462366
wuuwiki,True,61.0,0.3880597014925373,1.0,0.41843971631205673,0.9213483146067416,0.5591397849462366
wuuwiki,True,62.0,0.3880597014925373,1.0,0.41843971631205673,0.9213483146067416,0.5591397849462366
wuuwiki,True,63.0,0.3880597014925373,1.0,0.41843971631205673,0.9213483146067416,0.5591397849462366
wuuwiki,True,64.0,0.39097744360902253,1.0,0.425531914893617,0.9101123595505618,0.5621621621621622
wuuwiki,True,65.0,0.3939393939393939,1.0,0.4326241134751773,0.898876404494382,0.5652173913043478
wuuwiki,True,66.0,0.3969465648854962,1.0,0.4397163120567376,0.8876404494382022,0.5683060109289617
wuuwiki,True,67.0,0.4,1.0,0.44680851063829785,0.8764044943820225,0.5714285714285715
wuuwiki,True,68.0,0.40310077519379844,1.0,0.45390070921985815,0.8651685393258427,0.574585635359116
wuuwiki,True,69.0,0.4015748031496063,0.9807692307692307,0.45390070921985815,0.8539325842696629,0.5698324022346368
wuuwiki,True,70.0,0.4015748031496063,0.9807692307692307,0.45390070921985815,0.8539325842696629,0.5698324022346368
wuuwiki,True,71.0,0.40476190476190477,0.9807692307692307,0.46099290780141844,0.8426966292134831,0.5730337078651685
wuuwiki,True,72.0,0.408,0.9807692307692307,0.46808510638297873,0.8314606741573034,0.576271186440678
wuuwiki,True,73.0,0.4032258064516129,0.9615384615384616,0.46099290780141844,0.8314606741573034,0.5681818181818181
wuuwiki,True,74.0,0.4032258064516129,0.9615384615384616,0.46099290780141844,0.8314606741573034,0.5681818181818181
wuuwiki,True,75.0,0.4032258064516129,0.9615384615384616,0.46099290780141844,0.8314606741573034,0.5681818181818181
wuuwiki,True,76.0,0.4083333333333333,0.9423076923076923,0.475177304964539,0.797752808988764,0.569767441860465
wuuwiki,True,77.0,0.4117647058823529,0.9423076923076923,0.48226950354609927,0.7865168539325843,0.5730994152046782
wuuwiki,True,78.0,0.4152542372881356,0.9423076923076923,0.48936170212765956,0.7752808988764045,0.5764705882352941
wuuwiki,True,79.0,0.42857142857142855,0.9230769230769231,0.5177304964539007,0.7191011235955056,0.5853658536585366
wuuwiki,True,80.0,0.4444444444444444,0.9230769230769231,0.5460992907801419,0.6741573033707865,0.6
wuuwiki,True,81.0,0.4380952380952381,0.8846153846153846,0.5390070921985816,0.6629213483146067,0.5859872611464968
wuuwiki,True,82.0,0.4387755102040816,0.8269230769230769,0.5460992907801419,0.6179775280898876,0.5733333333333333
wuuwiki,True,83.0,0.4574468085106383,0.8269230769230769,0.574468085106383,0.5730337078651685,0.589041095890411
wuuwiki,True,84.0,0.4725274725274725,0.8269230769230769,0.5957446808510638,0.5393258426966292,0.6013986013986015
wuuwiki,True,85.0,0.4819277108433735,0.7692307692307693,0.6099290780141844,0.48314606741573035,0.5925925925925926
wuuwiki,True,86.0,0.52,0.75,0.6524822695035462,0.4044943820224719,0.6141732283464567
wuuwiki,True,87.0,0.5492957746478874,0.75,0.6808510638297872,0.3595505617977528,0.6341463414634145
wuuwiki,True,88.0,0.5737704918032787,0.6730769230769231,0.6950354609929078,0.29213483146067415,0.6194690265486725
wuuwiki,True,89.0,0.5961538461538461,0.5961538461538461,0.7021276595744681,0.23595505617977527,0.5961538461538461
wuuwiki,True,90.0,0.6041666666666666,0.5576923076923077,0.7021276595744681,0.21348314606741572,0.5799999999999998
wuuwiki,True,91.0,0.631578947368421,0.46153846153846156,0.7021276595744681,0.15730337078651685,0.5333333333333333
wuuwiki,True,92.0,0.6071428571428571,0.3269230769230769,0.6737588652482269,0.12359550561797752,0.425
wuuwiki,True,93.0,0.7,0.2692307692307692,0.6879432624113475,0.06741573033707865,0.3888888888888889
wuuwiki,True,94.0,0.75,0.17307692307692307,0.6737588652482269,0.033707865168539325,0.28124999999999994
wuuwiki,True,95.0,1.0,0.15384615384615385,0.6879432624113475,0.0,0.2666666666666667
wuuwiki,True,96.0,1.0,0.07692307692307693,0.6595744680851063,0.0,0.14285714285714288
wuuwiki,True,97.0,1.0,0.07692307692307693,0.6595744680851063,0.0,0.14285714285714288
wuuwiki,True,98.0,1.0,0.038461538461538464,0.6453900709219859,0.0,0.07407407407407407
wuuwiki,True,99.0,1.0,0.0,0.6312056737588653,0.0,0.0
wuuwiki,False,0.0,0.026929982046678635,1.0,0.026929982046678635,1.0,0.05244755244755245
wuuwiki,False,1.0,0.026929982046678635,1.0,0.026929982046678635,1.0,0.05244755244755245
wuuwiki,False,2.0,0.026929982046678635,1.0,0.026929982046678635,1.0,0.05244755244755245
wuuwiki,False,3.0,0.026929982046678635,1.0,0.026929982046678635,1.0,0.05244755244755245
wuuwiki,False,4.0,0.027002700270027002,1.0,0.0296229802513465,0.9972324723247232,0.05258545135845749
wuuwiki,False,5.0,0.02707581227436823,1.0,0.03231597845601436,0.9944649446494465,0.05272407732864675
wuuwiki,False,6.0,0.02737226277372263,1.0,0.04308797127468582,0.9833948339483395,0.05328596802841918
wuuwiki,False,7.0,0.027855153203342618,1.0,0.06014362657091562,0.9658671586715867,0.05420054200542005
wuuwiki,False,8.0,0.02857142857142857,1.0,0.0843806104129264,0.940959409594096,0.05555555555555556
wuuwiki,False,9.0,0.029154518950437316,1.0,0.10323159784560143,0.9215867158671587,0.05665722379603399
wuuwiki,False,10.0,0.029940119760479042,1.0,0.12746858168761221,0.8966789667896679,0.058139534883720936
wuuwiki,False,11.0,0.030643513789581207,1.0,0.1481149012567325,0.8754612546125461,0.05946481665014866
wuuwiki,False,12.0,0.031446540880503145,1.0,0.17055655296229802,0.8523985239852399,0.06097560975609756
wuuwiki,False,13.0,0.032119914346895075,1.0,0.18850987432675045,0.8339483394833949,0.06224066390041494
wuuwiki,False,14.0,0.033112582781456956,1.0,0.21364452423698385,0.8081180811808119,0.06410256410256411
wuuwiki,False,15.0,0.03295454545454545,0.9666666666666667,0.23518850987432674,0.7850553505535055,0.06373626373626373
wuuwiki,False,16.0,0.03356481481481482,0.9666666666666667,0.2495511669658887,0.7702952029520295,0.06487695749440717
wuuwiki,False,17.0,0.034278959810874705,0.9666666666666667,0.26570915619389585,0.753690036900369,0.06621004566210045
wuuwiki,False,18.0,0.03506650544135429,0.9666666666666667,0.28276481149012567,0.7361623616236163,0.0676779463243874
wuuwiki,False,19.0,0.03549571603427173,0.9666666666666667,0.2917414721723519,0.7269372693726938,0.06847697756788666
wuuwiki,False,20.0,0.03638644918444166,0.9666666666666667,0.3096947935368043,0.7084870848708487,0.0701330108827086
wuuwiki,False,21.0,0.03717948717948718,0.9666666666666667,0.3249551166965889,0.6928044280442804,0.07160493827160494
wuuwiki,False,22.0,0.03790849673202614,0.9666666666666667,0.3384201077199282,0.6789667896678967,0.0729559748427673
wuuwiki,False,23.0,0.03924221921515562,0.9666666666666667,0.3617594254937163,0.6549815498154982,0.0754226267880364
wuuwiki,False,24.0,0.03888888888888889,0.9333333333333333,0.3770197486535009,0.6383763837638377,0.07466666666666667
wuuwiki,False,25.0,0.03835227272727273,0.9,0.3895870736086176,0.6245387453874539,0.07356948228882833
wuuwiki,False,26.0,0.03868194842406877,0.9,0.39497307001795334,0.6190036900369004,0.07417582417582416
wuuwiki,False,27.0,0.039473684210526314,0.9,0.40754039497307004,0.6060885608856088,0.07563025210084033
wuuwiki,False,28.0,0.04029850746268657,0.9,0.42010771992818674,0.5931734317343174,0.07714285714285715
wuuwiki,False,29.0,0.04122137404580153,0.9,0.43357271095152605,0.5793357933579336,0.07883211678832117
wuuwiki,False,30.0,0.04205607476635514,0.9,0.4452423698384201,0.5673431734317343,0.08035714285714285
wuuwiki,False,31.0,0.0432,0.9,0.4605026929982047,0.551660516605166,0.08244274809160305
wuuwiki,False,32.0,0.04455445544554455,0.9,0.47755834829443444,0.5341328413284133,0.08490566037735849
wuuwiki,False,33.0,0.045531197301854974,0.9,0.48922800718132853,0.522140221402214,0.08667736757624397
wuuwiki,False,34.0,0.04655172413793104,0.9,0.5008976660682226,0.5101476014760148,0.08852459016393442
wuuwiki,False,35.0,0.04712041884816754,0.9,0.507181328545781,0.503690036900369,0.08955223880597014
wuuwiki,False,36.0,0.0481283422459893,0.9,0.5179533213644524,0.492619926199262,0.09137055837563451
wuuwiki,False,37.0,0.04927007299270073,0.9,0.5296229802513465,0.4806273062730627,0.0934256055363322
wuuwiki,False,38.0,0.04981549815498155,0.9,0.5350089766606823,0.47509225092250923,0.0944055944055944
wuuwiki,False,39.0,0.05084745762711865,0.9,0.5448833034111311,0.46494464944649444,0.09625668449197862
wuuwiki,False,40.0,0.05162523900573614,0.9,0.552064631956912,0.4575645756457565,0.09764918625678119
wuuwiki,False,41.0,0.05222437137330754,0.9,0.5574506283662477,0.45202952029520294,0.09872029250457037
wuuwiki,False,42.0,0.05128205128205128,0.8666666666666667,0.5646319569120287,0.4437269372693727,0.09683426443202979
wuuwiki,False,43.0,0.052104208416833664,0.8666666666666667,0.5718132854578097,0.43634686346863466,0.09829867674858223
wuuwiki,False,44.0,0.05122950819672131,0.8333333333333334,0.5798922800718133,0.42712177121771217,0.09652509652509653
wuuwiki,False,45.0,0.05197505197505198,0.8333333333333334,0.5861759425493717,0.42066420664206644,0.09784735812133073
wuuwiki,False,46.0,0.05241090146750524,0.8333333333333334,0.5897666068222621,0.41697416974169743,0.09861932938856015
wuuwiki,False,47.0,0.052854122621564484,0.8333333333333334,0.5933572710951526,0.4132841328413284,0.09940357852882704
wuuwiki,False,48.0,0.053763440860215055,0.8333333333333334,0.6005385996409336,0.4059040590405904,0.10101010101010101
wuuwiki,False,49.0,0.05263157894736842,0.8,0.6068222621184919,0.3985239852398524,0.09876543209876543
wuuwiki,False,50.0,0.05393258426966292,0.8,0.6166965888689407,0.38837638376383765,0.10105263157894737
wuuwiki,False,51.0,0.05491990846681922,0.8,0.6238779174147218,0.38099630996309963,0.10278372591006422
wuuwiki,False,52.0,0.05620608899297424,0.8,0.6328545780969479,0.37177121771217714,0.1050328227571116
wuuwiki,False,53.0,0.05714285714285714,0.8,0.6391382405745063,0.36531365313653136,0.10666666666666666
wuuwiki,False,54.0,0.057971014492753624,0.8,0.644524236983842,0.35977859778597787,0.1081081081081081
wuuwiki,False,55.0,0.05955334987593052,0.8,0.6543985637342908,0.3496309963099631,0.11085450346420322
wuuwiki,False,56.0,0.060453400503778336,0.8,0.6597845601436265,0.3440959409594096,0.11241217798594846
wuuwiki,False,57.0,0.06153846153846154,0.8,0.6660682226211849,0.3376383763837638,0.1142857142857143
wuuwiki,False,58.0,0.06266318537859007,0.8,0.6723518850987432,0.3311808118081181,0.11622276029055689
wuuwiki,False,59.0,0.0646900269541779,0.8,0.6831238779174147,0.32011070110701106,0.11970074812967582
wuuwiki,False,60.0,0.06593406593406594,0.8,0.6894075403949731,0.31365313653136534,0.12182741116751271
wuuwiki,False,61.0,0.0676056338028169,0.8,0.6974865350089766,0.3053505535055351,0.12467532467532466
wuuwiki,False,62.0,0.06956521739130435,0.8,0.7064631956912029,0.29612546125461253,0.128
wuuwiki,False,63.0,0.07079646017699115,0.8,0.7118491921005387,0.29059040590405905,0.13008130081300812
wuuwiki,False,64.0,0.0729483282674772,0.8,0.7208258527827648,0.28136531365313655,0.13370473537604455
wuuwiki,False,65.0,0.07255520504731862,0.7666666666666667,0.729802513464991,0.27121771217712176,0.1325648414985591
wuuwiki,False,66.0,0.0756578947368421,0.7666666666666667,0.7414721723518851,0.2592250922509225,0.13772455089820357
wuuwiki,False,67.0,0.07903780068728522,0.7666666666666667,0.7531418312387792,0.24723247232472326,0.14330218068535824
wuuwiki,False,68.0,0.0812720848056537,0.7666666666666667,0.7603231597845601,0.23985239852398524,0.14696485623003194
wuuwiki,False,69.0,0.08243727598566308,0.7666666666666667,0.7639138240574507,0.23616236162361623,0.1488673139158576
wuuwiki,False,70.0,0.08058608058608059,0.7333333333333333,0.7675044883303411,0.23154981549815498,0.14521452145214522
wuuwiki,False,71.0,0.08015267175572519,0.7,0.7755834829443446,0.22232472324723246,0.14383561643835616
wuuwiki,False,72.0,0.08502024291497975,0.7,0.7890484739676841,0.20848708487084872,0.15162454873646208
wuuwiki,False,73.0,0.08898305084745763,0.7,0.7989228007181328,0.19833948339483395,0.15789473684210525
wuuwiki,False,74.0,0.09375,0.7,0.8096947935368043,0.18726937269372693,0.1653543307086614
wuuwiki,False,75.0,0.09859154929577464,0.7,0.8195691202872532,0.17712177121771217,0.1728395061728395
wuuwiki,False,76.0,0.105,0.7,0.8312387791741472,0.16512915129151293,0.1826086956521739
wuuwiki,False,77.0,0.1076923076923077,0.7,0.8357271095152603,0.16051660516605165,0.18666666666666665
wuuwiki,False,78.0,0.11290322580645161,0.7,0.8438061041292639,0.1522140221402214,0.19444444444444445
wuuwiki,False,79.0,0.11627906976744186,0.6666666666666666,0.8545780969479354,0.14022140221402213,0.19801980198019803
wuuwiki,False,80.0,0.12,0.6,0.8707360861759426,0.12177121771217712,0.19999999999999998
wuuwiki,False,81.0,0.13846153846153847,0.6,0.8886894075403949,0.1033210332103321,0.22499999999999998
wuuwiki,False,82.0,0.13559322033898305,0.5333333333333333,0.895870736086176,0.0940959409594096,0.21621621621621623
wuuwiki,False,83.0,0.12380952380952381,0.43333333333333335,0.9021543985637342,0.08487084870848709,0.19259259259259262
wuuwiki,False,84.0,0.13043478260869565,0.4,0.9120287253141831,0.07380073800738007,0.19672131147540983
wuuwiki,False,85.0,0.14473684210526316,0.36666666666666664,0.9245960502692998,0.05996309963099631,0.2075471698113208
wuuwiki,False,86.0,0.16176470588235295,0.36666666666666664,0.9317773788150808,0.052583025830258305,0.22448979591836735
wuuwiki,False,87.0,0.15789473684210525,0.3,0.9380610412926391,0.04428044280442804,0.20689655172413793
wuuwiki,False,88.0,0.16326530612244897,0.26666666666666666,0.9434470377019749,0.03782287822878229,0.20253164556962022
wuuwiki,False,89.0,0.16666666666666666,0.23333333333333334,0.947935368043088,0.03228782287822878,0.19444444444444445
wuuwiki,False,90.0,0.19444444444444445,0.23333333333333334,0.9533213644524237,0.026752767527675275,0.21212121212121213
wuuwiki,False,91.0,0.2692307692307692,0.23333333333333334,0.9622980251346499,0.017527675276752766,0.25
wuuwiki,False,92.0,0.30434782608695654,0.23333333333333334,0.9649910233393177,0.014760147601476014,0.26415094339622636
wuuwiki,False,93.0,0.35294117647058826,0.2,0.9685816876122083,0.01014760147601476,0.25531914893617025
wuuwiki,False,94.0,0.3333333333333333,0.16666666666666666,0.9685816876122083,0.00922509225092251,0.2222222222222222
wuuwiki,False,95.0,0.35714285714285715,0.16666666666666666,0.9694793536804309,0.008302583025830259,0.22727272727272724
wuuwiki,False,96.0,0.4166666666666667,0.16666666666666666,0.9712746858168761,0.006457564575645757,0.23809523809523808
wuuwiki,False,97.0,0.4,0.06666666666666667,0.9721723518850988,0.0027675276752767526,0.1142857142857143
wuuwiki,False,98.0,0.0,0.0,0.9712746858168761,0.0018450184501845018,0.1142857142857143
wuuwiki,False,99.0,0.0,0.0,0.9721723518850988,0.0009225092250922509,0.1142857142857143
