wiki_db,threshold,precision,recall,accuracy,fpr,F1
eswiki,0.0,0.17652127478822302,1.0,0.17652127478822302,1.0,0.3000732389135884
eswiki,1.0,0.17660283277809904,0.9999932595932839,0.17698744829614654,0.9994324524498317,0.30019076817983525
eswiki,2.0,0.17772736976814899,0.9999325959328386,0.1833506333915396,0.9916922482078473,0.30181104121137003
eswiki,3.0,0.17982419345218323,0.9998045282052319,0.19501163411066993,0.9775041374043022,0.30482310169887555
eswiki,4.0,0.18215501318580563,0.9994985137403191,0.20775846929465736,0.9619592874215107,0.308150673274203
eswiki,5.0,0.1848586801667285,0.9989795024231762,0.22223697605453016,0.9442659058524151,0.3119852612416293
eswiki,6.0,0.18809825580952333,0.9983297272157402,0.2390465883190578,0.9237136913333119,0.316553694111713
eswiki,7.0,0.19136550578320968,0.9974750436441335,0.25552899865740125,0.9035148936440743,0.3211234951988061
eswiki,8.0,0.19472545408183695,0.996532734785217,0.27192669344249265,0.8834001877761701,0.32579048119369935
eswiki,9.0,0.1982271965159185,0.9954947121509312,0.288442894816122,0.8631210549449025,0.3306199283156047
eswiki,10.0,0.20182618441228395,0.9943704123106788,0.3048372580906923,0.8429713830619422,0.3355468269328531
eswiki,11.0,0.20555674764071774,0.9931032158480443,0.3212618429249901,0.8227543799268487,0.34061213912093025
eswiki,12.0,0.20927353444690544,0.9917268247966082,0.3370834243549601,0.8032462332788037,0.34561551332377594
eswiki,13.0,0.213068290594423,0.9902210179362223,0.3526977382375072,0.7839620425123168,0.35067992062520187
eswiki,14.0,0.21672991892304797,0.9887219514825525,0.36724953822884526,0.7659695714755919,0.3555274725487801
eswiki,15.0,0.22038206553048703,0.9870503306169495,0.38134349348856267,0.7484961001334199,0.36031531262202715
eswiki,16.0,0.2241208206164928,0.9851859341192648,0.39534250069842736,0.731096606475995,0.36516901795174744
eswiki,17.0,0.22788099965786543,0.9831988622193463,0.4089838464573431,0.7141051459860026,0.37000423611657185
eswiki,18.0,0.23168542244428655,0.9811659555537581,0.4223210728986854,0.6974731708078277,0.3748552428173785
eswiki,19.0,0.2354395175971415,0.9789604944762367,0.43511573905515505,0.681463070542057,0.3795882481467194
eswiki,20.0,0.23926249086501422,0.976729419853194,0.44770170987397845,0.6657009111103213,0.3843688627125603
eswiki,21.0,0.2431360981772049,0.9745293511010454,0.4600028365432437,0.6502913015824578,0.389176294894982
eswiki,22.0,0.24700158410754805,0.9721715568317393,0.47192797845369366,0.6353044629639102,0.3939192990697598
eswiki,23.0,0.2508590394241036,0.9698070221557169,0.4834404889895957,0.6208172626927357,0.3986100140932359
eswiki,24.0,0.25477695472841916,0.9673521660296982,0.49476881458668565,0.6065343679806086,0.403327332316739
eswiki,25.0,0.2586478132321707,0.9648029442096536,0.5056390574871178,0.5927875225075661,0.40793496624510095
eswiki,26.0,0.2625903065289993,0.9622388934948335,0.5163434387566042,0.579238914111619,0.41258749545163825
eswiki,27.0,0.2665995776161265,0.9596222676076275,0.5268798167098098,0.5658830522614776,0.41727341950679364
eswiki,28.0,0.27065469708477846,0.9569112760263955,0.537210592870853,0.5527566368241842,0.4219610794416788
eswiki,29.0,0.274721921571246,0.9539751548608443,0.5473003104491876,0.5398746945169531,0.4265947933002721
eswiki,30.0,0.27892174771192835,0.9510039835803692,0.5573614722230551,0.5270199158908402,0.4313361147465958
eswiki,31.0,0.2832505738256561,0.9480813432282504,0.5673491028004202,0.514264833753937,0.43618553337807153
eswiki,32.0,0.28767709631601907,0.9449969331149441,0.5772441649783048,0.5015874859810843,0.4410800702462204
eswiki,33.0,0.2921894059746693,0.9419327442217863,0.5869683682594619,0.489121957125886,0.44602192572014376
eswiki,34.0,0.29679859694883254,0.9387809300413187,0.5965674019310386,0.4767896458982986,0.4510091933253673
eswiki,35.0,0.3015003164665564,0.9356331601048807,0.6060060471675259,0.4646529709698272,0.45604407157425514
eswiki,36.0,0.30620712674370426,0.9324907824938157,0.6151284368695413,0.452901500157636,0.46102495385364933
eswiki,37.0,0.3108778519228098,0.9292351660499194,0.6239041115123202,0.4415467924749668,0.4658908150564823
eswiki,38.0,0.31556916015821473,0.9261413193672107,0.6323863752642007,0.4305830684151986,0.47074039103258963
eswiki,39.0,0.32026421085227225,0.9229948975121158,0.6406044978247616,0.41992883693497735,0.4755279579029689
eswiki,40.0,0.32492286768862116,0.9198309505995592,0.64850041572492,0.4096621213736847,0.4802140083708747
eswiki,41.0,0.32952987091778335,0.9167398000795368,0.6560512843211024,0.39983002471028056,0.48479579502830383
eswiki,42.0,0.3341173745135683,0.9138090712393586,0.6633075522012004,0.3903900675711017,0.48932289034866094
eswiki,43.0,0.3385939037120673,0.9108095902506758,0.6701952122386371,0.38138299547782506,0.49366689975105993
eswiki,44.0,0.3429892053869173,0.907911215362735,0.6767485313987728,0.37280360687449193,0.4978873476315782
eswiki,45.0,0.34740194556555937,0.9050869849486718,0.6831217110257293,0.3644588662399657,0.502086640155998
eswiki,46.0,0.35168568081766544,0.9021576041898368,0.689159597915236,0.35649875177105755,0.5060854335275852
eswiki,47.0,0.35600026043306604,0.899270013952642,0.6950599410132265,0.3487146232787546,0.5100739907562212
eswiki,48.0,0.36030912865768294,0.896506447199024,0.700770625976549,0.3411873938557487,0.5140284112187097
eswiki,49.0,0.36461944947992747,0.8937159188185415,0.7063285373859731,0.3338399070886516,0.5179322055481966
eswiki,50.0,0.3688413982155095,0.8909752694477585,0.7116251631845243,0.3268204073222881,0.5217085510832272
eswiki,51.0,0.3730104417316056,0.8883626878045822,0.7167050028341636,0.32009161673895387,0.5254092557334074
eswiki,52.0,0.3771404755904409,0.8856409115726043,0.7216218364333039,0.3135373672555695,0.5290084855356163
eswiki,53.0,0.38147336053043074,0.8830283299294279,0.7266167225646539,0.30691174086541756,0.5327818649878603
eswiki,54.0,0.3856555443288242,0.8803793500899845,0.7313250987911852,0.3006262384399031,0.5363567449389653
eswiki,55.0,0.3898079128783616,0.877831476351283,0.7358718967574408,0.294558623413995,0.5398785467898306
eswiki,56.0,0.3938766024785325,0.8750894788991568,0.7402390311205916,0.28866757231535417,0.5432411092332754
eswiki,57.0,0.3978847300878698,0.8723002986000176,0.7444424455381318,0.28296522210788433,0.5464951342129545
eswiki,58.0,0.40203872531055784,0.8696257052150527,0.7486710842496177,0.2772568034184626,0.5498670901370525
eswiki,59.0,0.406069228199722,0.8669187578778503,0.7526819849520429,0.27180586174900007,0.5530751818138034
eswiki,60.0,0.41007037325586004,0.8642482087369152,0.75656581232459,0.26651703524025266,0.5562228952013579
eswiki,61.0,0.41395079497300863,0.8615156478541915,0.7602537944715011,0.2614527425637256,0.5592073226488555
eswiki,62.0,0.41793632716041285,0.8588046562729595,0.7639451081289332,0.25638902783786055,0.5622529055592306
eswiki,63.0,0.4217941553837884,0.8557674290066662,0.7674615174840052,0.2514677779501997,0.5650728768508513
eswiki,64.0,0.4256990294594953,0.8525900012806773,0.7709424700485306,0.24655953195243582,0.5678633350423038
eswiki,65.0,0.4295271628406776,0.8492373229800686,0.7742875445768006,0.24177872407566184,0.5705045799483888
eswiki,66.0,0.4333594659280467,0.8457781462533449,0.7775617055239776,0.23706120179638626,0.5730829306612347
eswiki,67.0,0.4372423352503229,0.8419859934348438,0.7808132597926182,0.23229975526679214,0.5755843796797604
eswiki,68.0,0.4413263748358008,0.8378891742327732,0.7841511953697715,0.22736810226721377,0.5781396138399969
eswiki,69.0,0.445437026097293,0.8335186945180272,0.7874329711981397,0.22244598545355979,0.5805988158901717
eswiki,70.0,0.4496324505466617,0.8287761443525502,0.7907026108096095,0.21745884919042116,0.582982076664198
eswiki,71.0,0.45403674266016386,0.8235307598460491,0.7940462575476561,0.21227405380084918,0.5853518079435202
eswiki,72.0,0.45865868831987566,0.8179699243052326,0.7974496335100462,0.2069491053757214,0.587749653825309
eswiki,73.0,0.4634727220244395,0.8116919094898186,0.8008941774238761,0.20142042934220836,0.5900368461282166
eswiki,74.0,0.46851341686208964,0.8044823704662339,0.8043913116109329,0.19562820780678417,0.592163443028328
eswiki,75.0,0.4739676350697332,0.796745731637447,0.8080293211000267,0.1895519235209448,0.5943617184962304
eswiki,76.0,0.47970066356902646,0.7880142087773576,0.8117061188901882,0.18321527246183575,0.5963658660131803
eswiki,77.0,0.48566527605669113,0.7782527517710419,0.8153691147081906,0.17667460481901043,0.5980931187133576
eswiki,78.0,0.492014273686176,0.76728611004388,0.8190820831840103,0.1698149084107137,0.5995642072696379
eswiki,79.0,0.49874834418220404,0.7552625725436273,0.8228095675271007,0.16271102784768574,0.6007698217850236
eswiki,80.0,0.5061274814252524,0.7415418006322502,0.826648181542575,0.1551083758632777,0.6016252693287835
eswiki,81.0,0.5139249492610287,0.7260752633813924,0.8304242107532593,0.14720750133723334,0.6018518208118644
eswiki,82.0,0.5222143770053715,0.7089034032313509,0.8341250430121805,0.1390323892220293,0.6014039517880485
eswiki,83.0,0.5309683451759161,0.6897431231000478,0.837681192528469,0.13060673549481103,0.6000300221413293
eswiki,84.0,0.5401859409640706,0.6687602369927002,0.8410429246093447,0.12202647996548478,0.5976359981712507
eswiki,85.0,0.5498745348841212,0.6460639394981094,0.8441666916529956,0.11336791212144592,0.5941009773440638
eswiki,86.0,0.5598165487412314,0.6215099859125499,0.8469237545742829,0.10475644725636707,0.5890523324674926
eswiki,87.0,0.5703789606507698,0.5947451789240963,0.8493869306745976,0.09602794738221582,0.5823072846650683
eswiki,88.0,0.5818296564972848,0.5654837252879839,0.8515564579189767,0.08712086075348006,0.5735402495299948
eswiki,89.0,0.5946499458679178,0.5331203364811032,0.8534366196780904,0.07790023589056273,0.5622066553647016
eswiki,90.0,0.6095204889792938,0.4972654169952615,0.8550231325812686,0.06828776047875121,0.5477002525661223
eswiki,91.0,0.6271217156055083,0.4571788701730262,0.8561963002147872,0.05827014165281753,0.5288326893149078
eswiki,92.0,0.6477026798545946,0.4131424450151322,0.8567400503248461,0.048170164857536606,0.5044911128395702
eswiki,93.0,0.6711717752710764,0.36431898300743465,0.8562812537330765,0.0382614897314061,0.4722796734498435
eswiki,94.0,0.6977881662991293,0.3130999804528205,0.8548106298030268,0.029068028549606807,0.4322485369532709
eswiki,95.0,0.7291750761093863,0.2605692947512453,0.8523912392695615,0.020745539015570857,0.38393880465678926
eswiki,96.0,0.7673276828738547,0.20479242917517643,0.8486673244020295,0.01331135964916083,0.3232993499494027
eswiki,97.0,0.8172874318294496,0.1422252778732669,0.8429718692010895,0.00681577215797819,0.24228742552099422
eswiki,98.0,0.8829819786449358,0.07391125580517528,0.834796580347229,0.0020996947553578193,0.13640457377147064
eswiki,99.0,0.9595368677635588,0.02122688883047203,0.8270677139032024,0.00019187961981249546,0.04153494107794066
